corpus = data_all.gz
latentReg = 0.000000
lambda = 7.000000
K = 5
...............
nUsers = 366715, nItems = 60785, nRatings = 1569264
...............
Error w/ offset term only (train/valid/test) = 1.720149/1.719236/1.719047 (0.005429)
Error w/ offset and bias (train/valid/test) = 0.892007/1.419859/1.428757 (0.005472)
............
..................................................
energy after gradient step = 5634068508.838417
............
Top words for each topic:
skill (0.082390) earlier (0.081563) hidden (0.077760) forc (0.074039) wouldv (0.072746) built (0.071201) ultim (0.070724) alright (0.068370) bubbl (0.066757) cannot (0.064745) 
major (0.094292) char (0.086479) multipl (0.083979) miso (0.082612) bc (0.077795) ravioli (0.069620) omg (0.069420) budget (0.065201) fulli (0.064890) festiv (0.064729) 
describ (0.085048) dj (0.080647) complex (0.068881) confer (0.066414) communiti (0.065448) prix (0.064100) oz (0.063645) catch (0.062988) starter (0.061953) version (0.061769) 
hawaiian (0.080463) track (0.075803) upset (0.074100) specialti (0.072630) chicago (0.072015) ranch (0.068891) wood (0.068706) difficult (0.065995) steep (0.063445) caus (0.063081) 
popcorn (0.093264) disgust (0.076312) mussel (0.074785) hospit (0.074669) couch (0.074261) 16 (0.067554) wander (0.066144) bare (0.065670) croissant (0.063750) upscal (0.062633) 
Error (train/valid/test) = 1.687346/1.688454/1.687873 (0.005285)
..................................................
energy after gradient step = 5629651659.817406
............
Top words for each topic:
built (0.149354) favourit (0.137201) cheer (0.119173) skill (0.119153) xs (0.117470) soak (0.116977) breez (0.110389) al (0.109729) overlook (0.106032) don (0.101709) 
chile (0.158274) iron (0.146268) cosmo (0.137503) prevent (0.116411) char (0.113847) palat (0.113072) silli (0.112856) remark (0.112600) manicur (0.111418) adventur (0.110881) 
mozzarella (0.128480) rub (0.121945) content (0.112925) complex (0.110692) confer (0.109380) memori (0.108038) describ (0.102357) au (0.101983) prix (0.100955) oz (0.100929) 
news (0.142700) attach (0.132636) aka (0.131917) power (0.125670) track (0.122011) wonton (0.120314) tangi (0.115323) insan (0.110756) tamal (0.110704) edibl (0.108561) 
wander (0.131425) 16 (0.120692) tattoo (0.115776) tartar (0.115457) upscal (0.113025) tall (0.109591) third (0.105893) throw (0.104875) togo (0.102620) poach (0.100867) 
Error (train/valid/test) = 1.653234/1.657579/1.656980 (0.005306)
..................................................
energy after gradient step = 5628316955.669790
............
Top words for each topic:
favourit (0.203045) pedi (0.188911) plant (0.188773) overlook (0.177530) 7th (0.162756) flow (0.160725) hood (0.159162) charm (0.153148) categori (0.150947) advantag (0.148208) 
cosmo (0.225539) bon (0.208455) iron (0.201387) cosmopolitan (0.179867) kevin (0.178771) inexpens (0.178015) wick (0.164742) d (0.160967) china (0.158080) prevent (0.154991) 
tropicana (0.164570) nugget (0.150342) lux (0.145838) led (0.143367) describ (0.142794) headach (0.141760) oper (0.140577) memori (0.139619) tot (0.139109) prawn (0.134616) 
fondu (0.199530) news (0.182077) mechan (0.162640) human (0.161185) wave (0.153133) tangi (0.149731) slaw (0.145781) exit (0.144728) 1000 (0.144601) darn (0.143913) 
wander (0.163415) jeff (0.154584) scari (0.150228) sooooo (0.147342) physic (0.142173) mi (0.141963) tall (0.140686) togo (0.138567) sole (0.137093) costum (0.135720) 
Error (train/valid/test) = 1.619010/1.627610/1.627173 (0.005242)
..................................................
energy after gradient step = 5627403608.643310
............
Top words for each topic:
aspect (0.211809) don (0.202322) utter (0.200496) bubbl (0.200078) favourit (0.199120) lee (0.195137) cuban (0.194822) teach (0.194012) al (0.189485) pedi (0.186721) 
cosmo (0.343518) china (0.239007) wick (0.223611) killer (0.219736) cuz (0.217476) prevent (0.215528) cosmopolitan (0.212476) unabl (0.210391) skillet (0.207653) iron (0.199349) 
unlv (0.205250) newest (0.194916) shit (0.191305) polenta (0.185613) sprinkl (0.182339) prawn (0.181939) locker (0.179688) tavern (0.173663) lisa (0.173206) ka (0.170602) 
fondu (0.276125) news (0.261349) tangi (0.230897) drawback (0.226629) vdara (0.207200) sehr (0.206773) tiramisu (0.198989) mechan (0.198199) curtain (0.196263) belong (0.189891) 
scari (0.224888) 5th (0.217483) 34 (0.216975) cigar (0.213979) educ (0.210485) wateri (0.205086) proud (0.201628) mole (0.196420) sooooo (0.195773) asparagus (0.194174) 
Error (train/valid/test) = 1.587662/1.601207/1.601006 (0.005195)
..................................................
energy after gradient step = 5626515713.469240
............
Top words for each topic:
skeptic (0.247912) cuban (0.228855) aspect (0.215601) teach (0.215531) gun (0.214504) bubbl (0.211487) plant (0.199553) 7th (0.198675) scrumptious (0.198278) avec (0.197857) 
cosmo (0.390312) wick (0.320060) cosmopolitan (0.281372) cuz (0.277431) prevent (0.268042) file (0.250201) skillet (0.249191) brian (0.228858) sky (0.228331) spoon (0.221166) 
prawn (0.252475) aria (0.239054) ka (0.227074) unlv (0.218331) lux (0.217608) concess (0.210171) verd (0.201803) locker (0.200522) stun (0.198759) trade (0.196720) 
fondu (0.311991) tiramisu (0.278120) drawback (0.273503) human (0.256523) nous (0.250587) 1000 (0.239067) r (0.235298) news (0.230808) hookah (0.230086) everywher (0.228407) 
educ (0.305903) cigar (0.286155) zu (0.261218) ein (0.255671) shift (0.252391) ich (0.248578) 34 (0.241886) wasabi (0.236330) solut (0.235085) wateri (0.234569) 
Error (train/valid/test) = 1.566163/1.583762/1.583684 (0.005165)
..................................................
energy after gradient step = 5625636020.271760
............
Top words for each topic:
skeptic (0.324055) goodi (0.290903) panel (0.257444) gin (0.252602) aspect (0.249455) cuban (0.241545) mug (0.240324) bubbl (0.238154) thrift (0.232649) utter (0.224350) 
wick (0.485997) cosmo (0.421287) cosmopolitan (0.340687) cuz (0.325647) prevent (0.267333) file (0.251822) spoon (0.249291) mold (0.241639) skillet (0.241251) killer (0.238983) 
aria (0.284599) andor (0.263759) blackjack (0.258886) prawn (0.252706) pasti (0.244057) sampler (0.243138) lux (0.236797) stun (0.236632) crystal (0.236395) haunt (0.227161) 
hookah (0.289100) mechan (0.287728) fondu (0.272898) news (0.263649) human (0.256510) drawback (0.242569) belong (0.242455) snap (0.242380) nous (0.240996) pic (0.239374) 
ich (0.378018) ein (0.375393) fr (0.332724) zu (0.328270) cigar (0.308062) topnotch (0.302651) auch (0.302202) ist (0.287412) pastor (0.271933) rout (0.266956) 
Error (train/valid/test) = 1.547822/1.569311/1.569312 (0.005140)
..................................................
energy after gradient step = 5624746783.515049
............
Top words for each topic:
skeptic (0.342515) goodi (0.298349) cuban (0.292439) panel (0.290005) mug (0.273161) aussi (0.270610) avec (0.267812) blind (0.258986) poutin (0.258599) risk (0.258553) 
wick (0.561474) cosmo (0.473398) cosmopolitan (0.427863) falafel (0.315767) spoon (0.304529) cuz (0.282052) prevent (0.278593) bourbon (0.275812) mat (0.272866) ami (0.268554) 
aria (0.390945) blackjack (0.316078) lux (0.294329) prawn (0.291885) royal (0.289532) delay (0.280926) cow (0.277891) pasti (0.275026) cultur (0.253856) andor (0.244543) 
hookah (0.375133) fondu (0.318354) human (0.307263) mechan (0.305701) insan (0.285330) auch (0.275793) news (0.273241) gel (0.267681) chai (0.266630) cox (0.260580) 
ich (0.575524) ein (0.574084) nicht (0.483672) ist (0.475960) zu (0.465303) auch (0.455290) fr (0.444385) und (0.418897) war (0.393206) der (0.361504) 
Error (train/valid/test) = 1.531250/1.556610/1.556665 (0.005118)
..................................................
energy after gradient step = 5623810101.809328
............
Top words for each topic:
cuban (0.385569) skeptic (0.316050) panel (0.313149) goodi (0.308696) aussi (0.308312) al (0.304524) avec (0.302906) poutin (0.299852) sont (0.292886) gin (0.284966) 
wick (0.715760) cosmo (0.566961) cosmopolitan (0.526408) spoon (0.360740) falafel (0.342062) file (0.329981) bouch (0.322462) cuz (0.314949) flew (0.308442) marrow (0.302951) 
aria (0.428111) blackjack (0.339207) lux (0.321895) pasti (0.321840) cultur (0.304670) cow (0.295178) royal (0.291917) lo (0.285682) delay (0.283398) waterfal (0.279357) 
fondu (0.419383) hookah (0.398864) auch (0.365909) mechan (0.339918) chai (0.319647) gel (0.307844) distract (0.302098) field (0.294328) krispi (0.292027) belong (0.291875) 
ich (0.911451) ein (0.858098) ist (0.719911) zu (0.715283) nicht (0.694404) auch (0.649192) und (0.636358) fr (0.602465) der (0.598952) mit (0.588425) 
Error (train/valid/test) = 1.516553/1.545641/1.545733 (0.005100)
..................................................
energy after gradient step = 5622768807.141204
............
Top words for each topic:
cuban (0.397172) skeptic (0.388817) panel (0.348783) mon (0.337192) aussi (0.316076) avec (0.315993) sont (0.313871) gun (0.303426) timer (0.301061) pinot (0.297331) 
wick (0.837339) cosmo (0.700829) cosmopolitan (0.606377) spoon (0.434606) marrow (0.394706) falafel (0.388974) file (0.362077) bouch (0.352796) trainer (0.351250) cuz (0.324152) 
aria (0.548647) lux (0.423279) royal (0.347721) blackjack (0.345273) april (0.329096) haunt (0.316857) lo (0.300020) cow (0.296674) contemporari (0.295644) naan (0.294314) 
hookah (0.436817) auch (0.420736) fondu (0.402270) pride (0.379707) und (0.367448) der (0.364114) mechan (0.358749) gel (0.340563) distract (0.337026) ist (0.333207) 
ich (1.318516) ein (1.218141) zu (1.130942) nicht (1.122841) ist (1.093275) auch (1.061718) der (0.997770) und (0.996736) fr (0.983286) mit (0.966821) 
Error (train/valid/test) = 1.503467/1.536112/1.536231 (0.005085)
..................................................
energy after gradient step = 5621539002.673140
............
Top words for each topic:
mon (0.450807) cuban (0.442314) aussi (0.441321) avec (0.405966) skeptic (0.394042) vous (0.387268) sont (0.358142) panel (0.355288) ami (0.350056) chick (0.349154) 
wick (0.927583) cosmo (0.749613) cosmopolitan (0.689636) spoon (0.501254) marrow (0.457175) falafel (0.405121) file (0.401060) across (0.389791) teeth (0.340054) killer (0.337202) 
aria (0.635977) lux (0.410828) locker (0.374411) royal (0.370350) glutenfre (0.368408) palazzo (0.361834) april (0.361830) blackjack (0.324058) waterfal (0.323353) entic (0.321997) 
hookah (0.544077) und (0.478903) fondu (0.402593) pride (0.379395) mechan (0.378864) chai (0.364437) sui (0.355636) prici (0.351966) news (0.347533) payment (0.346713) 
ich (1.815986) ein (1.673215) zu (1.616502) nicht (1.605332) und (1.591316) ist (1.578834) auch (1.563443) der (1.506000) das (1.498068) fr (1.470416) 
Error (train/valid/test) = 1.491478/1.527584/1.527723 (0.005071)
..................................................
energy after gradient step = 5620053649.329238
............
Top words for each topic:
cuban (0.567674) avec (0.538076) sont (0.495543) aussi (0.489937) mon (0.481327) vous (0.429140) ce (0.422545) aux (0.410198) qui (0.395666) costco (0.379060) 
wick (1.068599) cosmo (0.833600) cosmopolitan (0.767610) spoon (0.556948) marrow (0.446641) falafel (0.432187) terrac (0.424074) file (0.417446) chandeli (0.408887) across (0.405767) 
aria (0.760102) palazzo (0.440202) pasti (0.422913) locker (0.402919) royal (0.387409) glutenfre (0.382552) waterfal (0.375189) lux (0.374721) lisa (0.372402) mont (0.371055) 
hookah (0.586688) fondu (0.458279) gel (0.414851) chai (0.413284) mechan (0.412914) distract (0.383053) pride (0.377835) pierc (0.376639) barbecu (0.368489) harri (0.363308) 
und (2.357330) ich (2.284758) ein (2.125516) ist (2.119977) der (2.090451) auch (2.089426) nicht (2.079521) das (2.052512) zu (2.038994) es (1.940760) 
Error (train/valid/test) = 1.480060/1.519641/1.519799 (0.005059)
..................................................
energy after gradient step = 5618448261.777075
............
Top words for each topic:
sont (0.667564) avec (0.665306) cuban (0.651453) vous (0.594122) ce (0.583447) mon (0.528082) qui (0.526821) aussi (0.523849) une (0.501923) poutin (0.483377) 
wick (1.199122) cosmo (0.883047) cosmopolitan (0.815520) spoon (0.607927) marrow (0.553329) terrac (0.507249) falafel (0.468281) ami (0.460229) chandeli (0.426107) file (0.421658) 
aria (0.875541) palazzo (0.556657) pasti (0.466978) filipino (0.427208) lisa (0.425814) mont (0.422218) april (0.410997) vdara (0.410825) privaci (0.410740) locker (0.408446) 
hookah (0.701929) fondu (0.527455) gel (0.464237) librari (0.446885) barbecu (0.443267) chai (0.430180) mechan (0.415521) sui (0.412241) brazilian (0.409610) pierc (0.399350) 
und (2.949940) ich (2.663650) der (2.599851) ist (2.532689) das (2.530961) ein (2.508592) nicht (2.486549) auch (2.455354) zu (2.355534) es (2.339509) 
Error (train/valid/test) = 1.469755/1.512625/1.512802 (0.005048)
..................................................
energy after gradient step = 5616800980.693220
............
Top words for each topic:
sont (0.836546) avec (0.807579) vous (0.798612) ce (0.773435) qui (0.757230) une (0.685172) cuban (0.656789) trs (0.644618) pas (0.638252) aussi (0.636859) 
wick (1.342456) cosmo (1.007768) cosmopolitan (0.911882) spoon (0.664363) terrac (0.611424) marrow (0.611318) ami (0.537908) marque (0.515896) file (0.461102) chandeli (0.448972) 
aria (0.990901) palazzo (0.640276) pasti (0.539072) locker (0.516568) arepa (0.471847) april (0.466569) lisa (0.465420) roller (0.461914) curtain (0.459389) elvi (0.455889) 
hookah (0.900461) gel (0.566680) fondu (0.559312) pierc (0.512178) mechan (0.501351) barbecu (0.500382) librari (0.485415) pedicur (0.462159) cox (0.437637) chai (0.432930) 
und (3.272207) der (2.953895) ich (2.933268) das (2.883771) ist (2.841759) ein (2.816989) nicht (2.759356) auch (2.733377) es (2.628318) zu (2.595359) 
Error (train/valid/test) = 1.460453/1.506418/1.506615 (0.005039)
..................................................
energy after gradient step = 5614850613.376572
............
Top words for each topic:
vous (1.098985) sont (1.081098) qui (1.014269) ce (1.004932) avec (1.000225) trs (0.899366) une (0.887439) ne (0.885566) pas (0.875540) aussi (0.858247) 
wick (1.458071) cosmo (1.142036) cosmopolitan (1.022360) spoon (0.707673) marrow (0.679336) marque (0.655503) terrac (0.636622) ami (0.596628) spray (0.516950) file (0.504110) 
aria (1.176196) palazzo (0.798196) locker (0.641770) pasti (0.607969) curtain (0.596483) roller (0.584378) elvi (0.557962) zoo (0.533758) arepa (0.533060) lisa (0.530874) 
hookah (1.035449) gel (0.656328) fondu (0.580119) pierc (0.573294) librari (0.548816) pedicur (0.526627) mechan (0.507256) barbecu (0.504234) cone (0.498666) brazilian (0.496050) 
und (3.502615) der (3.195043) ich (3.130706) das (3.110192) ist (3.072827) ein (3.022076) nicht (2.958526) auch (2.916771) es (2.827884) zu (2.774409) 
Error (train/valid/test) = 1.452128/1.500967/1.501182 (0.005031)
..................................................
energy after gradient step = 5612530712.200260
............
Top words for each topic:
sont (1.409129) vous (1.351409) qui (1.330892) avec (1.295304) ce (1.285253) une (1.213196) trs (1.206831) pas (1.174744) ne (1.144095) tout (1.128371) 
wick (1.611436) cosmo (1.238421) cosmopolitan (1.116313) spoon (0.772649) terrac (0.743648) marrow (0.742521) marque (0.741533) ami (0.613073) spray (0.585458) bedroom (0.556173) 
aria (1.301377) palazzo (0.964243) curtain (0.733597) vdara (0.692774) jacuzzi (0.681184) locker (0.676912) pasti (0.653380) zoo (0.649858) elvi (0.649764) roller (0.644190) 
hookah (1.191889) gel (0.755914) fondu (0.624373) pedicur (0.616863) librari (0.587807) boba (0.571755) pierc (0.571652) cox (0.566579) campus (0.540279) barbecu (0.527469) 
und (3.663543) der (3.357537) ich (3.282276) das (3.279313) ist (3.229134) ein (3.183326) nicht (3.107020) auch (3.068537) es (2.975093) zu (2.913756) 
Error (train/valid/test) = 1.444956/1.496348/1.496582 (0.005024)
..................................................
energy after gradient step = 5609419153.044884
............
Top words for each topic:
qui (1.683539) sont (1.681838) ce (1.625554) avec (1.611659) vous (1.606035) une (1.585469) et (1.560900) trs (1.512044) pas (1.509489) je (1.497238) 
wick (1.716796) cosmo (1.339546) cosmopolitan (1.267025) spoon (0.894512) marque (0.849965) terrac (0.807803) marrow (0.807794) spray (0.706552) bedroom (0.675670) tan (0.662275) 
aria (1.445298) palazzo (1.102833) curtain (0.902826) jacuzzi (0.879362) vdara (0.836592) zoo (0.792118) roller (0.765053) toilet (0.760184) locker (0.755266) tub (0.754827) 
hookah (1.290513) gel (0.873088) boba (0.725079) pedicur (0.713596) cox (0.660214) pierc (0.650406) fondu (0.648354) librari (0.626081) manicur (0.575613) skate (0.569850) 
und (3.802822) der (3.496944) das (3.419786) ich (3.413578) ist (3.363361) ein (3.310477) nicht (3.231135) auch (3.189533) es (3.117323) zu (3.029639) 
Error (train/valid/test) = 1.438666/1.492356/1.492610 (0.005019)
..................................................
energy after gradient step = 5605203818.259183
............
Top words for each topic:
et (2.142065) qui (1.997843) une (1.958665) les (1.931139) sont (1.911246) ce (1.898980) vous (1.890135) avec (1.880272) je (1.861546) pas (1.851214) 
wick (1.810311) cosmo (1.443276) cosmopolitan (1.359990) spoon (1.001077) marque (0.978476) marrow (0.886461) terrac (0.860705) tan (0.806765) bedroom (0.762492) spray (0.719746) 
aria (1.602634) palazzo (1.273738) curtain (1.027683) jacuzzi (1.023800) vdara (0.992484) zoo (0.925850) tub (0.922121) concierg (0.886767) locker (0.859637) venetian (0.857626) 
hookah (1.429535) gel (1.010805) boba (0.876435) pedicur (0.875843) pierc (0.749778) librari (0.742476) cox (0.718824) fondu (0.699422) manicur (0.689724) pedi (0.682927) 
und (3.912140) der (3.607072) das (3.532164) ich (3.514577) ist (3.472655) ein (3.415158) nicht (3.330708) auch (3.283943) es (3.222082) zu (3.118090) 
Error (train/valid/test) = 1.433192/1.488929/1.489200 (0.005014)
..................................................
energy after gradient step = 5599214062.879725
............
Top words for each topic:
et (2.674459) les (2.366973) le (2.305919) une (2.279804) qui (2.258629) est (2.205530) pas (2.201959) je (2.186555) que (2.149360) ce (2.142452) 
wick (1.921209) cosmo (1.572653) cosmopolitan (1.474203) marque (1.136957) spoon (1.079461) marrow (0.970559) tan (0.958331) terrac (0.943571) balconi (0.888900) bedroom (0.870566) 
aria (1.779228) palazzo (1.391566) curtain (1.203246) jacuzzi (1.172497) vdara (1.164886) tub (1.120769) housekeep (1.104651) concierg (1.069438) bed (1.064948) zoo (1.049110) 
hookah (1.556675) gel (1.116966) boba (1.054914) pedicur (1.014286) librari (0.830028) pedi (0.823502) pierc (0.820472) manicur (0.813059) cox (0.789114) fondu (0.776823) 
und (4.007765) der (3.701708) das (3.621702) ich (3.604484) ist (3.569253) ein (3.510162) nicht (3.422659) auch (3.373741) es (3.319758) zu (3.205242) 
Error (train/valid/test) = 1.428343/1.485928/1.486214 (0.005010)
..................................................
energy after gradient step = 5590806244.131416
............
Top words for each topic:
et (3.048699) le (2.742081) les (2.691884) une (2.561222) est (2.524750) pas (2.492130) qui (2.466572) je (2.462659) que (2.449350) ce (2.348252) 
wick (2.043441) cosmo (1.659413) cosmopolitan (1.596704) marque (1.254206) tan (1.151043) spoon (1.146894) marrow (1.086760) terrac (1.032890) balconi (0.963533) bedroom (0.953958) 
aria (1.949699) palazzo (1.626029) bed (1.427480) jacuzzi (1.407240) curtain (1.371840) tub (1.353481) vdara (1.333760) housekeep (1.332932) venetian (1.219884) concierg (1.212781) 
hookah (1.677912) gel (1.294748) boba (1.275547) pedicur (1.155736) pedi (1.021862) nail (0.984402) manicur (0.975091) librari (0.921804) pierc (0.884326) cox (0.868999) 
und (4.095239) der (3.791473) das (3.707630) ich (3.691345) ist (3.659167) ein (3.594763) nicht (3.506451) auch (3.456490) es (3.398666) zu (3.286157) 
Error (train/valid/test) = 1.424028/1.483286/1.483587 (0.005006)
..................................................
energy after gradient step = 5578346760.055804
............
Top words for each topic:
et (3.263616) le (3.002130) les (2.912465) une (2.759716) est (2.733340) pas (2.687191) que (2.668357) je (2.655972) qui (2.611540) en (2.560764) 
wick (2.142785) cosmo (1.737552) cosmopolitan (1.679727) marque (1.421140) tan (1.341820) spoon (1.243961) marrow (1.136066) airlin (1.062434) terrac (1.045996) balconi (1.044506) 
aria (2.129105) bed (1.821215) palazzo (1.771188) tub (1.616050) jacuzzi (1.602862) housekeep (1.578549) vdara (1.538008) hotel (1.516131) curtain (1.515132) desk (1.496836) 
hookah (1.756864) boba (1.495621) gel (1.486296) pedicur (1.335848) nail (1.230521) pedi (1.187385) manicur (1.136228) librari (1.056835) pierc (0.979426) cox (0.964211) 
und (4.173458) der (3.874581) das (3.789180) ich (3.766183) ist (3.736551) ein (3.668381) nicht (3.580410) auch (3.535113) es (3.480560) zu (3.357356) 
Error (train/valid/test) = 1.420445/1.481114/1.481428 (0.005003)
..................................................
energy after gradient step = 5560062029.700621
............
Top words for each topic:
et (3.397490) le (3.169164) les (3.059787) une (2.880375) est (2.874511) pas (2.816468) que (2.813707) je (2.779607) en (2.704133) qui (2.701432) 
wick (2.230855) cosmo (1.817596) cosmopolitan (1.812075) marque (1.569593) tan (1.542911) spoon (1.349903) airlin (1.210272) marrow (1.199960) bellagio (1.135939) spray (1.123657) 
aria (2.279119) bed (2.219995) hotel (1.956197) palazzo (1.935469) desk (1.873560) tub (1.871302) housekeep (1.824102) jacuzzi (1.804439) shower (1.796312) pool (1.768742) 
hookah (1.870385) boba (1.675245) gel (1.655352) pedicur (1.509195) nail (1.483766) pedi (1.346038) manicur (1.292415) librari (1.129960) crawfish (1.055242) pierc (1.053415) 
und (4.245207) der (3.952103) das (3.864697) ich (3.840828) ist (3.812253) ein (3.739207) nicht (3.653010) auch (3.603158) es (3.548260) zu (3.427901) 
Error (train/valid/test) = 1.417429/1.479300/1.479626 (0.005001)
..................................................
energy after gradient step = 5533927707.365621
............
Top words for each topic:
et (3.511640) le (3.309124) les (3.170190) est (2.978021) une (2.967062) pas (2.908376) que (2.906609) je (2.852120) en (2.804972) pour (2.774348) 
wick (2.334667) cosmo (1.899945) cosmopolitan (1.887503) marque (1.714951) tan (1.712552) spoon (1.437457) airlin (1.413340) bellagio (1.321056) spray (1.282255) marrow (1.262995) 
bed (2.591260) hotel (2.522943) aria (2.439055) pool (2.253454) desk (2.238651) tub (2.151728) shower (2.143374) palazzo (2.120229) room (2.102329) suit (2.095921) 
hookah (1.972476) boba (1.920019) gel (1.833631) nail (1.742503) pedicur (1.725565) pedi (1.510776) manicur (1.475642) librari (1.197556) crawfish (1.180258) pierc (1.144548) 
und (4.331403) der (4.040334) das (3.953145) ich (3.928706) ist (3.900396) ein (3.828395) nicht (3.734560) auch (3.686254) es (3.642848) zu (3.504654) 
Error (train/valid/test) = 1.414587/1.477604/1.477940 (0.004999)
..................................................
energy after gradient step = 5497095926.421368
............
Top words for each topic:
et (3.560773) le (3.366518) les (3.229355) est (3.019865) une (3.002438) que (2.952210) pas (2.946217) je (2.890132) pour (2.862183) en (2.847977) 
wick (2.438505) cosmo (2.007315) cosmopolitan (1.993653) tan (1.873535) marque (1.836668) airlin (1.560156) spoon (1.534535) bellagio (1.412275) spray (1.406365) yoga (1.383105) 
hotel (2.978806) bed (2.899718) pool (2.627911) room (2.605139) aria (2.584925) desk (2.549944) casino (2.443924) shower (2.439691) suit (2.391074) tub (2.377573) 
boba (2.102168) hookah (2.059339) nail (1.972378) gel (1.968215) pedicur (1.873656) pedi (1.637662) manicur (1.626001) thai (1.382431) polish (1.302517) crawfish (1.278277) 
und (4.411512) der (4.116753) das (4.031142) ich (4.005316) ist (3.974786) ein (3.906273) nicht (3.814078) auch (3.763026) es (3.709025) zu (3.581199) 
Error (train/valid/test) = 1.412415/1.476314/1.476660 (0.004997)
..................................................
energy after gradient step = 5451421211.729742
............
Top words for each topic:
et (3.593148) le (3.403848) les (3.244843) est (3.029430) une (3.007486) que (2.954459) pas (2.947818) pour (2.918942) je (2.893138) en (2.853793) 
wick (2.550368) cosmo (2.097510) cosmopolitan (2.083121) tan (2.053901) marque (1.971290) airlin (1.733672) spoon (1.605179) yoga (1.589725) spray (1.539892) bellagio (1.511439) 
hotel (3.345633) bed (3.138815) room (3.108991) pool (2.966723) desk (2.794197) stay (2.782196) casino (2.749340) shower (2.691303) aria (2.687000) suit (2.636832) 
boba (2.263154) nail (2.174166) hookah (2.133785) gel (2.113212) pedicur (2.042709) pedi (1.769655) manicur (1.755792) thai (1.567060) polish (1.462285) crawfish (1.402307) 
und (4.514261) der (4.218567) das (4.125581) ich (4.097308) ist (4.071630) ein (4.000988) nicht (3.906214) auch (3.851001) es (3.807269) zu (3.666067) 
Error (train/valid/test) = 1.410585/1.475232/1.475585 (0.004996)
..................................................
energy after gradient step = 5398929784.730665
............
Top words for each topic:
et (3.605752) le (3.420821) les (3.219730) est (3.006296) une (2.987374) pour (2.940120) que (2.938440) pas (2.932615) je (2.867271) la (2.860059) 
wick (2.657090) tan (2.232663) cosmo (2.200811) cosmopolitan (2.167033) marque (2.103819) airlin (1.862627) yoga (1.808174) spray (1.669573) spoon (1.649492) bellagio (1.574554) 
hotel (3.668678) room (3.468005) bed (3.324768) pool (3.291828) stay (3.108221) casino (3.002248) desk (2.990152) shower (2.907413) suit (2.841690) aria (2.790234) 
boba (2.398437) nail (2.357500) gel (2.210993) hookah (2.198996) pedicur (2.188968) manicur (1.895556) pedi (1.891961) thai (1.716674) polish (1.624854) crawfish (1.535856) 
und (4.628148) der (4.324445) das (4.229209) ich (4.197629) ist (4.171761) ein (4.097443) nicht (4.004527) auch (3.947941) es (3.901752) zu (3.757381) 
Error (train/valid/test) = 1.408994/1.474295/1.474654 (0.004995)
..................................................
energy after gradient step = 5343157597.108979
............
Top words for each topic:
et (3.606364) le (3.422775) les (3.202274) est (2.996153) une (2.975006) pour (2.951020) que (2.919744) pas (2.917517) je (2.859233) la (2.847083) 
wick (2.805869) tan (2.419078) cosmopolitan (2.288489) cosmo (2.280707) marque (2.223379) yoga (2.042152) airlin (2.038666) spray (1.807470) flight (1.691421) chandeli (1.684637) 
hotel (3.953787) room (3.755200) pool (3.563535) bed (3.482788) stay (3.368676) casino (3.220900) desk (3.160790) shower (3.084720) suit (3.013717) tub (2.873487) 
nail (2.538876) boba (2.527431) gel (2.337627) pedicur (2.310996) hookah (2.289128) manicur (2.011523) pedi (2.002578) thai (1.821913) donut (1.786887) polish (1.752580) 
und (4.740743) der (4.434382) das (4.339308) ich (4.306995) ist (4.279921) ein (4.207577) nicht (4.107713) auch (4.054870) es (4.005528) zu (3.864673) 
Error (train/valid/test) = 1.407381/1.473347/1.473715 (0.004993)
..................................................
energy after gradient step = 5289768062.426042
............
Top words for each topic:
et (3.590619) le (3.406918) les (3.184500) est (2.985419) une (2.958697) pour (2.941266) que (2.913743) pas (2.902240) je (2.843415) taco (2.836293) 
wick (2.891063) tan (2.560052) cosmo (2.364050) cosmopolitan (2.342665) marque (2.324837) yoga (2.241247) airlin (2.211415) spray (1.950220) flight (1.903106) chandeli (1.781041) 
hotel (4.132012) room (3.989102) pool (3.748533) bed (3.597392) stay (3.533099) casino (3.372463) desk (3.291712) shower (3.218023) suit (3.127305) tub (2.964809) 
nail (2.702365) boba (2.651873) gel (2.439947) pedicur (2.436041) hookah (2.350964) manicur (2.125188) pedi (2.107563) donut (2.044587) polish (1.898839) thai (1.869514) 
und (4.833736) der (4.522127) das (4.423987) ich (4.393691) ist (4.366323) ein (4.290943) nicht (4.193670) auch (4.143049) es (4.095935) zu (3.947019) 
Error (train/valid/test) = 1.406030/1.472557/1.472933 (0.004992)
..................................................
energy after gradient step = 5243362868.090041
............
Top words for each topic:
et (3.573217) le (3.385570) les (3.170359) est (2.970995) taco (2.951471) une (2.948950) dish (2.944394) pour (2.925193) que (2.896663) pas (2.887753) 
wick (2.987639) tan (2.674097) yoga (2.424295) cosmo (2.419914) marque (2.400297) cosmopolitan (2.396906) airlin (2.348597) flight (2.089029) spray (2.040865) studio (1.943534) 
hotel (4.250760) room (4.167055) pool (3.875788) bed (3.678953) stay (3.642263) casino (3.467792) desk (3.389994) shower (3.311211) suit (3.220366) tub (3.040907) 
nail (2.817486) boba (2.742092) pedicur (2.536602) gel (2.512632) hookah (2.420878) donut (2.264848) manicur (2.221479) pedi (2.195437) polish (1.993980) thai (1.868277) 
und (4.905723) der (4.596015) das (4.499967) ich (4.466849) ist (4.440805) ein (4.367725) nicht (4.268415) auch (4.214376) es (4.161729) zu (4.021131) 
Error (train/valid/test) = 1.404845/1.471868/1.472249 (0.004992)
..................................................
energy after gradient step = 5203813301.025176
............
Top words for each topic:
et (3.549924) le (3.356549) les (3.154719) dish (3.139122) sauc (3.096160) menu (3.038491) taco (3.029610) salad (3.023370) est (2.959652) une (2.936173) 
wick (3.094028) tan (2.809958) yoga (2.607913) marque (2.505003) cosmo (2.494197) airlin (2.482097) cosmopolitan (2.443265) flight (2.276185) studio (2.173267) spray (2.163826) 
hotel (4.365245) room (4.314520) pool (3.999076) bed (3.757341) stay (3.718216) casino (3.566145) desk (3.489261) shower (3.408335) suit (3.314046) resort (3.143651) 
nail (2.954227) boba (2.818052) pedicur (2.615564) gel (2.579251) hookah (2.480979) donut (2.464372) manicur (2.313808) pedi (2.267037) polish (2.096087) crawfish (1.908035) 
und (4.975361) der (4.661516) das (4.565472) ich (4.533673) ist (4.509877) ein (4.432392) nicht (4.335500) auch (4.283717) es (4.230167) zu (4.091258) 
Error (train/valid/test) = 1.403651/1.471174/1.471563 (0.004991)
..................................................
energy after gradient step = 5169104076.645701
............
Top words for each topic:
et (3.539119) le (3.336374) dish (3.278435) sauc (3.256426) menu (3.212152) salad (3.187188) les (3.152960) taco (3.115475) delici (3.064765) meal (3.044544) 
wick (3.155891) tan (2.921385) yoga (2.752747) airlin (2.576721) marque (2.576265) cosmo (2.540658) cosmopolitan (2.484032) flight (2.455908) studio (2.403749) class (2.330406) 
hotel (4.474837) room (4.424756) pool (4.101990) bed (3.826751) stay (3.776201) casino (3.635108) desk (3.577985) shower (3.498167) suit (3.390774) resort (3.233165) 
nail (3.062764) boba (2.871590) pedicur (2.677885) gel (2.627037) donut (2.605364) hookah (2.509283) manicur (2.366276) pedi (2.312684) polish (2.168316) milk (1.993101) 
und (5.009962) der (4.700878) das (4.604188) ich (4.577055) ist (4.547400) ein (4.474852) nicht (4.381305) auch (4.328277) es (4.268558) zu (4.139199) 
Error (train/valid/test) = 1.402599/1.470561/1.470959 (0.004990)
..................................................
energy after gradient step = 5139478541.894007
............
Top words for each topic:
et (3.536144) dish (3.383765) sauc (3.373742) menu (3.344523) le (3.324123) salad (3.304464) delici (3.197234) taco (3.175774) chicken (3.159723) meal (3.156906) 
wick (3.237218) tan (3.020952) yoga (2.901008) airlin (2.696200) marque (2.640541) flight (2.607477) studio (2.602624) cosmo (2.576382) class (2.538428) cosmopolitan (2.516444) 
hotel (4.562921) room (4.501951) pool (4.196577) bed (3.892707) stay (3.800524) casino (3.698225) desk (3.653030) shower (3.569255) suit (3.459870) resort (3.314710) 
nail (3.147617) boba (2.902738) pedicur (2.720025) donut (2.708338) gel (2.660960) hookah (2.534314) manicur (2.403043) pedi (2.354732) polish (2.221102) milk (2.060404) 
und (5.040665) der (4.725070) das (4.630725) ich (4.606659) ist (4.577012) ein (4.503980) nicht (4.409624) auch (4.355475) es (4.297693) zu (4.169035) 
Error (train/valid/test) = 1.401663/1.470018/1.470421 (0.004989)
..................................................
energy after gradient step = 5114651886.506536
............
Top words for each topic:
et (3.539335) sauc (3.471102) dish (3.463761) menu (3.444453) salad (3.393770) le (3.319727) chicken (3.299762) delici (3.297857) meal (3.246046) taco (3.232275) 
wick (3.307858) tan (3.119992) yoga (3.025002) airlin (2.797611) studio (2.794358) class (2.770295) flight (2.741729) marque (2.681489) cosmo (2.624693) cosmopolitan (2.533944) 
hotel (4.644511) room (4.548275) pool (4.269256) bed (3.951074) stay (3.813954) casino (3.746464) desk (3.722768) shower (3.643920) suit (3.512757) resort (3.384834) 
nail (3.205160) boba (2.926160) donut (2.769314) pedicur (2.744154) gel (2.673242) hookah (2.548722) manicur (2.426860) pedi (2.372474) polish (2.242440) milk (2.096158) 
und (5.054213) der (4.745045) das (4.646835) ich (4.622711) ist (4.596131) ein (4.522516) nicht (4.428088) auch (4.376171) es (4.313642) zu (4.192189) 
Error (train/valid/test) = 1.400810/1.469524/1.469932 (0.004989)
..................................................
energy after gradient step = 5092838636.369187
............
Top words for each topic:
et (3.545833) sauc (3.545051) menu (3.525601) dish (3.520400) salad (3.464516) chicken (3.403694) delici (3.375519) meal (3.313976) le (3.313721) chees (3.292062) 
wick (3.385715) tan (3.209816) yoga (3.149999) class (2.987420) studio (2.938829) airlin (2.895041) flight (2.859767) marque (2.740853) cosmo (2.633057) cosmopolitan (2.570410) 
hotel (4.714990) room (4.573621) pool (4.337688) bed (4.011409) stay (3.810539) casino (3.795475) desk (3.786249) shower (3.704541) suit (3.568468) resort (3.446089) 
nail (3.227493) boba (2.926843) donut (2.815051) pedicur (2.754198) gel (2.682924) hookah (2.551867) manicur (2.442438) pedi (2.377820) polish (2.262585) tea (2.140882) 
und (5.066635) der (4.757752) das (4.656481) ich (4.635255) ist (4.606588) ein (4.534975) nicht (4.439870) auch (4.391004) es (4.323939) zu (4.203775) 
Error (train/valid/test) = 1.400087/1.469105/1.469518 (0.004988)
..................................................
energy after gradient step = 5073246883.758657
............
Top words for each topic:
sauc (3.610178) menu (3.587263) dish (3.578869) et (3.554533) salad (3.524978) chicken (3.487722) delici (3.439565) meal (3.372916) chees (3.350057) taco (3.315629) 
wick (3.457329) tan (3.294271) yoga (3.263665) class (3.166428) studio (3.085422) airlin (2.981572) flight (2.977991) marque (2.771134) instructor (2.723792) cosmo (2.668288) 
hotel (4.766337) room (4.577129) pool (4.393229) bed (4.055534) casino (3.837443) desk (3.827914) stay (3.777735) shower (3.752377) suit (3.601465) resort (3.499327) 
nail (3.234870) boba (2.929014) donut (2.833923) pedicur (2.757066) gel (2.676524) hookah (2.538038) manicur (2.435014) pedi (2.376852) polish (2.264721) tea (2.203396) 
und (5.074403) der (4.767444) das (4.664606) ich (4.644521) ist (4.616117) ein (4.545025) nicht (4.447133) auch (4.401251) es (4.333525) zu (4.213142) 
Error (train/valid/test) = 1.399443/1.468731/1.469149 (0.004988)
..................................................
energy after gradient step = 5055696183.002704
............
Top words for each topic:
sauc (3.671522) menu (3.650290) dish (3.630323) salad (3.585850) et (3.565542) chicken (3.562858) delici (3.498804) meal (3.431093) chees (3.403509) taco (3.355171) 
wick (3.536787) tan (3.394039) yoga (3.393465) class (3.352463) studio (3.225037) flight (3.094647) airlin (3.077291) instructor (2.911917) airport (2.856850) marque (2.805018) 
hotel (4.818591) room (4.563970) pool (4.451454) bed (4.096495) casino (3.882510) desk (3.870547) shower (3.805814) stay (3.719901) suit (3.639468) resort (3.550632) 
nail (3.230406) boba (2.917162) donut (2.839313) pedicur (2.751490) gel (2.657632) hookah (2.519596) manicur (2.425159) pedi (2.369987) polish (2.261710) tea (2.252981) 
und (5.083623) der (4.773552) das (4.672041) ich (4.654976) ist (4.624485) ein (4.552171) nicht (4.454629) auch (4.411740) es (4.337870) zu (4.224113) 
Error (train/valid/test) = 1.398807/1.468363/1.468785 (0.004987)
..................................................
energy after gradient step = 5039469850.373619
............
Top words for each topic:
sauc (3.726530) menu (3.697694) dish (3.674308) salad (3.639413) chicken (3.628065) et (3.578529) delici (3.551498) meal (3.480121) chees (3.450643) fri (3.418222) 
wick (3.610375) class (3.509047) yoga (3.502712) tan (3.488538) studio (3.361065) flight (3.214413) airlin (3.167541) instructor (3.066923) airport (3.041221) marque (2.829997) 
hotel (4.858632) room (4.540724) pool (4.501737) bed (4.130480) casino (3.919012) desk (3.902982) shower (3.839592) stay (3.670829) suit (3.666391) resort (3.597432) 
nail (3.220917) boba (2.903827) donut (2.837349) pedicur (2.739503) gel (2.646248) hookah (2.507514) manicur (2.411407) pedi (2.356972) tea (2.278302) polish (2.248181) 
und (5.092294) der (4.783916) das (4.680144) ich (4.661872) ist (4.631941) ein (4.560948) nicht (4.464586) auch (4.420452) es (4.346135) zu (4.231959) 
Error (train/valid/test) = 1.398249/1.468041/1.468464 (0.004987)
..................................................
energy after gradient step = 5024713921.028604
............
Top words for each topic:
sauc (3.784854) menu (3.747535) dish (3.719658) chicken (3.697240) salad (3.691297) delici (3.598670) et (3.593478) meal (3.525582) chees (3.495684) fri (3.482508) 
wick (3.701568) class (3.669819) yoga (3.625160) tan (3.586121) studio (3.496721) flight (3.321502) airlin (3.269191) airport (3.233234) instructor (3.220161) hair (2.895097) 
hotel (4.898185) pool (4.544856) room (4.500599) bed (4.157262) casino (3.949871) desk (3.930384) shower (3.879564) suit (3.690501) resort (3.629609) stay (3.629488) 
nail (3.208442) boba (2.883057) donut (2.827338) pedicur (2.723028) gel (2.622345) hookah (2.485383) manicur (2.398283) pedi (2.337770) tea (2.289231) polish (2.239662) 
und (5.103126) der (4.793792) das (4.689220) ich (4.672159) ist (4.640131) ein (4.568472) nicht (4.473465) auch (4.429290) es (4.350200) zu (4.241492) 
Error (train/valid/test) = 1.397687/1.467716/1.468142 (0.004987)
..................................................
energy after gradient step = 5010953742.618969
............
Top words for each topic:
sauc (3.832321) menu (3.790152) dish (3.759256) chicken (3.749358) salad (3.732411) delici (3.637954) et (3.609075) meal (3.570027) fri (3.537541) chees (3.537215) 
class (3.816612) wick (3.776570) yoga (3.733724) tan (3.665014) studio (3.613653) flight (3.419998) airport (3.400516) airlin (3.355925) instructor (3.351825) hair (3.113533) 
hotel (4.930657) pool (4.592688) room (4.441776) bed (4.179845) casino (3.985177) desk (3.957157) shower (3.911177) suit (3.702798) resort (3.669144) stay (3.612246) 
nail (3.187751) boba (2.867095) donut (2.819178) pedicur (2.707971) gel (2.605308) hookah (2.465092) manicur (2.377906) pedi (2.320369) tea (2.282425) ice (2.252101) 
und (5.113197) der (4.804844) das (4.698274) ich (4.681351) ist (4.649078) ein (4.577092) nicht (4.481935) auch (4.439829) es (4.355906) zu (4.249796) 
Error (train/valid/test) = 1.397208/1.467439/1.467869 (0.004986)
..................................................
energy after gradient step = 4998536386.079210
............
Top words for each topic:
sauc (3.876086) menu (3.828953) dish (3.799301) chicken (3.798588) salad (3.774936) delici (3.673627) et (3.623969) meal (3.605482) fri (3.587221) chees (3.575852) 
class (3.948485) wick (3.860446) yoga (3.847837) tan (3.766526) studio (3.739327) airport (3.541459) flight (3.529255) instructor (3.482922) airlin (3.455763) hair (3.332467) 
hotel (4.960279) pool (4.631972) room (4.372273) bed (4.198987) casino (4.013400) desk (3.971571) shower (3.944104) suit (3.717947) resort (3.705828) stay (3.610625) 
nail (3.172486) boba (2.840348) donut (2.806605) pedicur (2.684602) gel (2.585589) hookah (2.439320) manicur (2.356648) beer (2.317783) pedi (2.295651) tea (2.275372) 
und (5.124074) der (4.814197) das (4.707981) ich (4.691651) ist (4.659011) ein (4.585667) nicht (4.490316) auch (4.448552) es (4.363758) zu (4.257424) 
Error (train/valid/test) = 1.396727/1.467162/1.467593 (0.004986)
..................................................
energy after gradient step = 4986996454.250581
............
Top words for each topic:
sauc (3.914809) menu (3.861251) chicken (3.841433) dish (3.832244) salad (3.811858) delici (3.703444) meal (3.640596) et (3.638660) fri (3.628276) chees (3.607477) 
class (4.049371) yoga (3.942180) wick (3.928324) tan (3.838493) studio (3.836311) airport (3.665088) flight (3.605156) instructor (3.597439) airlin (3.536830) hair (3.518588) 
hotel (4.988686) pool (4.667238) room (4.318885) bed (4.218058) casino (4.041850) desk (3.994453) shower (3.968213) suit (3.727879) resort (3.725692) stay (3.626988) 
nail (3.153088) boba (2.827144) donut (2.795940) pedicur (2.673003) gel (2.563295) hookah (2.416711) beer (2.402836) manicur (2.340556) pedi (2.276966) ice (2.269396) 
und (5.133273) der (4.822588) das (4.716373) ich (4.700536) ist (4.667243) ein (4.594447) nicht (4.497824) auch (4.457344) es (4.370005) zu (4.264516) 
Error (train/valid/test) = 1.396341/1.466939/1.467372 (0.004986)
..................................................
energy after gradient step = 4975983057.213140
............
Top words for each topic:
sauc (3.948391) menu (3.886216) chicken (3.876247) dish (3.861960) salad (3.844407) delici (3.727744) meal (3.666548) fri (3.665480) et (3.655641) chees (3.635373) 
class (4.164273) yoga (4.042329) wick (4.003055) studio (3.940862) tan (3.919939) airport (3.781156) hair (3.716176) instructor (3.707093) flight (3.689581) massag (3.663400) 
hotel (5.009189) pool (4.696090) room (4.283373) bed (4.227005) casino (4.062984) desk (4.000691) shower (3.992376) resort (3.756547) suit (3.736434) stay (3.627652) 
nail (3.135943) boba (2.806603) donut (2.782639) pedicur (2.649878) gel (2.543178) beer (2.475467) hookah (2.397261) manicur (2.320479) wing (2.296268) ice (2.259453) 
und (5.144120) der (4.832985) das (4.724815) ich (4.711422) ist (4.677210) ein (4.604678) nicht (4.507781) auch (4.467389) es (4.376648) zu (4.271281) 
Error (train/valid/test) = 1.395964/1.466723/1.467157 (0.004985)
..................................................
energy after gradient step = 4966302978.682429
............
Top words for each topic:
sauc (3.977943) menu (3.910301) chicken (3.906414) dish (3.885367) salad (3.872157) delici (3.748658) fri (3.694573) meal (3.692406) et (3.667646) chees (3.658710) 
class (4.242274) yoga (4.130673) wick (4.062633) studio (4.025232) tan (3.991618) airport (3.881887) hair (3.867811) massag (3.854213) instructor (3.806764) flight (3.752403) 
hotel (5.027826) pool (4.726128) room (4.267336) bed (4.239915) casino (4.083400) shower (4.016086) desk (4.012387) resort (3.781347) suit (3.744316) stay (3.636502) 
nail (3.113452) boba (2.787375) donut (2.770259) pedicur (2.633179) beer (2.546100) gel (2.527993) hookah (2.378051) wing (2.335634) manicur (2.302017) ice (2.250205) 
und (5.152805) der (4.844327) das (4.731863) ich (4.721197) ist (4.686401) ein (4.614369) nicht (4.516883) auch (4.476011) es (4.384705) zu (4.279469) 
Error (train/valid/test) = 1.395648/1.466541/1.466976 (0.004985)
..................................................
energy after gradient step = 4957517197.879393
............
Top words for each topic:
sauc (4.005250) chicken (3.934519) menu (3.929861) dish (3.908823) salad (3.900577) delici (3.767735) fri (3.722728) meal (3.715490) et (3.681204) chees (3.678214) 
class (4.333966) yoga (4.219377) wick (4.126582) studio (4.109414) tan (4.056802) massag (4.033670) hair (3.999750) airport (3.971055) instructor (3.904318) flight (3.807788) 
hotel (5.045587) pool (4.749454) room (4.268008) bed (4.247983) casino (4.102241) shower (4.035210) desk (4.020105) resort (3.798589) suit (3.748979) tub (3.654958) 
nail (3.099536) boba (2.773226) donut (2.757837) pedicur (2.618824) beer (2.607945) gel (2.505020) wing (2.367275) hookah (2.359980) manicur (2.284234) ice (2.241385) 
und (5.160530) der (4.851943) das (4.740915) ich (4.729835) ist (4.695031) ein (4.622714) nicht (4.524341) auch (4.484091) es (4.390430) zu (4.288989) 
Error (train/valid/test) = 1.395335/1.466362/1.466798 (0.004985)
..................................................
energy after gradient step = 4949638040.507807
............
Top words for each topic:
sauc (4.031916) chicken (3.957746) menu (3.948187) dish (3.927993) salad (3.925387) delici (3.782260) fri (3.746058) meal (3.735197) chees (3.692976) et (3.692339) 
class (4.400111) yoga (4.299504) massag (4.193400) studio (4.193265) wick (4.188648) hair (4.126210) tan (4.117203) airport (4.049190) instructor (4.000672) stylist (3.883342) 
hotel (5.061041) pool (4.774755) room (4.265373) bed (4.253534) casino (4.120557) shower (4.052827) desk (4.023980) resort (3.821834) suit (3.754431) tub (3.670548) 
nail (3.084048) boba (2.760182) donut (2.744995) beer (2.658384) pedicur (2.603463) gel (2.490244) wing (2.379141) hookah (2.341771) manicur (2.268610) ice (2.231029) 
und (5.168455) der (4.859320) das (4.748643) ich (4.737313) ist (4.701195) ein (4.633121) nicht (4.532559) auch (4.492582) es (4.397272) zu (4.296557) 
Error (train/valid/test) = 1.395026/1.466185/1.466623 (0.004985)
..................................................
energy after gradient step = 4943316318.906039
............
Top words for each topic:
sauc (4.055754) chicken (3.981163) menu (3.963242) salad (3.947974) dish (3.947253) delici (3.794311) fri (3.767331) meal (3.751996) chees (3.709383) et (3.703993) 
class (4.444819) yoga (4.368179) massag (4.328357) studio (4.253925) wick (4.240167) hair (4.208378) tan (4.171872) airport (4.104560) instructor (4.077680) salon (4.007073) 
hotel (5.078275) pool (4.793145) room (4.270929) bed (4.255234) casino (4.134973) shower (4.069463) desk (4.019301) resort (3.839460) suit (3.750862) tub (3.685120) 
nail (3.077827) boba (2.747257) donut (2.737971) beer (2.706805) pedicur (2.591090) gel (2.477026) wing (2.402782) hookah (2.326437) manicur (2.256259) ice (2.217511) 
und (5.176528) der (4.865766) das (4.753914) ich (4.745715) ist (4.708245) ein (4.639531) nicht (4.540089) auch (4.500104) es (4.402173) zu (4.303108) 
Error (train/valid/test) = 1.394748/1.466026/1.466467 (0.004985)
..................................................
energy after gradient step = 4937834251.404518
............
Top words for each topic:
sauc (4.076856) chicken (4.000226) menu (3.974922) salad (3.966254) dish (3.964507) delici (3.803095) fri (3.785727) meal (3.768044) chees (3.722418) et (3.711942) 
class (4.477683) massag (4.429062) yoga (4.428328) studio (4.309866) wick (4.285019) hair (4.275882) tan (4.210336) airport (4.148936) instructor (4.142754) salon (4.126254) 
hotel (5.092157) pool (4.811583) room (4.276190) bed (4.258569) casino (4.147327) shower (4.082397) desk (4.025242) resort (3.853437) suit (3.752215) tub (3.694794) 
nail (3.063199) beer (2.746252) boba (2.737411) donut (2.736724) pedicur (2.580540) gel (2.466021) wing (2.405716) hookah (2.315244) manicur (2.245548) ice (2.219018) 
und (5.180494) der (4.870413) das (4.759028) ich (4.751107) ist (4.713419) ein (4.644168) nicht (4.545943) auch (4.506636) es (4.404652) zu (4.308866) 
Error (train/valid/test) = 1.394497/1.465883/1.466326 (0.004985)
..................................................
energy after gradient step = 4933218761.086427
............
Top words for each topic:
sauc (4.096426) chicken (4.016897) menu (3.982879) salad (3.982874) dish (3.981035) delici (3.811694) fri (3.802667) meal (3.783514) chees (3.736465) et (3.722104) 
massag (4.530515) class (4.512044) yoga (4.481906) studio (4.357429) hair (4.337576) wick (4.329101) salon (4.256418) tan (4.249179) instructor (4.205385) airport (4.202183) 
hotel (5.102766) pool (4.826366) room (4.278567) bed (4.258185) casino (4.160244) shower (4.095283) desk (4.019140) resort (3.868515) suit (3.750181) tub (3.706989) 
nail (3.057594) beer (2.778415) donut (2.732659) boba (2.731318) pedicur (2.574043) gel (2.456589) wing (2.426802) hookah (2.304556) manicur (2.235970) ice (2.222022) 
und (5.185720) der (4.874705) das (4.762924) ich (4.756706) ist (4.719466) ein (4.648956) nicht (4.550750) auch (4.511425) es (4.406682) zu (4.313815) 
Error (train/valid/test) = 1.394236/1.465736/1.466179 (0.004984)
..................................................
energy after gradient step = 4929099914.546668
............
Top words for each topic:
sauc (4.116802) chicken (4.038352) salad (4.002631) dish (3.998182) menu (3.992809) fri (3.820112) delici (3.818667) meal (3.796980) chees (3.749780) et (3.727589) 
massag (4.625392) class (4.532249) yoga (4.529629) studio (4.406195) hair (4.374610) wick (4.370245) salon (4.358637) tan (4.283743) instructor (4.264512) airport (4.226795) 
hotel (5.113639) pool (4.841599) room (4.286904) bed (4.257982) casino (4.172966) shower (4.106882) desk (4.011053) resort (3.883154) suit (3.748094) tub (3.716808) 
nail (3.048303) beer (2.808652) donut (2.727091) boba (2.725417) pedicur (2.564318) gel (2.447658) wing (2.436499) hookah (2.293962) manicur (2.228240) ice (2.214077) 
und (5.189187) der (4.879210) das (4.766669) ich (4.761504) ist (4.723127) ein (4.652660) nicht (4.555771) auch (4.515803) es (4.411990) zu (4.318405) 
Error (train/valid/test) = 1.393987/1.465595/1.466039 (0.004984)
..................................................
energy after gradient step = 4925105161.774504
............
Top words for each topic:
sauc (4.136145) chicken (4.053794) salad (4.020791) dish (4.013719) menu (4.001900) fri (3.835058) delici (3.827008) meal (3.809944) chees (3.759305) et (3.739436) 
massag (4.708676) yoga (4.575925) class (4.558156) salon (4.463370) studio (4.445871) hair (4.417742) wick (4.406285) instructor (4.322093) tan (4.317598) stylist (4.294782) 
hotel (5.123188) pool (4.857195) room (4.286650) bed (4.253247) casino (4.182777) shower (4.119751) desk (4.008227) resort (3.896238) suit (3.742742) tub (3.724965) 
nail (3.038547) beer (2.830749) donut (2.722877) boba (2.719151) pedicur (2.555310) wing (2.448685) gel (2.438389) hookah (2.282987) manicur (2.217610) ice (2.214755) 
und (5.193044) der (4.883253) das (4.769302) ich (4.766369) ist (4.726502) ein (4.656971) nicht (4.560200) auch (4.520602) es (4.412708) zu (4.324365) 
Error (train/valid/test) = 1.393725/1.465447/1.465893 (0.004984)
..................................................
energy after gradient step = 4921734238.822193
............
Top words for each topic:
sauc (4.152486) chicken (4.066823) salad (4.036271) dish (4.025474) menu (4.008213) fri (3.845401) delici (3.827903) meal (3.820772) chees (3.769218) et (3.744449) 
massag (4.778758) yoga (4.615577) class (4.563706) salon (4.548512) studio (4.478789) hair (4.442756) wick (4.436593) instructor (4.370204) stylist (4.354716) tan (4.342397) 
hotel (5.130008) pool (4.868406) room (4.284127) bed (4.250041) casino (4.192150) shower (4.132264) desk (3.995500) resort (3.908808) suit (3.734554) tub (3.733974) 
nail (3.032163) beer (2.856137) donut (2.724007) boba (2.715593) pedicur (2.551180) wing (2.463569) gel (2.433595) hookah (2.276475) manicur (2.209143) ice (2.207652) 
und (5.193877) der (4.888024) das (4.770898) ich (4.770154) ist (4.730442) ein (4.659817) nicht (4.563502) auch (4.524893) es (4.413376) dr (4.330752) 
Error (train/valid/test) = 1.393481/1.465309/1.465757 (0.004984)
