corpus = data_mont.gz
latentReg = 0.000000
lambda = 1.000000
K = 10

nUsers = 13861, nItems = 3918, nRatings = 49484

Error w/ offset term only (train/valid/test) = 1.351568/1.374852/1.345016 (0.027323)
Error w/ offset and bias (train/valid/test) = 0.636440/1.215347/1.140556 (0.025648)

..................................................
energy after gradient step = 27887278.832749

Top words for each topic:
fruit (0.358238) cheap (0.352854) month (0.350675) real (0.345516) provid (0.335322) soon (0.323138) ami (0.322226) guess (0.301111) person (0.297157) dtre (0.282088) 
i (0.505117) wow (0.350720) owner (0.317681) saw (0.297338) outsid (0.288707) final (0.288428) sunday (0.278597) dirti (0.269142) crispi (0.268591) youv (0.267016) 
pho (0.326730) resto (0.298998) product (0.274242) dumpl (0.271011) option (0.267989) soir (0.264798) later (0.263252) over (0.244531) tradit (0.242783) item (0.234591) 
set (0.333871) serious (0.308566) under (0.299585) receiv (0.294371) slow (0.290210) ambianc (0.277875) piec (0.273390) hand (0.270308) read (0.264663) valu (0.259084) 
pork (0.455559) felt (0.411892) spend (0.330641) pie (0.322469) isnt (0.321000) i (0.301452) relax (0.298948) cher (0.291614) singl (0.289812) accommod (0.276422) 
includ (0.348274) welcom (0.346495) world (0.308213) beef (0.304248) weekend (0.294435) deli (0.291786) starter (0.282991) week (0.279572) fromag (0.275142) read (0.274859) 
general (0.371357) stand (0.360435) 6 (0.352371) frozen (0.323981) ate (0.290628) sort (0.275912) part (0.271560) jazz (0.265352) plat (0.262838) local (0.260460) 
soft (0.390816) which (0.347492) ici (0.324829) oh (0.319641) yelp (0.313236) play (0.311821) pick (0.307407) basic (0.306927) attract (0.302210) anyth (0.292102) 
pastri (0.324326) ou (0.323891) total (0.321471) cuisin (0.292152) though (0.277787) pack (0.271975) tax (0.267663) list (0.261454) game (0.252372) clean (0.251132) 
sui (0.373091) station (0.311335) shower (0.310158) curd (0.306576) tour (0.306364) fan (0.296043) slight (0.291315) creme (0.282931) tell (0.281791) compar (0.280608) 
Error (train/valid/test) = 1.029249/1.214358/1.143681 (0.022772)
..................................................
energy after gradient step = 27731170.347750

Top words for each topic:
month (0.761510) liter (0.668060) tous (0.640589) tad (0.615708) verr (0.613503) quell (0.609973) anyth (0.596854) suggest (0.587385) celebr (0.578030) internet (0.575228) 
dress (0.791609) card (0.773687) wow (0.721909) clear (0.684664) authent (0.681934) ton (0.677364) youv (0.615441) saw (0.604702) i (0.585717) sign (0.570855) 
personnel (0.834495) soir (0.793601) havent (0.690280) sausag (0.660367) stuff (0.626016) deliveri (0.601590) low (0.592290) dip (0.587677) apr (0.581098) seen (0.579475) 
touch (0.763560) yum (0.757508) hang (0.628372) cut (0.627147) resto (0.615542) tant (0.592290) butter (0.589086) young (0.580145) incred (0.568783) 7 (0.554536) 
prompt (0.657870) manger (0.622463) menus (0.610596) loud (0.585471) cher (0.576507) winter (0.551673) pop (0.519266) naan (0.517789) pork (0.515179) simpli (0.514949) 
chip (0.852973) toast (0.691822) fromag (0.682790) saw (0.644204) vibe (0.609760) gym (0.601954) mes (0.601113) lover (0.596953) avail (0.591042) bathroom (0.589000) 
each (0.669096) off (0.668834) ate (0.658207) general (0.626782) o (0.622247) pasta (0.604638) easili (0.577823) figur (0.572723) doe (0.565898) choix (0.560043) 
paid (0.714870) miss (0.692344) oyster (0.642429) lair (0.619148) which (0.610520) today (0.606516) broth (0.586151) bbq (0.579335) taient (0.575175) money (0.567453) 
build (0.776252) twice (0.741332) such (0.739288) nearbi (0.732049) spring (0.677287) ici (0.603071) tender (0.593017) must (0.569352) rude (0.556076) avait (0.550507) 
idea (1.018666) curd (0.923936) ny (0.659146) version (0.654902) indian (0.647886) shower (0.631314) ell (0.628378) dark (0.616538) greasi (0.600550) station (0.599707) 
Error (train/valid/test) = 0.842942/1.179845/1.095654 (0.023468)
..................................................
energy after gradient step = 27666927.767950

Top words for each topic:
sympathiqu (0.939082) internet (0.898279) month (0.876057) quell (0.811593) moist (0.766770) tad (0.746917) hate (0.745354) equal (0.725853) 18 (0.720302) god (0.716214) 
realiz (0.901946) saw (0.859659) dress (0.834588) ctait (0.777476) youv (0.762099) wow (0.759723) men (0.748295) card (0.745572) authent (0.700233) separ (0.682068) 
personnel (1.085265) soir (0.959791) deliveri (0.915460) havent (0.896048) stuff (0.870962) apr (0.868406) girlfriend (0.834293) serveus (0.810061) replac (0.751028) mention (0.750110) 
weve (0.986448) yum (0.921280) resto (0.862466) patron (0.771307) incred (0.760317) cut (0.758919) young (0.750147) butter (0.741132) collect (0.723707) read (0.702710) 
menus (0.907561) continu (0.863814) convers (0.801057) creme (0.787035) allow (0.746323) air (0.745187) coup (0.730712) delight (0.713949) mine (0.707918) recommand (0.700137) 
avail (0.879077) exprienc (0.801523) maison (0.763993) chip (0.754068) welcom (0.747646) gym (0.740333) jour (0.734453) comment (0.732146) lover (0.730695) 25 (0.717834) 
beau (0.860473) ate (0.763504) off (0.759010) vin (0.752810) down (0.750650) min (0.731454) frozen (0.711228) general (0.706767) onc (0.699950) o (0.693088) 
paid (1.029866) taient (0.809791) black (0.803504) miss (0.786927) which (0.762639) quil (0.754302) talk (0.737072) prendr (0.735878) peanut (0.709309) money (0.705340) 
spring (0.998150) such (0.983227) nearbi (0.863105) build (0.836940) twice (0.835700) ici (0.818171) ad (0.788442) plein (0.733591) classi (0.733399) inform (0.715965) 
idea (1.012865) version (0.856003) gorgeous (0.838539) curd (0.785775) massag (0.771331) pastri (0.756442) express (0.727330) everyth (0.711804) crunchi (0.709261) cher (0.690853) 
Error (train/valid/test) = 0.745433/1.174179/1.085383 (0.023405)
..................................................
energy after gradient step = 27645316.011352

Top words for each topic:
internet (1.445578) month (0.925565) term (0.878848) carrot (0.843241) anyth (0.840904) moist (0.838297) tad (0.829225) equal (0.811019) hockey (0.803873) god (0.801524) 
realiz (1.051078) dress (0.945604) saw (0.906888) wow (0.901642) youv (0.862376) ton (0.817397) men (0.816157) design (0.812691) known (0.812012) danc (0.808697) 
deliveri (1.181885) personnel (1.129634) apr (1.127691) havent (1.054632) admit (0.999268) dip (0.979895) stuff (0.939815) soir (0.895739) girlfriend (0.892947) replac (0.791757) 
yum (1.011545) young (0.917375) tap (0.915915) resto (0.888354) intim (0.871086) weve (0.860178) collect (0.858524) honest (0.837055) quoi (0.828060) baguett (0.811432) 
allow (0.953609) convers (0.876804) mine (0.876172) coup (0.853193) air (0.850754) cher (0.849482) chaud (0.838636) menus (0.830245) couldnt (0.829996) fare (0.805918) 
where (0.881161) deli (0.876119) favourit (0.875157) avail (0.858198) jour (0.845147) l (0.826675) distanc (0.822411) japanes (0.812758) lover (0.810806) spend (0.810484) 
breast (1.084892) unfortun (0.916966) ate (0.904098) highlight (0.900367) plusieur (0.876918) frozen (0.838332) general (0.798324) easili (0.789662) sort (0.782132) off (0.781422) 
paid (1.020151) talk (0.914714) kick (0.904166) laugh (0.877360) ago (0.864785) miss (0.845499) previous (0.844382) quebec (0.837531) which (0.794913) exampl (0.789388) 
spring (1.014634) nearbi (0.996154) such (0.911563) twice (0.904825) build (0.855821) notr (0.851182) classi (0.840226) quand (0.827348) plein (0.822498) christma (0.812246) 
idea (1.090571) massag (0.974757) curd (0.962586) station (0.942941) famous (0.942546) aim (0.885730) express (0.876524) quelqu (0.867269) ell (0.849502) 18 (0.844472) 
Error (train/valid/test) = 0.674596/1.180321/1.088168 (0.023901)
..................................................
energy after gradient step = 27619736.538371

Top words for each topic:
internet (1.458521) carrot (1.191029) hockey (1.174733) tad (1.156928) sucr (1.115767) god (1.073327) crme (1.056433) fortun (1.009394) joe (0.934978) na (0.881992) 
countri (1.296836) realiz (1.262671) known (1.088174) dirti (1.082582) lgume (1.057760) dress (1.045969) raw (1.029596) wow (1.012205) mess (0.984561) sinc (0.930771) 
serveus (1.370517) deliveri (1.218030) apr (1.211688) personnel (1.162270) america (1.150924) replac (1.099989) funni (1.064751) musiqu (1.049432) dip (1.048702) havent (1.012507) 
quoi (1.083985) ground (1.082943) young (1.044167) magasin (1.005410) intim (1.004486) yum (0.962177) resto (0.948892) die (0.908490) alor (0.903580) butter (0.901298) 
air (1.081879) convers (1.049237) couldnt (1.021599) ideal (1.012449) coup (0.993900) creme (0.978880) peanut (0.971308) th (0.921329) put (0.918277) propr (0.904948) 
raw (1.203630) sear (1.071288) comment (0.962997) ginger (0.962978) spend (0.960418) forget (0.941702) favourit (0.932288) avail (0.909692) agrabl (0.885558) deli (0.868570) 
attitud (1.047051) popcorn (1.031699) bother (1.028488) trust (1.001983) jus (0.973976) ate (0.968278) unfortun (0.958343) vie (0.936977) lemon (0.904888) lor (0.899605) 
specif (1.079788) laugh (1.057116) notredam (1.042735) previous (0.986461) ago (0.980612) dj (0.968356) enough (0.960696) soy (0.937065) exampl (0.930333) talk (0.927802) 
such (1.066830) tub (1.037999) twice (1.004928) plein (0.999459) simplement (0.995406) spring (0.988370) chewi (0.980497) pictur (0.979711) smile (0.976656) loin (0.964900) 
18 (1.261279) vaut (1.166349) station (1.099046) idea (1.063043) curd (1.041977) burrito (1.041135) massag (1.035037) famous (0.963299) cher (0.944811) nai (0.933467) 
Error (train/valid/test) = 0.552774/1.212210/1.114208 (0.024856)
..................................................
energy after gradient step = 27598814.345071

Top words for each topic:
carrot (1.435196) internet (1.397819) tad (1.255902) hockey (1.170045) moist (1.145986) god (1.110763) contain (1.083947) fortun (1.070165) ton (1.068412) power (1.059196) 
countri (1.493367) wow (1.237246) known (1.169710) lgume (1.163458) dress (1.153352) realiz (1.086177) dirti (1.061192) raw (1.033695) bilingu (1.032579) design (1.024269) 
serveus (1.440076) america (1.362735) dip (1.313640) deliveri (1.212701) spinach (1.207386) musiqu (1.189216) personnel (1.183430) raspberri (1.181477) funni (1.177301) replac (1.107180) 
young (1.188544) stori (1.177412) ensuit (1.082410) opportun (1.061870) avon (1.040093) swing (1.028725) quoi (1.022057) deli (0.996968) crazi (0.975774) resto (0.972887) 
couldnt (1.147388) cole (1.112203) creme (1.105597) air (1.089714) brick (1.084440) pomm (1.071996) put (1.048043) th (1.043030) rule (1.027888) tuck (1.010607) 
raw (1.140587) comment (1.071918) avail (1.047872) exhibit (1.044052) overwhelm (1.015728) favourit (0.999674) sear (0.967084) deli (0.921140) imagin (0.915443) daller (0.913104) 
lemon (1.221140) unfortun (1.138229) highlight (1.029664) ate (1.028573) jus (1.005682) attitud (1.005551) pasta (0.983947) safe (0.978579) everyon (0.977747) frozen (0.972011) 
midi (1.227332) notredam (1.199915) dj (1.074442) folk (1.066170) exampl (1.053160) which (1.028909) livr (0.973710) talk (0.933747) enough (0.933469) vite (0.915337) 
plein (1.292678) christma (1.212779) such (1.085321) tub (1.075922) loin (1.038705) spring (1.021629) california (0.982834) straight (0.966673) corner (0.957657) twice (0.940917) 
station (1.292379) 18 (1.268904) vaut (1.200529) continu (1.130981) poulet (1.086907) cot (1.083258) idea (1.067691) asid (1.063499) featur (1.037869) six (1.029549) 
Error (train/valid/test) = 0.496594/1.230639/1.132541 (0.025990)
..................................................
energy after gradient step = 27584795.687335

Top words for each topic:
carrot (1.394041) moist (1.198698) tad (1.185551) fortun (1.160740) internet (1.151704) hockey (1.144800) steam (1.127865) power (1.114145) na (1.101316) chaleureux (1.100703) 
known (1.524466) countri (1.374316) danc (1.290893) theyv (1.262174) wow (1.221630) design (1.213268) dress (1.205452) realiz (1.164670) bilingu (1.164631) card (1.156025) 
spinach (1.492589) dip (1.456739) america (1.421043) deliveri (1.375757) serveus (1.269930) nail (1.231633) expert (1.174062) personnel (1.162128) funni (1.150502) musiqu (1.137326) 
ensuit (1.390473) tant (1.180966) stick (1.161852) avon (1.139905) stori (1.119501) swing (1.105831) baguett (1.099559) yum (1.082239) heat (1.052529) resto (1.045750) 
taient (1.333873) coup (1.286533) couldnt (1.284201) rule (1.200568) chaud (1.197158) put (1.166687) cost (1.151806) air (1.148414) act (1.113189) hamburg (1.112428) 
overwhelm (1.258726) favourit (1.218104) belli (1.180326) raw (1.150058) daller (1.147634) passer (1.123849) deli (1.095341) assez (1.086958) gross (1.084485) fromag (1.075792) 
attitud (1.331487) unfortun (1.251096) lemon (1.237947) highlight (1.086065) quantit (1.049451) done (1.044345) appear (1.032220) gros (1.029733) jus (1.025113) imagin (1.006590) 
midi (1.405855) exampl (1.317640) dj (1.291229) livr (1.168275) folk (1.146821) which (1.134773) previous (1.119089) rais (1.110645) notredam (1.089396) him (1.088976) 
tub (1.301736) christma (1.264799) loin (1.233358) plein (1.181013) straight (1.162870) min (1.154589) butteri (1.051602) bun (1.000664) twice (0.972961) truli (0.972286) 
station (1.235801) coin (1.231235) idea (1.169744) cot (1.167562) burrito (1.163594) asid (1.126278) famous (1.082893) sall (1.079835) mes (1.077826) autr (1.074373) 
Error (train/valid/test) = 0.434685/1.251053/1.155183 (0.026276)
..................................................
energy after gradient step = 27566847.753879

Top words for each topic:
carrot (1.382962) tad (1.318889) internet (1.311330) western (1.272510) moist (1.227460) chaleureux (1.217744) hockey (1.216648) joe (1.211384) ton (1.176662) access (1.160196) 
known (1.726507) design (1.421661) wow (1.353603) danc (1.325434) ignor (1.291860) countri (1.280050) sleep (1.223423) realiz (1.210634) dirti (1.158144) lgume (1.157531) 
deliveri (1.530723) dip (1.525521) spinach (1.430483) america (1.420809) serveus (1.394140) raspberri (1.387376) nail (1.277503) funni (1.230855) va (1.204098) upstair (1.201287) 
ensuit (1.366434) avon (1.267801) ct (1.213810) baguett (1.198179) stick (1.170197) opportun (1.140735) cut (1.126565) resto (1.107014) 7 (1.103035) skin (1.071808) 
taient (1.358749) rule (1.325194) coup (1.318296) put (1.281804) brick (1.271604) peanut (1.248954) hamburg (1.202414) cost (1.194269) allow (1.134110) chaud (1.123760) 
favourit (1.389917) passer (1.238452) gross (1.223144) belli (1.189042) assez (1.162515) forgot (1.117403) smile (1.107572) dim (1.104915) daller (1.094306) fromag (1.085744) 
attitud (1.368086) lemon (1.292664) unfortun (1.221134) done (1.219174) art (1.169139) popcorn (1.149958) trust (1.129256) jus (1.099593) bloodi (1.092793) assiett (1.081000) 
midi (1.462840) dj (1.378231) berri (1.224877) enough (1.223060) folk (1.218906) u (1.192887) solid (1.184401) which (1.183583) previous (1.178862) exampl (1.171895) 
tub (1.499859) straight (1.441344) thai (1.381065) plein (1.358627) min (1.355065) loin (1.313777) balanc (1.201560) christma (1.188218) packag (1.175882) mcgill (1.168134) 
asid (1.435681) station (1.362238) mes (1.295578) coin (1.233863) compar (1.190832) chinatown (1.186143) famous (1.182000) burrito (1.172711) six (1.153886) cot (1.136603) 
Error (train/valid/test) = 0.385143/1.271883/1.175714 (0.027068)
..................................................
energy after gradient step = 27547667.944868

Top words for each topic:
carrot (1.544396) access (1.470712) joe (1.399400) moist (1.346162) internet (1.331609) memor (1.314683) steam (1.311665) chaleureux (1.283111) mouss (1.265015) form (1.235233) 
known (1.776311) design (1.528404) intim (1.392333) danc (1.332983) lgume (1.308370) wow (1.266014) princip (1.213003) smell (1.210327) avi (1.197756) realiz (1.188991) 
raspberri (1.624283) spinach (1.555204) dip (1.447258) serveus (1.440422) deliveri (1.434085) america (1.421063) va (1.329716) apr (1.297743) class (1.276971) plain (1.257298) 
avon (1.459877) conveni (1.276090) stick (1.227047) cut (1.208228) stori (1.198505) pop (1.142667) yum (1.135115) ensuit (1.131832) heat (1.123627) prici (1.117208) 
brick (1.499089) coup (1.441747) taient (1.435484) cramp (1.421275) put (1.345376) chaud (1.295033) cost (1.237543) peanut (1.221244) couldnt (1.210694) rule (1.210065) 
forgot (1.348752) direct (1.342787) favourit (1.325131) overwhelm (1.308736) gross (1.254039) min (1.232176) daller (1.226924) itali (1.185323) boisson (1.184781) demand (1.171808) 
attitud (1.368118) bloodi (1.335972) unfortun (1.326778) malgr (1.299030) done (1.250361) sympathiqu (1.233453) shes (1.218404) lemon (1.214863) offert (1.194339) popcorn (1.184903) 
midi (1.510286) dj (1.462693) berri (1.279828) solid (1.267087) enough (1.263213) 21 (1.254256) soon (1.228438) u (1.202113) specif (1.192546) necessari (1.190725) 
loin (1.466932) tub (1.460501) straight (1.432151) thai (1.402898) plein (1.377515) balanc (1.330221) min (1.320286) dure (1.317968) mcgill (1.270322) sight (1.236518) 
station (1.375205) mes (1.301425) poulet (1.301375) sall (1.278232) asid (1.271549) compar (1.261891) continu (1.255860) burrito (1.244981) six (1.239151) coin (1.237887) 
Error (train/valid/test) = 0.303625/1.316183/1.220713 (0.028245)
..................................................
energy after gradient step = 27533287.146099

Top words for each topic:
memor (1.593129) moist (1.548559) carrot (1.510999) access (1.432504) mouss (1.409279) ton (1.407386) internet (1.342416) tad (1.295409) hockey (1.251211) lavenu (1.226554) 
known (1.887563) design (1.587821) intim (1.469890) princip (1.378189) realiz (1.374818) danc (1.360230) jour (1.313005) wow (1.288584) lgume (1.286171) faster (1.251276) 
deliveri (1.664808) spinach (1.625758) dip (1.515581) raspberri (1.494773) serveus (1.482219) upstair (1.448772) america (1.400880) apr (1.267586) brand (1.263380) higher (1.232451) 
avon (1.723633) conveni (1.328265) heat (1.296885) ground (1.288242) cut (1.258361) 7 (1.238944) vieux (1.224913) stick (1.192237) yum (1.188527) under (1.161969) 
coat (1.556435) brick (1.515472) taient (1.502041) chaud (1.468738) couldnt (1.410837) pm (1.400245) omg (1.398847) put (1.351585) coup (1.350169) air (1.264748) 
direct (1.449202) crisp (1.434169) min (1.403023) favourit (1.383265) hall (1.348326) gross (1.296734) itali (1.296426) fromag (1.248797) troubl (1.239489) overwhelm (1.211382) 
art (1.367463) malgr (1.329843) vintag (1.328121) gros (1.314266) sympathiqu (1.310897) offert (1.309819) crazi (1.264849) unfortun (1.263462) indic (1.263072) welcom (1.253739) 
midi (1.659291) dj (1.415868) berri (1.355218) interior (1.345346) folk (1.328823) central (1.307758) enough (1.292881) soon (1.292294) worst (1.268948) 21 (1.262942) 
loin (1.641374) tub (1.597295) dure (1.461422) mcgill (1.437176) thai (1.423779) balanc (1.375315) prfr (1.325331) sight (1.323451) min (1.290869) tes (1.276295) 
station (1.500360) famous (1.463541) 18 (1.417788) compar (1.359419) sall (1.332937) outstand (1.317067) burrito (1.303046) asid (1.279161) display (1.236794) dun (1.236329) 
Error (train/valid/test) = 0.260223/1.339768/1.243673 (0.028628)
..................................................
energy after gradient step = 27521279.848413

Top words for each topic:
carrot (1.640617) memor (1.523667) moist (1.514822) internet (1.502205) ton (1.479415) access (1.411426) form (1.398312) problem (1.378282) hockey (1.335304) god (1.330751) 
known (1.878358) design (1.572603) intim (1.527359) princip (1.410132) jour (1.397873) natur (1.394543) faster (1.353584) lgume (1.321626) pretenti (1.312032) realiz (1.307472) 
deliveri (1.739321) raspberri (1.544329) upstair (1.428826) america (1.426978) spinach (1.413767) apr (1.400265) toilet (1.365881) dip (1.342356) island (1.341047) brand (1.293029) 
avon (1.592005) ground (1.477993) conveni (1.438735) heat (1.366602) yum (1.312287) under (1.275828) honest (1.269675) prici (1.248272) stick (1.206554) vieux (1.194407) 
coat (1.645848) taient (1.515243) omg (1.484861) brick (1.479481) air (1.397858) coup (1.394848) couldnt (1.357809) cramp (1.357169) put (1.348204) cost (1.318826) 
hall (1.563822) forgot (1.457745) min (1.446701) favourit (1.434263) direct (1.392011) overwhelm (1.377880) smile (1.340697) crisp (1.334778) froid (1.311462) troubl (1.297537) 
crazi (1.465145) gros (1.434207) art (1.417996) sympathiqu (1.391549) attitud (1.364959) attempt (1.272449) indic (1.268505) malgr (1.259511) vintag (1.258500) worst (1.257085) 
midi (1.510918) berri (1.490896) u (1.377285) enough (1.343345) soon (1.305779) product (1.303716) necessari (1.285628) 21 (1.255671) folk (1.249525) notredam (1.232579) 
loin (1.566311) min (1.548565) balanc (1.502655) turkey (1.483009) tub (1.481941) thai (1.462617) plein (1.404458) dure (1.382413) chewi (1.372980) sight (1.337030) 
station (1.676086) 18 (1.493218) famous (1.456107) slection (1.449370) compar (1.448516) job (1.424617) knew (1.349648) dun (1.324117) warn (1.290400) six (1.266370) 
Error (train/valid/test) = 0.224074/1.363905/1.265275 (0.029342)
..................................................
energy after gradient step = 27510446.220480

Top words for each topic:
carrot (1.680101) moist (1.617224) memor (1.571804) ton (1.545351) problem (1.390613) cashier (1.365367) tempura (1.350624) vin (1.315475) access (1.309317) god (1.305209) 
known (2.034900) princip (1.493465) design (1.482166) 50 (1.469256) lgume (1.454887) countri (1.410025) jour (1.400260) card (1.388900) natur (1.387133) ignor (1.354588) 
upstair (1.670593) deliveri (1.630401) spinach (1.615196) apr (1.552004) dip (1.529800) musiqu (1.389226) unpretenti (1.387612) serveus (1.381401) tapa (1.374813) th (1.370228) 
avon (1.791120) opportun (1.485508) ground (1.455340) heat (1.337912) intim (1.320719) conveni (1.317794) bire (1.302833) stori (1.289918) hello (1.288870) under (1.288252) 
coat (1.737656) omg (1.608499) air (1.506448) chaud (1.447721) coup (1.431466) riz (1.410573) put (1.393123) brick (1.387787) rye (1.384585) cramp (1.384495) 
hall (1.600939) froid (1.458136) forgot (1.439725) direct (1.426132) itali (1.384863) favourit (1.383001) crisp (1.366839) overwhelm (1.357214) american (1.324273) frequent (1.308770) 
attempt (1.632082) indic (1.491896) malgr (1.482462) crazi (1.431091) art (1.396820) done (1.357243) alcohol (1.354094) welcom (1.346648) gros (1.344228) croissant (1.320021) 
product (1.526767) notredam (1.445231) interior (1.418319) soon (1.358568) midi (1.356895) berri (1.318510) ago (1.293835) rais (1.277582) 21 (1.259188) tofu (1.248619) 
loin (1.666523) min (1.642685) ambienc (1.587176) packag (1.554723) thai (1.508061) plein (1.492650) straight (1.450440) thorough (1.441276) instal (1.438137) dure (1.409489) 
18 (1.704161) coin (1.552582) slection (1.544294) raison (1.511285) job (1.500245) compar (1.473362) who (1.418699) station (1.398248) warn (1.365676) chinatown (1.364407) 
Error (train/valid/test) = 0.175841/1.404760/1.299152 (0.030283)
..................................................
energy after gradient step = 27496516.159103

Top words for each topic:
carrot (1.889489) moist (1.864377) memor (1.661909) ton (1.570456) explor (1.476184) mouss (1.424508) steam (1.394653) bbq (1.378380) internet (1.365349) problem (1.360404) 
known (1.883051) jour (1.548305) lgume (1.501413) entre (1.482540) princip (1.428364) basement (1.425052) card (1.375806) design (1.375214) 50 (1.339578) 30 (1.294920) 
upstair (1.773917) apr (1.705433) dip (1.660506) deliveri (1.644301) unpretenti (1.528494) brand (1.468903) chanc (1.437362) higher (1.424798) entranc (1.420345) hockey (1.413698) 
avon (1.769980) conveni (1.528383) opportun (1.410762) toujour (1.384971) heat (1.363444) yum (1.315116) plastic (1.310855) ground (1.307416) tartar (1.302390) butteri (1.301753) 
coat (1.734214) omg (1.697156) air (1.585246) put (1.525877) chaud (1.498265) coup (1.483617) riz (1.427612) brick (1.381337) rye (1.343023) desert (1.333424) 
fit (1.597799) direct (1.537811) froid (1.478494) hall (1.477892) forgot (1.476740) crisp (1.435193) favourit (1.432910) overwhelm (1.406064) american (1.402562) eggplant (1.384857) 
attempt (1.657182) indic (1.568414) malgr (1.534621) crazi (1.421376) art (1.406499) browni (1.373373) alcohol (1.358312) ate (1.345617) welcom (1.334775) vintag (1.321379) 
notredam (1.459674) tofu (1.422132) product (1.406877) ago (1.390380) midi (1.388598) soon (1.379939) least (1.315923) berri (1.309091) spoke (1.284923) rais (1.282995) 
min (1.829446) loin (1.623675) ambienc (1.591882) tart (1.540124) packag (1.515653) dure (1.493633) cochon (1.477002) quand (1.461006) thai (1.442700) instal (1.423429) 
18 (1.726272) compar (1.558997) coin (1.541720) station (1.522357) slection (1.515612) job (1.488482) famous (1.450450) chinatown (1.432688) warn (1.401117) raison (1.366864) 
Error (train/valid/test) = 0.155658/1.419733/1.311990 (0.030328)
..................................................
energy after gradient step = 27487146.484922

Top words for each topic:
carrot (1.896325) problem (1.586835) moist (1.575867) memor (1.529798) steam (1.491638) ton (1.490640) tempura (1.452106) vodka (1.418631) mouss (1.408641) afternoon (1.403163) 
known (2.005872) card (1.553887) lgume (1.544811) jour (1.528094) entre (1.499058) 50 (1.498758) basement (1.455488) design (1.443032) napkin (1.365770) dress (1.359880) 
upstair (1.901869) apr (1.773514) deliveri (1.658390) dip (1.597305) america (1.529962) unpretenti (1.525891) class (1.487072) websit (1.466548) brand (1.433278) budget (1.429457) 
avon (1.788311) opportun (1.529658) conveni (1.467500) read (1.440216) tant (1.321571) magasin (1.300966) heat (1.287785) concept (1.279999) cut (1.277174) brasseri (1.264348) 
coat (1.813541) omg (1.790845) air (1.707790) brick (1.518956) coup (1.515982) sever (1.480027) put (1.439262) rye (1.427499) peanut (1.397717) chaud (1.377753) 
fit (1.555442) hall (1.538234) forgot (1.509237) crisp (1.477076) eggplant (1.465287) veget (1.435215) direct (1.399062) american (1.394792) froid (1.370438) butcher (1.360282) 
attempt (1.621714) malgr (1.529104) vintag (1.480798) wall (1.440993) indic (1.416588) welcom (1.389873) ate (1.378194) browni (1.333421) crazi (1.327031) alcohol (1.306133) 
product (1.570059) midi (1.460191) notredam (1.454498) rais (1.427328) valu (1.352130) cut (1.342264) doubl (1.341542) tofu (1.337300) 21 (1.312918) least (1.308263) 
min (1.896617) cochon (1.665593) ambienc (1.651558) turkey (1.512157) instal (1.510989) straight (1.481642) dure (1.477770) pig (1.465931) thai (1.436933) loin (1.431622) 
18 (1.748995) station (1.639794) compar (1.614771) slection (1.575932) coin (1.555214) who (1.520679) dy (1.477891) chinatown (1.470106) glace (1.453068) raison (1.432849) 
Error (train/valid/test) = 0.139654/1.436185/1.325930 (0.030546)
..................................................
energy after gradient step = 27478982.770812

Top words for each topic:
carrot (1.880342) problem (1.706387) moist (1.555557) ton (1.506631) steam (1.501698) bbq (1.487525) deliv (1.476174) memor (1.457063) mouss (1.442480) internet (1.428981) 
known (2.214519) 50 (1.689597) basement (1.558587) entre (1.551457) card (1.524171) lgume (1.513445) design (1.506338) realiz (1.504025) jour (1.489536) javai (1.479232) 
upstair (1.949686) apr (1.870706) deliveri (1.719488) dip (1.678063) brand (1.598879) america (1.572541) websit (1.557282) regret (1.533241) tapa (1.529551) unpretenti (1.524921) 
avon (1.610285) opportun (1.563445) conveni (1.525453) met (1.457536) cut (1.441565) toujour (1.382600) under (1.350992) stick (1.346248) t (1.344912) read (1.339310) 
omg (1.776335) air (1.714779) brick (1.581434) coat (1.567125) sever (1.473977) major (1.451769) riz (1.443404) name (1.428193) portugues (1.420184) coup (1.418742) 
hall (1.695582) fit (1.598540) crisp (1.515273) american (1.512355) direct (1.508585) forgot (1.493457) glad (1.479591) veget (1.449431) eggplant (1.412570) favourit (1.412095) 
vintag (1.661654) attempt (1.653555) malgr (1.610260) wall (1.486994) truffl (1.467545) whole (1.436519) tini (1.431531) attitud (1.407230) comfi (1.390839) browni (1.381508) 
doubl (1.535069) product (1.523995) valu (1.445278) notredam (1.404566) rais (1.381015) tofu (1.374058) trouver (1.350871) midi (1.328097) manag (1.304787) interior (1.300234) 
min (1.852713) cochon (1.743466) ambienc (1.579232) loin (1.537269) instal (1.514642) straight (1.490408) turkey (1.475243) build (1.465089) pig (1.435415) ct (1.427573) 
18 (1.728581) slection (1.687678) coin (1.618227) compar (1.587842) station (1.541042) trouv (1.522866) chinatown (1.504159) dy (1.478351) warn (1.466579) sall (1.442031) 
Error (train/valid/test) = 0.126243/1.450855/1.338962 (0.030904)
..................................................
energy after gradient step = 27469618.538439

Top words for each topic:
carrot (1.795282) problem (1.685713) steam (1.642330) vodka (1.640173) memor (1.633302) ton (1.521790) hockey (1.499193) moist (1.489157) bbq (1.474763) internet (1.465214) 
known (2.099296) entre (1.690056) 50 (1.594643) month (1.571457) card (1.519161) danc (1.426293) basement (1.405503) realiz (1.404356) design (1.399377) saw (1.382490) 
apr (1.942379) upstair (1.747755) deliveri (1.707546) tapa (1.654091) class (1.637852) regret (1.611439) budget (1.593139) america (1.553734) brand (1.551678) authent (1.528086) 
met (1.798351) conveni (1.584645) ground (1.529731) opportun (1.512749) cut (1.484375) nois (1.459394) yum (1.421733) tant (1.419299) stick (1.415700) avon (1.402591) 
omg (1.954084) coat (1.736840) count (1.692946) air (1.672624) sea (1.625703) crust (1.624083) canard (1.548012) chaud (1.539951) sever (1.530076) major (1.456645) 
hall (1.964686) fit (1.798428) crisp (1.663047) direct (1.658238) favourit (1.556727) glad (1.547248) overwhelm (1.537365) eggplant (1.500013) veget (1.481350) forgot (1.448618) 
attempt (1.657030) tini (1.567635) comptoir (1.528335) vintag (1.512725) hipster (1.495717) low (1.456582) comfi (1.446210) wall (1.434827) browni (1.417037) chorizo (1.393233) 
product (1.626484) doubl (1.557861) soon (1.545270) midi (1.524639) cet (1.439970) berri (1.433566) interior (1.424130) tofu (1.418005) valu (1.414009) stair (1.405844) 
min (1.718864) ambienc (1.665318) straight (1.598592) tes (1.595945) turkey (1.582349) cochon (1.578141) instal (1.550013) ct (1.482623) loin (1.475511) chic (1.472871) 
18 (1.801561) slection (1.759485) station (1.635865) warn (1.622113) who (1.583627) compar (1.572120) chinatown (1.571478) coin (1.532632) 13 (1.489354) amus (1.488582) 
Error (train/valid/test) = 0.107458/1.474259/1.359595 (0.031241)
..................................................
energy after gradient step = 27457247.592182

Top words for each topic:
carrot (1.863375) problem (1.755935) memor (1.704119) vodka (1.697048) steam (1.685722) cashier (1.579049) temperatur (1.574276) ton (1.567747) tempura (1.560069) lavenu (1.547704) 
known (2.118061) month (1.807723) entre (1.692935) 50 (1.649852) card (1.584820) danc (1.521850) lgume (1.462621) ignor (1.423663) client (1.420117) groceri (1.389187) 
apr (2.002378) upstair (1.953537) regret (1.844483) tapa (1.689404) america (1.669716) raspberri (1.641289) class (1.588800) websit (1.567996) yelper (1.557247) deliveri (1.538619) 
met (1.810105) butteri (1.674207) conveni (1.637871) ground (1.636930) 7 (1.521853) cut (1.512167) tant (1.489494) nois (1.486916) yum (1.481751) opportun (1.479207) 
coat (1.750922) omg (1.724991) crust (1.651481) count (1.640701) air (1.607860) couldnt (1.594536) major (1.593110) sea (1.540399) gras (1.516245) nai (1.482999) 
hall (2.124892) fit (1.823048) direct (1.675754) glad (1.639036) comment (1.539432) eggplant (1.529771) favourit (1.516912) american (1.472055) sear (1.455442) overwhelm (1.446672) 
tini (1.621936) comptoir (1.597551) sympathiqu (1.581586) wall (1.551850) low (1.541375) chorizo (1.525009) hipster (1.498637) attempt (1.497062) whole (1.465424) vintag (1.425841) 
midi (1.830444) interior (1.617195) soon (1.612839) doubl (1.530349) product (1.504807) black (1.478921) cet (1.456816) berri (1.423926) lower (1.406559) spoke (1.395562) 
cochon (1.775421) turkey (1.678116) instal (1.620539) min (1.618939) norm (1.612165) loin (1.609010) packag (1.567539) straight (1.560625) ambienc (1.536006) build (1.526158) 
dy (1.737910) station (1.683189) 18 (1.677334) odd (1.630553) compar (1.628403) coin (1.612476) shower (1.602642) who (1.568924) slection (1.552499) chinatown (1.547692) 
Error (train/valid/test) = 0.095806/1.494642/1.377721 (0.032090)
..................................................
energy after gradient step = 27446333.666791

Top words for each topic:
carrot (1.895099) problem (1.748693) lavenu (1.730517) vodka (1.693640) bbq (1.633878) cashier (1.618648) temperatur (1.587993) steam (1.531740) nyc (1.528177) afternoon (1.527859) 
known (2.032532) month (1.775317) 50 (1.707122) entre (1.675788) card (1.597675) lgume (1.457291) dress (1.436043) realiz (1.432178) client (1.409439) danc (1.407225) 
upstair (1.980040) apr (1.925224) tapa (1.798353) america (1.747090) deliveri (1.729330) raspberri (1.695311) regret (1.651033) veget (1.590391) serveus (1.578172) unpretenti (1.534691) 
met (1.886390) conveni (1.823854) ground (1.819817) tant (1.649079) opportun (1.606399) cut (1.568917) butteri (1.512326) joy (1.511887) bire (1.511697) yum (1.511199) 
omg (1.952773) coat (1.934621) air (1.827064) crust (1.759397) gras (1.683232) major (1.643917) count (1.594051) nai (1.575933) brick (1.538408) sea (1.497528) 
fit (1.979073) hall (1.963752) comment (1.813788) direct (1.745436) eggplant (1.632965) glad (1.560507) votr (1.550714) pate (1.544770) smile (1.498242) sear (1.462954) 
tini (1.667260) wall (1.642811) attempt (1.586614) miso (1.562563) sympathiqu (1.559691) vintag (1.534002) crazi (1.533287) low (1.519366) whole (1.458106) chorizo (1.448917) 
product (1.739080) midi (1.701362) interior (1.575319) soon (1.572151) suppos (1.524598) spoke (1.476062) where (1.460252) cet (1.449919) black (1.410978) rais (1.397901) 
cochon (1.984957) turkey (1.818809) norm (1.730759) packag (1.658652) ambienc (1.565535) entre (1.563840) ct (1.536301) loin (1.514742) dure (1.506207) instal (1.504311) 
compar (1.864069) 18 (1.757778) dy (1.713656) shower (1.673713) station (1.673570) chinatown (1.640019) warn (1.635957) slection (1.625453) coin (1.599597) odd (1.588981) 
Error (train/valid/test) = 0.088962/1.511301/1.388062 (0.032826)
..................................................
energy after gradient step = 27431055.283755

Top words for each topic:
problem (1.861455) carrot (1.797551) lavenu (1.759226) vodka (1.706638) temperatur (1.597757) saq (1.588243) form (1.552959) nyc (1.524485) steam (1.511870) fat (1.491311) 
known (2.128183) month (1.791243) card (1.752236) 50 (1.726339) entre (1.722205) realiz (1.652530) client (1.619860) lgume (1.528704) donn (1.469081) ignor (1.458401) 
upstair (1.953886) apr (1.891276) regret (1.835508) deliveri (1.800377) question (1.622582) musiqu (1.611012) tapa (1.601892) raspberri (1.587298) america (1.581668) serveus (1.566779) 
met (1.942453) ground (1.875891) butteri (1.768038) tant (1.760404) conveni (1.723034) yum (1.663287) opportun (1.577280) bire (1.566676) t (1.566177) enough (1.516190) 
gras (1.863350) omg (1.862537) air (1.839997) crust (1.757589) coat (1.733945) count (1.718560) couldnt (1.705583) casual (1.602827) brick (1.553292) cher (1.550876) 
fit (2.013801) hall (1.988064) comment (1.856834) direct (1.753169) votr (1.659327) pate (1.594817) peac (1.573789) appreci (1.524149) boisson (1.524028) eggplant (1.503639) 
tini (1.772533) sympathiqu (1.719314) wall (1.715196) miso (1.634659) comptoir (1.571088) vintag (1.570273) curri (1.552949) attempt (1.536281) whole (1.514272) comfi (1.513512) 
midi (1.768855) product (1.655635) soon (1.651476) valu (1.551825) black (1.493861) pain (1.464480) notredam (1.444832) interior (1.427184) desir (1.407558) stair (1.390090) 
cochon (2.022877) norm (1.788316) packag (1.758096) turkey (1.660838) plein (1.655425) build (1.648466) entre (1.637848) ambienc (1.603947) daili (1.579630) min (1.572216) 
compar (1.892514) knew (1.790285) slection (1.673190) trouv (1.630954) warn (1.608762) station (1.603612) who (1.599095) shower (1.594297) 18 (1.593823) dy (1.583507) 
Error (train/valid/test) = 0.081757/1.535573/1.404043 (0.033805)
..................................................
energy after gradient step = 27418183.192257

Top words for each topic:
carrot (1.845522) lavenu (1.834736) problem (1.820636) vodka (1.705852) temperatur (1.696713) nyc (1.667643) schwartz (1.631133) fat (1.598655) saq (1.584755) wont (1.516163) 
known (2.205371) month (1.790121) client (1.787173) 50 (1.778398) card (1.683659) entre (1.682566) dress (1.563660) donn (1.559213) chef (1.530185) realiz (1.502718) 
regret (2.071264) deliveri (1.988306) upstair (1.955830) apr (1.947730) question (1.681240) tapa (1.622986) america (1.622957) serveus (1.588329) chair (1.577071) least (1.519963) 
met (1.923213) conveni (1.878407) butteri (1.868064) ground (1.777163) tant (1.763298) yum (1.617343) opportun (1.605252) enough (1.564499) homey (1.507061) bire (1.504219) 
gras (1.988389) crust (1.817553) coat (1.813120) count (1.798723) air (1.631867) omg (1.620999) bake (1.581211) couldnt (1.563825) equip (1.556936) chaud (1.553917) 
fit (2.005775) hall (1.913342) direct (1.783637) votr (1.711549) comment (1.684271) welcom (1.613024) favourit (1.550940) boisson (1.536760) pate (1.522142) smile (1.511121) 
sympathiqu (1.753357) tini (1.717352) miso (1.632159) attempt (1.617177) wall (1.601007) curri (1.584160) crazi (1.548650) vintag (1.517061) browni (1.515700) comfi (1.465629) 
product (1.702579) midi (1.687329) valu (1.647838) soon (1.602864) spoke (1.548275) black (1.537717) stair (1.476210) suppos (1.468315) pain (1.447094) doubl (1.433388) 
cochon (2.148394) plein (1.739961) gras (1.713964) norm (1.698706) foie (1.683864) build (1.677561) turkey (1.650973) dure (1.639214) min (1.586578) entre (1.573202) 
compar (1.877477) dy (1.810752) knew (1.786042) station (1.734690) trouv (1.724936) 18 (1.701152) job (1.655725) shower (1.633542) warn (1.606713) who (1.602876) 
Error (train/valid/test) = 0.077754/1.553027/1.413807 (0.033867)
..................................................
energy after gradient step = 27406617.859065

Top words for each topic:
lavenu (1.901287) carrot (1.871300) problem (1.828549) schwartz (1.743830) vodka (1.727692) moist (1.684444) nyc (1.660922) temperatur (1.608649) market (1.604011) dent (1.596855) 
known (2.248768) 50 (1.927532) card (1.872919) entre (1.871441) client (1.782099) month (1.714538) danc (1.644608) realiz (1.618403) dress (1.562316) chef (1.561347) 
upstair (2.055430) regret (1.980316) deliveri (1.948892) apr (1.921473) raspberri (1.761517) semain (1.730734) question (1.726134) serveus (1.636082) confus (1.627114) class (1.625045) 
conveni (1.880123) ground (1.829108) butteri (1.824774) met (1.809136) yum (1.790958) opportun (1.775778) tant (1.625040) t (1.597419) weve (1.528060) enough (1.512705) 
gras (2.129402) crust (1.934442) canard (1.712080) count (1.710946) bake (1.707736) sum (1.666932) duck (1.665108) coat (1.661220) issu (1.657514) foie (1.652653) 
fit (2.017477) comment (1.901074) hall (1.879640) direct (1.682736) welcom (1.623722) sent (1.571074) oeuf (1.567826) smile (1.556893) appreci (1.556849) venu (1.547075) 
curri (1.769525) wall (1.717918) tini (1.716497) attempt (1.665892) miso (1.664903) pleas (1.569209) sympathiqu (1.561399) comfi (1.555666) crazi (1.530787) browni (1.530375) 
valu (1.838199) product (1.789976) soon (1.687924) pain (1.635337) black (1.622552) spoke (1.567517) midi (1.552187) where (1.544183) stair (1.497741) notredam (1.473125) 
cochon (2.397808) min (1.841148) foie (1.817502) dure (1.773269) gras (1.773252) straight (1.762126) daili (1.628231) ct (1.626500) norm (1.618122) plein (1.608526) 
knew (1.985052) compar (1.836822) dy (1.728874) trouv (1.705343) 18 (1.691393) station (1.680857) job (1.645358) warn (1.626239) fairmount (1.593673) shower (1.569082) 
Error (train/valid/test) = 0.074599/1.573943/1.429826 (0.035165)
..................................................
energy after gradient step = 27390444.267161

Top words for each topic:
lavenu (1.963227) carrot (1.910684) problem (1.877427) schwartz (1.813016) moist (1.676771) dent (1.628442) god (1.619276) market (1.586863) vodka (1.574127) temperatur (1.548236) 
known (2.299098) entre (1.943085) 50 (1.819823) month (1.806933) card (1.692966) client (1.664337) ignor (1.627449) danc (1.620471) scream (1.601352) lieu (1.535645) 
regret (2.082840) upstair (2.003353) deliveri (2.001087) raspberri (1.805524) question (1.737475) authent (1.706644) serveus (1.703459) tapa (1.689301) apr (1.663421) semain (1.625549) 
conveni (1.879476) butteri (1.829644) yum (1.816029) opportun (1.786122) tant (1.754378) ground (1.735203) t (1.655430) pricey (1.614373) hair (1.574360) met (1.573505) 
gras (2.316482) foie (1.992191) crust (1.979356) bake (1.889183) duck (1.855415) coat (1.843623) canard (1.807879) coup (1.739609) read (1.663151) centr (1.656697) 
fit (2.010860) hall (1.872021) comment (1.793938) sent (1.706500) welcom (1.599805) smile (1.589184) guest (1.586161) direct (1.576422) lover (1.556727) bare (1.553901) 
crazi (1.823767) sympathiqu (1.760464) curri (1.732901) tini (1.730911) wall (1.685048) pleas (1.678170) hipster (1.646362) miso (1.642192) cup (1.597204) attempt (1.526653) 
valu (2.034738) product (1.707326) spoke (1.653279) soon (1.649506) dim (1.555560) almost (1.552536) black (1.550730) content (1.542309) mieux (1.529723) interior (1.520642) 
cochon (2.424090) foie (1.972502) gras (1.866003) dure (1.834886) pig (1.713243) min (1.705598) plein (1.658004) norm (1.656273) turkey (1.633997) daili (1.633730) 
trouv (1.912984) dy (1.803918) who (1.792015) knew (1.771845) job (1.728577) sa (1.669052) compar (1.666024) 18 (1.639422) mayo (1.629315) hate (1.625870) 
Error (train/valid/test) = 0.069738/1.586426/1.436392 (0.035458)
..................................................
energy after gradient step = 27370543.735110

Top words for each topic:
carrot (2.033741) lavenu (1.913376) schwartz (1.906168) problem (1.875984) spaghetti (1.687041) mustard (1.664102) market (1.639461) vodka (1.622926) moist (1.614608) temperatur (1.595291) 
known (2.207658) 50 (1.997910) entre (1.893119) client (1.743985) month (1.739939) donn (1.681398) gras (1.670889) lieu (1.629384) scream (1.611702) danc (1.598079) 
deliveri (2.075494) upstair (2.045336) regret (2.005480) confus (1.914864) raspberri (1.765895) apr (1.755793) question (1.698561) authent (1.689360) serveus (1.686408) outdoor (1.681673) 
conveni (1.866508) tant (1.787274) butteri (1.727697) enough (1.690698) ground (1.682629) hair (1.676251) t (1.656989) met (1.647523) yum (1.623813) regard (1.573244) 
gras (2.531952) foie (2.179177) crust (2.056745) omg (1.992359) duck (1.983616) bake (1.972563) coat (1.961187) foot (1.778088) canard (1.759467) couldnt (1.733300) 
fit (1.889056) sent (1.855282) hall (1.801144) votr (1.751209) direct (1.708094) comment (1.695022) froid (1.675902) venu (1.630977) appreci (1.611333) bare (1.610080) 
crazi (1.932944) comptoir (1.924958) curri (1.823352) miso (1.762453) pleas (1.743114) sympathiqu (1.688539) attempt (1.655770) bass (1.635968) noth (1.629214) wall (1.626904) 
valu (1.993708) midi (1.741626) black (1.686344) product (1.658089) keg (1.638448) spoke (1.620616) livr (1.604021) soon (1.596859) specif (1.596296) stair (1.592028) 
cochon (2.548991) foie (2.164948) gras (1.976202) pig (1.906594) min (1.834539) plein (1.813252) dure (1.783601) norm (1.733435) chic (1.721060) straight (1.691570) 
trouv (1.944665) dy (1.896576) knew (1.838724) 18 (1.821097) odd (1.815559) milk (1.783065) slection (1.741951) job (1.739198) hate (1.693003) who (1.675221) 
Error (train/valid/test) = 0.067983/1.602171/1.451284 (0.035725)
..................................................
energy after gradient step = 27354833.821609

Top words for each topic:
schwartz (2.197139) lavenu (1.929736) carrot (1.901234) problem (1.857820) market (1.855173) mustard (1.780161) memori (1.716634) spaghetti (1.676845) nyc (1.659763) moist (1.653378) 
known (2.312510) entre (1.901855) 50 (1.876155) month (1.817620) client (1.732777) gras (1.703417) fat (1.689616) scream (1.636992) card (1.608091) realiz (1.605795) 
deliveri (2.104923) upstair (2.045707) regret (2.038810) confus (1.951516) question (1.843890) raspberri (1.824931) apr (1.807704) hockey (1.803009) authent (1.757282) tapa (1.728046) 
conveni (1.953255) ground (1.760502) tant (1.730577) enough (1.693693) hair (1.677607) weve (1.676584) varieti (1.649809) t (1.593914) short (1.565287) yum (1.554418) 
gras (2.690628) foie (2.466854) duck (2.156376) coat (2.075160) crust (2.016364) bake (1.966026) omg (1.881847) canard (1.872042) pie (1.847486) read (1.833211) 
fit (2.030767) hall (1.930056) sent (1.812837) bare (1.773327) guest (1.740502) votr (1.739865) comment (1.708150) direct (1.652592) japanes (1.652192) appreci (1.648564) 
curri (2.101628) crazi (1.982664) comptoir (1.907204) pleas (1.792908) sympathiqu (1.763854) wall (1.712358) miso (1.685406) omelett (1.657560) noth (1.651220) tini (1.640352) 
valu (1.975624) midi (1.762508) keg (1.735235) black (1.734940) spoke (1.729439) bagel (1.724097) product (1.699776) specif (1.697735) stair (1.664526) mediocr (1.604863) 
cochon (2.477834) foie (2.091733) pig (1.932097) min (1.911864) gras (1.857749) plein (1.855221) dure (1.826548) norm (1.810251) straight (1.756747) chic (1.727206) 
trouv (2.028680) dy (1.947496) odd (1.879991) knew (1.793439) 18 (1.785572) milk (1.725516) job (1.695930) hate (1.693196) coin (1.672398) compar (1.668978) 
Error (train/valid/test) = 0.065815/1.607472/1.455988 (0.035843)
..................................................
energy after gradient step = 27334019.316747

Top words for each topic:
schwartz (2.491807) lavenu (2.096390) market (2.032146) carrot (1.943093) cherri (1.909515) mustard (1.832485) problem (1.808498) band (1.716609) spaghetti (1.701571) memori (1.676353) 
known (2.294501) entre (2.079930) 50 (2.058127) month (1.792949) gras (1.745718) lieu (1.742858) client (1.723154) scream (1.718035) fat (1.661055) danc (1.638929) 
upstair (2.235300) deliveri (2.101782) regret (1.915184) question (1.855911) raspberri (1.836877) authent (1.822851) hockey (1.816598) serveus (1.815360) apr (1.806432) unpretenti (1.756328) 
ground (1.772093) conveni (1.768620) enough (1.700152) butteri (1.682950) tant (1.682272) t (1.643773) varieti (1.615724) short (1.613572) weve (1.610965) young (1.586780) 
gras (2.782440) foie (2.647595) duck (2.280742) crust (2.118971) coat (2.026056) bake (1.999396) pie (1.975174) canard (1.955989) fatti (1.951297) pig (1.900941) 
hall (1.938595) fit (1.922233) sent (1.859601) bare (1.845617) comment (1.807501) direct (1.719855) japanes (1.698790) appreci (1.678905) lover (1.654928) church (1.635093) 
curri (2.136513) comptoir (2.004386) pleas (1.877825) crazi (1.844241) sympathiqu (1.751909) hipster (1.735495) miso (1.689139) cup (1.687605) beau (1.661943) browni (1.629511) 
valu (2.002203) bagel (1.824941) black (1.785100) stair (1.763534) product (1.747040) specif (1.729628) midi (1.692770) soon (1.646399) town (1.644906) strawberri (1.640636) 
cochon (2.547507) gras (1.928915) foie (1.927997) min (1.905596) norm (1.873766) plein (1.804998) straight (1.760526) dure (1.728896) pig (1.701189) chic (1.667622) 
trouv (1.939965) odd (1.866018) dy (1.842392) 18 (1.812015) compar (1.779966) milk (1.772231) job (1.699004) coin (1.678397) knew (1.672763) sa (1.668238) 
Error (train/valid/test) = 0.064830/1.608295/1.458586 (0.035492)
..................................................
energy after gradient step = 27310752.938594

Top words for each topic:
schwartz (2.611549) lavenu (2.187976) market (2.155372) mustard (2.122700) cherri (1.926376) carrot (1.765830) problem (1.756862) moist (1.725227) nyc (1.718294) memori (1.711566) 
known (2.243410) entre (2.160105) 50 (1.887518) fat (1.823376) scream (1.793534) month (1.769671) bison (1.754311) client (1.730270) gras (1.658825) danc (1.622157) 
deliveri (2.189408) upstair (2.101567) authent (1.909618) regret (1.886205) hockey (1.853164) question (1.824106) raspberri (1.800849) apr (1.791232) massag (1.778073) sembl (1.752265) 
ground (1.810370) enough (1.762155) conveni (1.746892) varieti (1.727693) tant (1.686067) butteri (1.674447) hair (1.669266) kid (1.623796) young (1.615969) t (1.604734) 
gras (2.941024) foie (2.863499) duck (2.424668) pie (2.270382) cochon (2.131905) canard (2.119343) pig (2.102848) fatti (2.006606) bake (2.006504) rich (1.955167) 
fit (2.046509) comment (1.984962) hall (1.875634) bare (1.789615) votr (1.761444) appreci (1.745868) sent (1.738641) japanes (1.733348) venu (1.709413) church (1.702471) 
curri (2.071154) comptoir (1.950090) cup (1.895126) miso (1.846984) crazi (1.799750) pleas (1.794295) beau (1.757283) hipster (1.752886) attempt (1.744992) burrito (1.741968) 
valu (1.983204) bagel (1.953480) stair (1.848391) midi (1.806264) black (1.759009) product (1.753474) crepe (1.731675) specif (1.709016) saint (1.696457) soon (1.695813) 
cochon (2.368706) min (1.908823) norm (1.876966) straight (1.857754) foie (1.840647) bagel (1.828281) gras (1.799594) plein (1.722001) pig (1.715355) photo (1.684336) 
milk (1.957889) cupcak (1.906442) odd (1.887995) dy (1.876270) trouv (1.813685) 18 (1.808198) knew (1.802955) compar (1.790344) coin (1.768321) pub (1.751617) 
Error (train/valid/test) = 0.066175/1.604726/1.460070 (0.035111)
..................................................
energy after gradient step = 27272365.609842

Top words for each topic:
schwartz (2.808107) market (2.202741) cherri (2.191969) mustard (2.187324) lavenu (2.167917) nyc (1.970764) spaghetti (1.866481) problem (1.861512) band (1.840250) classic (1.832542) 
known (2.289437) entre (2.193462) 50 (1.882238) month (1.775053) danc (1.771911) bison (1.758369) client (1.748312) fat (1.744939) scream (1.730934) risotto (1.658197) 
upstair (2.308178) deliveri (2.252854) apr (2.013295) raspberri (1.973866) confus (1.868650) hockey (1.856174) serveus (1.850133) regret (1.831018) question (1.802358) authent (1.769272) 
dumpl (1.911323) ground (1.895151) t (1.753949) bire (1.746850) varieti (1.731131) conveni (1.708008) tant (1.693897) enough (1.682395) butteri (1.669063) young (1.654520) 
gras (3.094355) foie (3.076141) cochon (2.721443) duck (2.613786) pie (2.434057) pig (2.404029) fatti (2.219023) rich (2.171966) pickl (2.167463) canard (2.035880) 
fit (2.062050) hall (2.006735) bare (1.986053) sent (1.878134) appreci (1.877817) japanes (1.874393) direct (1.779482) votr (1.763212) comment (1.722307) kazu (1.702627) 
comptoir (2.095174) curri (2.086433) cup (1.886196) miso (1.842641) pleas (1.762245) sympathiqu (1.745766) site (1.721729) hipster (1.720203) beau (1.713598) crazi (1.711707) 
bagel (2.139822) valu (2.036215) crepe (1.940176) midi (1.922740) stair (1.869663) pain (1.829111) black (1.761615) product (1.737967) saint (1.680179) specif (1.673067) 
cochon (2.093287) bagel (1.949986) min (1.933845) gras (1.920841) plein (1.898424) straight (1.828656) write (1.714789) norm (1.711803) impecc (1.690247) dure (1.620767) 
dy (2.058698) trouv (1.993346) cupcak (1.850510) compar (1.806234) milk (1.792490) coin (1.769272) slection (1.762492) odd (1.727826) pub (1.719959) 18 (1.696172) 
Error (train/valid/test) = 0.068837/1.596410/1.460785 (0.034328)
..................................................
energy after gradient step = 27227600.083195

Top words for each topic:
schwartz (2.925995) cherri (2.512307) mustard (2.437877) lavenu (2.298291) market (2.270260) moist (2.186319) nyc (2.046102) smoke (2.016925) deli (1.937827) band (1.930050) 
known (2.241203) entre (2.075987) 50 (2.071163) bison (1.944975) client (1.831902) fat (1.820814) gravi (1.768065) month (1.735282) scream (1.706283) risotto (1.681659) 
deliveri (2.331534) upstair (2.227883) raspberri (2.104276) apr (2.025494) confus (1.997881) moi (1.863157) serveus (1.853799) massag (1.846794) chair (1.824504) hockey (1.815196) 
dumpl (2.064791) enough (2.013864) ground (1.856190) varieti (1.835348) met (1.798399) metro (1.790620) t (1.779985) conveni (1.770360) yum (1.687964) homey (1.674502) 
foie (3.252782) gras (3.236751) cochon (2.934907) duck (2.801995) pie (2.667498) pig (2.441741) fatti (2.425860) rich (2.384037) pickl (2.248513) blood (2.103748) 
hall (2.098952) japanes (2.030335) votr (1.986613) church (1.922535) fit (1.894469) sent (1.821287) comment (1.809783) direct (1.733909) kazu (1.713374) bare (1.709947) 
curri (2.066131) cup (2.059150) burrito (2.022117) comptoir (2.008240) pleas (1.915838) featur (1.822803) miso (1.813920) crazi (1.806579) beau (1.798483) bass (1.762265) 
bagel (2.337514) crepe (2.162610) stair (2.143443) valu (1.907650) midi (1.823707) saint (1.783591) interior (1.768426) jy (1.755925) product (1.727189) mediocr (1.700284) 
bagel (2.179144) norm (1.839942) straight (1.809157) turkey (1.695254) plein (1.688445) gras (1.675713) okay (1.661557) write (1.637570) generous (1.619849) cochon (1.614270) 
milk (2.206522) cupcak (2.043132) dy (2.022808) trouv (1.978223) coin (1.918031) compar (1.868056) slection (1.789949) knew (1.783516) dumpl (1.772484) odd (1.755357) 
Error (train/valid/test) = 0.077715/1.589729/1.453205 (0.033379)
..................................................
energy after gradient step = 27159038.856213

Top words for each topic:
schwartz (3.107574) cherri (2.430187) market (2.427116) deli (2.322362) mustard (2.316920) lavenu (2.304181) nyc (2.268368) smoke (2.160748) classic (2.097117) spaghetti (1.962374) 
known (2.347117) entre (2.090963) gravi (2.064983) bison (2.053565) 50 (1.866947) risotto (1.845035) scream (1.815964) fat (1.805519) lobster (1.782634) danc (1.764588) 
deliveri (2.290314) upstair (2.204465) confus (2.072450) raspberri (2.056961) apr (2.004854) moi (1.980813) serveus (1.953037) son (1.908888) massag (1.870879) regret (1.845118) 
dumpl (2.349429) enough (2.022273) varieti (1.907974) t (1.876833) metro (1.867243) conveni (1.820383) ground (1.811572) young (1.753254) yum (1.744236) met (1.723730) 
foie (3.366109) gras (3.311297) cochon (3.151678) duck (2.912709) pie (2.845457) pig (2.783395) rich (2.521295) fatti (2.503534) pickl (2.331065) melt (2.209106) 
hall (2.066052) japanes (2.031131) fit (1.936274) votr (1.935444) direct (1.904029) church (1.885482) appreci (1.874387) sent (1.872281) bare (1.815063) sampl (1.808117) 
cup (2.084096) curri (2.074333) burrito (2.044163) miso (1.964559) chez (1.930451) comptoir (1.904857) beau (1.891146) pleas (1.871202) bass (1.746410) sympathiqu (1.745163) 
bagel (2.477239) crepe (2.287181) stair (2.168507) product (1.955317) valu (1.919680) interior (1.884640) bouff (1.875436) strawberri (1.842328) midi (1.836662) pain (1.792651) 
bagel (2.383803) talk (1.817506) straight (1.781865) norm (1.760553) write (1.754273) balanc (1.719611) okay (1.710784) cake (1.706500) chic (1.670292) turkey (1.668931) 
milk (2.182183) dy (2.143045) cupcak (2.109228) trouv (2.064138) coin (1.928155) dumpl (1.867748) fairmount (1.830842) slection (1.830370) 18 (1.804983) step (1.733252) 
Error (train/valid/test) = 0.082464/1.578232/1.441604 (0.033085)
..................................................
energy after gradient step = 27080062.306363

Top words for each topic:
schwartz (3.314156) cherri (2.754519) deli (2.607180) mustard (2.571365) lavenu (2.531923) market (2.505604) smoke (2.348555) nyc (2.191120) classic (2.068456) moist (2.063397) 
known (2.291360) entre (2.168277) gravi (2.096980) lobster (2.026795) bison (1.994524) risotto (1.972502) curd (1.870152) cabbag (1.854675) reserv (1.840258) scream (1.772632) 
deliveri (2.346680) upstair (2.313672) raspberri (2.119966) th (2.095230) massag (2.090144) semain (2.082373) moi (2.076829) serveus (2.039748) confus (2.028569) diffrent (1.995059) 
dumpl (2.555143) varieti (1.983557) enough (1.936387) hair (1.929970) t (1.915942) ground (1.900226) wifi (1.836871) metro (1.816967) conveni (1.816485) young (1.806368) 
gras (3.974448) foie (3.812512) duck (3.361018) cochon (3.243727) pie (3.025195) rich (2.702984) pig (2.698247) fatti (2.550355) pickl (2.485969) tongu (2.435720) 
japanes (2.299555) hall (2.089716) church (2.019677) fit (1.970083) votr (1.927838) sent (1.839470) appreci (1.820097) comment (1.773903) bare (1.773574) sampl (1.743270) 
burrito (2.246583) curri (2.176422) cup (2.091098) chez (2.062434) airport (2.061900) beau (2.060515) taco (2.025923) comptoir (1.934098) site (1.925711) miso (1.924185) 
bagel (2.902597) crepe (2.375038) stair (2.134071) interior (2.067289) product (2.049313) midi (2.043366) valu (1.980780) saint (1.871712) pain (1.866942) livr (1.849809) 
bagel (2.614413) norm (1.967157) chic (1.876719) straight (1.851173) sister (1.811367) frite (1.807035) okay (1.796139) samosa (1.741250) write (1.724414) cake (1.709445) 
cupcak (2.307316) dy (2.302965) milk (2.298126) trouv (2.168086) dumpl (2.074987) coin (1.997123) chinatown (1.892857) slection (1.836240) odd (1.827485) fairmount (1.805565) 
Error (train/valid/test) = 0.099485/1.551414/1.432730 (0.032925)
..................................................
energy after gradient step = 26967616.491803

Top words for each topic:
schwartz (3.486919) deli (2.987343) mustard (2.646825) cherri (2.645167) market (2.572361) smoke (2.561224) lavenu (2.470173) nyc (2.296329) medium (2.223143) classic (2.132340) 
gravi (2.323587) known (2.306833) lobster (2.180108) bison (2.160523) curd (2.109270) entre (2.076246) risotto (2.029303) chef (1.900293) scream (1.871554) danc (1.865660) 
deliveri (2.439120) th (2.314993) upstair (2.310579) moi (2.230754) raspberri (2.180153) apr (2.177148) class (2.053509) massag (2.038619) chain (2.023002) serveus (2.016577) 
dumpl (2.898955) conveni (2.165504) enough (2.114230) varieti (2.077564) t (2.043190) hair (2.032019) ground (1.955199) entr (1.931497) metro (1.926178) cocktail (1.892085) 
gras (4.169025) foie (4.017332) duck (3.540309) cochon (3.229002) pie (3.134405) pig (2.967832) rich (2.728554) fatti (2.627433) reserv (2.519335) mouth (2.481954) 
japanes (2.398786) hall (2.165849) fit (2.137836) church (2.005030) direct (1.907229) sent (1.863530) appreci (1.832428) comment (1.829746) anoth (1.792680) veget (1.782300) 
burrito (2.371230) taco (2.369530) airport (2.303999) chez (2.181826) croissant (2.162206) latt (2.146155) curri (2.143447) cup (2.103499) comptoir (2.024009) beau (1.986749) 
bagel (3.021985) crepe (2.579247) stair (2.305641) product (2.239567) midi (2.009867) livr (2.009353) valu (2.008263) bouff (1.976746) pain (1.969325) club (1.968363) 
bagel (2.746209) norm (2.053673) straight (1.919959) chic (1.914272) sister (1.913149) frite (1.838926) crunchi (1.821446) samosa (1.806425) okay (1.774355) talk (1.766408) 
cupcak (2.575673) dumpl (2.327604) milk (2.288311) trouv (2.247120) dy (2.225171) coin (2.114902) odd (2.003517) tour (1.902219) chinatown (1.900469) matin (1.857253) 
Error (train/valid/test) = 0.109408/1.534685/1.421171 (0.032265)
..................................................
energy after gradient step = 26827260.529867

Top words for each topic:
schwartz (3.550748) deli (2.881010) cherri (2.831278) smoke (2.794311) market (2.706960) mustard (2.685528) lavenu (2.393370) medium (2.385872) nyc (2.270040) katz (2.246817) 
gravi (2.465912) known (2.351619) curd (2.345261) lobster (2.189780) risotto (2.178741) entre (2.073286) chef (1.910025) bistro (1.908878) half (1.865154) realiz (1.837769) 
deliveri (2.508026) apr (2.419620) upstair (2.374976) th (2.338830) raspberri (2.175394) massag (2.135063) chain (2.131676) class (2.119705) diffrent (2.097366) grand (2.092561) 
dumpl (3.027405) hair (2.237891) varieti (2.156053) t (2.130608) enough (1.996329) avon (1.986918) concept (1.984506) sum (1.973111) entr (1.963316) conveni (1.954415) 
gras (4.258283) foie (4.101715) duck (3.664282) cochon (3.171186) pie (3.087962) rich (2.801675) pig (2.670904) reserv (2.637940) fatti (2.617725) smoke (2.499625) 
japanes (2.327605) hall (2.227510) church (2.168702) anoth (1.983235) fit (1.956014) veget (1.893216) sent (1.889995) votr (1.859516) comment (1.842758) taken (1.816123) 
burrito (2.585268) taco (2.458616) chez (2.443326) airport (2.360620) croissant (2.281173) cup (2.209848) latt (2.134384) curri (2.107239) san (2.064539) beau (2.057662) 
bagel (3.242571) crepe (2.777065) stair (2.332886) product (2.207521) chocolat (2.068310) spread (2.064614) valu (2.055632) midi (2.047174) club (2.043731) saint (2.039555) 
bagel (2.969916) chic (2.036988) straight (2.032006) norm (2.029076) samosa (1.880313) impecc (1.822204) frite (1.800044) write (1.784223) cake (1.766159) talk (1.741326) 
cupcak (2.627811) dy (2.407463) trouv (2.354952) coin (2.282099) milk (2.281149) dumpl (2.257878) bike (2.020781) odd (2.011759) tour (1.994290) chinatown (1.972051) 
Error (train/valid/test) = 0.123748/1.503676/1.399929 (0.031905)
..................................................
energy after gradient step = 26635579.050164

Top words for each topic:
schwartz (3.680079) deli (3.081958) smoke (3.011214) mustard (2.933925) cherri (2.875635) market (2.851869) lavenu (2.646002) katz (2.447474) medium (2.380571) lean (2.342254) 
gravi (2.680613) curd (2.355604) risotto (2.278433) known (2.275344) lobster (1.985530) chef (1.977379) word (1.972763) half (1.899993) rib (1.898352) poutin (1.882578) 
th (2.698329) apr (2.529420) deliveri (2.519546) class (2.416442) upstair (2.360267) semain (2.298463) quelqu (2.291030) massag (2.290994) moi (2.270867) grand (2.229009) 
dumpl (3.306218) hair (2.382170) t (2.267978) bire (2.259307) avon (2.222545) varieti (2.179269) wifi (2.115160) entr (2.091853) conveni (2.040623) enough (2.035686) 
foie (3.980868) gras (3.922744) duck (3.562865) cochon (3.142904) pie (3.096436) pig (2.865699) rich (2.787387) reserv (2.702654) smoke (2.575499) fat (2.554217) 
japanes (2.486947) church (2.238807) hall (2.227710) fit (2.003481) sent (1.906480) comment (1.894024) votr (1.855779) taken (1.802175) anoth (1.793574) direct (1.787937) 
burrito (2.904291) taco (2.586050) airport (2.442259) chez (2.424730) croissant (2.404290) cup (2.240131) latt (2.238419) beau (2.230987) san (2.196068) comptoir (2.175575) 
bagel (3.520300) crepe (3.033247) stair (2.479441) product (2.316553) chocolat (2.259133) sesam (2.141139) museum (2.139101) design (2.137341) spread (2.135675) club (2.084832) 
bagel (3.103134) chic (2.239760) straight (2.018815) norm (2.015447) talk (1.915350) samosa (1.852250) okay (1.847940) frite (1.841515) chewi (1.789784) averag (1.769992) 
cupcak (2.909576) dy (2.465681) milk (2.327336) trouv (2.303803) vill (2.222114) bike (2.204508) tour (2.199241) dumpl (2.168654) coin (2.154863) chinatown (2.064081) 
Error (train/valid/test) = 0.143967/1.479312/1.383922 (0.031059)
..................................................
energy after gradient step = 26374396.209417

Top words for each topic:
schwartz (3.755410) deli (3.269066) smoke (3.159230) cherri (2.985372) market (2.856594) mustard (2.814583) lavenu (2.657281) lean (2.536329) katz (2.519649) medium (2.360509) 
gravi (2.735870) curd (2.475454) known (2.292233) risotto (2.236335) poutin (2.176820) banquis (2.077218) chef (1.985081) scream (1.951576) half (1.928911) realiz (1.927017) 
th (2.819014) deliveri (2.673645) class (2.576501) apr (2.554509) quelqu (2.517362) moi (2.380073) upstair (2.377134) grand (2.370439) massag (2.354713) semain (2.352584) 
dumpl (3.473890) hair (2.406432) t (2.343410) bire (2.293075) conveni (2.282039) avon (2.276038) varieti (2.236041) wifi (2.192663) entr (2.181073) toujour (2.093727) 
foie (4.011167) gras (3.970826) duck (3.586593) pie (3.103105) cochon (3.063640) rich (2.826928) reserv (2.794070) smoke (2.623308) appet (2.606236) pig (2.572452) 
japanes (2.496153) church (2.441184) hall (2.291822) comment (2.068943) fit (2.054118) anoth (1.963700) pita (1.924256) sent (1.826855) votr (1.825501) doe (1.796707) 
burrito (2.844931) taco (2.812078) chez (2.635509) croissant (2.618893) airport (2.569523) beau (2.441161) latt (2.360313) san (2.334504) sympathiqu (2.330107) loung (2.307844) 
bagel (3.650587) crepe (3.254670) stair (2.566119) chocolat (2.515559) product (2.469854) sesam (2.317200) pain (2.283707) espresso (2.282734) plein (2.201706) midi (2.199574) 
bagel (3.230216) chic (2.157543) norm (2.147656) straight (2.070288) talk (1.950292) frite (1.939740) chewi (1.923021) samosa (1.889936) pull (1.867508) instal (1.819121) 
cupcak (3.089856) bike (2.668667) dy (2.573015) trouv (2.472554) milk (2.409085) coin (2.379575) tour (2.330078) shower (2.186095) dumpl (2.122930) chinatown (2.084601) 
Error (train/valid/test) = 0.163654/1.461217/1.364409 (0.030796)
..................................................
energy after gradient step = 26060780.545301

Top words for each topic:
schwartz (3.974403) deli (3.371245) smoke (3.309723) cherri (3.031048) mustard (3.008342) market (2.997291) lavenu (2.856092) katz (2.613196) lean (2.516639) line (2.511550) 
gravi (2.866386) curd (2.537226) poutin (2.359633) known (2.328359) risotto (2.257738) banquis (2.132814) half (1.982763) rib (1.894383) bun (1.871721) realiz (1.858991) 
th (2.942175) apr (2.869353) class (2.782072) deliveri (2.749212) quelqu (2.688885) semain (2.601449) massag (2.597498) moi (2.538604) diffrent (2.506076) chain (2.423842) 
dumpl (3.780133) hair (2.595166) bire (2.580164) t (2.527344) entr (2.520575) avon (2.418314) mes (2.280333) wifi (2.227185) toujour (2.226604) resto (2.223370) 
foie (4.016802) gras (3.993463) duck (3.619159) pie (3.001872) cochon (2.948020) reserv (2.866621) rich (2.732373) appet (2.706257) pig (2.610656) pork (2.609718) 
japanes (2.727589) church (2.482486) hall (2.398316) fit (2.091752) comment (2.076773) pita (2.009556) grill (1.913998) taken (1.909672) wing (1.892743) paid (1.828070) 
burrito (3.078525) croissant (2.835879) taco (2.823678) airport (2.725573) chez (2.615341) san (2.567569) beau (2.566495) aussi (2.457434) latt (2.439530) lendroit (2.432804) 
bagel (3.787581) crepe (3.459862) stair (2.789214) product (2.600396) sesam (2.533516) chocolat (2.528016) espresso (2.434338) pain (2.357355) design (2.353796) chocol (2.329555) 
bagel (3.382418) chic (2.252820) straight (2.246749) norm (2.215496) pull (2.140125) talk (2.119748) bed (2.005463) cup (1.933109) instal (1.927074) bathroom (1.917676) 
cupcak (3.458496) bike (2.970115) dy (2.719642) tour (2.625452) coin (2.479596) milk (2.463173) trouv (2.425296) shower (2.303480) pub (2.273480) gratuit (2.177720) 
Error (train/valid/test) = 0.183188/1.450129/1.349408 (0.030455)
..................................................
energy after gradient step = 25693249.917308

Top words for each topic:
schwartz (4.043133) deli (3.505576) smoke (3.424850) market (3.121135) cherri (3.117706) mustard (3.054196) lavenu (2.945828) katz (2.693333) lean (2.650105) line (2.628990) 
gravi (2.941330) poutin (2.732196) curd (2.623628) banquis (2.310617) known (2.272751) risotto (2.183443) bun (2.090048) half (2.054374) realiz (1.973364) gourmando (1.962122) 
th (3.164454) apr (2.951245) class (2.901424) quelqu (2.834503) massag (2.757606) semain (2.753065) deliveri (2.743494) moi (2.714843) nail (2.644700) maison (2.642667) 
dumpl (3.938069) hair (2.703812) bire (2.662407) entr (2.591094) avon (2.575252) t (2.563547) font (2.412964) toujour (2.364969) mes (2.363720) sum (2.358735) 
foie (3.834844) gras (3.802523) duck (3.447216) pie (2.972274) cochon (2.909461) reserv (2.805947) rich (2.732270) appet (2.674160) pork (2.562155) wine (2.551445) 
japanes (2.773067) church (2.613931) hall (2.477988) fit (2.104167) comment (2.041917) pita (2.018608) wing (1.969418) indian (1.945819) taken (1.915204) grill (1.913606) 
burrito (3.111326) taco (2.883153) croissant (2.870279) airport (2.747541) chez (2.645418) beau (2.641626) san (2.590695) jaim (2.586484) lendroit (2.581827) aussi (2.576603) 
bagel (4.025799) crepe (3.590211) stair (2.759537) chocolat (2.706024) product (2.679746) espresso (2.598664) sesam (2.520425) chocol (2.494481) museum (2.467209) view (2.464215) 
bagel (3.441068) straight (2.302330) norm (2.298963) chic (2.252537) oven (2.246652) bed (2.193457) pull (2.183473) bathroom (2.061475) tub (2.057982) cup (2.045021) 
cupcak (3.569003) bike (3.220320) tour (2.855372) dy (2.695105) coin (2.514530) shower (2.498035) milk (2.495504) trouv (2.389217) gratuit (2.371579) pub (2.324050) 
Error (train/valid/test) = 0.195728/1.438179/1.333594 (0.029970)
..................................................
energy after gradient step = 25317702.968863

Top words for each topic:
schwartz (4.175688) deli (3.634916) smoke (3.588513) market (3.236108) cherri (3.157394) mustard (3.073887) lavenu (3.059309) katz (2.845269) meat (2.805689) line (2.754293) 
gravi (2.992415) poutin (2.935979) curd (2.646488) banquis (2.403140) known (2.134102) bun (2.069022) half (2.066923) gourmando (2.034620) concierg (1.981786) danc (1.956284) 
th (3.407694) quelqu (3.099015) class (3.075024) apr (3.062301) massag (2.973846) semain (2.943579) moi (2.877463) maison (2.848627) nail (2.763026) deliveri (2.752536) 
dumpl (4.149692) bire (2.913978) hair (2.894979) avon (2.792746) entr (2.718625) t (2.709108) mes (2.533977) sum (2.522955) ell (2.511315) toujour (2.502051) 
foie (3.814263) gras (3.804167) duck (3.447621) pie (2.915179) reserv (2.807879) cochon (2.798960) appet (2.708140) dish (2.680582) rich (2.647397) pork (2.599785) 
japanes (2.901736) church (2.831390) hall (2.461332) fit (2.255518) pita (2.218194) wing (2.132477) indian (2.083758) comment (2.067674) burger (2.002198) anoth (1.995733) 
burrito (3.112012) croissant (2.985293) taco (2.944764) airport (2.853945) chez (2.796965) lendroit (2.742369) aussi (2.685440) jaim (2.667655) san (2.629797) comptoir (2.620530) 
bagel (4.212087) crepe (3.724548) stair (2.933971) chocolat (2.928952) product (2.824438) museum (2.798700) view (2.761380) espresso (2.729352) design (2.694177) chocol (2.649622) 
bagel (3.577690) oven (2.796341) bed (2.578403) straight (2.364795) bathroom (2.344648) norm (2.330804) chic (2.320667) cup (2.307854) pull (2.291156) tub (2.227493) 
cupcak (3.868344) bike (3.662273) tour (3.183293) dy (2.862785) shower (2.781662) boutiqu (2.525179) gratuit (2.520148) pub (2.476277) milk (2.472062) coin (2.425582) 
Error (train/valid/test) = 0.210652/1.435808/1.328794 (0.029960)
..................................................
energy after gradient step = 24937235.325205

Top words for each topic:
schwartz (4.315491) smoke (3.837789) deli (3.780428) market (3.388936) cherri (3.340280) meat (3.250160) mustard (3.155865) lavenu (3.114042) katz (3.096249) sandwich (3.022244) 
poutin (3.096361) gravi (3.092604) curd (2.797752) banquis (2.509893) burger (2.393481) bun (2.277508) half (2.122812) known (2.067861) gourmando (2.009590) danc (1.995452) 
th (3.532234) apr (3.206561) quelqu (3.164753) class (3.134700) semain (3.078860) massag (3.012651) moi (3.003396) diffrent (2.949517) nail (2.925819) maison (2.890519) 
dumpl (4.379592) hair (3.118422) avon (3.018609) bire (2.965517) mes (2.830485) ell (2.804778) sum (2.795586) t (2.770722) entr (2.727260) personn (2.629805) 
gras (3.731616) foie (3.720241) duck (3.348877) pie (2.861318) cochon (2.770297) reserv (2.770218) wine (2.739601) appet (2.713891) dish (2.710293) rich (2.644604) 
japanes (3.079741) church (2.941577) hall (2.568757) fit (2.481735) pita (2.303480) wing (2.300271) indian (2.271844) burger (2.175457) thai (2.174909) dog (2.123202) 
burrito (3.157043) croissant (2.967273) taco (2.911672) chez (2.819399) sympathiqu (2.790008) lendroit (2.789480) aussi (2.760503) beau (2.743043) jaim (2.726482) temp (2.695055) 
bagel (4.518060) crepe (4.011674) stair (3.205800) chocolat (3.193845) fairmount (2.998120) museum (2.968056) espresso (2.924890) product (2.904827) view (2.873204) chocol (2.855779) 
bagel (3.737661) oven (2.999445) bed (2.897973) tub (2.597685) bathroom (2.499396) lobbi (2.458823) cup (2.424986) pull (2.422771) suit (2.413994) norm (2.407304) 
cupcak (4.043569) bike (3.805448) tour (3.348182) dy (2.952257) shower (2.944831) gratuit (2.919522) game (2.718768) jean (2.654055) boutiqu (2.649135) pub (2.609880) 
Error (train/valid/test) = 0.218643/1.441281/1.332260 (0.030076)
..................................................
energy after gradient step = 24578243.789812

Top words for each topic:
schwartz (4.439160) smoke (4.148425) deli (3.891723) meat (3.553348) market (3.489883) cherri (3.457965) sandwich (3.331774) mustard (3.224907) lavenu (3.217887) pho (3.166806) 
poutin (3.378079) gravi (3.227009) curd (2.867868) burger (2.611804) banquis (2.597448) bun (2.288700) half (2.181915) fri (2.117693) gourmando (2.110636) danc (2.067300) 
th (3.657942) quelqu (3.303340) apr (3.278620) massag (3.250910) class (3.237249) semain (3.132898) nail (3.119099) diffrent (3.077551) moi (3.068340) galement (3.026125) 
dumpl (4.621112) hair (3.182279) avon (3.162043) bire (3.024407) ell (2.998409) sum (2.996874) mes (2.992739) font (2.869433) entr (2.847923) t (2.803550) 
gras (3.740209) foie (3.735020) duck (3.378371) dish (2.926638) reserv (2.844080) pie (2.815847) wine (2.813504) appet (2.774054) cochon (2.720456) steak (2.663268) 
church (3.176528) japanes (3.136120) hall (2.716731) airport (2.692079) fit (2.580809) indian (2.544026) wing (2.508308) pool (2.489559) pita (2.344968) thai (2.340380) 
burrito (3.116837) croissant (2.923889) aussi (2.849059) lendroit (2.806167) jaim (2.801978) sympathiqu (2.790570) taco (2.783458) temp (2.774521) leur (2.768626) caf (2.759032) 
bagel (4.755776) crepe (4.237366) chocolat (3.320914) stair (3.277703) museum (3.212911) fairmount (3.173149) chocol (3.107812) espresso (3.089126) viateur (3.067119) view (2.991850) 
bagel (3.800137) oven (3.205373) bed (3.148167) tub (2.951919) lobbi (2.881657) bathroom (2.781133) desk (2.629508) suit (2.592292) cup (2.576778) chic (2.508459) 
cupcak (4.334240) bike (4.097298) tour (3.580236) shower (3.312155) gratuit (2.963947) game (2.917796) casino (2.910295) jean (2.878590) dy (2.877993) boutiqu (2.839532) 
Error (train/valid/test) = 0.224573/1.455774/1.339878 (0.030476)
..................................................
energy after gradient step = 24273459.168184

Top words for each topic:
schwartz (4.614690) smoke (4.413520) deli (4.039994) meat (3.846507) market (3.594818) sandwich (3.590193) cherri (3.470808) pho (3.434083) mustard (3.376130) pastrami (3.330237) 
poutin (3.564316) gravi (3.285417) curd (2.963867) burger (2.788084) banquis (2.705050) bun (2.418013) fri (2.269641) half (2.250121) danc (2.089891) becaus (2.082721) 
th (3.832859) apr (3.398832) quelqu (3.357640) massag (3.353953) class (3.291761) semain (3.278185) nail (3.214941) diffrent (3.214082) moi (3.172466) donn (3.153050) 
dumpl (4.787770) avon (3.374753) hair (3.274894) ell (3.199864) mes (3.178325) bire (3.149586) font (3.066104) sum (3.063342) personn (2.927040) entr (2.918641) 
gras (3.718143) foie (3.715844) duck (3.370266) dish (2.925104) wine (2.887487) reserv (2.824687) pie (2.784110) appet (2.769346) steak (2.712506) cochon (2.698749) 
japanes (3.332843) church (3.256388) airport (3.172633) pool (2.850104) hall (2.832487) indian (2.741835) wing (2.554650) fit (2.537477) thai (2.509040) burger (2.491181) 
burrito (2.967895) aussi (2.874053) croissant (2.869901) leur (2.841641) trouv (2.836472) jaim (2.810826) caf (2.807290) lendroit (2.806452) si (2.793727) temp (2.782514) 
bagel (4.955915) crepe (4.425843) chocolat (3.506673) stair (3.492696) museum (3.438680) fairmount (3.431789) chocol (3.332037) viateur (3.288234) espresso (3.256062) juliett (3.202665) 
bagel (3.798042) bed (3.405643) oven (3.291428) lobbi (3.231638) tub (3.151438) desk (2.969537) bathroom (2.948984) suit (2.878076) cup (2.864939) hotel (2.780439) 
cupcak (4.602783) bike (4.381350) tour (3.858015) shower (3.572133) casino (3.190397) jean (3.102311) station (3.091290) game (3.082854) yoga (3.069278) gratuit (3.015712) 
Error (train/valid/test) = 0.228783/1.463340/1.348183 (0.030282)
..................................................
energy after gradient step = 24000976.767424

Top words for each topic:
schwartz (4.742547) smoke (4.588512) deli (4.165667) meat (4.061248) sandwich (3.744980) market (3.690602) pho (3.638788) cherri (3.592746) benedict (3.529789) katz (3.465537) 
poutin (3.728969) gravi (3.316262) curd (2.976984) burger (2.892410) banquis (2.746012) bun (2.457882) fri (2.373353) half (2.249380) patti (2.189780) realiz (2.188055) 
th (3.953184) massag (3.487310) apr (3.486795) quelqu (3.445748) diffrent (3.372288) semain (3.299554) nail (3.289049) class (3.262243) moi (3.256594) galement (3.205505) 
dumpl (5.017676) avon (3.532062) hair (3.413666) ell (3.291431) mes (3.242413) sum (3.234477) bire (3.179211) font (3.129924) personn (3.044982) vaut (3.013325) 
foie (3.714779) gras (3.710628) duck (3.365813) dish (3.100329) wine (2.956434) reserv (2.858656) appet (2.805566) steak (2.773792) pie (2.754146) meal (2.716368) 
airport (3.551184) church (3.513739) japanes (3.473990) pool (3.073846) indian (3.012773) hall (2.965485) fit (2.812019) thai (2.705320) wing (2.625814) chain (2.608181) 
aussi (2.928729) burrito (2.908758) trouv (2.849757) caf (2.848059) leur (2.838742) si (2.805085) jaim (2.801737) quil (2.790750) temp (2.785465) lendroit (2.781717) 
bagel (5.130199) crepe (4.632670) museum (3.660970) chocol (3.654792) fairmount (3.628251) chocolat (3.597844) stair (3.519266) viateur (3.473756) espresso (3.395828) juliett (3.347216) 
bagel (3.870999) bed (3.703820) oven (3.551278) tub (3.533294) lobbi (3.476125) desk (3.408020) hotel (3.338040) bathroom (3.190566) suit (3.072856) room (3.052694) 
cupcak (4.795914) bike (4.590229) tour (4.071819) shower (3.860925) casino (3.518430) yoga (3.455487) jean (3.419898) station (3.378708) cloth (3.296503) game (3.278822) 
Error (train/valid/test) = 0.226756/1.474555/1.357366 (0.030836)
..................................................
energy after gradient step = 23773347.651788

Top words for each topic:
schwartz (4.893848) smoke (4.857821) deli (4.323930) meat (4.316536) sandwich (3.963999) market (3.842864) pho (3.826043) benedict (3.686077) pickl (3.684765) cherri (3.649776) 
poutin (3.917503) gravi (3.373236) curd (3.054714) burger (3.035448) banquis (2.773847) fri (2.543132) bun (2.506311) patti (2.328170) half (2.243813) danc (2.240826) 
th (4.085853) massag (3.651773) apr (3.600200) quelqu (3.495634) diffrent (3.428923) semain (3.424459) galement (3.386487) class (3.380613) moi (3.358005) donn (3.307426) 
dumpl (5.196821) avon (3.711156) sum (3.589390) hair (3.476897) ell (3.421152) mes (3.373365) bire (3.182750) coriand (3.103592) font (3.098613) personn (3.067393) 
foie (3.740431) gras (3.722882) duck (3.384207) dish (3.207469) wine (3.015910) reserv (2.899848) appet (2.871514) steak (2.839597) meal (2.794147) pie (2.764979) 
airport (3.740038) church (3.627983) japanes (3.566050) indian (3.278700) pool (3.274235) hall (3.087833) thai (2.993188) fit (2.854878) bus (2.794914) chain (2.777103) 
aussi (2.902896) leur (2.886595) caf (2.862699) trouv (2.841941) quil (2.838082) si (2.836399) lendroit (2.803993) jaim (2.803892) burrito (2.797979) sympathiqu (2.750902) 
bagel (5.387246) crepe (4.845940) chocol (4.011856) museum (3.861052) fairmount (3.852705) chocolat (3.783303) viateur (3.675763) stair (3.656935) espresso (3.646942) exhibit (3.607228) 
bed (3.961257) hotel (3.894707) bagel (3.785235) lobbi (3.732831) tub (3.724202) desk (3.719298) oven (3.688379) room (3.570299) bathroom (3.439754) suit (3.383227) 
cupcak (5.005395) bike (4.848841) tour (4.303604) shower (4.068451) casino (3.832848) yoga (3.716627) station (3.691907) cloth (3.547520) jean (3.543744) game (3.445702) 
Error (train/valid/test) = 0.222952/1.491364/1.370334 (0.031142)
..................................................
energy after gradient step = 23582463.206510

Top words for each topic:
smoke (5.020269) schwartz (4.998474) meat (4.550409) deli (4.378590) sandwich (4.197386) pho (4.006240) market (3.957934) cherri (3.892618) benedict (3.818752) pickl (3.812640) 
poutin (4.037107) gravi (3.423552) burger (3.162082) curd (3.107696) banquis (2.852653) fri (2.628112) bun (2.564125) patti (2.428655) danc (2.329588) noodl (2.272710) 
th (4.199235) massag (3.753389) apr (3.704879) bire (3.608257) quelqu (3.557156) nail (3.541831) diffrent (3.499626) class (3.421125) galement (3.389031) donn (3.367006) 
dumpl (5.373188) avon (3.876518) sum (3.800808) hair (3.523486) mes (3.408884) ell (3.306668) coriand (3.211874) moin (3.151538) entr (3.114386) personn (3.108824) 
foie (3.768521) gras (3.752113) duck (3.412135) dish (3.299577) wine (3.068921) reserv (2.931915) appet (2.920636) meal (2.913159) steak (2.899182) pie (2.781545) 
airport (3.968560) church (3.778470) japanes (3.712035) indian (3.506298) pool (3.490584) hall (3.174698) thai (3.144407) spa (3.067910) bus (2.992487) wing (2.908876) 
aussi (2.903334) trouv (2.899061) quil (2.875332) leur (2.874034) si (2.844865) caf (2.838115) lendroit (2.835772) quand (2.785979) temp (2.768570) assez (2.763958) 
bagel (5.558619) crepe (4.984082) chocol (4.289914) museum (4.033501) fairmount (3.903227) viateur (3.801385) exhibit (3.793860) chocolat (3.768382) espresso (3.738418) juliett (3.727638) 
hotel (4.315746) bed (4.166166) room (3.951920) desk (3.939020) lobbi (3.866169) tub (3.785858) oven (3.719910) bathroom (3.632609) bagel (3.609195) suit (3.476231) 
cupcak (5.179328) bike (5.027315) tour (4.451684) shower (4.297609) casino (4.073382) yoga (3.940291) station (3.865999) jean (3.776231) cloth (3.774258) game (3.634468) 
Error (train/valid/test) = 0.217339/1.503746/1.381205 (0.031336)
..................................................
energy after gradient step = 23436705.652545

Top words for each topic:
smoke (5.156460) schwartz (5.085416) meat (4.712521) deli (4.473627) sandwich (4.380910) pho (4.166061) market (4.003265) benedict (3.913588) pickl (3.879984) cherri (3.854053) 
poutin (4.120575) gravi (3.474285) burger (3.288094) curd (3.084669) banquis (2.844280) fri (2.747857) bun (2.651999) danc (2.395788) patti (2.385969) noodl (2.290197) 
th (4.340144) bire (3.896975) massag (3.847026) apr (3.667297) nail (3.603048) diffrent (3.584247) quelqu (3.532828) class (3.449676) offr (3.403766) galement (3.375443) 
dumpl (5.488696) avon (4.016130) sum (3.928040) hair (3.591752) mes (3.440177) coriand (3.351299) vivr (3.297956) moin (3.230154) entr (3.209695) font (3.194162) 
foie (3.801390) gras (3.781735) duck (3.456337) dish (3.384965) wine (3.108094) meal (3.031847) reserv (3.001700) steak (2.964528) appet (2.958457) pie (2.784843) 
airport (4.116887) church (3.936598) japanes (3.872727) indian (3.701592) pool (3.615764) spa (3.404723) hall (3.361711) thai (3.339610) bus (3.182504) fit (3.151827) 
aussi (2.935520) quil (2.924382) trouv (2.923176) leur (2.906538) si (2.874611) lendroit (2.836241) quand (2.816453) jaim (2.791264) assez (2.786009) et (2.782326) 
bagel (5.738672) crepe (5.154496) chocol (4.500083) museum (4.197627) fairmount (4.098545) exhibit (4.000494) latt (3.924891) viateur (3.888802) chocolat (3.863589) juliett (3.850122) 
hotel (4.662784) bed (4.297033) room (4.277902) desk (4.065919) lobbi (3.992003) tub (3.879687) stay (3.784711) bathroom (3.687987) oven (3.674925) gym (3.440223) 
cupcak (5.297792) bike (5.147950) tour (4.569934) shower (4.388214) casino (4.319914) yoga (4.140153) station (4.077905) cloth (3.999918) jean (3.821104) game (3.716684) 
Error (train/valid/test) = 0.212902/1.513836/1.394695 (0.031658)
..................................................
energy after gradient step = 23294806.360442

Top words for each topic:
smoke (5.245831) schwartz (5.133078) meat (4.810123) sandwich (4.548101) deli (4.511253) pho (4.263607) market (4.056011) benedict (4.009511) cherri (3.953876) pickl (3.930488) 
poutin (4.208159) gravi (3.510298) burger (3.440116) curd (3.132961) banquis (2.902784) fri (2.797620) bun (2.677244) patti (2.559415) danc (2.413047) poutinevill (2.285961) 
th (4.449340) bire (4.058732) massag (3.937310) apr (3.826864) nail (3.685188) diffrent (3.615889) quelqu (3.518606) offr (3.513961) galement (3.424027) class (3.376849) 
dumpl (5.635030) avon (4.148046) sum (4.063483) hair (3.734134) vivr (3.455438) haircut (3.449682) coriand (3.443792) mes (3.315805) entr (3.290425) moin (3.195285) 
foie (3.829106) gras (3.800139) duck (3.488102) dish (3.461270) wine (3.151237) meal (3.105339) steak (3.024431) reserv (3.015916) appet (3.013141) waiter (2.805288) 
airport (4.242697) church (4.052816) japanes (3.972974) indian (3.903225) pool (3.725045) spa (3.594201) thai (3.521340) hall (3.386218) bus (3.299466) bath (3.148472) 
aussi (2.966669) quil (2.956911) trouv (2.945856) leur (2.921785) si (2.911726) et (2.864282) quand (2.849183) sympathiqu (2.826235) assez (2.825390) lendroit (2.805244) 
bagel (5.909313) crepe (5.258251) chocol (4.615340) museum (4.289417) fairmount (4.139430) latt (4.090253) exhibit (4.066473) viateur (4.007434) espresso (4.002975) juliett (3.954856) 
hotel (4.856907) room (4.548946) bed (4.368741) desk (4.145273) lobbi (3.999134) stay (3.944915) tub (3.902848) bathroom (3.778348) oven (3.597550) gym (3.555005) 
cupcak (5.433551) bike (5.253237) tour (4.661694) shower (4.453234) casino (4.446518) yoga (4.353059) cloth (4.177034) station (4.139924) jean (3.952019) game (3.800508) 
Error (train/valid/test) = 0.207464/1.521696/1.407390 (0.031918)
..................................................
energy after gradient step = 23192777.249066

Top words for each topic:
smoke (5.293113) schwartz (5.186781) meat (4.919943) sandwich (4.676222) deli (4.578749) pho (4.354906) market (4.089909) benedict (4.067816) pickl (4.025886) cherri (3.989498) 
poutin (4.260728) burger (3.566307) gravi (3.535205) curd (3.119194) banquis (2.935426) fri (2.865682) bun (2.750677) danc (2.485521) patti (2.444725) poutinevill (2.241203) 
th (4.569577) bire (4.234199) massag (4.031875) apr (3.786135) nail (3.715328) pizza (3.682639) offr (3.543857) diffrent (3.531967) quelqu (3.528158) dieu (3.513852) 
dumpl (5.773625) avon (4.246143) sum (4.170883) hair (3.716642) haircut (3.678016) vivr (3.631751) coriand (3.569310) mes (3.256856) sushi (3.245478) nous (3.236337) 
foie (3.862362) gras (3.836424) duck (3.533064) dish (3.507502) meal (3.211759) wine (3.211464) steak (3.071735) reserv (3.070395) appet (3.068918) waiter (2.849092) 
airport (4.369088) church (4.159323) japanes (4.020622) indian (4.002356) pool (3.895160) spa (3.778477) thai (3.687377) hall (3.489567) bus (3.372641) pad (3.334913) 
quil (3.034258) aussi (3.012356) trouv (2.972452) leur (2.967204) et (2.932762) si (2.891401) quand (2.890654) assez (2.831484) lon (2.818595) lendroit (2.804034) 
bagel (6.030154) crepe (5.372843) chocol (4.783528) museum (4.399045) fairmount (4.293066) latt (4.231681) exhibit (4.151809) viateur (4.103534) espresso (4.052326) juliett (4.015971) 
hotel (4.947483) room (4.615781) bed (4.443811) desk (4.160522) lobbi (4.080090) stay (4.040589) tub (3.917013) bathroom (3.794146) wifi (3.556570) gym (3.531899) 
cupcak (5.474535) bike (5.337906) tour (4.654089) casino (4.582006) yoga (4.440850) shower (4.438923) cloth (4.296973) station (4.238123) game (3.955419) jean (3.900338) 
Error (train/valid/test) = 0.201100/1.532333/1.415921 (0.032118)
..................................................
energy after gradient step = 23097055.733226

Top words for each topic:
smoke (5.327816) schwartz (5.219691) meat (4.939092) sandwich (4.777710) deli (4.615675) pho (4.410488) benedict (4.152974) market (4.146227) pickl (4.068968) pastrami (3.942662) 
poutin (4.290079) burger (3.651840) gravi (3.540321) curd (3.151065) fri (2.941359) banquis (2.926299) bun (2.826770) patti (2.530862) danc (2.488364) poutinevill (2.250183) 
th (4.620780) bire (4.419427) massag (4.092084) pizza (3.908424) nail (3.838939) apr (3.744193) dieu (3.675582) ths (3.634731) offr (3.572818) pint (3.539933) 
dumpl (5.885576) avon (4.393498) sum (4.381269) haircut (3.825190) hair (3.807529) vivr (3.746850) coriand (3.714254) sushi (3.530170) nous (3.360016) vegan (3.277135) 
foie (3.897844) gras (3.874223) dish (3.581243) duck (3.559417) meal (3.277139) wine (3.254318) steak (3.124521) appet (3.112372) reserv (3.085002) waiter (2.929813) 
airport (4.455583) church (4.253611) indian (4.152354) japanes (4.106894) pool (3.977628) thai (3.867610) spa (3.865097) hall (3.586600) pad (3.480552) bus (3.473015) 
quil (3.049306) trouv (3.038637) aussi (3.037788) leur (2.982084) et (2.973427) si (2.896749) quand (2.882221) assez (2.836807) lendroit (2.830215) jaim (2.830062) 
bagel (6.122327) crepe (5.447580) chocol (4.846136) museum (4.458504) latt (4.361651) fairmount (4.268427) exhibit (4.247881) viateur (4.164783) espresso (4.111905) coffe (4.109931) 
hotel (4.991576) room (4.714503) bed (4.423243) desk (4.195817) stay (4.044506) lobbi (4.038579) tub (3.879180) bathroom (3.732589) wifi (3.564756) gym (3.501679) 
cupcak (5.554838) bike (5.391184) tour (4.685669) casino (4.624507) yoga (4.568132) cloth (4.318609) shower (4.224935) station (4.219720) macaron (4.115780) boutiqu (4.061276) 
Error (train/valid/test) = 0.195383/1.543990/1.428222 (0.032394)
..................................................
energy after gradient step = 23019660.727670

Top words for each topic:
smoke (5.321349) schwartz (5.252437) meat (5.005356) sandwich (4.864104) deli (4.632524) pho (4.468481) benedict (4.171053) market (4.143458) pickl (4.075915) cherri (4.034616) 
poutin (4.335562) burger (3.730103) gravi (3.549517) curd (3.179897) fri (2.996434) banquis (2.972987) bun (2.831291) patti (2.634546) danc (2.520710) poutinevill (2.311249) 
th (4.770804) bire (4.560581) pizza (4.134221) massag (4.131726) nail (3.887381) dieu (3.841458) ths (3.743109) offr (3.643610) apr (3.639454) beurr (3.610921) 
dumpl (5.986421) sum (4.503706) avon (4.380762) haircut (4.037200) vivr (3.969067) hair (3.877683) coriand (3.833619) sushi (3.776448) dim (3.500464) vegan (3.498273) 
foie (3.930703) gras (3.902731) dish (3.670801) duck (3.598293) meal (3.353067) wine (3.313259) steak (3.179444) appet (3.178234) reserv (3.109096) waiter (3.006635) 
airport (4.544244) church (4.349671) indian (4.279651) japanes (4.182043) spa (3.998834) pool (3.980614) thai (3.954463) pad (3.633660) bus (3.623728) hall (3.615464) 
aussi (3.102848) quil (3.082217) trouv (3.081721) leur (3.009382) et (3.002918) si (2.935052) quand (2.905992) assez (2.871243) lon (2.866002) qui (2.865293) 
bagel (6.180755) crepe (5.502622) chocol (4.941826) museum (4.496829) latt (4.423655) fairmount (4.326506) exhibit (4.309047) viateur (4.199262) coffe (4.176118) espresso (4.161102) 
hotel (5.046610) room (4.707026) bed (4.441753) desk (4.206623) lobbi (4.117013) stay (4.051693) tub (3.881366) bathroom (3.755132) wifi (3.579999) gym (3.545233) 
cupcak (5.577433) bike (5.422649) casino (4.672082) tour (4.656779) yoga (4.598854) cloth (4.321204) macaron (4.209844) station (4.139659) boutiqu (4.088746) store (4.084839) 
Error (train/valid/test) = 0.189305/1.549018/1.442507 (0.032636)
..................................................
energy after gradient step = 22951240.111832

Top words for each topic:
smoke (5.314522) schwartz (5.252523) meat (5.048241) sandwich (4.891424) deli (4.649398) pho (4.491388) benedict (4.186614) market (4.139606) pickl (4.076507) pastrami (3.994080) 
poutin (4.363203) burger (3.795131) gravi (3.536473) curd (3.160683) fri (3.025256) banquis (2.988144) bun (2.890891) patti (2.576155) danc (2.524445) poutinevill (2.303613) 
th (4.833875) bire (4.685920) pizza (4.325177) massag (4.177921) nail (4.027748) dieu (4.017037) ths (3.857071) pint (3.739501) salon (3.687504) beurr (3.659897) 
dumpl (6.137924) sum (4.688284) avon (4.483613) haircut (4.147819) sushi (4.081401) vivr (4.057056) hair (4.045204) coriand (3.959739) dim (3.730983) vegan (3.643011) 
foie (3.969785) gras (3.936892) dish (3.722814) duck (3.644469) meal (3.415899) wine (3.375203) appet (3.237618) steak (3.225739) reserv (3.139255) waiter (3.063110) 
airport (4.677472) church (4.457340) indian (4.373701) japanes (4.239172) thai (4.132411) spa (4.059814) pool (4.044204) pad (3.781836) bus (3.711519) pub (3.673303) 
trouv (3.093132) quil (3.093093) aussi (3.084379) leur (3.022598) et (3.019965) si (2.966653) peu (2.923782) avant (2.920970) que (2.913680) sympathiqu (2.898937) 
bagel (6.222820) crepe (5.543906) chocol (4.998078) museum (4.529342) latt (4.475051) fairmount (4.350162) exhibit (4.345275) espresso (4.258126) coffe (4.248137) viateur (4.233433) 
hotel (5.035996) room (4.686622) bed (4.430659) desk (4.235668) stay (4.084426) lobbi (4.074791) tub (3.901531) bathroom (3.774053) shower (3.739757) gym (3.576294) 
cupcak (5.621535) bike (5.421834) casino (4.767521) tour (4.679605) yoga (4.639672) cloth (4.462703) macaron (4.308657) store (4.207406) boutiqu (4.178568) station (4.171056) 
Error (train/valid/test) = 0.184377/1.560670/1.450729 (0.032814)
..................................................
energy after gradient step = 22885311.645372

Top words for each topic:
smoke (5.309782) schwartz (5.264701) meat (5.065214) sandwich (4.913589) deli (4.649001) pho (4.523348) benedict (4.231463) pickl (4.120214) market (4.110614) pastrami (4.019547) 
poutin (4.386683) burger (3.832623) gravi (3.546956) curd (3.201584) fri (3.029389) banquis (2.968231) bun (2.841896) patti (2.629393) danc (2.599512) drink (2.345442) 
th (4.928004) bire (4.819815) pizza (4.476487) massag (4.179878) dieu (4.132443) nail (4.096075) ths (3.977326) pint (3.812248) pizzeria (3.724544) salon (3.711980) 
dumpl (6.228883) sum (4.742124) avon (4.528021) sushi (4.298657) haircut (4.231939) vivr (4.142287) coriand (4.045911) hair (4.022886) dim (3.969509) vegan (3.856937) 
foie (3.999029) gras (3.965016) dish (3.781127) duck (3.672736) meal (3.466678) wine (3.427100) appet (3.287284) steak (3.256768) reserv (3.148409) waiter (3.121979) 
airport (4.695078) church (4.499410) indian (4.460361) japanes (4.337298) thai (4.264144) spa (4.184718) pool (3.962028) pub (3.898459) pad (3.868131) bus (3.847474) 
aussi (3.124052) quil (3.123551) trouv (3.112774) leur (3.042682) et (3.032896) si (3.025601) peu (2.979961) que (2.971874) une (2.945447) qui (2.931369) 
bagel (6.247988) crepe (5.551927) chocol (5.041629) latt (4.549417) museum (4.511368) fairmount (4.457603) exhibit (4.392711) coffe (4.362591) viateur (4.274910) cafe (4.260872) 
hotel (5.014840) room (4.608657) bed (4.438215) desk (4.229536) lobbi (4.113183) stay (4.070709) tub (3.891992) shower (3.790611) bathroom (3.718794) elev (3.518932) 
cupcak (5.640658) bike (5.470338) casino (4.774389) yoga (4.687132) tour (4.626555) macaron (4.395337) cloth (4.384976) store (4.257973) boutiqu (4.189900) station (4.130492) 
Error (train/valid/test) = 0.179937/1.567931/1.460233 (0.033062)
