corpus = data_vegas.gz
latentReg = 0.000000
lambda = 3.000000
K = 10
......
nUsers = 181712, nItems = 16469, nRatings = 679460
......
Error w/ offset term only (train/valid/test) = 1.756578/1.764640/1.767143 (0.008218)
Error w/ offset and bias (train/valid/test) = 0.885730/1.469974/1.472091 (0.008386)
.....
..................................................
energy after gradient step = 1196787137.134287
.....
Top words for each topic:
anim (0.133179) uncomfort (0.123576) dirti (0.123543) omg (0.123219) board (0.122469) hurri (0.118486) shoe (0.116504) pros (0.114971) giant (0.113256) repeat (0.112930) 
less (0.144520) interior (0.140496) dancer (0.135446) true (0.133490) flat (0.132709) pure (0.127349) wide (0.127082) pop (0.122979) meatbal (0.122394) accommod (0.122214) 
deep (0.160968) yeah (0.140805) menus (0.138201) aw (0.130870) patron (0.130312) central (0.125485) venu (0.123021) ps (0.119468) spa (0.118348) opportun (0.117507) 
bone (0.160205) sick (0.158470) 18 (0.158397) form (0.151587) god (0.146492) air (0.125720) o (0.125350) situat (0.124769) shock (0.123591) wors (0.121826) 
raw (0.139575) pad (0.137464) ramen (0.130797) cucumb (0.128949) process (0.126668) wast (0.126081) insur (0.121087) hold (0.120325) mapl (0.117346) air (0.116355) 
empti (0.174358) balanc (0.163625) liquor (0.149246) noon (0.133438) chop (0.131425) nacho (0.128084) feed (0.124486) truck (0.118420) palm (0.116972) sold (0.115758) 
courteous (0.144818) without (0.137993) client (0.128150) sold (0.120709) teriyaki (0.119514) christma (0.115543) attitud (0.115201) downstair (0.114814) mango (0.112303) chunk (0.111295) 
milk (0.156287) ignor (0.148463) organ (0.144493) tvs (0.124860) 24 (0.121678) rang (0.116321) tend (0.115138) mall (0.112895) champagn (0.110953) hate (0.110574) 
bomb (0.152208) 25 (0.122523) theme (0.120709) skin (0.114288) attract (0.113118) perform (0.109406) sum (0.106981) appar (0.106901) frost (0.106408) sausag (0.106320) 
stage (0.153601) similar (0.149089) speak (0.142799) consist (0.128838) draw (0.126697) stuf (0.123236) art (0.122611) disgust (0.122418) bedroom (0.122267) crisp (0.122243) 
Error (train/valid/test) = 1.584420/1.606344/1.609118 (0.008220)
..................................................
energy after gradient step = 1195048548.642225
.....
Top words for each topic:
fuel (0.288302) loco (0.257627) fave (0.254168) copi (0.249977) shouldv (0.241296) subway (0.237852) hurri (0.233915) rank (0.229475) outlet (0.227217) neighbor (0.222453) 
poker (0.300632) traffic (0.280859) unlimit (0.272120) luggag (0.271909) pace (0.265578) chew (0.264392) instructor (0.256354) invit (0.255951) 2014 (0.239138) nightclub (0.239031) 
opportun (0.295522) greatest (0.278431) mayo (0.245729) mochi (0.244465) broken (0.243982) tequila (0.234976) speed (0.231908) nope (0.230299) hat (0.230113) craft (0.225023) 
engag (0.335047) 18 (0.239645) scream (0.238922) 400 (0.225354) refus (0.225163) drove (0.222684) grate (0.222280) cheek (0.214021) taxi (0.213573) saute (0.212479) 
mapl (0.261166) comparison (0.260442) tech (0.242849) reflect (0.242745) squar (0.237334) kabob (0.235940) tall (0.233949) utensil (0.233429) report (0.225101) pressur (0.220994) 
stroll (0.317813) 9pm (0.276277) engin (0.276042) bitch (0.258372) pico (0.244465) flop (0.243577) deck (0.239519) exchang (0.238633) mahi (0.234041) noon (0.233648) 
settl (0.272170) dislik (0.260460) pros (0.256407) everyday (0.255915) frustrat (0.255712) chunk (0.242484) luxor (0.240833) behind (0.228474) nicest (0.218893) downstair (0.217712) 
mi (0.291122) histori (0.286927) tattoo (0.264002) invit (0.244500) approxim (0.240687) 17 (0.229665) cap (0.226176) yard (0.225966) staf (0.223248) terrac (0.216518) 
clerk (0.304068) sf (0.303048) hassl (0.260284) blew (0.259747) dare (0.257111) encor (0.240899) passion (0.237668) function (0.236202) wet (0.235636) confirm (0.231861) 
bedroom (0.274778) marrow (0.265002) hustl (0.261858) along (0.252733) ka (0.248350) frank (0.247704) cleanli (0.243471) galleri (0.243253) skate (0.238796) soso (0.237112) 
Error (train/valid/test) = 1.463045/1.510998/1.517242 (0.007832)
..................................................
energy after gradient step = 1194704929.897495
.....
Top words for each topic:
garbag (0.370171) rank (0.365953) sesam (0.347255) threw (0.342027) press (0.341234) voucher (0.337911) lit (0.336251) ca (0.334992) subway (0.332264) pint (0.319086) 
pricier (0.398238) rotat (0.389464) 2014 (0.388782) pace (0.388388) leak (0.382725) roberto (0.369761) instructor (0.368565) luggag (0.364780) 2pm (0.351790) 75 (0.348651) 
wateri (0.380613) hipster (0.366481) opportun (0.336385) kill (0.335958) iron (0.333959) southwest (0.333159) broken (0.329721) steep (0.324997) letter (0.321760) mushi (0.317817) 
engag (0.399087) 400 (0.359993) switch (0.337677) ramsay (0.337668) written (0.334722) belong (0.323345) 2000 (0.310673) mesa (0.308063) resid (0.302732) somebodi (0.300992) 
roulett (0.401192) bistro (0.379163) everywher (0.366256) reflect (0.358473) gourmet (0.356255) haircut (0.326872) tune (0.324945) border (0.322254) knot (0.319064) tech (0.313146) 
wake (0.404886) bs (0.400592) 5star (0.388749) bitch (0.363305) stroll (0.356815) oz (0.355322) prosciutto (0.352665) mahi (0.340030) film (0.339228) texa (0.333697) 
blvd (0.357525) physic (0.353843) pickup (0.340400) encount (0.333164) dislik (0.327600) frustrat (0.325236) destin (0.320621) nicest (0.315549) pistachio (0.312901) reve (0.311735) 
mattress (0.428026) mi (0.388313) page (0.368438) palat (0.349869) sharp (0.337483) outrag (0.331270) 17 (0.327317) neat (0.324080) blvd (0.323142) jus (0.310648) 
blew (0.430298) sf (0.412942) 19 (0.380331) encor (0.377139) clerk (0.376095) l (0.358864) passion (0.345660) lo (0.340013) pit (0.327625) lip (0.324018) 
marrow (0.425452) skewer (0.402823) carpaccio (0.391281) shark (0.384773) yellowtail (0.375681) ka (0.368846) tap (0.367206) monkey (0.363073) north (0.357795) tamal (0.352034) 
Error (train/valid/test) = 1.396347/1.470669/1.477409 (0.007446)
..................................................
energy after gradient step = 1194409508.522816
.....
Top words for each topic:
reminisc (0.465556) pint (0.449710) nobu (0.448619) robuchon (0.445698) rick (0.406956) garbag (0.402933) appli (0.402035) materi (0.389455) escort (0.383408) hockey (0.379112) 
therapist (0.590616) 2014 (0.483470) pace (0.478349) pump (0.459359) bacchan (0.456871) palett (0.450761) rotat (0.432066) opposit (0.430556) dave (0.419974) risk (0.418900) 
boulder (0.526948) sammi (0.458514) lion (0.458407) mario (0.427235) 5pm (0.425880) shall (0.414124) luggag (0.407973) ipa (0.395680) forgotten (0.395329) steep (0.392563) 
400 (0.456743) engag (0.452635) mesa (0.420180) inspect (0.411843) vendor (0.404783) father (0.402702) written (0.389442) spray (0.381967) flank (0.376293) soo (0.375519) 
border (0.450897) tune (0.435819) bistro (0.416272) 3am (0.398345) grit (0.386226) culinari (0.382402) tech (0.380956) stir (0.378909) tall (0.369465) walkway (0.367919) 
prosciutto (0.491229) engin (0.461027) uncl (0.444424) film (0.442154) stroll (0.440541) camp (0.439890) bitch (0.438085) 3pm (0.427501) vet (0.417010) frisco (0.414555) 
gabi (0.599359) reve (0.498525) mustard (0.453324) humor (0.439891) butternut (0.436826) dislik (0.407609) pistachio (0.404348) loaf (0.403871) ami (0.391076) checkout (0.385239) 
sharp (0.464219) tattoo (0.451167) whos (0.434264) wave (0.431326) outrag (0.423885) panda (0.419063) slower (0.413072) somewher (0.411464) strict (0.407900) volum (0.404758) 
blew (0.496431) grew (0.494605) encor (0.488937) banh (0.483017) incid (0.469991) accessori (0.467971) passion (0.456757) discuss (0.441884) sf (0.431888) clerk (0.427194) 
shark (0.561293) walgreen (0.528609) ka (0.501560) carpaccio (0.490815) mozzarella (0.477836) marrow (0.477246) thread (0.466868) skate (0.459459) bacchan (0.451620) frame (0.432672) 
Error (train/valid/test) = 1.348676/1.447597/1.454165 (0.007566)
..................................................
energy after gradient step = 1194108392.383341
.....
Top words for each topic:
pint (0.588302) reminisc (0.541974) nobu (0.539718) rick (0.502138) voucher (0.501103) marin (0.495977) garbag (0.478861) mmmm (0.462639) vdara (0.455333) plethora (0.453342) 
therapist (0.617693) cultur (0.611838) bacchan (0.587497) pace (0.522815) pump (0.520229) yea (0.507556) din (0.497277) xray (0.494285) jumbo (0.490029) toward (0.485553) 
mario (0.542671) letter (0.526284) lion (0.526165) distract (0.517673) boulder (0.497911) smother (0.488468) sammi (0.483232) storag (0.458090) sweeten (0.449672) ownership (0.447245) 
million (0.550027) engag (0.476368) father (0.474067) kim (0.462502) vendor (0.454906) flank (0.439810) 400 (0.438286) becam (0.437610) chunki (0.436254) hooter (0.429824) 
culinari (0.530940) border (0.515176) appropri (0.462825) tall (0.451640) freez (0.448079) ruin (0.438143) stir (0.437892) understaf (0.436211) juan (0.423368) philli (0.420487) 
prosciutto (0.613820) tube (0.521778) camp (0.515411) drool (0.499911) engin (0.481276) rep (0.459396) uncl (0.457603) bitch (0.457045) oreo (0.450009) blown (0.449675) 
gabi (0.662777) reve (0.577161) ami (0.570114) mustard (0.501940) 5star (0.462270) butternut (0.453166) nicest (0.444618) scare (0.443484) iphon (0.443328) gm (0.442705) 
sucker (0.513348) halfway (0.512452) wave (0.499207) whos (0.491280) escort (0.485506) librari (0.480372) volum (0.473359) trump (0.465163) energi (0.464996) strict (0.461714) 
sf (0.549499) saut (0.528711) encor (0.513104) incid (0.498737) passion (0.498396) restaurantcom (0.493182) y (0.491337) grew (0.473831) 19 (0.450233) accessori (0.448382) 
yellowtail (0.601577) shark (0.587242) walgreen (0.583536) straw (0.565366) ka (0.561224) bacchan (0.492661) cleanli (0.492239) scari (0.487002) sketchi (0.486783) crown (0.477364) 
Error (train/valid/test) = 1.319521/1.436346/1.442400 (0.007665)
..................................................
energy after gradient step = 1193846451.202731
.....
Top words for each topic:
tan (0.694048) vdara (0.649695) pint (0.635358) marin (0.624401) voucher (0.585768) mmmm (0.574302) texa (0.555077) zone (0.542434) garbag (0.515462) plethora (0.514694) 
jumbo (0.619158) xray (0.605521) bacchan (0.585003) cultur (0.580374) pace (0.559757) chew (0.557966) insist (0.550642) boneless (0.542064) opposit (0.536074) din (0.535069) 
storag (0.601675) distract (0.580968) letter (0.542545) boulder (0.539609) lion (0.530573) mai (0.519100) hed (0.507372) texa (0.502580) score (0.500724) forgotten (0.493058) 
vendor (0.613571) hooter (0.554300) engag (0.553058) chunki (0.517308) 400 (0.516911) million (0.507412) lord (0.473747) shorter (0.470883) percent (0.467586) undercook (0.466297) 
culinari (0.577232) trek (0.552242) jet (0.534359) resid (0.526535) gordon (0.506868) border (0.496045) tech (0.486222) philli (0.480393) juan (0.476475) appropri (0.475580) 
prosciutto (0.649738) tad (0.619272) pharmaci (0.603603) 55 (0.529562) vet (0.519958) hide (0.502881) clerk (0.494690) poke (0.492071) militari (0.487282) drool (0.486633) 
gabi (0.834052) reve (0.784876) ami (0.769788) gm (0.578471) scare (0.569683) shouldv (0.553085) butternut (0.539622) shark (0.537622) hh (0.525823) ray (0.524335) 
wave (0.623213) sucker (0.576267) kimche (0.554659) librari (0.549252) sharp (0.517907) escort (0.516442) tattoo (0.512970) 2am (0.511559) trump (0.506146) eiffel (0.503640) 
sf (0.667318) encor (0.586815) passion (0.566549) y (0.540272) treasur (0.524801) humor (0.515058) banh (0.510545) blew (0.510052) lip (0.509159) pocket (0.504780) 
bacchan (0.760985) thread (0.632892) ka (0.625824) straw (0.616350) function (0.608803) shark (0.580860) crown (0.555421) worn (0.542632) walgreen (0.541278) edamam (0.535604) 
Error (train/valid/test) = 1.292050/1.426625/1.432417 (0.007600)
..................................................
energy after gradient step = 1193549487.547436
.....
Top words for each topic:
tan (0.844699) vdara (0.754889) zone (0.698754) voucher (0.661244) marin (0.619415) inclin (0.614839) texa (0.611712) mmmm (0.603584) elit (0.599583) vape (0.552690) 
chew (0.693138) bacchan (0.683981) jumbo (0.637920) kudo (0.620698) opposit (0.611031) comedi (0.603548) toward (0.595609) filipino (0.591316) ppl (0.590325) din (0.580099) 
storag (0.740247) lion (0.655112) chorizo (0.651130) ownership (0.570570) mario (0.569808) takeout (0.565760) letter (0.557887) sunda (0.555701) circl (0.548186) distract (0.543259) 
vendor (0.664695) virgin (0.624145) cobb (0.618172) shorter (0.575802) million (0.575035) engag (0.563338) undercook (0.550220) written (0.537469) 400 (0.531360) chunki (0.526851) 
trek (0.706014) border (0.621939) culinari (0.617820) caviar (0.603578) tune (0.596620) maid (0.595900) philli (0.586641) hometown (0.565843) contemporari (0.555317) jet (0.551491) 
tad (0.687004) prosciutto (0.684517) pharmaci (0.643090) militari (0.577350) accent (0.574517) drool (0.570341) poke (0.564064) approv (0.563659) oreo (0.543319) vet (0.543254) 
gabi (0.977054) ami (0.894354) reve (0.728478) shouldv (0.670609) scare (0.611066) brie (0.598200) hh (0.588143) stack (0.582835) march (0.558397) humor (0.556024) 
tattoo (0.649297) librari (0.636255) wave (0.620426) cabana (0.616659) kimche (0.587307) boil (0.581627) mass (0.551278) 2am (0.549576) alot (0.543745) eiffel (0.541335) 
walmart (0.724706) passion (0.680124) encor (0.635924) treasur (0.627121) y (0.625057) humor (0.622896) rep (0.618654) compet (0.586309) pocket (0.580655) restaurantcom (0.571528) 
bacchan (0.848003) ka (0.746381) crown (0.668289) frame (0.656426) function (0.654049) skate (0.638328) cleanli (0.623314) innout (0.612628) thread (0.612532) walgreen (0.592307) 
Error (train/valid/test) = 1.269268/1.419956/1.425423 (0.007611)
..................................................
energy after gradient step = 1193272630.469828
.....
Top words for each topic:
tan (0.975248) vdara (0.959263) zone (0.761623) voucher (0.747794) narrow (0.677823) mmmm (0.675233) karaok (0.654682) inclin (0.650181) texa (0.635416) pint (0.611065) 
chew (0.848438) ppl (0.730059) bacchan (0.728740) jumbo (0.698837) cultur (0.689399) roberto (0.689109) filipino (0.677631) kudo (0.661495) toward (0.643075) din (0.627715) 
storag (0.736594) forgotten (0.673645) lion (0.636370) rank (0.631184) develop (0.609821) franki (0.596931) beatl (0.595068) chorizo (0.592437) takeout (0.590313) smother (0.580111) 
virgin (0.746104) comic (0.686096) cobb (0.658952) million (0.627245) vendor (0.618139) chunki (0.604310) shorter (0.580565) hooter (0.562810) lord (0.560467) aggress (0.558922) 
border (0.722598) mapl (0.675302) trek (0.654530) lash (0.601752) haircut (0.583134) maid (0.573492) 180 (0.571418) wax (0.567129) caviar (0.563738) tune (0.563004) 
vet (0.738870) prosciutto (0.706051) poke (0.699701) gun (0.659961) blown (0.652557) btw (0.635476) tad (0.620958) batteri (0.604198) uncomfort (0.597300) shred (0.595099) 
gabi (1.122555) ami (1.056143) reve (0.787219) shouldv (0.677252) tint (0.650085) scare (0.648730) nerv (0.645020) frite (0.641809) shark (0.634638) lotion (0.625746) 
tattoo (0.763352) librari (0.706595) mass (0.633850) cabana (0.614343) sucker (0.612036) kimche (0.609967) eiffel (0.605927) wave (0.602260) pant (0.585809) whos (0.585453) 
walmart (0.818024) passion (0.711012) fondu (0.704467) treasur (0.689354) rep (0.686793) encor (0.667481) pocket (0.621309) unit (0.600033) y (0.576535) applebe (0.556675) 
bacchan (1.024415) ka (0.842974) sketchi (0.725406) crown (0.665874) innout (0.642943) bargain (0.639635) scari (0.639187) thread (0.636505) function (0.635873) yuck (0.626503) 
Error (train/valid/test) = 1.250367/1.415158/1.420386 (0.007630)
..................................................
energy after gradient step = 1192972227.371351
.....
Top words for each topic:
tan (1.187153) vdara (1.018377) zone (0.826907) narrow (0.794471) voucher (0.773908) karaok (0.749574) max (0.714908) pint (0.660330) spray (0.652469) inclin (0.633159) 
chew (0.871570) bacchan (0.813866) roberto (0.813393) ppl (0.802670) filipino (0.797475) crawfish (0.761933) toward (0.753786) cultur (0.731097) din (0.686791) cri (0.669287) 
franki (0.860720) takeout (0.767414) lion (0.749021) ownership (0.724884) 247 (0.724744) divers (0.711396) beatl (0.701034) storag (0.695451) ihop (0.694982) address (0.690771) 
comic (0.809080) virgin (0.774343) popcorn (0.719641) cobb (0.655450) penn (0.653199) shorter (0.649734) kim (0.644413) estim (0.634988) jacuzzi (0.632583) letter (0.627108) 
lash (0.759926) border (0.695924) mail (0.684522) 180 (0.673912) wax (0.672882) naan (0.670001) bustl (0.653510) haircut (0.634711) 499 (0.625178) jet (0.621096) 
poke (0.885371) batteri (0.828042) teeth (0.701333) gun (0.696111) 55 (0.680915) vet (0.677478) uncomfort (0.672781) blown (0.669185) clerk (0.669148) bao (0.656325) 
gabi (1.408640) ami (1.214363) frite (0.876869) nerv (0.854376) shouldv (0.727689) depart (0.683863) mon (0.674957) tint (0.665566) brie (0.658633) vehicl (0.654841) 
tattoo (0.864843) librari (0.831167) eiffel (0.771986) cabana (0.716553) fusion (0.683541) intim (0.678512) trump (0.659495) sucker (0.648444) boil (0.646418) alot (0.639253) 
walmart (0.812414) rep (0.801960) pocket (0.794660) passion (0.780541) encor (0.717059) applebe (0.713523) treasur (0.678341) mocha (0.659924) manicur (0.659625) cardio (0.655651) 
bacchan (1.153225) ka (0.996536) sketchi (0.814256) yuck (0.766942) innout (0.731047) crown (0.727306) mimosa (0.706827) bargain (0.702693) thread (0.672097) vast (0.667319) 
Error (train/valid/test) = 1.231704/1.411316/1.416254 (0.007692)
..................................................
energy after gradient step = 1192686875.448326
.....
Top words for each topic:
tan (1.395707) vdara (1.131500) zone (0.870304) max (0.824449) voucher (0.817599) narrow (0.773366) escort (0.733582) wander (0.714705) grown (0.687030) gel (0.680961) 
roberto (0.964480) bacchan (0.964328) crawfish (0.863617) ppl (0.826598) filipino (0.781617) din (0.748585) cultur (0.745443) cri (0.745166) chew (0.737431) toward (0.734394) 
franki (0.875326) address (0.823209) ihop (0.765396) tiki (0.759938) lion (0.741022) takeout (0.739828) ipad (0.731960) trick (0.729299) shed (0.727534) storag (0.724710) 
comic (0.922089) popcorn (0.816407) virgin (0.747333) penn (0.729318) letter (0.708981) estim (0.682596) million (0.679720) cobb (0.676118) robe (0.675089) crusti (0.674630) 
lash (0.923559) haircut (0.721815) depot (0.714385) bike (0.706289) boba (0.694735) naan (0.694218) coat (0.692253) wax (0.680717) retail (0.651793) hometown (0.647649) 
poke (0.981608) gun (0.796817) equip (0.760362) vet (0.760163) batteri (0.756845) bao (0.739158) clerk (0.737218) 55 (0.719408) doughnut (0.715746) golf (0.706432) 
gabi (1.516266) ami (1.405726) frite (0.950311) mon (0.926839) nerv (0.912303) vehicl (0.774478) audienc (0.761801) exhibit (0.758898) pupusa (0.747214) tint (0.737101) 
librari (0.960448) tattoo (0.913128) eiffel (0.807195) trump (0.747571) sucker (0.710486) boil (0.692987) intim (0.684576) circl (0.667162) wise (0.661520) german (0.642875) 
walmart (0.942679) encor (0.911080) rep (0.904708) applebe (0.811387) passion (0.808484) mocha (0.764403) unit (0.720254) treasur (0.716525) mattress (0.693286) clue (0.692241) 
bacchan (1.275955) ka (1.000739) sketchi (0.892118) thread (0.802923) yuck (0.771953) picasso (0.763303) innout (0.740769) crown (0.723103) mimosa (0.719869) philli (0.715623) 
Error (train/valid/test) = 1.216679/1.408123/1.412940 (0.007665)
..................................................
energy after gradient step = 1192357408.435681
.....
Top words for each topic:
tan (1.590256) vdara (1.065709) max (0.939622) narrow (0.857788) zone (0.836960) gel (0.800948) spray (0.785538) escort (0.777194) voucher (0.764876) jenni (0.758454) 
roberto (1.063149) ppl (0.938541) toward (0.928973) crawfish (0.903459) bacchan (0.881050) filipino (0.849808) chew (0.832718) cri (0.782321) cultur (0.773505) din (0.763084) 
franki (1.095977) tiki (1.000776) trick (0.906841) 247 (0.885687) teriyaki (0.855408) shed (0.833731) address (0.830301) lion (0.828286) generat (0.825880) anytim (0.816343) 
comic (1.163585) bachi (0.821786) popcorn (0.807166) virgin (0.784178) lee (0.768376) million (0.765092) plane (0.759846) trail (0.745324) bee (0.737817) penn (0.731804) 
lash (1.005735) bike (0.853670) coat (0.851855) depot (0.839027) boba (0.807778) haircut (0.785120) eyebrow (0.784848) naan (0.783709) lock (0.732164) wax (0.727148) 
poke (1.094431) gun (0.903301) doughnut (0.895250) batteri (0.879835) vet (0.858217) bao (0.840651) teriyaki (0.830309) poison (0.814442) background (0.755433) blown (0.748179) 
gabi (1.698066) ami (1.691993) mon (1.185857) frite (1.147532) exhibit (0.897748) tint (0.874997) nerv (0.848759) vehicl (0.819437) pupusa (0.787705) thoma (0.770936) 
librari (1.155006) tattoo (1.013322) eiffel (0.804069) trump (0.803262) german (0.775021) pastrami (0.754638) circl (0.748988) mass (0.738660) intim (0.735072) boil (0.718242) 
walmart (1.093834) encor (1.008857) rep (0.947139) fondu (0.932031) unit (0.889950) applebe (0.870560) mattress (0.840256) mocha (0.804288) humor (0.788089) treasur (0.774221) 
bacchan (1.425441) ka (1.001237) vast (0.884648) thread (0.862438) bargain (0.843840) innout (0.838614) yuck (0.821975) picasso (0.815345) sketchi (0.802335) crown (0.780165) 
Error (train/valid/test) = 1.202730/1.406625/1.411088 (0.007759)
..................................................
energy after gradient step = 1191937716.068885
.....
Top words for each topic:
tan (1.810850) vdara (1.113704) max (1.056935) hookah (0.956400) spray (0.918715) kimchi (0.855441) jenni (0.814817) gel (0.814252) narrow (0.811057) termin (0.801231) 
roberto (1.312169) crawfish (1.057469) ppl (1.015406) bacchan (0.941274) chew (0.933300) filipino (0.850676) produc (0.845110) toward (0.840025) trump (0.837035) elvi (0.836185) 
tiki (1.305566) franki (1.235061) teriyaki (1.004660) beatl (0.916537) trick (0.905562) takeout (0.877883) 247 (0.877300) anytim (0.859579) mai (0.847507) shed (0.844188) 
comic (1.159251) popcorn (0.874365) lee (0.872645) trail (0.856044) virgin (0.820284) plane (0.819216) jacuzzi (0.782824) penn (0.781427) rumor (0.774565) robe (0.773075) 
lash (1.228329) bike (0.949264) coat (0.926420) boba (0.905214) depot (0.899228) haircut (0.898048) eyebrow (0.839861) alex (0.825892) brake (0.817130) naan (0.793431) 
poke (1.292525) gun (1.037689) doughnut (1.015456) bao (0.948600) batteri (0.932013) vet (0.909012) poison (0.871662) al (0.861543) equip (0.829957) prosciutto (0.784407) 
gabi (1.951109) ami (1.873834) mon (1.365215) frite (1.328034) tint (1.017227) lotion (0.944663) exhibit (0.927959) cigar (0.924698) whiskey (0.911770) tryst (0.905883) 
librari (1.356207) tattoo (1.206352) boil (0.873178) 2am (0.850271) intim (0.828867) circl (0.808689) eiffel (0.792757) german (0.791081) palazzo (0.785616) mass (0.784719) 
walmart (1.184152) encor (1.180015) mattress (0.990217) unit (0.989994) applebe (0.956578) denni (0.935136) fondu (0.904589) rep (0.889946) mcdonald (0.853752) balconi (0.850699) 
bacchan (1.613447) ka (1.200041) innout (0.915368) spoon (0.891354) yuck (0.884084) picasso (0.867673) thread (0.863725) indian (0.862674) mimosa (0.848311) bargain (0.842732) 
Error (train/valid/test) = 1.190035/1.404224/1.408702 (0.007722)
..................................................
energy after gradient step = 1191456658.196079
.....
Top words for each topic:
tan (2.075339) vdara (1.122794) hookah (1.104150) max (1.087200) kimchi (1.054324) spray (0.942496) gel (0.921756) pinbal (0.901431) narrow (0.885859) wellington (0.872786) 
roberto (1.472734) crawfish (1.184250) ppl (0.992774) elvi (0.964781) filipino (0.963139) bacchan (0.947140) produc (0.929021) trump (0.908747) asada (0.902876) chew (0.901223) 
tiki (1.530044) franki (1.462803) beatl (1.111219) mai (1.015698) teriyaki (1.002882) trick (0.999521) ihop (0.943795) anytim (0.925170) takeout (0.904580) fajita (0.890235) 
comic (1.416921) lee (1.071331) trail (1.014456) plane (0.961899) hooter (0.941312) popcorn (0.932850) rumor (0.874489) jacuzzi (0.864458) bachi (0.857761) robe (0.853459) 
lash (1.491473) bike (1.076581) boba (1.019558) depot (0.994437) haircut (0.965588) brake (0.958912) eyebrow (0.958814) coat (0.955812) naan (0.864156) vape (0.846523) 
poke (1.463270) gun (1.206437) bao (1.162053) vet (1.021649) doughnut (0.985120) poison (0.957367) equip (0.927667) batteri (0.925065) al (0.885379) crawfish (0.862325) 
gabi (2.178589) ami (2.050401) mon (1.585070) frite (1.534355) tint (1.329216) exhibit (1.115192) pupusa (1.036123) cigar (1.029628) tryst (1.017296) lotion (0.987536) 
librari (1.587654) tattoo (1.410489) eiffel (0.962775) intim (0.868775) 2am (0.867924) trump (0.862755) palazzo (0.860821) boil (0.859904) circl (0.859186) mass (0.844072) 
encor (1.285438) walmart (1.281866) unit (1.073354) mattress (1.046232) denni (1.022077) mcdonald (0.975762) applebe (0.942339) fondu (0.942288) rep (0.930923) nugget (0.914668) 
bacchan (1.794182) ka (1.477233) picasso (1.042865) spoon (0.997084) innout (0.983659) indian (0.966656) thread (0.943213) vast (0.929854) mimosa (0.901895) yuck (0.897488) 
Error (train/valid/test) = 1.177101/1.401756/1.406369 (0.007608)
..................................................
energy after gradient step = 1190848480.841104
.....
Top words for each topic:
tan (2.304379) vdara (1.343123) hookah (1.205892) kimchi (1.159110) gel (1.143934) max (1.140597) spray (1.128693) wellington (1.025455) pinbal (0.985689) pedi (0.959248) 
roberto (1.718248) crawfish (1.345276) elvi (1.101832) filipino (1.098861) asada (1.088075) produc (1.045489) ppl (1.040133) toward (1.027843) bacchan (0.989259) von (0.964823) 
tiki (1.802594) franki (1.528588) beatl (1.335501) teriyaki (1.187314) trick (1.116347) siam (1.038115) ihop (1.033504) lion (1.022542) asada (1.008698) takeout (0.988826) 
comic (1.563235) trail (1.142169) plane (1.105256) lee (1.096107) popcorn (1.041739) robe (1.027421) facial (1.020626) piano (0.993189) jacuzzi (0.973897) shuttl (0.968763) 
lash (1.846826) boba (1.224014) eyebrow (1.189622) depot (1.112222) bike (1.073106) haircut (1.069874) dental (1.053255) alex (1.041610) vape (1.037863) wax (1.036632) 
poke (1.660302) gun (1.476917) bao (1.249015) vet (1.217545) crawfish (1.076803) batteri (1.005723) doughnut (0.993506) workout (0.972561) boil (0.939117) equip (0.936108) 
gabi (2.396460) ami (2.247514) mon (1.771985) frite (1.757100) tint (1.442978) exhibit (1.292349) pupusa (1.253535) cigar (1.248799) escargot (1.199793) baguett (1.069246) 
librari (1.899781) tattoo (1.642807) eiffel (1.044476) trump (0.999666) palazzo (0.992615) intim (0.934202) museum (0.877670) boil (0.846339) bike (0.835046) circl (0.833474) 
walmart (1.433269) encor (1.376285) mattress (1.228947) unit (1.156904) monorail (1.089392) denni (1.067926) djs (1.039973) applebe (1.038215) nugget (1.028566) balconi (1.007551) 
bacchan (2.011256) ka (1.679899) indian (1.154354) thread (1.137033) spoon (1.125568) innout (1.121965) picasso (1.084024) mimosa (1.024513) yellowtail (0.984707) lyche (0.977814) 
Error (train/valid/test) = 1.166534/1.401031/1.405467 (0.007716)
..................................................
energy after gradient step = 1189968588.443952
.....
Top words for each topic:
tan (2.508482) hookah (1.425353) vdara (1.377611) spray (1.324138) gel (1.315963) kimchi (1.303097) max (1.199960) pedicur (1.142472) pedi (1.096872) pinbal (1.068536) 
roberto (1.937080) crawfish (1.565712) elvi (1.226163) asada (1.200754) filipino (1.187421) von (1.145770) skate (1.097083) ppl (1.074031) bacchan (1.049992) produc (1.047146) 
tiki (2.069989) franki (1.675714) beatl (1.579389) teriyaki (1.337520) asada (1.209783) trick (1.209393) siam (1.190009) custard (1.128416) fajita (1.123315) adobada (1.115593) 
comic (1.838224) trail (1.310828) lee (1.238515) facial (1.160427) popcorn (1.155417) shuttl (1.131122) robe (1.124450) piano (1.107729) hooter (1.101078) plane (1.098215) 
lash (2.110009) boba (1.440748) eyebrow (1.440534) haircut (1.294882) wax (1.255553) dental (1.245792) vape (1.192760) depot (1.159966) bike (1.126042) alex (1.082838) 
poke (1.819161) gun (1.693401) bao (1.362315) vet (1.340241) crawfish (1.237957) doughnut (1.188491) repair (1.073232) workout (1.057567) lb (1.057281) batteri (1.014457) 
gabi (2.490155) ami (2.473192) frite (2.042663) mon (1.980286) tint (1.693469) pupusa (1.532234) exhibit (1.524559) escargot (1.520468) cigar (1.471374) baguett (1.163561) 
librari (2.129532) tattoo (1.902715) eiffel (1.216142) palazzo (1.088270) intim (0.969034) earl (0.957886) trump (0.946448) boil (0.938486) museum (0.926689) cupcak (0.920694) 
encor (1.565962) walmart (1.511302) mattress (1.484029) monorail (1.375429) unit (1.315633) balconi (1.309183) cabana (1.216306) nugget (1.203458) jacuzzi (1.156118) curtain (1.138025) 
bacchan (2.098057) ka (1.939020) indian (1.351372) innout (1.337664) wick (1.282319) spoon (1.239756) thread (1.238865) arepa (1.157221) mimosa (1.152927) yellowtail (1.127382) 
Error (train/valid/test) = 1.155347/1.399594/1.404049 (0.007690)
..................................................
energy after gradient step = 1188687841.925501
.....
Top words for each topic:
tan (2.676773) hookah (1.650710) spray (1.454302) kimchi (1.448297) gel (1.438310) pedi (1.357967) vdara (1.352128) pedicur (1.327976) manicur (1.280134) max (1.234100) 
roberto (2.124832) crawfish (1.698456) elvi (1.414788) asada (1.413369) filipino (1.360955) von (1.275834) vietnames (1.180247) carn (1.175753) skate (1.162454) produc (1.140671) 
tiki (2.187104) franki (1.833878) beatl (1.737856) teriyaki (1.519198) siam (1.397959) asada (1.391500) custard (1.269352) trick (1.253745) adobada (1.253701) ihop (1.230438) 
comic (2.055904) trail (1.432086) facial (1.372050) lee (1.358626) popcorn (1.326225) shuttl (1.296411) piano (1.293650) pedicur (1.292689) hooter (1.278385) circus (1.269622) 
lash (2.389964) eyebrow (1.719188) boba (1.695461) haircut (1.535634) wax (1.522522) dental (1.369395) vape (1.310371) bike (1.286346) thread (1.276366) depot (1.253633) 
poke (2.017323) gun (1.955977) bao (1.582083) vet (1.514886) crawfish (1.408466) doughnut (1.348812) workout (1.158816) shoot (1.123508) repair (1.114894) boil (1.089010) 
gabi (2.718260) ami (2.659259) mon (2.219803) frite (2.166032) tint (2.034321) cigar (1.748987) exhibit (1.681344) pupusa (1.631436) escargot (1.556265) baguett (1.351506) 
librari (2.385049) tattoo (2.104445) eiffel (1.154574) earl (1.148492) cupcak (1.088673) gelato (1.061207) palazzo (1.019662) frost (1.016042) museum (1.014523) target (0.964919) 
encor (1.801709) walmart (1.723858) monorail (1.702597) mattress (1.664735) balconi (1.545776) cabana (1.540143) unit (1.440066) curtain (1.377551) nugget (1.354352) nonsmok (1.347463) 
bacchan (2.271300) ka (2.085399) indian (1.638200) wick (1.538482) spoon (1.456215) innout (1.416504) mimosa (1.308388) thread (1.304736) arepa (1.245288) yellowtail (1.234900) 
Error (train/valid/test) = 1.148834/1.401346/1.405547 (0.007871)
..................................................
energy after gradient step = 1186494770.290880
.....
Top words for each topic:
tan (2.874205) hookah (1.827521) gel (1.652524) pedicur (1.641082) spray (1.558962) kimchi (1.506429) manicur (1.485651) pedi (1.454228) wellington (1.423389) monta (1.369736) 
roberto (2.357535) crawfish (1.880259) asada (1.666369) elvi (1.541486) filipino (1.502705) von (1.407299) carn (1.398167) vietnames (1.278426) el (1.217451) produc (1.216715) 
tiki (2.293465) franki (2.065637) beatl (2.006230) teriyaki (1.693334) asada (1.577916) siam (1.564139) custard (1.514900) adobada (1.478217) fajita (1.407768) ihop (1.384048) 
comic (2.283158) facial (1.657598) trail (1.629047) shuttl (1.557427) museum (1.554671) lee (1.510115) jacuzzi (1.508848) circus (1.504312) popcorn (1.495194) amen (1.467162) 
lash (2.583788) eyebrow (2.048055) boba (1.968525) wax (1.847418) haircut (1.779395) dental (1.591496) stylist (1.578527) bike (1.540574) barber (1.523576) thread (1.519711) 
poke (2.234282) gun (2.186989) bao (1.690906) vet (1.677305) crawfish (1.511308) doughnut (1.499870) shoot (1.355127) workout (1.234256) repair (1.204436) lb (1.177790) 
gabi (2.867965) ami (2.760313) mon (2.381176) frite (2.360644) tint (2.250770) cigar (1.906545) exhibit (1.843604) pupusa (1.786486) escargot (1.717244) vehicl (1.569124) 
librari (2.503323) tattoo (2.307080) earl (1.383859) cupcak (1.325600) frost (1.224659) eiffel (1.220612) gelato (1.217502) target (1.142732) museum (1.102025) palazzo (1.077611) 
monorail (2.016867) encor (2.004283) walmart (1.882736) cabana (1.862111) mattress (1.852803) balconi (1.793244) nugget (1.626897) bedroom (1.605631) unit (1.589221) curtain (1.588569) 
bacchan (2.403764) ka (2.191832) indian (1.902266) wick (1.857835) spoon (1.661275) mimosa (1.507401) innout (1.471538) arepa (1.470126) naan (1.449484) pan (1.383047) 
Error (train/valid/test) = 1.138746/1.397797/1.402440 (0.007608)
..................................................
energy after gradient step = 1183312803.060488
.....
Top words for each topic:
tan (3.000362) hookah (2.046643) pedicur (1.895784) gel (1.886547) manicur (1.736829) spray (1.671594) monta (1.658549) wellington (1.637417) donut (1.596413) pedi (1.586083) 
roberto (2.544727) crawfish (2.112561) asada (1.903945) filipino (1.668074) elvi (1.632086) carn (1.627838) von (1.514276) vietnames (1.433945) el (1.412222) skate (1.321580) 
tiki (2.419077) beatl (2.215013) franki (2.101254) teriyaki (1.875849) asada (1.779220) custard (1.740189) siam (1.680687) adobada (1.643421) carn (1.606741) bouchon (1.553920) 
comic (2.506405) facial (1.948655) shuttl (1.846635) circus (1.778415) museum (1.770990) trail (1.765348) hooter (1.708739) jacuzzi (1.707659) robe (1.683321) amen (1.676692) 
lash (2.821614) eyebrow (2.371442) boba (2.241448) wax (2.178799) haircut (2.095326) stylist (1.861824) barber (1.850888) thread (1.798322) dental (1.774044) brake (1.763475) 
poke (2.450651) gun (2.446947) bao (1.982516) vet (1.743004) crawfish (1.714297) doughnut (1.639715) shoot (1.602731) workout (1.340419) donut (1.294460) ahi (1.265982) 
ami (2.942957) gabi (2.934417) mon (2.565674) frite (2.501581) tint (2.472169) cigar (2.106440) exhibit (2.019438) pupusa (1.881480) escargot (1.876099) vehicl (1.764950) 
librari (2.629072) tattoo (2.494905) earl (1.561824) cupcak (1.547884) frost (1.411335) gelato (1.403167) target (1.301290) eiffel (1.271487) bakeri (1.220654) swiss (1.144229) 
encor (2.311746) monorail (2.199535) cabana (2.163177) mattress (2.125474) balconi (1.996716) bedroom (1.977397) housekeep (1.963325) walmart (1.914078) nonsmok (1.910622) amen (1.905210) 
bacchan (2.580962) ka (2.334114) indian (2.197136) wick (2.126625) spoon (1.882038) naan (1.732777) arepa (1.664269) mimosa (1.645578) pan (1.621071) crepe (1.596995) 
Error (train/valid/test) = 1.131920/1.397505/1.402270 (0.007553)
..................................................
energy after gradient step = 1178354885.899799
.....
Top words for each topic:
tan (3.091080) hookah (2.232903) pedicur (2.076963) gel (2.024634) manicur (1.887252) donut (1.876552) monta (1.794096) wellington (1.739833) kimchi (1.724520) spray (1.705388) 
roberto (2.638502) crawfish (2.212877) asada (2.084208) filipino (1.801231) carn (1.751619) elvi (1.630725) pastor (1.561159) von (1.554294) vietnames (1.525262) el (1.519915) 
tiki (2.487373) beatl (2.356317) franki (2.232216) teriyaki (2.049079) custard (1.979236) asada (1.950155) carn (1.823802) adobada (1.783462) siam (1.777762) taco (1.725812) 
comic (2.618038) facial (2.198969) shuttl (2.089918) circus (2.019524) museum (2.018444) trail (1.932155) hooter (1.886747) tub (1.886103) locker (1.868517) pedicur (1.843441) 
lash (2.985062) eyebrow (2.623918) wax (2.504673) boba (2.499160) haircut (2.445894) barber (2.134360) stylist (2.100685) thread (2.074435) brake (1.995217) dental (1.958420) 
gun (2.638586) poke (2.614521) bao (2.109031) shoot (1.836471) crawfish (1.780478) vet (1.765735) doughnut (1.712479) donut (1.479894) ahi (1.421440) spaghetti (1.384518) 
ami (3.068981) gabi (3.042760) mon (2.689071) frite (2.636333) tint (2.633160) cigar (2.254559) exhibit (2.173139) vehicl (2.051894) rental (1.955888) escargot (1.950117) 
librari (2.714193) tattoo (2.616718) cupcak (1.851109) earl (1.785244) frost (1.711332) gelato (1.557745) bakeri (1.443340) target (1.339908) eiffel (1.281054) swiss (1.234992) 
encor (2.555436) cabana (2.489185) monorail (2.441299) housekeep (2.328691) mattress (2.320742) bedroom (2.300763) bed (2.289783) xs (2.246277) balconi (2.217885) tao (2.175562) 
bacchan (2.690502) indian (2.443864) wick (2.373835) ka (2.371806) spoon (2.105090) naan (1.993517) mimosa (1.848876) crepe (1.838405) pan (1.777823) arepa (1.775788) 
Error (train/valid/test) = 1.126163/1.396961/1.401531 (0.007661)
..................................................
energy after gradient step = 1171263340.839169
.....
Top words for each topic:
tan (3.158399) hookah (2.368349) pedicur (2.213496) gel (2.182385) donut (2.106900) monta (2.033786) ramen (1.983960) nail (1.946772) manicur (1.909348) sora (1.870437) 
roberto (2.751075) crawfish (2.354828) asada (2.255653) carn (1.974108) filipino (1.926586) pastor (1.750079) elvi (1.680168) taco (1.679320) vietnames (1.679029) von (1.673236) 
tiki (2.531307) beatl (2.440237) franki (2.268340) teriyaki (2.207988) custard (2.178063) asada (2.084809) taco (2.054743) carn (1.969040) adobada (1.934933) fajita (1.907572) 
comic (2.726955) facial (2.456022) shuttl (2.319123) museum (2.280192) circus (2.257895) spa (2.145500) locker (2.138127) hooter (2.126828) trail (2.125525) pool (2.102330) 
lash (3.165338) eyebrow (2.854824) wax (2.763216) boba (2.726417) haircut (2.667240) barber (2.429690) stylist (2.415221) thread (2.412662) dental (2.200229) vape (2.189814) 
gun (2.827300) poke (2.760988) bao (2.196649) shoot (2.036761) crawfish (1.855357) doughnut (1.842828) vet (1.784619) donut (1.646564) ahi (1.562860) spaghetti (1.510312) 
ami (3.182541) gabi (3.173198) mon (2.838716) tint (2.799342) frite (2.779513) cigar (2.443125) exhibit (2.365306) vehicl (2.357667) rental (2.147630) car (2.145692) 
librari (2.871645) tattoo (2.772823) cupcak (2.180776) earl (2.064238) frost (1.888176) gelato (1.712978) bakeri (1.698055) target (1.466606) ramen (1.348084) artist (1.291044) 
bed (2.831759) pool (2.820154) encor (2.768729) cabana (2.709666) hotel (2.661387) housekeep (2.583035) bathroom (2.582398) monorail (2.579441) bedroom (2.552193) xs (2.542890) 
bacchan (2.771443) indian (2.665460) wick (2.565359) ka (2.454993) spoon (2.303357) naan (2.173076) crepe (2.082989) buffet (2.058507) gelato (1.962324) pan (1.958887) 
Error (train/valid/test) = 1.121148/1.396781/1.401355 (0.007703)
..................................................
energy after gradient step = 1162406868.612440
.....
Top words for each topic:
tan (3.182673) hookah (2.485952) donut (2.360833) pedicur (2.314409) gel (2.298866) ramen (2.280727) monta (2.262131) nail (2.199994) patti (2.059630) sora (2.027259) 
roberto (2.897948) crawfish (2.500901) asada (2.377925) carn (2.154095) filipino (2.104539) taco (1.970934) pastor (1.948702) pho (1.882841) vietnames (1.856042) von (1.793723) 
tiki (2.561133) beatl (2.495590) franki (2.379891) taco (2.378883) teriyaki (2.367274) custard (2.361752) asada (2.256688) adobada (2.099334) carn (2.091979) nigiri (2.067352) 
comic (2.869806) facial (2.726722) museum (2.566218) spa (2.529688) shuttl (2.517995) circus (2.480132) massag (2.403759) locker (2.387129) pool (2.384096) trail (2.366642) 
lash (3.310090) eyebrow (3.114380) wax (3.033057) boba (2.953605) haircut (2.923729) stylist (2.734754) thread (2.713718) barber (2.613225) dental (2.428721) vape (2.414602) 
gun (3.013697) poke (2.920928) bao (2.365292) shoot (2.244069) doughnut (1.983720) crawfish (1.916994) donut (1.762805) ahi (1.745535) spaghetti (1.660826) vet (1.635905) 
ami (3.303892) gabi (3.302955) tint (2.979450) mon (2.942695) frite (2.860875) cigar (2.613064) vehicl (2.603238) exhibit (2.531465) car (2.524458) rental (2.389987) 
librari (2.986545) tattoo (2.899659) cupcak (2.492632) earl (2.326670) frost (2.166093) bakeri (1.943829) gelato (1.796268) target (1.581128) candi (1.379865) ramen (1.356158) 
pool (3.421842) hotel (3.301667) bed (3.247615) room (3.033133) bathroom (2.984165) stay (2.967459) encor (2.929672) suit (2.921989) danc (2.920570) cabana (2.917827) 
bacchan (2.869333) indian (2.850267) wick (2.683121) spoon (2.522491) ka (2.501625) buffet (2.475649) naan (2.372713) crepe (2.303076) crab (2.291973) gelato (2.196995) 
Error (train/valid/test) = 1.116549/1.396371/1.400979 (0.007670)
..................................................
energy after gradient step = 1152200637.945547
.....
Top words for each topic:
tan (3.242934) ramen (2.641550) hookah (2.631231) donut (2.608892) monta (2.501609) nail (2.500573) gel (2.409308) pedicur (2.395603) patti (2.288300) oxtail (2.277786) 
roberto (3.063406) crawfish (2.711139) asada (2.641222) taco (2.367166) filipino (2.335310) carn (2.321428) pastor (2.270973) pho (2.198355) el (2.046054) vietnames (2.042409) 
taco (2.763916) beatl (2.600291) tiki (2.597845) teriyaki (2.554399) custard (2.541544) franki (2.406082) asada (2.391135) sushi (2.379117) carn (2.312659) nigiri (2.305695) 
massag (3.083774) facial (3.052100) comic (3.046384) spa (3.035638) museum (2.894993) hotel (2.790618) locker (2.753832) circus (2.753699) shuttl (2.751157) trail (2.683068) 
lash (3.526767) eyebrow (3.389049) wax (3.325884) boba (3.217969) haircut (3.211204) stylist (3.101794) thread (3.026638) barber (2.907874) vet (2.878538) vape (2.727318) 
gun (3.201519) poke (3.088987) bao (2.532571) shoot (2.452114) doughnut (2.097835) crawfish (2.034156) ahi (1.977197) donut (1.924892) spaghetti (1.810624) pound (1.758141) 
ami (3.534049) gabi (3.446183) tint (3.201772) mon (3.120348) frite (3.041372) car (3.014146) vehicl (2.921577) cigar (2.911782) exhibit (2.770841) rental (2.692955) 
librari (3.122128) tattoo (3.107157) cupcak (2.874705) earl (2.594516) frost (2.484423) bakeri (2.236445) gelato (1.883116) candi (1.648480) target (1.604365) smoothi (1.594992) 
pool (3.964412) hotel (3.898762) room (3.795645) bed (3.676376) stay (3.497973) danc (3.411294) suit (3.365290) bathroom (3.364334) club (3.225114) desk (3.161913) 
indian (3.062200) buffet (2.982867) bacchan (2.973652) wick (2.829518) spoon (2.740780) crab (2.666341) crepe (2.571681) ka (2.562739) naan (2.513418) noodl (2.474118) 
Error (train/valid/test) = 1.110155/1.396050/1.400534 (0.007658)
..................................................
energy after gradient step = 1140498327.519989
.....
Top words for each topic:
tan (3.296475) ramen (2.901929) donut (2.808962) hookah (2.796499) nail (2.654748) monta (2.640820) burger (2.581269) patti (2.521404) greek (2.460301) oxtail (2.439939) 
roberto (3.205111) crawfish (2.856149) asada (2.830136) taco (2.641611) carn (2.552592) filipino (2.514226) pho (2.431033) pastor (2.412485) burrito (2.300577) el (2.262156) 
taco (3.103068) sushi (2.805504) teriyaki (2.733637) custard (2.666458) tiki (2.665037) beatl (2.540409) thai (2.505204) nigiri (2.492983) sashimi (2.476328) asada (2.464716) 
massag (3.655033) spa (3.353593) facial (3.224908) comic (3.174446) museum (3.096435) pedicur (2.947073) circus (2.922108) shuttl (2.903163) sauna (2.890998) locker (2.880516) 
lash (3.648400) eyebrow (3.564763) wax (3.558995) boba (3.449441) haircut (3.442468) stylist (3.343757) thread (3.208134) vet (3.152111) hair (3.143736) barber (3.118836) 
gun (3.351803) poke (3.291091) bao (2.666000) shoot (2.632981) ahi (2.159404) doughnut (2.132284) crawfish (2.094466) donut (2.068921) spaghetti (1.949475) zombi (1.903533) 
ami (3.599031) gabi (3.590387) car (3.409943) tint (3.363890) mon (3.233753) vehicl (3.185142) frite (3.157757) cigar (3.097153) rental (2.951208) exhibit (2.930310) 
librari (3.266178) tattoo (3.260769) cupcak (3.177450) earl (2.880454) frost (2.667635) bakeri (2.509672) candi (1.919245) gelato (1.882741) cooki (1.829341) smoothi (1.817317) 
room (4.258282) hotel (4.250327) pool (4.245619) bed (3.908228) stay (3.806084) danc (3.714526) suit (3.591949) club (3.577179) bathroom (3.567472) desk (3.398624) 
buffet (3.387139) indian (3.177589) crab (2.997105) bacchan (2.979108) wick (2.940470) spoon (2.876092) noodl (2.812528) crepe (2.768748) chines (2.730430) gelato (2.653277) 
Error (train/valid/test) = 1.105886/1.395879/1.400266 (0.007653)
..................................................
energy after gradient step = 1129047769.029779
.....
Top words for each topic:
tan (3.294053) ramen (3.178239) donut (3.065438) burger (3.054892) hookah (2.844982) monta (2.792082) nail (2.751910) patti (2.723871) greek (2.690852) bachi (2.626595) 
roberto (3.346508) crawfish (2.998041) asada (2.988824) taco (2.875625) carn (2.706970) filipino (2.704062) pho (2.693681) pastor (2.592454) burrito (2.590244) el (2.418622) 
taco (3.359798) sushi (3.175534) teriyaki (2.851053) custard (2.765419) ayc (2.764325) thai (2.731871) tiki (2.704691) nigiri (2.686812) sashimi (2.655626) guacamol (2.607528) 
massag (4.064896) spa (3.683124) facial (3.417944) comic (3.304161) pedicur (3.291771) museum (3.279168) nail (3.123383) locker (3.078728) sauna (3.069813) circus (3.059679) 
lash (3.752421) wax (3.715416) eyebrow (3.675839) boba (3.634218) haircut (3.603864) hair (3.554964) stylist (3.534488) dr (3.469393) vet (3.373409) doctor (3.346314) 
gun (3.515892) poke (3.439415) shoot (2.770827) bao (2.765180) ahi (2.284549) crawfish (2.161714) doughnut (2.145696) donut (2.135993) pound (2.074576) spaghetti (2.041288) 
car (3.795711) ami (3.769235) gabi (3.683354) tint (3.483242) vehicl (3.372699) mon (3.331233) cigar (3.245969) frite (3.219267) rental (3.173414) exhibit (3.078602) 
cupcak (3.586899) tattoo (3.411685) librari (3.400932) earl (3.115170) frost (2.974580) bakeri (2.784493) candi (2.242128) cooki (2.139611) smoothi (2.010775) gelato (1.847275) 
room (4.552181) hotel (4.455642) pool (4.423037) bed (4.054570) stay (3.984970) danc (3.897165) club (3.821893) suit (3.728842) bathroom (3.672142) floor (3.539054) 
buffet (3.777080) crab (3.296204) indian (3.210341) noodl (3.063557) bacchan (3.041245) crepe (2.993630) chines (2.979098) spoon (2.968057) wick (2.934692) gelato (2.839388) 
Error (train/valid/test) = 1.102905/1.395732/1.400086 (0.007686)
..................................................
energy after gradient step = 1117690351.613365
.....
Top words for each topic:
burger (3.535147) ramen (3.449737) tan (3.322109) donut (3.251439) hookah (3.020483) patti (2.912672) greek (2.898354) gyro (2.893653) monta (2.854136) gordon (2.783936) 
roberto (3.545146) crawfish (3.191399) asada (3.180013) taco (3.121770) pho (2.924131) filipino (2.910977) carn (2.896017) burrito (2.844726) pastor (2.797474) el (2.625910) 
taco (3.611531) sushi (3.604746) ayc (3.027693) teriyaki (2.985248) thai (2.971205) roll (2.911428) nigiri (2.893808) custard (2.876550) sashimi (2.841589) rice (2.824641) 
massag (4.466818) spa (4.008025) pedicur (3.669843) facial (3.598408) museum (3.498951) comic (3.434707) gel (3.432804) nail (3.417149) manicur (3.330830) sauna (3.308220) 
hair (3.938633) wax (3.852046) lash (3.847007) eyebrow (3.831648) boba (3.830752) dr (3.813806) haircut (3.740561) stylist (3.690694) doctor (3.607665) vet (3.526448) 
gun (3.670231) poke (3.546315) shoot (2.937789) bao (2.920658) ahi (2.472500) pound (2.255249) spaghetti (2.225916) crawfish (2.220604) doughnut (2.215535) donut (2.149748) 
car (4.168190) ami (3.863622) gabi (3.850265) tint (3.648000) vehicl (3.622247) cigar (3.430561) mon (3.425457) rental (3.376878) frite (3.318297) insur (3.251299) 
cupcak (3.890982) tattoo (3.594688) librari (3.557486) earl (3.360340) frost (3.238948) bakeri (3.078926) candi (2.512807) cooki (2.452888) smoothi (2.247815) sandwich (2.131372) 
room (4.797398) hotel (4.652209) pool (4.631399) bed (4.211789) stay (4.141305) danc (4.068659) club (4.036141) suit (3.875329) bathroom (3.775336) floor (3.701283) 
buffet (4.113184) crab (3.598862) noodl (3.329046) indian (3.293010) chines (3.256465) crepe (3.184782) dessert (3.097562) bacchan (3.057761) spoon (3.045200) gelato (2.986834) 
Error (train/valid/test) = 1.098859/1.395569/1.399864 (0.007691)
..................................................
energy after gradient step = 1105782836.287462
.....
Top words for each topic:
burger (4.050075) ramen (3.688366) donut (3.430019) tan (3.311908) hookah (3.102068) gyro (3.095781) pizza (3.092598) patti (3.074341) greek (3.056896) monta (3.034052) 
roberto (3.666685) asada (3.383287) crawfish (3.323441) taco (3.321164) pho (3.147154) filipino (3.132031) burrito (3.093921) carn (3.046617) pastor (2.985757) el (2.782210) 
sushi (3.897855) taco (3.800882) ayc (3.240275) roll (3.212833) thai (3.127165) teriyaki (3.068916) nigiri (3.063388) rice (3.051151) sashimi (2.998186) custard (2.924929) 
massag (4.756338) spa (4.287196) pedicur (3.961196) facial (3.768577) gel (3.750803) nail (3.749233) museum (3.634347) cirqu (3.577268) manicur (3.569315) comic (3.545054) 
hair (4.121891) dr (4.056496) wax (3.932182) boba (3.893680) lash (3.884031) eyebrow (3.847141) haircut (3.815998) doctor (3.786323) stylist (3.778355) vet (3.628157) 
gun (3.818130) poke (3.713810) shoot (3.077952) bao (3.041962) ahi (2.611451) pound (2.386960) spaghetti (2.300530) zombi (2.292842) crawfish (2.289369) mignon (2.230720) 
car (4.491294) ami (3.988100) gabi (3.912106) vehicl (3.745861) tint (3.741491) cigar (3.536394) rental (3.527754) mon (3.495399) exhibit (3.393649) frite (3.391675) 
cupcak (4.165107) tattoo (3.702110) librari (3.679239) earl (3.555277) frost (3.465230) bakeri (3.292542) candi (2.760178) cooki (2.736936) smoothi (2.468543) sandwich (2.448569) 
room (4.913121) hotel (4.784440) pool (4.758783) bed (4.283979) stay (4.191973) danc (4.180445) club (4.154508) suit (3.953260) bathroom (3.827376) floor (3.806498) 
buffet (4.243799) crab (3.797354) noodl (3.536310) chines (3.418302) dessert (3.349121) indian (3.340679) crepe (3.304670) seafood (3.164880) spoon (3.104145) rib (3.101074) 
Error (train/valid/test) = 1.095866/1.395440/1.399744 (0.007694)
..................................................
energy after gradient step = 1095213874.750264
.....
Top words for each topic:
burger (4.532473) ramen (3.880776) donut (3.603021) pizza (3.505732) tan (3.303326) gyro (3.238694) patti (3.236425) greek (3.209015) hookah (3.187389) monta (3.145075) 
roberto (3.817357) asada (3.581539) taco (3.478869) crawfish (3.469128) pho (3.367298) burrito (3.338726) filipino (3.304329) carn (3.246880) pastor (3.151957) el (2.994116) 
sushi (4.155552) taco (3.925753) roll (3.466513) ayc (3.414110) thai (3.253294) rice (3.212164) nigiri (3.196565) teriyaki (3.129279) sashimi (3.120955) tempura (3.035666) 
massag (4.969564) spa (4.501489) pedicur (4.230382) nail (4.127436) gel (4.080041) cirqu (3.918795) facial (3.892130) manicur (3.849435) museum (3.805907) comic (3.687747) 
hair (4.222764) dr (4.201619) wax (3.957528) store (3.935594) boba (3.922294) doctor (3.918456) eyebrow (3.873462) lash (3.872413) haircut (3.834920) stylist (3.791183) 
gun (3.975449) poke (3.831102) shoot (3.166040) bao (3.093057) ahi (2.743626) steakhous (2.562497) pound (2.490655) mignon (2.485005) spaghetti (2.478307) filet (2.453934) 
car (4.763891) ami (4.045129) gabi (4.016388) vehicl (3.904268) tint (3.862549) rental (3.715801) cigar (3.662780) driver (3.557487) exhibit (3.511275) mon (3.488662) 
cupcak (4.407099) tattoo (3.849142) librari (3.795124) earl (3.738097) frost (3.649649) bakeri (3.501353) cooki (3.026944) candi (2.993288) sandwich (2.760808) smoothi (2.711364) 
room (4.965960) hotel (4.891918) pool (4.842106) bed (4.341048) danc (4.259098) club (4.227037) stay (4.214418) suit (4.012201) floor (3.857144) bathroom (3.847810) 
buffet (4.337947) crab (3.938324) noodl (3.703946) dessert (3.592223) chines (3.556828) crepe (3.409279) indian (3.363444) seafood (3.347259) rib (3.294899) dish (3.294477) 
Error (train/valid/test) = 1.093335/1.395299/1.399545 (0.007696)
..................................................
energy after gradient step = 1085561626.841695
.....
Top words for each topic:
burger (4.909066) ramen (4.037373) pizza (3.846210) donut (3.742393) gyro (3.372671) patti (3.364299) greek (3.342271) fri (3.279832) hookah (3.279522) tan (3.260960) 
roberto (3.925965) asada (3.794185) taco (3.654160) crawfish (3.620632) pho (3.578926) burrito (3.558703) filipino (3.471510) carn (3.444647) pastor (3.283780) el (3.171323) 
sushi (4.335749) taco (4.014615) roll (3.634560) ayc (3.561838) rice (3.369476) thai (3.348850) nigiri (3.293874) sashimi (3.224659) teriyaki (3.223992) tempura (3.159587) 
massag (5.174722) spa (4.672009) nail (4.525652) pedicur (4.448567) gel (4.298849) cirqu (4.198389) facial (4.072530) manicur (4.031923) museum (3.966583) theater (3.903291) 
dr (4.291592) hair (4.270314) store (4.145218) doctor (3.965696) wax (3.942067) boba (3.919155) appoint (3.879486) lash (3.861004) eyebrow (3.854340) haircut (3.838913) 
gun (4.095072) poke (3.963117) shoot (3.290099) bao (3.217982) steakhous (2.841554) ahi (2.835434) filet (2.752829) mignon (2.686355) spaghetti (2.655709) bisqu (2.605331) 
car (4.988725) ami (4.140650) gabi (4.083358) vehicl (4.002143) tint (3.925230) rental (3.873620) cigar (3.758182) driver (3.702162) exhibit (3.600454) repair (3.598747) 
cupcak (4.606387) tattoo (3.964355) librari (3.908243) earl (3.893929) frost (3.802479) bakeri (3.690966) cooki (3.280553) candi (3.199564) sandwich (3.075871) montagu (2.952996) 
room (5.065241) hotel (5.001220) pool (4.929331) bed (4.387675) danc (4.309316) club (4.293989) stay (4.231419) suit (4.055983) floor (3.906472) bathroom (3.869549) 
buffet (4.385746) crab (4.064046) noodl (3.847154) dessert (3.754967) chines (3.660660) seafood (3.488530) crepe (3.481651) dish (3.481256) rib (3.434703) indian (3.415270) 
Error (train/valid/test) = 1.091051/1.395153/1.399373 (0.007698)
..................................................
energy after gradient step = 1077042013.809614
.....
Top words for each topic:
burger (5.185567) pizza (4.214671) ramen (4.171349) donut (3.858965) fri (3.557348) gyro (3.481055) patti (3.463566) greek (3.425898) hookah (3.328096) monta (3.311334) 
roberto (4.058424) asada (4.023770) taco (3.860594) pho (3.807375) burrito (3.764697) crawfish (3.708654) carn (3.656467) filipino (3.615187) pastor (3.477940) mexican (3.409300) 
sushi (4.485574) taco (4.084599) roll (3.779972) ayc (3.693830) rice (3.499925) thai (3.430671) nigiri (3.382992) sashimi (3.340028) fish (3.315813) tempura (3.315065) 
massag (5.342094) spa (4.838891) nail (4.837104) pedicur (4.641443) gel (4.505771) cirqu (4.503526) manicur (4.225210) theater (4.216193) facial (4.168059) museum (4.095271) 
dr (4.343439) hair (4.322579) store (4.306497) doctor (3.985030) appoint (3.949155) wax (3.947877) boba (3.915663) eyebrow (3.856906) lash (3.845784) haircut (3.834373) 
gun (4.271450) poke (4.073965) bao (3.344528) shoot (3.331106) steakhous (3.192593) filet (3.096007) mignon (2.966007) ahi (2.943091) spaghetti (2.864711) bisqu (2.863663) 
car (5.176334) ami (4.236508) gabi (4.153658) vehicl (4.125933) tint (4.013358) rental (4.006311) cigar (3.853498) driver (3.831848) repair (3.740888) exhibit (3.694714) 
cupcak (4.801753) earl (4.045263) tattoo (4.026677) librari (4.017461) frost (3.952209) bakeri (3.851524) cooki (3.526350) candi (3.400327) sandwich (3.329210) smoothi (3.213372) 
room (5.109608) hotel (5.068618) pool (5.002554) bed (4.429900) danc (4.368202) club (4.337516) stay (4.219993) suit (4.099312) floor (3.926304) shower (3.919244) 
buffet (4.453384) crab (4.172437) noodl (3.970117) dessert (3.921529) chines (3.752180) dish (3.647991) seafood (3.616753) crepe (3.559729) rib (3.550434) indian (3.440480) 
Error (train/valid/test) = 1.088899/1.395084/1.399252 (0.007700)
..................................................
energy after gradient step = 1069195399.864677
.....
Top words for each topic:
burger (5.366884) pizza (4.544277) ramen (4.280359) donut (3.948882) fri (3.787300) gyro (3.556423) patti (3.555406) greek (3.493520) bun (3.444858) crust (3.414557) 
asada (4.194020) roberto (4.121337) taco (4.034332) pho (3.993817) burrito (3.975115) carn (3.912754) crawfish (3.836598) filipino (3.712112) mexican (3.589307) pastor (3.571527) 
sushi (4.613104) taco (4.104362) roll (3.887811) ayc (3.782299) rice (3.616402) thai (3.497463) nigiri (3.462256) fish (3.445898) sashimi (3.435687) tempura (3.368137) 
massag (5.503120) nail (5.077153) spa (4.969968) pedicur (4.800913) cirqu (4.721462) gel (4.657571) theater (4.460291) manicur (4.369135) facial (4.288630) acrobat (4.259151) 
store (4.403776) dr (4.365013) hair (4.321807) doctor (4.003177) appoint (3.983068) wax (3.933814) boba (3.886297) eyebrow (3.846316) haircut (3.834999) stylist (3.825761) 
gun (4.339953) poke (4.188145) steakhous (3.468082) shoot (3.454096) filet (3.393482) bao (3.369207) mignon (3.188344) spaghetti (3.083150) bisqu (3.076505) pasta (3.056942) 
car (5.316379) ami (4.260434) gabi (4.215298) vehicl (4.200306) rental (4.100731) tint (4.072509) driver (3.941005) repair (3.895348) cigar (3.893388) tire (3.770917) 
cupcak (4.931333) tattoo (4.141402) earl (4.139863) librari (4.059436) frost (4.057626) bakeri (3.968136) cooki (3.700762) sandwich (3.593680) candi (3.537454) smoothi (3.376719) 
room (5.154010) hotel (5.121701) pool (5.057732) bed (4.452669) danc (4.403401) club (4.376480) stay (4.181277) suit (4.124743) shower (3.953845) floor (3.942938) 
buffet (4.516855) crab (4.252236) noodl (4.064162) dessert (4.048889) chines (3.830808) dish (3.783518) seafood (3.713199) rib (3.657466) crepe (3.622313) shrimp (3.499452) 
Error (train/valid/test) = 1.087066/1.394973/1.399199 (0.007702)
..................................................
energy after gradient step = 1062211627.378704
.....
Top words for each topic:
burger (5.503365) pizza (4.799124) ramen (4.363750) donut (4.021280) fri (3.959957) gyro (3.639397) patti (3.613918) crust (3.580055) greek (3.568967) bun (3.549218) 
asada (4.337086) taco (4.212712) pho (4.184394) burrito (4.179323) roberto (4.174970) carn (4.105421) crawfish (3.905304) filipino (3.800433) mexican (3.753785) hash (3.669979) 
sushi (4.722507) taco (4.110623) roll (3.978755) ayc (3.868332) rice (3.728380) fish (3.550572) thai (3.549292) sashimi (3.524415) nigiri (3.518132) tuna (3.473175) 
massag (5.636912) nail (5.248084) spa (5.091151) pedicur (4.947565) cirqu (4.916430) gel (4.804854) theater (4.677231) manicur (4.509882) acrobat (4.419459) facial (4.412361) 
store (4.472120) dr (4.383242) hair (4.334101) appoint (4.025799) doctor (4.014124) wax (3.946082) boba (3.856642) eyebrow (3.841053) haircut (3.832085) stylist (3.824100) 
gun (4.492709) poke (4.229409) steakhous (3.818443) filet (3.729177) shoot (3.552040) mignon (3.471339) bao (3.440727) bisqu (3.321709) pasta (3.321094) martini (3.230484) 
car (5.444519) ami (4.305618) vehicl (4.287888) gabi (4.276202) rental (4.176893) tint (4.133082) driver (4.038156) repair (4.019984) cigar (3.968039) tire (3.886959) 
cupcak (5.048097) earl (4.226346) tattoo (4.167235) frost (4.154086) librari (4.125343) bakeri (4.078379) cooki (3.849741) sandwich (3.821654) candi (3.624426) smoothi (3.611142) 
room (5.178826) hotel (5.169327) pool (5.104271) bed (4.474034) danc (4.443901) club (4.396937) stay (4.160052) suit (4.149828) shower (3.991663) floor (3.931232) 
buffet (4.593961) crab (4.336594) dessert (4.164926) noodl (4.153280) dish (3.900875) chines (3.893799) seafood (3.798587) rib (3.738182) crepe (3.680651) shrimp (3.576274) 
Error (train/valid/test) = 1.085278/1.394909/1.399179 (0.007704)
..................................................
energy after gradient step = 1055629435.525058
.....
Top words for each topic:
burger (5.618260) pizza (4.980392) ramen (4.430662) fri (4.087362) donut (4.078462) crust (3.715711) gyro (3.697856) patti (3.675152) bun (3.653257) greek (3.619392) 
asada (4.479799) taco (4.385887) burrito (4.385091) pho (4.355253) roberto (4.275024) carn (4.270358) crawfish (4.012772) pancak (3.930149) mexican (3.914516) breakfast (3.876591) 
sushi (4.832177) taco (4.097911) roll (4.048927) ayc (3.939627) rice (3.840043) fish (3.655312) thai (3.610176) tuna (3.608469) sashimi (3.576936) nigiri (3.562503) 
massag (5.771289) nail (5.396968) spa (5.192397) cirqu (5.079831) pedicur (5.079065) gel (4.927743) theater (4.877579) manicur (4.626462) acrobat (4.578890) perform (4.561397) 
store (4.541595) dr (4.400589) hair (4.343624) appoint (4.061877) doctor (4.028609) wax (3.925085) boba (3.852931) haircut (3.835284) eyebrow (3.824179) stylist (3.820987) 
gun (4.585686) poke (4.332244) steakhous (4.068906) filet (4.038861) mignon (3.725806) shoot (3.603721) pasta (3.575332) ribey (3.535198) bisqu (3.524755) martini (3.465471) 
car (5.548299) vehicl (4.364581) ami (4.358078) gabi (4.311139) rental (4.259366) tint (4.186556) driver (4.146392) repair (4.145784) cigar (4.012196) tire (3.987764) 
cupcak (5.143981) earl (4.325984) frost (4.237118) tattoo (4.229247) librari (4.201040) bakeri (4.161151) sandwich (4.010548) cooki (3.972314) smoothi (3.821241) candi (3.722774) 
hotel (5.206873) room (5.187791) pool (5.150624) bed (4.498540) danc (4.483057) club (4.417873) suit (4.169274) stay (4.137267) shower (4.018945) floor (3.918125) 
buffet (4.679875) crab (4.425252) dessert (4.281160) noodl (4.232919) dish (4.003314) chines (3.969568) seafood (3.878072) rib (3.830892) crepe (3.746153) shrimp (3.633034) 
Error (train/valid/test) = 1.083273/1.394811/1.399119 (0.007707)
..................................................
energy after gradient step = 1049704698.633565
.....
Top words for each topic:
burger (5.724158) pizza (5.109835) ramen (4.488088) fri (4.178178) donut (4.126609) crust (3.814423) gyro (3.750761) patti (3.745103) bun (3.727002) greek (3.671305) 
asada (4.597881) burrito (4.565556) taco (4.559859) pho (4.536244) carn (4.398192) roberto (4.284954) pancak (4.162319) breakfast (4.072504) crawfish (4.057533) mexican (4.043573) 
sushi (4.929359) roll (4.109839) taco (4.078493) ayc (3.985862) rice (3.928439) fish (3.731541) tuna (3.728268) thai (3.662612) sashimi (3.651709) nigiri (3.614065) 
massag (5.894789) nail (5.531943) spa (5.289407) cirqu (5.235584) pedicur (5.198952) gel (5.048045) theater (5.041199) manicur (4.751725) perform (4.740193) stage (4.731987) 
store (4.580116) dr (4.419814) hair (4.369905) appoint (4.080734) doctor (4.054324) wax (3.962013) haircut (3.858601) stylist (3.854776) eyebrow (3.853156) boba (3.821477) 
gun (4.685977) poke (4.352722) filet (4.346074) steakhous (4.324292) mignon (3.942491) ribey (3.926032) pasta (3.862202) bisqu (3.767284) shoot (3.708939) martini (3.708797) 
car (5.628637) vehicl (4.413094) ami (4.384240) gabi (4.354724) rental (4.316976) repair (4.283575) tint (4.221977) driver (4.202732) tire (4.058408) cigar (4.040506) 
cupcak (5.226819) earl (4.389431) frost (4.297168) tattoo (4.268703) bakeri (4.251943) librari (4.234983) sandwich (4.165833) cooki (4.063390) smoothi (3.980161) chocol (3.946577) 
hotel (5.238626) pool (5.188389) room (5.186832) bed (4.522233) danc (4.509161) club (4.417294) suit (4.180371) stay (4.125144) shower (4.036523) floor (3.911519) 
buffet (4.752873) crab (4.491708) dessert (4.368127) noodl (4.320130) dish (4.066517) chines (4.037044) seafood (3.958530) rib (3.908076) crepe (3.806004) shrimp (3.694734) 
Error (train/valid/test) = 1.081379/1.394734/1.399127 (0.007709)
..................................................
energy after gradient step = 1044974093.927376
.....
Top words for each topic:
burger (5.797563) pizza (5.199992) ramen (4.539899) fri (4.240957) donut (4.157962) crust (3.906635) gyro (3.797233) bun (3.773504) patti (3.750940) greek (3.707814) 
taco (4.708816) burrito (4.695237) pho (4.692760) asada (4.640484) carn (4.468581) pancak (4.329579) roberto (4.315601) breakfast (4.222437) mexican (4.162910) hash (4.131485) 
sushi (4.998394) roll (4.159693) taco (4.051791) ayc (4.029890) rice (4.006024) tuna (3.811261) fish (3.789376) thai (3.693180) sashimi (3.673596) nigiri (3.629983) 
massag (5.998603) nail (5.643917) spa (5.372894) cirqu (5.353525) pedicur (5.285950) theater (5.172012) gel (5.138913) stage (4.883508) perform (4.879797) manicur (4.830119) 
store (4.598709) dr (4.436931) hair (4.380630) appoint (4.104343) doctor (4.079299) wax (3.963310) haircut (3.867058) stylist (3.858629) eyebrow (3.855685) boba (3.845779) 
gun (4.752987) filet (4.611192) steakhous (4.513224) poke (4.377694) mignon (4.170924) ribey (4.154636) pasta (4.110299) lobster (3.989052) bisqu (3.939223) wine (3.890782) 
car (5.690152) vehicl (4.460074) ami (4.408633) rental (4.366672) gabi (4.363384) repair (4.352104) tint (4.258297) driver (4.246952) tire (4.101985) cigar (4.071895) 
cupcak (5.288539) earl (4.428977) frost (4.356031) bakeri (4.326896) tattoo (4.296467) librari (4.286725) sandwich (4.278275) chocol (4.127092) cooki (4.124163) smoothi (4.069144) 
hotel (5.252895) pool (5.217389) room (5.179871) danc (4.551379) bed (4.542178) club (4.423761) suit (4.199801) stay (4.104962) shower (4.059983) floor (3.903075) 
buffet (4.822188) crab (4.568007) dessert (4.437302) noodl (4.387093) dish (4.125595) chines (4.097136) seafood (4.025923) rib (3.996633) crepe (3.865482) soup (3.747820) 
Error (train/valid/test) = 1.079707/1.394664/1.399157 (0.007711)
..................................................
energy after gradient step = 1040331895.904096
.....
Top words for each topic:
burger (5.877110) pizza (5.295443) ramen (4.580316) fri (4.309147) donut (4.196166) crust (3.982733) gyro (3.848861) patti (3.831032) bun (3.820385) greek (3.741160) 
taco (4.842352) pho (4.836832) burrito (4.806207) asada (4.736584) carn (4.535067) pancak (4.467953) breakfast (4.372210) roberto (4.339467) mexican (4.301909) hash (4.243812) 
sushi (5.050428) roll (4.190441) rice (4.091149) ayc (4.060722) taco (4.033492) tuna (3.888883) fish (3.844963) thai (3.742960) sashimi (3.718379) nigiri (3.664594) 
massag (6.095449) nail (5.736585) cirqu (5.460103) spa (5.445058) pedicur (5.380066) theater (5.277429) gel (5.226525) perform (4.982661) stage (4.973577) acrobat (4.917433) 
store (4.636255) dr (4.471523) hair (4.402340) appoint (4.151967) doctor (4.104629) wax (3.978792) stylist (3.895429) haircut (3.886693) eyebrow (3.866596) lash (3.822246) 
filet (4.864314) gun (4.852713) steakhous (4.699847) ribey (4.477067) poke (4.400753) mignon (4.353523) pasta (4.350040) lobster (4.273050) wine (4.191187) steak (4.147081) 
car (5.759508) vehicl (4.504475) repair (4.469859) rental (4.451595) ami (4.443338) gabi (4.396568) driver (4.312100) tint (4.289717) tire (4.127976) auto (4.120490) 
cupcak (5.344511) earl (4.498479) frost (4.405951) sandwich (4.379835) bakeri (4.371614) librari (4.307162) tattoo (4.291017) chocol (4.281550) smoothi (4.210181) cooki (4.187301) 
hotel (5.275864) pool (5.251228) room (5.152875) danc (4.574114) bed (4.554960) club (4.432459) suit (4.217666) stay (4.081780) shower (4.079762) elev (3.905385) 
buffet (4.899279) crab (4.642725) dessert (4.526084) noodl (4.474324) dish (4.190663) chines (4.154746) seafood (4.106117) rib (4.068953) crepe (3.941094) soup (3.816994) 
Error (train/valid/test) = 1.077652/1.394697/1.399096 (0.007713)
..................................................
energy after gradient step = 1036056392.622580
.....
Top words for each topic:
burger (5.930659) pizza (5.353572) ramen (4.603078) fri (4.347588) donut (4.220731) crust (4.040452) gyro (3.877335) bun (3.868422) patti (3.828226) greek (3.780062) 
taco (4.962043) pho (4.944861) burrito (4.886126) asada (4.747082) carn (4.579888) pancak (4.573066) breakfast (4.467273) mexican (4.415336) roberto (4.351592) hash (4.288137) 
sushi (5.076884) roll (4.194727) rice (4.147120) ayc (4.084599) taco (3.961076) tuna (3.946225) fish (3.867642) thai (3.783432) sashimi (3.728095) spici (3.686193) 
massag (6.175571) nail (5.813299) cirqu (5.527764) spa (5.480153) pedicur (5.441490) theater (5.347296) gel (5.273094) perform (5.046225) stage (5.045735) acrobat (4.983379) 
store (4.648290) dr (4.500687) hair (4.415199) appoint (4.181782) doctor (4.140783) wax (4.011631) stylist (3.911386) haircut (3.909529) eyebrow (3.892109) boba (3.859579) 
filet (5.047628) gun (4.863175) steakhous (4.800843) ribey (4.585932) pasta (4.562834) lobster (4.538256) steak (4.502565) mignon (4.475875) wine (4.466941) poke (4.353480) 
car (5.791336) repair (4.558470) vehicl (4.553652) rental (4.473166) ami (4.438488) gabi (4.409481) driver (4.335758) tint (4.310368) tire (4.155812) auto (4.148669) 
cupcak (5.392601) earl (4.506237) sandwich (4.456493) frost (4.437619) bakeri (4.425845) chocol (4.400697) tattoo (4.320998) librari (4.313217) smoothi (4.267252) cooki (4.193734) 
hotel (5.285510) pool (5.271563) room (5.127246) danc (4.603645) bed (4.563242) club (4.435423) suit (4.228848) shower (4.086506) stay (4.076144) elev (3.926853) 
buffet (4.958597) crab (4.705211) dessert (4.595625) noodl (4.535692) dish (4.237056) chines (4.209239) seafood (4.168554) rib (4.132195) crepe (4.005636) soup (3.874461) 
Error (train/valid/test) = 1.076080/1.394644/1.399074 (0.007715)
..................................................
energy after gradient step = 1032488631.702622
.....
Top words for each topic:
burger (5.982878) pizza (5.405036) ramen (4.624236) fri (4.380438) donut (4.244292) crust (4.076137) gyro (3.912683) bun (3.899968) patti (3.882472) greek (3.787997) 
taco (5.063731) pho (5.010346) burrito (4.927214) asada (4.785251) pancak (4.640436) carn (4.602643) breakfast (4.522940) mexican (4.497829) roberto (4.345241) hash (4.339157) 
sushi (5.082317) rice (4.197946) roll (4.168202) ayc (4.102580) tuna (3.981479) fish (3.884469) taco (3.874268) thai (3.822221) sashimi (3.728905) spici (3.719757) 
massag (6.228352) nail (5.864235) cirqu (5.576952) spa (5.487272) pedicur (5.482760) theater (5.388986) gel (5.319829) stage (5.098845) perform (5.093023) acrobat (5.034487) 
store (4.676918) dr (4.528742) hair (4.433866) appoint (4.212520) doctor (4.172754) wax (4.015461) haircut (3.935623) stylist (3.935348) eyebrow (3.913333) salon (3.878706) 
filet (5.161678) gun (4.876831) steakhous (4.873049) steak (4.861842) wine (4.709946) lobster (4.706755) ribey (4.702041) pasta (4.698879) mignon (4.564584) oliv (4.328149) 
car (5.825425) repair (4.609290) vehicl (4.581878) rental (4.518831) ami (4.443107) gabi (4.418494) driver (4.383457) tint (4.334718) tour (4.185812) auto (4.179551) 
cupcak (5.425996) earl (4.564974) sandwich (4.533566) chocol (4.495762) frost (4.485850) bakeri (4.462658) librari (4.340817) smoothi (4.339117) tattoo (4.309840) cooki (4.236683) 
pool (5.302179) hotel (5.294986) room (5.105490) danc (4.627140) bed (4.576258) club (4.433122) suit (4.238788) shower (4.109220) stay (4.046835) elev (3.948463) 
buffet (5.030677) crab (4.776595) dessert (4.660898) noodl (4.603420) dish (4.281175) chines (4.256178) seafood (4.226107) rib (4.200727) crepe (4.054607) soup (3.911584) 
Error (train/valid/test) = 1.074470/1.394603/1.399047 (0.007717)
..................................................
energy after gradient step = 1029294151.484397
.....
Top words for each topic:
burger (6.030529) pizza (5.456315) ramen (4.655596) fri (4.408247) donut (4.268870) crust (4.119589) gyro (3.957086) bun (3.928739) patti (3.896021) greek (3.828123) 
taco (5.181392) pho (5.061874) burrito (4.963689) asada (4.782304) pancak (4.667031) carn (4.611478) mexican (4.578803) breakfast (4.571850) salsa (4.381219) hash (4.359028) 
sushi (5.082100) rice (4.242067) roll (4.142888) ayc (4.111741) tuna (3.998714) fish (3.902507) thai (3.866050) sashimi (3.769230) spici (3.750544) dish (3.721321) 
massag (6.276103) nail (5.898289) cirqu (5.621754) pedicur (5.522604) spa (5.485022) theater (5.435000) gel (5.356564) stage (5.153570) perform (5.115488) acrobat (5.086532) 
store (4.692849) dr (4.558796) hair (4.447720) appoint (4.249974) doctor (4.190212) wax (4.051444) stylist (3.955214) haircut (3.952369) eyebrow (3.925578) salon (3.921299) 
filet (5.257022) steak (5.101006) wine (4.931377) steakhous (4.917708) lobster (4.873509) gun (4.872743) pasta (4.820508) ribey (4.739603) mignon (4.619948) oliv (4.361238) 
car (5.851364) repair (4.654033) vehicl (4.612764) rental (4.540694) ami (4.472991) gabi (4.443521) driver (4.418071) tint (4.368889) auto (4.220390) tour (4.218580) 
cupcak (5.473830) chocol (4.582903) sandwich (4.580847) earl (4.580527) frost (4.515900) bakeri (4.503249) smoothi (4.379095) librari (4.365794) tattoo (4.325214) cooki (4.272740) 
pool (5.326201) hotel (5.309254) room (5.068214) danc (4.642313) bed (4.581054) club (4.438826) suit (4.249599) shower (4.123855) stay (4.036893) elev (3.963741) 
buffet (5.093769) crab (4.840391) dessert (4.719755) noodl (4.662250) chines (4.322104) dish (4.321459) seafood (4.287775) rib (4.250771) crepe (4.130702) soup (3.957292) 
Error (train/valid/test) = 1.072967/1.394658/1.399064 (0.007719)
..................................................
energy after gradient step = 1026219279.398435
.....
Top words for each topic:
burger (6.075244) pizza (5.494214) ramen (4.679280) fri (4.424215) donut (4.291888) crust (4.144746) gyro (3.978811) bun (3.946359) patti (3.918178) greek (3.854722) 
taco (5.276488) pho (5.098750) burrito (4.985614) asada (4.811344) pancak (4.693565) carn (4.633807) mexican (4.632727) breakfast (4.597252) salsa (4.446373) hash (4.387098) 
sushi (5.076468) rice (4.277099) ayc (4.117243) roll (4.102539) tuna (4.021116) thai (3.917591) fish (3.911484) spici (3.775996) dish (3.774410) sashimi (3.752329) 
massag (6.306603) nail (5.920098) cirqu (5.650378) pedicur (5.556339) spa (5.493513) theater (5.445811) gel (5.378823) stage (5.175008) perform (5.138570) acrobat (5.112642) 
store (4.711933) dr (4.587417) hair (4.455066) appoint (4.288270) doctor (4.216570) wax (4.066462) stylist (3.976739) haircut (3.971925) salon (3.944612) eyebrow (3.936480) 
filet (5.304225) steak (5.270902) wine (5.077225) lobster (4.977269) steakhous (4.942061) pasta (4.894875) gun (4.837777) ribey (4.793515) mignon (4.651477) oliv (4.419501) 
car (5.875362) repair (4.722896) vehicl (4.639156) rental (4.581043) ami (4.466941) driver (4.447051) gabi (4.437607) tint (4.380652) auto (4.260970) tour (4.254725) 
cupcak (5.503206) sandwich (4.643861) chocol (4.635815) earl (4.618028) bakeri (4.536457) frost (4.528799) smoothi (4.448978) librari (4.364479) tattoo (4.327405) cooki (4.282182) 
pool (5.347675) hotel (5.310817) room (5.030566) danc (4.662042) bed (4.588710) club (4.442127) suit (4.253815) shower (4.145373) stay (4.001473) elev (3.979528) 
buffet (5.162089) crab (4.898920) dessert (4.781680) noodl (4.720497) chines (4.363336) dish (4.346661) seafood (4.335859) rib (4.302009) crepe (4.178409) soup (3.983337) 
Error (train/valid/test) = 1.071551/1.394647/1.399062 (0.007720)
..................................................
energy after gradient step = 1023413165.377625
.....
Top words for each topic:
burger (6.109191) pizza (5.529364) ramen (4.704371) fri (4.440700) donut (4.307177) crust (4.180259) gyro (4.013274) bun (3.970888) patti (3.949663) greek (3.874350) 
taco (5.389456) pho (5.110434) burrito (4.981197) asada (4.796932) pancak (4.713753) mexican (4.698328) carn (4.626539) breakfast (4.621345) salsa (4.536560) hash (4.397065) 
sushi (5.070233) rice (4.304471) ayc (4.112412) roll (4.058192) tuna (4.024098) thai (3.979208) fish (3.915911) dish (3.839785) spici (3.813202) sashimi (3.752293) 
massag (6.323132) nail (5.923490) cirqu (5.667091) pedicur (5.562741) spa (5.483946) theater (5.466391) gel (5.401792) stage (5.182264) acrobat (5.141315) perform (5.136198) 
store (4.737750) dr (4.609576) hair (4.465533) appoint (4.310847) doctor (4.235440) wax (4.067445) salon (4.003746) stylist (3.993291) haircut (3.993290) eyebrow (3.964303) 
steak (5.339852) filet (5.309859) wine (5.159826) lobster (5.068389) pasta (4.924692) steakhous (4.924352) ribey (4.789804) gun (4.773583) mignon (4.664190) oliv (4.415303) 
car (5.905349) repair (4.737958) vehicl (4.676257) rental (4.585588) ami (4.469197) gabi (4.462262) driver (4.452432) tint (4.400906) compani (4.307311) auto (4.283042) 
cupcak (5.550906) chocol (4.693088) sandwich (4.686149) earl (4.656533) frost (4.575791) bakeri (4.575012) smoothi (4.488998) librari (4.378804) tattoo (4.318879) cooki (4.315415) 
pool (5.368563) hotel (5.312178) room (5.000939) danc (4.674166) bed (4.597038) club (4.436387) suit (4.258504) shower (4.166255) elev (3.995809) stay (3.979568) 
buffet (5.237872) crab (4.953264) dessert (4.832201) noodl (4.773412) chines (4.430139) seafood (4.393078) dish (4.360200) rib (4.346169) crepe (4.249972) oyster (4.018245) 
Error (train/valid/test) = 1.070192/1.394626/1.399065 (0.007721)
..................................................
energy after gradient step = 1020852451.153368
.....
Top words for each topic:
burger (6.146262) pizza (5.563714) ramen (4.719393) fri (4.442172) donut (4.327093) crust (4.198632) gyro (4.043846) bun (3.994653) patti (3.975543) greek (3.910992) 
taco (5.488141) pho (5.122263) burrito (5.007133) asada (4.823593) mexican (4.748375) pancak (4.729127) carn (4.643628) breakfast (4.633203) salsa (4.608755) hash (4.410411) 
sushi (5.070345) rice (4.340782) ayc (4.118136) thai (4.042391) tuna (4.023134) roll (4.004048) fish (3.911428) dish (3.892279) spici (3.838198) chicken (3.758263) 
massag (6.335276) nail (5.921753) cirqu (5.690074) pedicur (5.595280) spa (5.491474) theater (5.469012) gel (5.396686) stage (5.183582) acrobat (5.154793) perform (5.130274) 
store (4.748603) dr (4.631139) hair (4.466711) appoint (4.335729) doctor (4.263872) wax (4.093536) salon (4.032089) stylist (4.014337) haircut (4.012885) eyebrow (3.969475) 
steak (5.370358) filet (5.321621) wine (5.200189) lobster (5.130963) pasta (4.931827) steakhous (4.917421) ribey (4.803054) gun (4.731374) mignon (4.656001) oliv (4.398435) 
car (5.917906) repair (4.779537) vehicl (4.689372) rental (4.642178) driver (4.485798) ami (4.465802) gabi (4.456766) tint (4.415276) compani (4.324104) auto (4.320082) 
cupcak (5.585843) chocol (4.741710) sandwich (4.723305) earl (4.677518) bakeri (4.614559) frost (4.597836) smoothi (4.548099) librari (4.406010) cooki (4.332186) tattoo (4.314158) 
pool (5.388222) hotel (5.311806) room (4.958954) danc (4.687284) bed (4.599335) club (4.436887) suit (4.261075) shower (4.178105) elev (4.014556) stay (3.950950) 
buffet (5.305668) crab (5.012319) dessert (4.875362) noodl (4.834528) chines (4.490464) seafood (4.447463) rib (4.396589) dish (4.380338) crepe (4.294472) oyster (4.071345) 
Error (train/valid/test) = 1.068862/1.394593/1.399063 (0.007722)
..................................................
energy after gradient step = 1018410998.908287
.....
Top words for each topic:
burger (6.185400) pizza (5.595892) ramen (4.734206) fri (4.453968) donut (4.333745) crust (4.220178) gyro (4.064600) bun (4.014862) patti (3.980490) greek (3.913790) 
taco (5.564103) pho (5.123671) burrito (5.009159) asada (4.807004) mexican (4.785273) pancak (4.736706) salsa (4.663790) breakfast (4.645754) carn (4.641551) hash (4.413865) 
sushi (5.061846) rice (4.374672) ayc (4.117469) thai (4.105455) tuna (4.023139) roll (3.965056) dish (3.935028) fish (3.912074) spici (3.865042) chicken (3.774157) 
massag (6.340094) nail (5.907432) cirqu (5.695741) pedicur (5.593890) spa (5.474703) theater (5.469038) gel (5.420611) stage (5.194681) acrobat (5.180996) manicur (5.121150) 
store (4.768062) dr (4.657507) hair (4.472095) appoint (4.361078) doctor (4.280178) wax (4.105297) salon (4.073234) stylist (4.034333) haircut (4.030619) eyebrow (3.986596) 
steak (5.368157) filet (5.311842) wine (5.213273) lobster (5.170371) pasta (4.907158) steakhous (4.898266) ribey (4.776682) mignon (4.676169) gun (4.667001) waiter (4.431451) 
car (5.926902) repair (4.812449) vehicl (4.727591) rental (4.638331) ami (4.492065) driver (4.486927) gabi (4.478186) tint (4.429166) auto (4.334209) compani (4.325811) 
cupcak (5.631285) chocol (4.782510) sandwich (4.757584) earl (4.728466) bakeri (4.646465) frost (4.640151) smoothi (4.583631) librari (4.428857) cooki (4.345117) tattoo (4.334584) 
pool (5.408992) hotel (5.311385) room (4.921324) danc (4.696749) bed (4.603898) club (4.433631) suit (4.256087) shower (4.188018) elev (4.022340) stay (3.918346) 
buffet (5.376963) crab (5.060727) dessert (4.900162) noodl (4.886584) chines (4.551423) seafood (4.507498) rib (4.421227) dish (4.383906) crepe (4.358868) oyster (4.131511) 
Error (train/valid/test) = 1.067597/1.394597/1.399080 (0.007723)
..................................................
energy after gradient step = 1016069663.595656
.....
Top words for each topic:
burger (6.221875) pizza (5.627615) ramen (4.762235) fri (4.469973) donut (4.369024) crust (4.237917) gyro (4.117472) bun (4.026215) patti (4.015592) greek (3.947663) 
taco (5.625755) pho (5.139802) burrito (5.028932) mexican (4.827327) asada (4.826260) pancak (4.753763) salsa (4.733189) carn (4.657137) breakfast (4.653378) hash (4.438781) 
sushi (5.047978) rice (4.405467) thai (4.165254) ayc (4.115351) tuna (4.019489) dish (3.997257) fish (3.913807) roll (3.912633) spici (3.882675) chicken (3.797765) 
massag (6.339523) nail (5.893768) cirqu (5.705449) pedicur (5.611883) theater (5.464334) spa (5.459034) gel (5.410539) stage (5.188089) acrobat (5.175002) manicur (5.127416) 
store (4.796161) dr (4.680378) hair (4.475930) appoint (4.391693) doctor (4.303607) wax (4.128799) salon (4.097671) stylist (4.055744) haircut (4.051341) eyebrow (4.004165) 
steak (5.348292) filet (5.312187) wine (5.204668) lobster (5.174266) pasta (4.898350) steakhous (4.870826) ribey (4.794282) mignon (4.655969) gun (4.591424) waiter (4.461259) 
car (5.941504) repair (4.843513) vehicl (4.734670) rental (4.666645) driver (4.521379) ami (4.481173) gabi (4.477457) tint (4.446542) auto (4.368762) compani (4.361213) 
cupcak (5.668408) chocol (4.811675) sandwich (4.785767) earl (4.758064) bakeri (4.699244) frost (4.670407) smoothi (4.637310) librari (4.457316) cooki (4.346140) tattoo (4.337559) 
pool (5.425376) hotel (5.304917) room (4.882864) danc (4.705138) bed (4.607440) club (4.431464) suit (4.259898) shower (4.196700) elev (4.036926) tower (3.915382) 
buffet (5.437750) crab (5.113848) noodl (4.948126) dessert (4.915888) chines (4.608687) seafood (4.562796) rib (4.459500) crepe (4.409735) dish (4.385002) oyster (4.195991) 
Error (train/valid/test) = 1.066299/1.394566/1.399115 (0.007724)
..................................................
energy after gradient step = 1013919844.785723
.....
Top words for each topic:
burger (6.263247) pizza (5.662278) ramen (4.776851) fri (4.473317) donut (4.381197) crust (4.238566) gyro (4.132593) bun (4.057513) patti (4.039724) greek (3.973168) 
taco (5.675470) pho (5.146618) burrito (5.031404) mexican (4.860597) asada (4.826546) salsa (4.779151) pancak (4.768325) carn (4.667304) breakfast (4.636881) hash (4.447472) 
sushi (5.042288) rice (4.425793) thai (4.222045) ayc (4.117951) dish (4.045542) tuna (4.023014) fish (3.914108) spici (3.908753) roll (3.872582) chicken (3.812564) 
massag (6.342953) nail (5.874655) cirqu (5.705541) pedicur (5.607157) theater (5.461015) spa (5.452698) gel (5.417883) acrobat (5.198171) stage (5.194345) manicur (5.123055) 
store (4.811916) dr (4.701867) hair (4.477294) appoint (4.419752) doctor (4.324033) salon (4.166076) wax (4.124750) stylist (4.066587) haircut (4.064807) eyebrow (4.017387) 
steak (5.307937) filet (5.302874) wine (5.180486) lobster (5.176887) pasta (4.870914) steakhous (4.860925) ribey (4.747837) mignon (4.660532) gun (4.524279) waiter (4.468365) 
car (5.944277) repair (4.867719) vehicl (4.761785) rental (4.693394) driver (4.521831) gabi (4.471118) ami (4.457515) tint (4.454642) auto (4.386599) compani (4.372425) 
cupcak (5.710798) chocol (4.852063) sandwich (4.816399) earl (4.788520) bakeri (4.728760) frost (4.711012) smoothi (4.682601) librari (4.472450) cooki (4.382242) tattoo (4.338219) 
pool (5.439371) hotel (5.295358) room (4.847197) danc (4.711562) bed (4.609940) club (4.419140) suit (4.263299) shower (4.213036) elev (4.049064) tower (3.927024) 
buffet (5.512035) crab (5.172124) noodl (5.011296) dessert (4.925961) chines (4.661047) seafood (4.615685) rib (4.495224) crepe (4.452471) dish (4.379759) oyster (4.244252) 
Error (train/valid/test) = 1.065098/1.394604/1.399110 (0.007725)
..................................................
energy after gradient step = 1011827543.066907
.....
Top words for each topic:
burger (6.295134) pizza (5.686108) ramen (4.808383) fri (4.485945) donut (4.408926) crust (4.262961) gyro (4.176452) patti (4.062541) bun (4.056263) greek (3.991050) 
taco (5.698565) pho (5.157861) burrito (5.050607) mexican (4.882128) asada (4.827471) salsa (4.810207) pancak (4.775873) carn (4.655697) breakfast (4.646945) hash (4.455866) 
sushi (5.041556) rice (4.455160) thai (4.288990) ayc (4.105715) dish (4.089610) tuna (4.010344) spici (3.928012) fish (3.911734) roll (3.842699) chicken (3.821789) 
massag (6.338782) nail (5.851341) cirqu (5.710727) pedicur (5.621924) spa (5.459264) theater (5.451515) gel (5.419360) stage (5.205799) acrobat (5.200217) manicur (5.142031) 
store (4.833124) dr (4.714396) hair (4.480570) appoint (4.441550) doctor (4.337035) salon (4.188508) wax (4.150874) stylist (4.086012) haircut (4.077885) eyebrow (4.027877) 
steak (5.306981) filet (5.287741) wine (5.171542) lobster (5.170478) steakhous (4.834362) pasta (4.825894) ribey (4.758887) mignon (4.636930) waiter (4.473690) gun (4.451833) 
car (5.946259) repair (4.906123) vehicl (4.784300) rental (4.712539) driver (4.518595) gabi (4.487363) tint (4.460599) ami (4.451659) auto (4.412289) brake (4.388907) 
cupcak (5.750285) chocol (4.877688) earl (4.841269) sandwich (4.833953) bakeri (4.761622) frost (4.734058) smoothi (4.721915) librari (4.495476) cooki (4.416170) tattoo (4.346812) 
pool (5.454267) hotel (5.293512) room (4.822457) danc (4.713208) bed (4.611508) club (4.423537) suit (4.264411) shower (4.226122) elev (4.057486) tower (3.935923) 
buffet (5.564455) crab (5.213513) noodl (5.058030) dessert (4.933652) chines (4.714770) seafood (4.664460) rib (4.513965) crepe (4.508403) dish (4.373992) oyster (4.302899) 
Error (train/valid/test) = 1.063930/1.394605/1.399120 (0.007726)
..................................................
energy after gradient step = 1009812773.435112
.....
Top words for each topic:
burger (6.332772) pizza (5.718424) ramen (4.814172) fri (4.491331) donut (4.414655) crust (4.267277) gyro (4.188921) bun (4.087909) patti (4.083954) greek (4.012940) 
taco (5.723504) pho (5.170763) burrito (5.063376) mexican (4.909415) salsa (4.861508) asada (4.838915) pancak (4.793113) carn (4.692657) breakfast (4.645489) hash (4.467188) 
sushi (5.017458) rice (4.477767) thai (4.334856) dish (4.122439) ayc (4.114681) tuna (4.013838) spici (3.941890) fish (3.907271) chicken (3.831805) roll (3.800523) 
massag (6.339658) nail (5.831949) cirqu (5.711163) pedicur (5.626506) spa (5.451043) theater (5.450491) gel (5.423994) acrobat (5.213846) stage (5.192283) manicur (5.141078) 
store (4.849871) dr (4.738936) hair (4.473108) appoint (4.454386) doctor (4.352661) salon (4.235380) wax (4.152582) stylist (4.100077) haircut (4.093789) eyebrow (4.041002) 
filet (5.289501) steak (5.278783) lobster (5.166531) wine (5.158832) steakhous (4.834134) pasta (4.826937) ribey (4.745137) mignon (4.651171) waiter (4.484101) gun (4.407255) 
car (5.952496) repair (4.927100) vehicl (4.791441) rental (4.723730) driver (4.559336) gabi (4.475050) tint (4.470057) ami (4.466163) auto (4.425056) brake (4.411013) 
cupcak (5.783589) chocol (4.893342) sandwich (4.845991) earl (4.842025) bakeri (4.795611) smoothi (4.773529) frost (4.755274) librari (4.498354) cooki (4.432541) yogurt (4.345110) 
pool (5.465228) hotel (5.286294) room (4.798059) danc (4.711579) bed (4.606638) club (4.412012) suit (4.266406) shower (4.236714) elev (4.068804) tower (3.941415) 
buffet (5.639958) crab (5.253407) noodl (5.095798) dessert (4.934917) chines (4.753986) seafood (4.700061) crepe (4.539487) rib (4.526795) dish (4.377042) oyster (4.337051) 
Error (train/valid/test) = 1.062841/1.394647/1.399148 (0.007727)
..................................................
energy after gradient step = 1007954601.260729
.....
Top words for each topic:
burger (6.360748) pizza (5.736657) ramen (4.834341) fri (4.504660) donut (4.435681) crust (4.280214) gyro (4.230769) patti (4.097919) bun (4.095909) greek (4.035200) 
taco (5.747242) pho (5.186259) burrito (5.084210) mexican (4.939915) salsa (4.892738) asada (4.851006) pancak (4.800680) carn (4.666221) breakfast (4.649868) hash (4.480170) 
sushi (5.019535) rice (4.499466) thai (4.377300) dish (4.146493) ayc (4.102367) tuna (4.003034) spici (3.953489) fish (3.906987) chicken (3.844694) roll (3.781876) 
massag (6.338166) nail (5.810616) cirqu (5.718307) pedicur (5.626707) spa (5.453319) theater (5.442937) gel (5.416003) acrobat (5.220357) stage (5.191481) manicur (5.139750) 
store (4.858607) dr (4.751406) hair (4.478319) appoint (4.475001) doctor (4.365022) salon (4.262858) wax (4.160469) stylist (4.111021) haircut (4.105179) eyebrow (4.057500) 
steak (5.295898) filet (5.282564) lobster (5.159333) wine (5.141238) steakhous (4.819524) pasta (4.811489) ribey (4.735583) mignon (4.651485) waiter (4.482205) foie (4.368968) 
car (5.948129) repair (4.949620) vehicl (4.821877) rental (4.749107) driver (4.538420) gabi (4.495210) tint (4.487303) ami (4.465615) brake (4.446914) auto (4.444128) 
cupcak (5.822619) chocol (4.907740) earl (4.886472) sandwich (4.848187) bakeri (4.847005) smoothi (4.806309) frost (4.798817) librari (4.520461) cooki (4.457288) starbuck (4.368264) 
pool (5.480798) hotel (5.284072) room (4.763300) danc (4.717300) bed (4.604165) club (4.412091) suit (4.266454) shower (4.243767) elev (4.079967) housekeep (3.957008) 
buffet (5.674393) crab (5.301334) noodl (5.143928) dessert (4.922957) chines (4.802534) seafood (4.741310) crepe (4.598301) rib (4.541291) oyster (4.392408) dish (4.369726) 
Error (train/valid/test) = 1.061552/1.394712/1.399189 (0.007729)
..................................................
energy after gradient step = 1006164983.499128
.....
Top words for each topic:
burger (6.391493) pizza (5.760026) ramen (4.844403) fri (4.513457) donut (4.444118) crust (4.271782) gyro (4.245613) bun (4.116497) patti (4.109367) greek (4.053609) 
taco (5.763695) pho (5.183992) burrito (5.091018) mexican (4.959813) salsa (4.929857) asada (4.857902) pancak (4.811247) carn (4.692442) breakfast (4.648459) hash (4.507452) 
sushi (5.008963) rice (4.516482) thai (4.409756) dish (4.176514) ayc (4.106105) tuna (4.003065) spici (3.963191) fish (3.898139) chicken (3.865436) soup (3.802002) 
massag (6.335892) nail (5.783716) cirqu (5.721125) pedicur (5.636722) spa (5.441703) theater (5.438961) gel (5.423960) acrobat (5.231011) stage (5.194539) manicur (5.152178) 
store (4.881522) dr (4.769598) appoint (4.499048) hair (4.481810) doctor (4.382918) salon (4.294865) wax (4.186958) stylist (4.129506) haircut (4.122502) eyebrow (4.068196) 
filet (5.292195) steak (5.273184) lobster (5.154630) wine (5.119977) steakhous (4.809589) pasta (4.784128) ribey (4.739126) mignon (4.647022) waiter (4.483618) foie (4.387314) 
car (5.945288) repair (4.956668) vehicl (4.830643) rental (4.740404) driver (4.554557) tint (4.488622) gabi (4.472148) brake (4.469257) ami (4.463990) auto (4.461376) 
cupcak (5.855493) earl (4.923169) chocol (4.917017) sandwich (4.865862) bakeri (4.857213) smoothi (4.852063) frost (4.814025) librari (4.531946) cooki (4.473830) starbuck (4.412384) 
pool (5.490726) hotel (5.275375) room (4.751782) danc (4.715085) bed (4.598599) club (4.403498) suit (4.266204) shower (4.257467) elev (4.085266) housekeep (3.963215) 
buffet (5.737928) crab (5.340090) noodl (5.186156) dessert (4.914049) chines (4.839066) seafood (4.779591) crepe (4.633940) rib (4.550075) oyster (4.424659) dish (4.360233) 
Error (train/valid/test) = 1.060473/1.394737/1.399210 (0.007730)
..................................................
energy after gradient step = 1004490543.911875
.....
Top words for each topic:
burger (6.420751) pizza (5.771923) ramen (4.860268) fri (4.524298) donut (4.470074) crust (4.286083) gyro (4.271027) patti (4.154036) bun (4.126568) greek (4.082493) 
taco (5.780809) pho (5.196017) burrito (5.113668) mexican (4.971946) salsa (4.956490) asada (4.867624) pancak (4.825869) carn (4.699927) breakfast (4.653178) hash (4.497293) 
sushi (5.008999) rice (4.533489) thai (4.437391) dish (4.196225) ayc (4.098291) tuna (3.989946) spici (3.984937) fish (3.897041) chicken (3.869128) curri (3.837008) 
massag (6.328237) nail (5.766750) cirqu (5.724102) pedicur (5.640405) spa (5.435377) theater (5.427238) gel (5.411049) acrobat (5.237471) stage (5.195245) manicur (5.144445) 
store (4.891596) dr (4.785331) appoint (4.509314) hair (4.476995) doctor (4.391368) salon (4.329452) wax (4.189576) stylist (4.144230) haircut (4.134280) eyebrow (4.077538) 
steak (5.281414) filet (5.280433) lobster (5.147569) wine (5.110093) steakhous (4.799167) pasta (4.755117) ribey (4.729874) mignon (4.651199) waiter (4.468466) foie (4.434648) 
car (5.938637) repair (4.986291) vehicl (4.842335) rental (4.782317) driver (4.562266) tint (4.498466) brake (4.491978) gabi (4.473848) auto (4.470108) dealership (4.430481) 
cupcak (5.892689) earl (4.946337) chocol (4.933257) bakeri (4.898096) smoothi (4.895057) sandwich (4.884554) frost (4.859954) librari (4.547596) cooki (4.486466) starbuck (4.457527) 
pool (5.499948) hotel (5.264336) room (4.735162) danc (4.710926) bed (4.595583) club (4.397130) shower (4.265804) suit (4.263835) elev (4.099253) housekeep (3.973998) 
buffet (5.784224) crab (5.362788) noodl (5.222828) dessert (4.891684) chines (4.882394) seafood (4.816987) crepe (4.674806) rib (4.542293) oyster (4.480797) indian (4.390959) 
Error (train/valid/test) = 1.059366/1.394752/1.399215 (0.007731)
..................................................
energy after gradient step = 1002957523.567664
.....
Top words for each topic:
burger (6.444463) pizza (5.795762) ramen (4.872539) fri (4.520321) donut (4.474658) gyro (4.291686) crust (4.281444) bun (4.146304) patti (4.130904) greek (4.093731) 
taco (5.791783) pho (5.202959) burrito (5.120485) mexican (4.992545) salsa (4.980716) asada (4.880285) pancak (4.838742) carn (4.705835) breakfast (4.658337) hash (4.527115) 
sushi (4.994343) rice (4.551395) thai (4.461073) dish (4.205779) ayc (4.106123) spici (3.991552) tuna (3.990000) fish (3.893042) curri (3.890452) chicken (3.873207) 
massag (6.333563) nail (5.761685) cirqu (5.724121) pedicur (5.647404) spa (5.436373) theater (5.433834) gel (5.417563) acrobat (5.244917) stage (5.208849) manicur (5.153484) 
store (4.908853) dr (4.797183) appoint (4.528939) hair (4.477637) doctor (4.408092) salon (4.384153) wax (4.208445) stylist (4.150943) haircut (4.146508) eyebrow (4.087303) 
filet (5.298181) steak (5.274900) lobster (5.151954) wine (5.106266) steakhous (4.809510) pasta (4.763430) ribey (4.733400) mignon (4.656268) foie (4.483590) waiter (4.468837) 
car (5.933718) repair (5.001036) vehicl (4.853066) rental (4.765970) driver (4.563895) brake (4.509504) tint (4.506355) auto (4.489487) gabi (4.466640) dealership (4.439583) 
cupcak (5.917355) earl (4.966496) chocol (4.931658) bakeri (4.913556) smoothi (4.909164) sandwich (4.896595) frost (4.869232) librari (4.560531) cooki (4.504504) starbuck (4.467379) 
pool (5.508106) hotel (5.247598) room (4.722224) danc (4.709319) bed (4.590620) club (4.395452) shower (4.273205) suit (4.260718) elev (4.103780) housekeep (3.986770) 
buffet (5.822001) crab (5.378717) noodl (5.240308) chines (4.903904) dessert (4.858371) seafood (4.834568) crepe (4.696852) rib (4.523256) oyster (4.493091) indian (4.412166) 
Error (train/valid/test) = 1.058313/1.394754/1.399214 (0.007731)
