corpus = data_mont.gz
latentReg = 0.000000
lambda = 2.000000
K = 5

nUsers = 13861, nItems = 3918, nRatings = 49484

Error w/ offset term only (train/valid/test) = 1.351568/1.374852/1.345016 (0.027323)
Error w/ offset and bias (train/valid/test) = 0.636440/1.215347/1.140556 (0.025648)

..................................................
energy after gradient step = 51314050.789545

Top words for each topic:
hint (0.445016) artist (0.401195) peuttr (0.392820) addict (0.384762) lorsqu (0.366085) remark (0.353160) viateur (0.341608) dtre (0.330073) stdeni (0.329281) confirm (0.325257) 
under (0.410464) javai (0.382434) west (0.365141) cab (0.352256) tap (0.339714) joli (0.330054) brows (0.323557) breath (0.319246) salsa (0.315033) idal (0.312655) 
transport (0.430196) major (0.426677) sell (0.388503) challeng (0.367493) bore (0.364868) brew (0.363774) toil (0.362781) difficult (0.339129) produc (0.337837) overlook (0.335026) 
attract (0.429496) extens (0.419223) offert (0.392192) frozen (0.388525) massag (0.358192) meant (0.352768) sucr (0.338866) video (0.338423) pita (0.332858) thick (0.331027) 
asid (0.476060) ideal (0.449315) creme (0.448677) hold (0.370547) glace (0.365169) mom (0.355977) curd (0.341445) tax (0.339245) macaron (0.337128) ainsi (0.325485) 
Error (train/valid/test) = 1.050112/1.214364/1.142037 (0.023962)
..................................................
energy after gradient step = 51237249.844311

Top words for each topic:
gentil (0.724180) forth (0.698543) bud (0.682763) cot (0.669066) fusion (0.667058) tag (0.665323) stdeni (0.661607) mer (0.648257) proprio (0.634995) jalapeno (0.632913) 
penguin (0.824489) galleri (0.820398) bewar (0.792466) breath (0.770668) grow (0.769181) diet (0.766629) research (0.740835) idal (0.728214) hotdog (0.679523) fellow (0.667865) 
pepperoni (0.863219) sampler (0.760099) ideal (0.745537) juli (0.681919) con (0.628541) dcid (0.626899) gym (0.623896) critiqu (0.603298) bang (0.594971) somehow (0.591675) 
restroom (0.699441) earn (0.689808) f (0.670688) squid (0.662731) hadnt (0.659018) moyen (0.658154) macaroon (0.655495) ait (0.647891) join (0.632362) imo (0.620869) 
lextrieur (0.865975) sheraton (0.811188) blueberri (0.733542) bias (0.715726) peac (0.709341) ds (0.704607) somebodi (0.670174) chutney (0.666086) carpet (0.663951) minus (0.650520) 
Error (train/valid/test) = 0.836191/1.176879/1.091978 (0.023660)
..................................................
energy after gradient step = 51195658.742092

Top words for each topic:
addict (0.958231) gentil (0.932323) stdeni (0.924680) gigant (0.906601) fusion (0.879950) tag (0.874537) coast (0.867628) bud (0.790208) amateur (0.784675) immens (0.782820) 
research (1.214991) diet (1.053187) galleri (0.980214) bote (0.901588) mar (0.895013) grow (0.889930) idal (0.877242) fellow (0.868363) joy (0.851958) imadak (0.850969) 
pepperoni (1.044532) ideal (0.935093) piss (0.909616) aka (0.880327) bang (0.873210) partir (0.815869) couscous (0.807217) juli (0.804776) familiar (0.775082) breath (0.773838) 
macaroon (0.914450) hadnt (0.873050) dhote (0.850383) j (0.822417) chambr (0.819998) arepa (0.796957) reaction (0.790678) earn (0.790621) cadr (0.790080) moyen (0.784207) 
sheraton (1.091507) pickup (0.872604) roti (0.861546) plug (0.840457) doit (0.815760) poutinevill (0.807675) carpet (0.798069) sprout (0.787778) mauvais (0.777973) peac (0.774722) 
Error (train/valid/test) = 0.752246/1.174648/1.087125 (0.023819)
..................................................
energy after gradient step = 51162867.950144

Top words for each topic:
lautr (1.173862) addict (1.077171) messi (1.074836) payer (1.051808) invent (1.045904) fusion (1.042022) fountain (0.954581) truth (0.941727) professionnel (0.941600) coast (0.939341) 
opportun (1.145521) croustil (1.135840) mar (1.121058) chao (1.098565) sleek (1.050808) ghetto (1.050009) fellow (1.017991) exit (0.985456) brows (0.982096) research (0.981457) 
ideal (1.118726) pepperoni (1.045190) parmesan (0.943760) sharp (0.938805) sigh (0.925752) familiar (0.921517) juli (0.920237) partir (0.904036) coeur (0.899745) piss (0.893383) 
cadr (1.076529) soooo (1.065496) dhote (1.062307) factori (1.017492) splurg (0.959271) arepa (0.953819) hadnt (0.950894) earn (0.944020) ta (0.942582) war (0.930111) 
sheraton (1.205658) cot (1.040839) gout (1.010017) none (0.999199) doit (0.979106) leve (0.976854) caper (0.961767) joli (0.958783) thread (0.934306) 16 (0.916954) 
Error (train/valid/test) = 0.691673/1.183010/1.093070 (0.024090)
..................................................
energy after gradient step = 51129100.153557

Top words for each topic:
lautr (1.333423) coast (1.190937) awhil (1.168298) forth (1.158295) loss (1.156597) addict (1.150634) payer (1.129027) amateur (1.123509) cat (1.095486) disappear (1.078097) 
accent (1.220401) unbeliev (1.219970) opportun (1.199198) croustil (1.106873) diet (1.094044) ghetto (1.065159) idal (1.063264) brows (1.031231) mar (1.011428) chao (1.009351) 
ideal (1.291895) parmesan (1.202787) pepperoni (1.088761) familiar (1.084073) track (1.064918) blood (1.058530) coeur (0.990983) bang (0.984164) pound (0.973303) ingrdient (0.958668) 
factori (1.207458) cider (1.120796) cadr (1.115312) jus (1.078914) macaroon (1.061286) human (1.040261) soooo (1.015921) valet (1.013686) earn (0.993846) dhote (0.986946) 
cot (1.195317) doit (1.173029) roti (1.073045) sheraton (1.070970) bio (1.022507) gout (1.018360) contrast (0.995053) plug (0.990205) joli (0.970217) yuan (0.957016) 
Error (train/valid/test) = 0.651590/1.191530/1.099643 (0.024422)
..................................................
energy after gradient step = 51097133.833104

Top words for each topic:
cat (1.492501) fountain (1.388676) lautr (1.380415) messi (1.211910) countri (1.141895) plaza (1.140828) marrow (1.123639) complement (1.115727) faim (1.113910) reward (1.096808) 
opportun (1.409588) accent (1.258927) unbeliev (1.252881) exit (1.252495) grow (1.183085) brows (1.132183) croustil (1.111866) diet (1.099842) replac (1.072943) dedic (1.064815) 
track (1.277603) grain (1.199483) boisson (1.176493) familiar (1.171384) ideal (1.167094) tripe (1.141284) marqu (1.126609) bachelor (1.109231) fairmount (1.096061) bang (1.092070) 
cider (1.269750) moyen (1.218010) war (1.211095) earn (1.131598) oz (1.127386) caught (1.070827) restroom (1.066715) livr (1.057677) velvet (1.051711) jus (1.047001) 
roti (1.323062) cot (1.252684) plug (1.207717) yuan (1.195599) district (1.173852) six (1.154273) doit (1.123669) gout (1.123015) sheraton (1.121724) transform (1.096686) 
Error (train/valid/test) = 0.613776/1.200290/1.106902 (0.024523)
..................................................
energy after gradient step = 51062733.984274

Top words for each topic:
cat (1.707478) lautr (1.377774) marrow (1.320826) messi (1.265744) fountain (1.263510) western (1.215243) emerg (1.201498) amateur (1.198695) purpos (1.186803) thrill (1.176191) 
opportun (1.543896) unbeliev (1.468786) grow (1.372175) brows (1.276965) swing (1.260149) chao (1.243042) fellow (1.208030) dill (1.191944) exit (1.166481) visibl (1.162829) 
china (1.260739) coeur (1.259930) fairmount (1.256109) grain (1.221037) familiar (1.218862) leek (1.214456) marshmallow (1.201606) omg (1.194548) bachelor (1.181281) tripe (1.178051) 
cider (1.386253) velvet (1.285914) macaroon (1.267115) cigar (1.252916) caught (1.248763) moyen (1.231914) earn (1.187069) p (1.170590) brioch (1.154800) lebanes (1.147541) 
roti (1.501017) empanada (1.412056) caper (1.396463) sheraton (1.390742) yuan (1.301245) doit (1.271919) cot (1.251363) six (1.218035) thumb (1.180930) toilett (1.177809) 
Error (train/valid/test) = 0.579561/1.211244/1.114733 (0.024944)
..................................................
energy after gradient step = 51030180.678472

Top words for each topic:
cat (1.812072) western (1.507498) messi (1.391741) marrow (1.293717) thrill (1.271169) emerg (1.268591) fountain (1.264756) lautr (1.262744) amateur (1.220422) explor (1.217012) 
opportun (1.670965) grow (1.476740) unbeliev (1.434179) fellow (1.415420) croustil (1.287811) brows (1.242979) swing (1.239765) russian (1.234698) exit (1.222501) stviateur (1.212189) 
gym (1.389678) henri (1.342343) boisson (1.259037) china (1.252755) kazu (1.243056) pound (1.241176) outlet (1.236466) leek (1.231536) major (1.197417) tripe (1.195532) 
cigar (1.399897) truffl (1.367491) earn (1.343596) macaroon (1.304405) moyen (1.296719) war (1.287145) brioch (1.278459) cider (1.261789) lebanes (1.225099) knife (1.222821) 
roti (1.612649) sheraton (1.452371) vtement (1.383362) six (1.341334) yuan (1.319075) plug (1.284962) adoni (1.281758) doit (1.256699) remark (1.234596) mission (1.219177) 
Error (train/valid/test) = 0.555154/1.220918/1.121435 (0.025276)
..................................................
energy after gradient step = 50996847.345702

Top words for each topic:
cat (2.063027) lautr (1.504329) marrow (1.485867) messi (1.405092) western (1.403099) fountain (1.362907) jeantalon (1.360605) descript (1.355309) emerg (1.333840) awhil (1.309789) 
opportun (1.518426) grow (1.512921) karaok (1.446502) fellow (1.443603) chao (1.347765) unbeliev (1.337089) cheer (1.324793) refus (1.304827) saut (1.291950) target (1.286120) 
kazu (1.520918) henri (1.519221) outlet (1.412419) bachelor (1.408214) boisson (1.398618) leek (1.394082) gym (1.386434) aka (1.374201) tripe (1.320912) partir (1.271055) 
cigar (1.674108) moyen (1.469806) gift (1.432294) macaroon (1.430264) earn (1.416718) velvet (1.361889) popcorn (1.307334) brioch (1.299424) war (1.293145) cider (1.292093) 
roti (1.564961) six (1.502762) excess (1.454559) vtement (1.453769) doit (1.420281) sheraton (1.419784) yuan (1.409310) glace (1.350562) adoni (1.332693) 16 (1.316118) 
Error (train/valid/test) = 0.532687/1.228075/1.129829 (0.025232)
..................................................
energy after gradient step = 50952271.247128

Top words for each topic:
cat (2.144942) lautr (1.580906) western (1.531764) messi (1.460039) urban (1.438707) princip (1.405074) amateur (1.402260) thrill (1.400494) 28 (1.389186) marrow (1.376687) 
grow (1.654147) karaok (1.562300) blast (1.549224) saut (1.517605) russian (1.517074) chao (1.494432) opportun (1.463447) fellow (1.397131) refus (1.363480) cell (1.362554) 
kazu (1.587957) henri (1.531339) gym (1.525886) fairmount (1.504134) aka (1.464137) boisson (1.443635) piri (1.437298) tripe (1.424164) troubl (1.423922) cheapest (1.404792) 
cigar (1.690302) velvet (1.493345) gift (1.459410) exhibit (1.454070) lebanes (1.453544) cider (1.406217) macaroon (1.389838) quatr (1.370803) brioch (1.352979) luxuri (1.337123) 
roti (1.998188) glace (1.601258) excess (1.549385) empanada (1.497327) yeux (1.466064) doit (1.449481) adoni (1.431747) rough (1.409709) 16 (1.407513) loin (1.395314) 
Error (train/valid/test) = 0.506251/1.240124/1.139508 (0.025409)
..................................................
energy after gradient step = 50905181.973073

Top words for each topic:
cat (2.318542) amateur (1.559260) shade (1.544421) western (1.488262) messi (1.475249) urban (1.463717) princip (1.461532) lautr (1.434736) descript (1.420886) meatbal (1.403378) 
karaok (1.713144) grow (1.643104) russian (1.633360) demi (1.507540) refus (1.504583) fellow (1.487732) blast (1.487035) saut (1.475340) opportun (1.419098) signatur (1.384251) 
kazu (1.859793) gym (1.628884) henri (1.603226) aka (1.564454) troubl (1.469181) omg (1.437404) tripe (1.413797) boisson (1.396473) fairmount (1.388785) cheapest (1.379736) 
exhibit (1.751347) cigar (1.661460) velvet (1.544483) lebanes (1.521750) cider (1.470466) gift (1.463462) oili (1.440562) activ (1.412504) macaroon (1.397163) reflect (1.394367) 
roti (1.854184) empanada (1.728645) glace (1.642290) vtement (1.596801) excess (1.532639) six (1.531980) matin (1.504950) sheraton (1.464073) yeux (1.463383) loin (1.462369) 
Error (train/valid/test) = 0.490417/1.250699/1.146618 (0.025912)
..................................................
energy after gradient step = 50856353.302315

Top words for each topic:
cat (2.414747) messi (1.623423) shade (1.553897) lautr (1.537477) urban (1.500211) descript (1.492129) mexicain (1.441717) western (1.430506) amateur (1.390313) 28 (1.365625) 
karaok (1.727726) grow (1.710985) russian (1.669435) fellow (1.652415) opportun (1.637366) saut (1.583326) 70 (1.512568) demi (1.509391) refus (1.490336) blast (1.469937) 
kazu (1.783203) henri (1.698878) gym (1.653115) fairmount (1.535375) piri (1.501734) grain (1.453754) aka (1.430609) eggplant (1.429298) boisson (1.412501) outlet (1.407068) 
cigar (1.899413) exhibit (1.863326) macaroon (1.550272) yoga (1.522600) jazz (1.499280) museum (1.484037) velvet (1.480693) lhiver (1.480176) cider (1.477844) livr (1.442511) 
roti (1.938272) empanada (1.690875) six (1.677796) cot (1.673126) loin (1.655384) glace (1.637078) vtement (1.584160) chic (1.558820) sheraton (1.545922) excess (1.541722) 
Error (train/valid/test) = 0.476265/1.253784/1.151631 (0.025846)
..................................................
energy after gradient step = 50791187.845008

Top words for each topic:
cat (2.525177) descript (1.559834) mexicain (1.483654) messi (1.481109) mignon (1.454563) meatbal (1.435217) western (1.433937) urban (1.432833) shade (1.419022) fountain (1.414821) 
karaok (1.787584) russian (1.730933) saut (1.672209) fellow (1.595684) grow (1.586774) 70 (1.554227) yarn (1.543100) blast (1.490419) chao (1.471610) dozen (1.466843) 
kazu (1.914496) gym (1.783555) eggplant (1.615608) piri (1.586631) henri (1.572986) fairmount (1.565055) outlet (1.457327) omg (1.430682) troubl (1.426554) grain (1.411833) 
exhibit (2.036200) cigar (1.865338) velvet (1.667333) museum (1.588511) yoga (1.551082) jazz (1.541263) gift (1.524753) cider (1.502921) keg (1.494959) macaroon (1.486457) 
roti (1.983641) glace (1.869761) vtement (1.716462) six (1.689651) matin (1.675491) cot (1.665942) empanada (1.653518) excess (1.621558) chic (1.618536) loin (1.600601) 
Error (train/valid/test) = 0.467053/1.261455/1.158274 (0.025442)
..................................................
energy after gradient step = 50704812.152527

Top words for each topic:
cat (2.546824) messi (1.584204) costum (1.556775) mexicain (1.497220) shade (1.481864) descript (1.465774) marrow (1.453311) urban (1.447656) 28 (1.440443) fountain (1.433190) 
karaok (1.860611) russian (1.742698) grow (1.667942) yarn (1.642145) 70 (1.636146) saut (1.634563) blast (1.608943) song (1.546234) opportun (1.509400) demi (1.489542) 
kazu (1.998251) gym (1.871251) eggplant (1.706466) piri (1.685912) henri (1.648207) omg (1.634508) fairmount (1.568821) sea (1.541222) outlet (1.537149) troubl (1.514691) 
exhibit (2.224584) cigar (2.016936) yoga (1.682913) museum (1.630022) gift (1.616608) garden (1.578366) jazz (1.560886) velvet (1.530315) pouvoir (1.514876) reflect (1.506503) 
roti (2.084654) glace (1.947777) vtement (1.759311) deuxim (1.725931) cot (1.673900) loin (1.657293) peux (1.621531) boustan (1.610031) matin (1.606968) adoni (1.597201) 
Error (train/valid/test) = 0.457408/1.267328/1.162353 (0.025740)
..................................................
energy after gradient step = 50569330.682748

Top words for each topic:
cat (2.548601) fountain (1.641585) messi (1.608748) urban (1.594981) western (1.558876) satay (1.558720) shade (1.551744) descript (1.516261) joe (1.515171) costum (1.508694) 
karaok (1.902309) grow (1.773669) russian (1.743500) yarn (1.717474) 70 (1.703421) blast (1.632729) saut (1.574000) target (1.568453) opportun (1.565025) bagel (1.554259) 
kazu (2.074920) gym (1.876530) eggplant (1.811786) piri (1.693899) henri (1.628121) omg (1.620771) sea (1.593418) fairmount (1.542881) aka (1.525771) troubl (1.523902) 
exhibit (2.389958) cigar (2.090683) yoga (1.884255) museum (1.768650) garden (1.763241) gift (1.728748) jazz (1.677001) macaroon (1.676171) reflect (1.652306) velvet (1.630976) 
roti (2.101404) glace (1.915972) vtement (1.900295) cot (1.831330) loin (1.791281) deuxim (1.778273) matin (1.722260) peux (1.696241) ct (1.689646) boustan (1.670400) 
Error (train/valid/test) = 0.452473/1.274955/1.168255 (0.026121)
..................................................
energy after gradient step = 50337222.223957

Top words for each topic:
cat (2.569700) joe (1.715270) fountain (1.654331) urban (1.619206) satay (1.599840) western (1.587023) messi (1.556736) cochon (1.541011) shade (1.524634) descript (1.516726) 
bagel (1.869839) karaok (1.864976) song (1.789796) russian (1.743442) yarn (1.741099) 70 (1.693406) grow (1.648416) target (1.625450) demi (1.610050) blast (1.599693) 
kazu (2.106868) gym (1.883711) eggplant (1.847415) sea (1.751269) omg (1.702461) piri (1.686000) troubl (1.646005) aka (1.622437) confit (1.619619) henri (1.581459) 
exhibit (2.466706) cigar (2.126009) yoga (2.013917) museum (1.989516) garden (1.849307) livr (1.838626) macaroon (1.803084) jazz (1.786660) velvet (1.750658) studio (1.693672) 
roti (2.100972) glace (2.039986) matin (1.944966) deuxim (1.891367) vtement (1.883898) ct (1.861058) cot (1.846075) peux (1.829984) mtro (1.795286) loin (1.788442) 
Error (train/valid/test) = 0.450773/1.280899/1.172909 (0.026635)
..................................................
energy after gradient step = 50024979.845779

Top words for each topic:
cat (2.559228) joe (1.899985) pho (1.741020) satay (1.720745) descript (1.689054) western (1.668478) fountain (1.657211) cochon (1.646684) bun (1.569640) burrito (1.545157) 
bagel (2.384762) karaok (2.193791) song (1.938771) 70 (1.890732) yarn (1.833426) russian (1.778989) demi (1.743856) dozen (1.722397) grow (1.709230) target (1.678534) 
kazu (2.196586) gym (2.003582) eggplant (2.001037) dumpl (1.870307) sea (1.739719) piri (1.681845) confit (1.681705) thali (1.681426) fairmount (1.669253) batter (1.665514) 
exhibit (2.651897) cigar (2.286363) museum (2.211997) yoga (2.126550) garden (2.054829) livr (2.008016) cupcak (2.007414) jazz (1.890638) church (1.885201) gift (1.876343) 
roti (2.281873) matin (2.233016) vtement (2.212203) glace (2.071033) peux (2.054715) deuxim (2.048760) ct (2.019996) mtro (2.008932) cot (1.993773) clientl (1.987096) 
Error (train/valid/test) = 0.449870/1.286213/1.176227 (0.026432)
..................................................
energy after gradient step = 49541758.618461

Top words for each topic:
cat (2.576659) joe (1.995154) pho (1.933952) descript (1.717698) cochon (1.681900) satay (1.639359) bun (1.616922) western (1.614651) candi (1.595105) fountain (1.575096) 
bagel (2.753333) karaok (2.258383) song (2.061117) yarn (1.902174) 70 (1.852942) demi (1.822655) target (1.811601) whiskey (1.796464) russian (1.787472) dozen (1.748543) 
kazu (2.237086) dumpl (2.175383) eggplant (2.048963) gym (1.905190) sea (1.842065) indian (1.789888) fairmount (1.781067) fish (1.765544) thali (1.748596) curri (1.700425) 
exhibit (2.829402) cigar (2.408487) museum (2.408003) garden (2.279238) yoga (2.275274) cupcak (2.187461) livr (2.078000) church (1.985977) gift (1.971938) studio (1.947678) 
ct (2.347106) matin (2.330096) vtement (2.295199) roti (2.274169) magasin (2.223752) glace (2.148733) peux (2.131405) cot (2.130813) mtro (2.089276) deuxim (2.082204) 
Error (train/valid/test) = 0.455913/1.289755/1.177859 (0.026536)
..................................................
energy after gradient step = 48894615.170592

Top words for each topic:
cat (2.520029) pho (2.048767) joe (1.947278) hotel (1.781583) bun (1.718163) cochon (1.710002) burrito (1.646995) satay (1.635802) western (1.633193) descript (1.621378) 
bagel (3.102373) karaok (2.387883) song (2.088915) 70 (2.036014) yarn (2.017957) donut (1.950505) target (1.918878) demi (1.911487) waffl (1.909369) russian (1.897630) 
dumpl (2.388658) kazu (2.251857) eggplant (2.086674) indian (1.922056) sea (1.911078) fish (1.892883) gym (1.865625) curri (1.838334) confit (1.768849) thali (1.767992) 
exhibit (2.960487) museum (2.591113) cigar (2.478904) yoga (2.478171) cupcak (2.393800) garden (2.388307) livr (2.127923) church (2.119723) studio (2.026632) gift (1.992927) 
matin (2.499561) ct (2.469997) magasin (2.426927) vtement (2.394118) roti (2.366950) glace (2.280096) quartier (2.242431) deuxim (2.239305) peux (2.224204) mtro (2.217736) 
Error (train/valid/test) = 0.461630/1.288096/1.179641 (0.026465)
..................................................
energy after gradient step = 48191848.286504

Top words for each topic:
cat (2.526271) hotel (2.304798) pho (2.145535) joe (1.977433) room (1.910225) cochon (1.842131) bed (1.812553) crepe (1.804180) bun (1.720280) sleep (1.704169) 
bagel (3.491500) karaok (2.550351) song (2.323876) donut (2.233140) yarn (2.197344) pizza (2.144829) target (2.107446) 70 (2.077572) waffl (2.033065) hair (2.004124) 
dumpl (2.595588) kazu (2.224232) indian (2.094929) fish (2.050740) eggplant (2.033089) dish (2.018354) curri (1.979929) batter (1.888243) sea (1.879888) confit (1.811527) 
exhibit (3.198252) museum (2.782472) cigar (2.771292) cupcak (2.630860) garden (2.607780) yoga (2.589348) church (2.330806) livr (2.301600) macaron (2.173463) studio (2.150386) 
matin (2.693227) magasin (2.626948) ct (2.539464) vtement (2.500218) glace (2.474152) trouv (2.463481) quartier (2.436937) dy (2.433291) clientl (2.372066) plein (2.367222) 
Error (train/valid/test) = 0.466070/1.289541/1.180442 (0.026582)
..................................................
energy after gradient step = 47530533.596957

Top words for each topic:
hotel (2.701821) cat (2.498305) room (2.290310) pho (2.188500) bed (2.087657) joe (1.988310) crepe (1.916913) desk (1.892415) cochon (1.871707) shower (1.787460) 
bagel (4.008956) karaok (2.782306) pizza (2.516205) donut (2.500322) song (2.447184) yarn (2.424991) waffl (2.337655) hair (2.224163) target (2.208476) hookah (2.167673) 
dumpl (2.792174) kazu (2.332891) dish (2.316267) fish (2.217312) indian (2.207183) eggplant (2.140941) curri (2.127462) lamb (2.018570) thai (1.984197) pork (1.982994) 
exhibit (3.380514) museum (2.943387) cigar (2.865629) cupcak (2.856379) yoga (2.855325) garden (2.741133) church (2.634668) livr (2.464135) macaron (2.391964) studio (2.343132) 
magasin (2.723326) matin (2.702397) ct (2.684782) quartier (2.650160) ce (2.618748) que (2.617546) trouv (2.599706) vtement (2.581900) qui (2.577817) je (2.529309) 
Error (train/valid/test) = 0.468156/1.292563/1.183545 (0.026689)
..................................................
energy after gradient step = 46907461.635564

Top words for each topic:
hotel (3.063135) room (2.637179) cat (2.499575) bed (2.277645) pho (2.246031) stay (2.176732) crepe (2.034132) desk (2.030469) joe (1.968350) shower (1.918019) 
bagel (4.452585) pizza (2.904891) donut (2.868325) karaok (2.803134) yarn (2.684781) song (2.621344) waffl (2.576706) hookah (2.522129) hair (2.450219) target (2.450187) 
dumpl (2.915749) dish (2.540051) fish (2.374347) kazu (2.340974) indian (2.308843) curri (2.217063) lamb (2.192614) eggplant (2.171137) pork (2.109002) ramen (2.107481) 
exhibit (3.642389) cupcak (3.212995) museum (3.207569) cigar (3.127950) yoga (3.068339) garden (3.034075) church (2.931097) livr (2.709372) macaron (2.697387) studio (2.552187) 
que (2.861941) magasin (2.857855) matin (2.795413) ce (2.792922) ct (2.791097) des (2.790070) trouv (2.760238) qui (2.730570) une (2.729836) quartier (2.715520) 
Error (train/valid/test) = 0.468679/1.295860/1.185550 (0.026805)
..................................................
energy after gradient step = 46435179.392569

Top words for each topic:
hotel (3.237093) room (2.815691) cat (2.479245) bed (2.379881) stay (2.374604) pho (2.260252) desk (2.121795) crepe (2.076938) joe (2.029128) shower (1.963520) 
bagel (4.857126) pizza (3.230403) donut (3.115668) karaok (3.056166) yarn (2.812419) waffl (2.805593) stviateur (2.772722) song (2.771298) oven (2.722186) chocol (2.717908) 
dumpl (3.024180) dish (2.689584) fish (2.483659) kazu (2.386572) indian (2.386387) curri (2.304602) lamb (2.302343) eggplant (2.260917) pork (2.240095) ramen (2.210888) 
exhibit (3.885323) cupcak (3.458744) museum (3.403032) yoga (3.327916) garden (3.291618) cigar (3.266310) church (3.175949) macaron (2.946526) livr (2.912703) spa (2.721375) 
que (2.927116) ce (2.894001) trouv (2.892641) magasin (2.872060) des (2.870079) ct (2.862524) je (2.821768) qui (2.794727) une (2.776778) quartier (2.775857) 
Error (train/valid/test) = 0.468201/1.299557/1.187912 (0.026883)
..................................................
energy after gradient step = 46044896.689560

Top words for each topic:
hotel (3.383068) room (2.942173) stay (2.641052) cat (2.512339) bed (2.487743) pho (2.317588) desk (2.211937) crepe (2.132505) shower (2.080662) joe (2.026776) 
bagel (5.174853) pizza (3.547096) donut (3.263000) karaok (3.228271) oven (3.195333) stviateur (3.076108) waffl (3.037802) yarn (2.981576) hair (2.968908) song (2.964455) 
dumpl (3.105607) dish (2.839433) fish (2.605590) indian (2.441360) pork (2.396952) curri (2.384545) kazu (2.376499) lamb (2.364444) noodl (2.329156) spici (2.327271) 
exhibit (4.144156) cupcak (3.759772) museum (3.671755) yoga (3.637249) cigar (3.544000) garden (3.517449) church (3.414437) macaron (3.250866) livr (3.025190) studio (3.005070) 
que (2.989288) ce (2.974456) trouv (2.909703) des (2.900735) je (2.893007) magasin (2.890555) qui (2.811783) une (2.803358) ct (2.802225) quartier (2.778728) 
Error (train/valid/test) = 0.466801/1.304680/1.190058 (0.026976)
..................................................
energy after gradient step = 45716880.844789

Top words for each topic:
hotel (3.482023) room (3.078196) stay (2.768826) bed (2.572786) cat (2.527180) pho (2.381358) desk (2.317091) crepe (2.225705) shower (2.141270) airport (2.097594) 
bagel (5.414553) pizza (3.811484) donut (3.570332) oven (3.570299) karaok (3.372600) stviateur (3.316509) waffl (3.251159) gelato (3.195686) yarn (3.192576) chocol (3.140462) 
dumpl (3.178781) dish (2.975406) fish (2.663206) pork (2.541048) indian (2.503158) lamb (2.488328) curri (2.466312) spici (2.455872) noodl (2.453942) rice (2.446005) 
exhibit (4.338553) cupcak (3.974803) museum (3.859543) yoga (3.830455) cigar (3.722606) garden (3.655637) church (3.563486) macaron (3.513594) studio (3.182806) livr (3.171727) 
ce (3.019867) que (3.018006) magasin (2.945658) trouv (2.945005) je (2.893518) des (2.892780) pas (2.870970) une (2.868917) qui (2.860966) ne (2.844715) 
Error (train/valid/test) = 0.464049/1.310828/1.194587 (0.027081)
..................................................
energy after gradient step = 45421482.450969

Top words for each topic:
hotel (3.574328) room (3.191929) stay (2.872031) bed (2.651682) cat (2.564832) pho (2.376347) desk (2.375166) crepe (2.267277) shower (2.250118) airport (2.170943) 
bagel (5.592666) pizza (4.035299) oven (3.710562) donut (3.666726) karaok (3.509500) stviateur (3.496315) waffl (3.398135) yarn (3.371461) chocol (3.360716) viateur (3.342354) 
dumpl (3.225966) dish (3.108598) fish (2.719950) pork (2.664255) lamb (2.581825) noodl (2.562657) shrimp (2.556039) spici (2.554819) rice (2.546534) indian (2.532293) 
exhibit (4.574089) cupcak (4.242620) museum (4.061306) yoga (4.059994) cigar (3.909788) garden (3.892066) church (3.847171) macaron (3.709871) studio (3.315672) livr (3.272559) 
ce (3.082232) trouv (3.001902) que (2.995550) magasin (2.977902) qui (2.970546) je (2.942751) une (2.903515) ne (2.895835) des (2.886103) ct (2.872727) 
Error (train/valid/test) = 0.461273/1.315497/1.197314 (0.027143)
..................................................
energy after gradient step = 45187259.112211

Top words for each topic:
hotel (3.687344) room (3.297084) stay (2.963137) bed (2.725216) cat (2.602178) desk (2.501642) pho (2.427908) crepe (2.280066) shower (2.278110) airport (2.250161) 
bagel (5.747420) pizza (4.226676) donut (3.853687) oven (3.774792) stviateur (3.672059) karaok (3.611714) gelato (3.593777) yarn (3.549054) chocol (3.549039) viateur (3.475627) 
dish (3.291080) dumpl (3.251217) pork (2.807357) fish (2.782131) spici (2.678476) shrimp (2.674299) rice (2.659470) noodl (2.650205) lamb (2.647414) indian (2.593152) 
exhibit (4.740919) cupcak (4.463428) yoga (4.245121) museum (4.240944) cigar (4.127187) church (4.039642) garden (4.005563) macaron (3.976974) studio (3.484256) admiss (3.465509) 
ce (3.088723) trouv (3.055299) une (3.014286) que (3.006545) magasin (2.993321) je (2.974298) ne (2.943844) qui (2.936459) pas (2.934271) produit (2.932008) 
Error (train/valid/test) = 0.457546/1.319853/1.200036 (0.027232)
..................................................
energy after gradient step = 44959961.608810

Top words for each topic:
hotel (3.782628) room (3.377351) stay (3.075207) bed (2.824281) cat (2.645535) desk (2.540127) pho (2.458391) shower (2.393200) airport (2.334054) crepe (2.298858) 
bagel (5.849963) pizza (4.286696) donut (3.951032) oven (3.934798) stviateur (3.821877) karaok (3.772523) yarn (3.655773) chocol (3.654104) viateur (3.652538) gelato (3.638267) 
dish (3.465454) dumpl (3.271020) pork (2.885345) fish (2.835742) rice (2.781726) spici (2.739040) shrimp (2.730059) noodl (2.723259) lamb (2.710121) duck (2.659608) 
exhibit (4.957412) cupcak (4.670125) museum (4.416219) yoga (4.415818) church (4.280081) cigar (4.262341) garden (4.197215) macaron (4.141311) admiss (3.692047) studio (3.645099) 
ce (3.149232) trouv (3.095773) une (3.065754) je (3.041844) magasin (3.024208) ne (3.022651) que (3.018192) pas (2.985474) qui (2.980457) produit (2.953040) 
Error (train/valid/test) = 0.453990/1.325110/1.202633 (0.027293)
..................................................
energy after gradient step = 44770149.967576

Top words for each topic:
hotel (3.870473) room (3.446229) stay (3.162129) bed (2.921282) cat (2.665228) desk (2.643054) pho (2.520466) shower (2.432951) airport (2.400007) bathroom (2.374186) 
bagel (5.917081) pizza (4.380213) oven (3.943124) donut (3.906238) stviateur (3.900437) fairmount (3.896955) karaok (3.840268) chocol (3.754384) gelato (3.741847) yarn (3.733908) 
dish (3.553844) dumpl (3.266525) pork (2.938107) rice (2.842685) fish (2.840528) spici (2.786292) shrimp (2.752598) noodl (2.748327) duck (2.723729) lamb (2.708208) 
exhibit (5.080492) cupcak (4.806277) yoga (4.551632) museum (4.517541) church (4.418174) cigar (4.343352) garden (4.342614) macaron (4.295719) admiss (3.818180) studio (3.751424) 
trouv (3.122606) ce (3.111061) magasin (3.075760) une (3.074619) ne (3.059620) je (3.056116) qui (3.055165) pas (3.029361) produit (3.000507) que (2.992370) 
Error (train/valid/test) = 0.451677/1.329557/1.206458 (0.027390)
..................................................
energy after gradient step = 44602883.671496

Top words for each topic:
hotel (3.946346) room (3.531461) stay (3.234656) bed (2.981836) cat (2.702951) desk (2.676928) shower (2.523114) airport (2.496397) pho (2.470067) bathroom (2.441555) 
bagel (5.977239) pizza (4.427827) oven (4.022912) fairmount (4.020681) donut (3.974905) stviateur (3.942828) karaok (3.855669) chocol (3.848229) gelato (3.822093) viateur (3.810494) 
dish (3.628388) dumpl (3.278367) pork (2.988251) rice (2.871128) fish (2.867108) chicken (2.841980) spici (2.825122) duck (2.777675) noodl (2.771730) shrimp (2.768372) 
exhibit (5.248179) cupcak (4.973629) yoga (4.691970) museum (4.691132) church (4.600816) garden (4.471376) macaron (4.447657) cigar (4.434918) admiss (3.948210) studio (3.833626) 
trouv (3.172187) une (3.134796) ce (3.131258) je (3.098087) ne (3.066109) qui (3.056791) magasin (3.056317) que (3.033223) produit (3.026748) pas (3.020219) 
Error (train/valid/test) = 0.448588/1.332186/1.210134 (0.027502)
..................................................
energy after gradient step = 44449012.211503

Top words for each topic:
hotel (4.017951) room (3.593824) stay (3.300874) bed (3.060495) desk (2.765131) cat (2.749819) shower (2.583884) airport (2.563019) bathroom (2.518063) pho (2.494130) 
bagel (5.998200) pizza (4.495159) fairmount (4.104326) oven (4.032912) stviateur (3.994299) donut (3.968887) chocol (3.882638) viateur (3.876964) gelato (3.861209) karaok (3.842929) 
dish (3.695260) dumpl (3.281451) pork (3.043249) chicken (2.900979) rice (2.896159) fish (2.873140) spici (2.867055) duck (2.829811) meal (2.818201) noodl (2.814712) 
exhibit (5.336310) cupcak (5.076151) yoga (4.837677) museum (4.718817) church (4.714744) cigar (4.580357) garden (4.549698) macaron (4.495132) admiss (4.103657) studio (3.982021) 
une (3.214553) trouv (3.183081) ce (3.177707) ne (3.132189) magasin (3.119825) que (3.094163) je (3.086227) qui (3.081345) produit (3.067267) pas (3.061108) 
Error (train/valid/test) = 0.445208/1.336720/1.213197 (0.027574)
..................................................
energy after gradient step = 44327006.800661

Top words for each topic:
hotel (4.067767) room (3.651220) stay (3.346694) bed (3.115697) desk (2.807918) cat (2.779684) shower (2.652239) airport (2.620850) bathroom (2.568390) lobbi (2.529668) 
bagel (6.012541) pizza (4.514540) fairmount (4.105315) stviateur (4.001089) oven (3.993197) donut (3.970787) chocol (3.910481) gelato (3.906491) viateur (3.887223) yarn (3.848432) 
dish (3.709883) dumpl (3.278873) pork (3.061711) chicken (2.972791) rice (2.911833) meal (2.895180) spici (2.886924) fish (2.880006) duck (2.838986) appet (2.837349) 
exhibit (5.436892) cupcak (5.202317) yoga (4.899028) museum (4.848004) church (4.807932) macaron (4.681243) cigar (4.670515) garden (4.596000) admiss (4.168635) studio (4.062587) 
une (3.210000) ce (3.198364) trouv (3.195837) ne (3.157979) que (3.144790) magasin (3.119326) je (3.108898) qui (3.104129) produit (3.093836) pas (3.084573) 
Error (train/valid/test) = 0.442913/1.339713/1.215257 (0.027631)
..................................................
energy after gradient step = 44215098.399501

Top words for each topic:
hotel (4.121184) room (3.703440) stay (3.407674) bed (3.155773) desk (2.851435) cat (2.813973) shower (2.690827) airport (2.673260) bathroom (2.640422) lobbi (2.592800) 
bagel (6.026124) pizza (4.503558) fairmount (4.144460) oven (4.024263) donut (4.007882) stviateur (4.000081) chocol (3.929840) gelato (3.914989) viateur (3.905560) yarn (3.872774) 
dish (3.745713) dumpl (3.277279) pork (3.085100) chicken (3.019303) meal (2.942283) rice (2.930398) fish (2.899490) spici (2.884969) appet (2.879230) duck (2.857779) 
exhibit (5.541026) cupcak (5.279520) yoga (4.998575) museum (4.939217) church (4.884408) macaron (4.759544) cigar (4.715689) garden (4.622115) admiss (4.259580) exposit (4.163040) 
une (3.250674) trouv (3.218416) ce (3.210858) que (3.199970) ne (3.189923) magasin (3.131353) qui (3.126780) produit (3.096598) je (3.093527) pas (3.090732) 
Error (train/valid/test) = 0.440118/1.343268/1.219798 (0.027760)
..................................................
energy after gradient step = 44113724.231464

Top words for each topic:
hotel (4.165847) room (3.759764) stay (3.467863) bed (3.206105) desk (2.923847) cat (2.855048) airport (2.737919) shower (2.715845) bathroom (2.688002) lobbi (2.645487) 
bagel (6.046000) pizza (4.510697) fairmount (4.166019) oven (4.069153) donut (4.023959) stviateur (4.018513) chocol (3.952638) gelato (3.945303) viateur (3.932620) yarn (3.900403) 
dish (3.776344) dumpl (3.278812) pork (3.106196) chicken (3.059333) meal (3.021530) rice (2.938642) foie (2.926177) spici (2.925153) fish (2.916490) appet (2.906337) 
exhibit (5.609907) cupcak (5.384451) yoga (5.109396) museum (4.999570) church (4.999515) macaron (4.863708) cigar (4.846760) garden (4.725949) admiss (4.358408) galleri (4.259127) 
une (3.309023) trouv (3.264409) ce (3.253345) que (3.213319) ne (3.206924) produit (3.152235) qui (3.150042) jai (3.147537) pas (3.145970) magasin (3.145092) 
Error (train/valid/test) = 0.436675/1.347155/1.223599 (0.027900)
..................................................
energy after gradient step = 44019567.086100

Top words for each topic:
hotel (4.223008) room (3.821643) stay (3.507352) bed (3.260528) desk (2.956140) cat (2.883331) shower (2.795774) airport (2.776189) bathroom (2.726414) lobbi (2.691420) 
bagel (6.047190) pizza (4.513855) fairmount (4.180800) donut (4.038810) oven (4.011931) stviateur (3.999358) chocol (3.972016) gelato (3.956616) viateur (3.951357) yarn (3.904706) 
dish (3.784209) dumpl (3.282582) pork (3.129399) chicken (3.070361) meal (3.062844) foie (2.976021) rice (2.964946) spici (2.924342) appet (2.921456) fish (2.916891) 
exhibit (5.693258) cupcak (5.412391) yoga (5.140184) church (5.066798) museum (5.041380) macaron (4.914692) cigar (4.881907) garden (4.650215) admiss (4.426711) exposit (4.323484) 
une (3.376384) ce (3.287247) trouv (3.272536) que (3.229647) ne (3.218926) magasin (3.184397) qui (3.183440) jai (3.176621) je (3.170913) pas (3.166547) 
Error (train/valid/test) = 0.433564/1.350375/1.225867 (0.027951)
..................................................
energy after gradient step = 43953111.505156

Top words for each topic:
hotel (4.262099) room (3.872680) stay (3.549710) bed (3.285925) desk (3.005019) cat (2.901326) airport (2.836592) shower (2.825631) bathroom (2.747226) lobbi (2.734440) 
bagel (6.035566) pizza (4.491859) fairmount (4.182166) chocol (4.025416) stviateur (4.006478) donut (4.005388) gelato (4.002783) oven (3.999607) viateur (3.969837) yarn (3.906024) 
dish (3.810185) dumpl (3.293451) pork (3.160444) chicken (3.109935) meal (3.077338) foie (3.012295) rice (3.002010) food (2.975534) spici (2.959044) appet (2.946945) 
exhibit (5.720815) cupcak (5.480202) yoga (5.217173) church (5.109786) museum (5.061114) macaron (4.963143) cigar (4.904042) garden (4.733793) admiss (4.499461) exposit (4.408256) 
une (3.435891) ce (3.317753) trouv (3.295619) que (3.257437) qui (3.219626) ne (3.219472) je (3.216827) magasin (3.212956) jai (3.201285) pas (3.201084) 
Error (train/valid/test) = 0.429969/1.354686/1.228919 (0.028021)
..................................................
energy after gradient step = 43893789.419025

Top words for each topic:
hotel (4.305319) room (3.906004) stay (3.580337) bed (3.326728) desk (3.029499) cat (2.934937) shower (2.875453) airport (2.847696) bathroom (2.834792) lobbi (2.784012) 
bagel (6.019265) pizza (4.467171) fairmount (4.196986) stviateur (4.003495) oven (4.002129) gelato (3.982984) donut (3.982476) chocol (3.977287) viateur (3.973460) yarn (3.902326) 
dish (3.841530) dumpl (3.294622) pork (3.183727) chicken (3.147133) meal (3.090141) foie (3.047285) rice (3.018371) spici (2.980650) food (2.970602) appet (2.970363) 
exhibit (5.787471) cupcak (5.494621) yoga (5.239216) church (5.148453) museum (5.095984) macaron (5.000187) cigar (4.965552) garden (4.672587) admiss (4.533176) exposit (4.481424) 
une (3.449188) ce (3.357451) trouv (3.310749) que (3.272584) je (3.255415) ne (3.241771) qui (3.237496) jai (3.235360) pas (3.227478) magasin (3.203383) 
Error (train/valid/test) = 0.426749/1.357751/1.232031 (0.028062)
..................................................
energy after gradient step = 43840794.302584

Top words for each topic:
hotel (4.354773) room (3.947355) stay (3.615633) bed (3.354700) desk (3.096735) cat (2.934900) airport (2.916540) shower (2.910514) bathroom (2.837420) lobbi (2.818668) 
bagel (6.021666) pizza (4.467093) fairmount (4.200948) oven (4.030364) donut (4.006979) gelato (3.989886) viateur (3.984960) chocol (3.983954) stviateur (3.982284) yarn (3.903904) 
dish (3.859830) dumpl (3.302087) pork (3.203014) chicken (3.171688) meal (3.133110) foie (3.090651) rice (3.053064) appet (3.011344) spici (3.009019) food (2.968189) 
exhibit (5.803745) cupcak (5.557240) yoga (5.285620) church (5.184115) museum (5.163620) macaron (5.071056) cigar (4.966499) garden (4.764694) admiss (4.602864) exposit (4.571587) 
une (3.449626) ce (3.378837) que (3.339532) trouv (3.324117) jai (3.291440) ne (3.276675) qui (3.262683) pas (3.260698) produit (3.237385) je (3.228835) 
Error (train/valid/test) = 0.422448/1.361209/1.234596 (0.028136)
..................................................
energy after gradient step = 43789695.549257

Top words for each topic:
hotel (4.381208) room (3.969741) stay (3.642319) bed (3.400279) desk (3.094502) cat (2.964865) shower (2.945607) airport (2.921677) bathroom (2.881198) lobbi (2.858119) 
bagel (6.009081) pizza (4.454473) fairmount (4.201181) gelato (4.000339) oven (3.997872) stviateur (3.988157) chocol (3.985164) viateur (3.979410) donut (3.968199) yarn (3.905734) 
dish (3.873224) dumpl (3.309543) pork (3.224201) chicken (3.184095) meal (3.183467) foie (3.110939) rice (3.076488) appet (3.032014) spici (3.018122) beef (3.000031) 
exhibit (5.853425) cupcak (5.592226) yoga (5.315751) church (5.214495) museum (5.155141) macaron (5.072370) cigar (4.991249) garden (4.774047) admiss (4.622779) exposit (4.602841) 
une (3.482145) ce (3.390629) que (3.368904) trouv (3.348758) jai (3.325564) pas (3.324218) ne (3.299999) je (3.269951) qui (3.267332) magasin (3.235777) 
Error (train/valid/test) = 0.419216/1.363756/1.236276 (0.028189)
..................................................
energy after gradient step = 43754314.241480

Top words for each topic:
hotel (4.414515) room (3.988898) stay (3.683609) bed (3.421719) desk (3.158160) cat (2.991846) shower (2.986585) airport (2.975239) bathroom (2.875229) lobbi (2.866437) 
bagel (5.992206) pizza (4.429431) fairmount (4.238867) chocol (4.016254) oven (4.008005) viateur (3.994796) stviateur (3.980659) gelato (3.971303) donut (3.939391) yarn (3.897616) 
dish (3.888941) dumpl (3.323763) pork (3.246640) chicken (3.215375) meal (3.204416) foie (3.134187) rice (3.100672) spici (3.042306) appet (3.033683) beef (3.024514) 
exhibit (5.870444) cupcak (5.604765) yoga (5.339229) church (5.242341) museum (5.187309) macaron (5.130239) cigar (5.020497) garden (4.740109) admiss (4.657018) exposit (4.639305) 
une (3.481116) ce (3.428530) que (3.400622) pas (3.361272) trouv (3.347179) jai (3.340309) ne (3.320068) je (3.313667) qui (3.302439) et (3.262655) 
Error (train/valid/test) = 0.416013/1.366724/1.238889 (0.028254)
..................................................
energy after gradient step = 43717875.023707

Top words for each topic:
hotel (4.447917) room (4.008184) stay (3.701770) bed (3.450860) desk (3.154626) shower (3.000331) airport (2.998711) cat (2.991281) lobbi (2.916857) bathroom (2.901489) 
bagel (5.980627) pizza (4.436029) fairmount (4.238850) oven (4.040436) chocol (4.013989) viateur (4.004435) gelato (3.997155) stviateur (3.982191) donut (3.946699) yarn (3.891647) 
dish (3.919034) dumpl (3.339017) pork (3.268400) meal (3.241577) chicken (3.234791) foie (3.168809) rice (3.117041) beef (3.068667) spici (3.066562) appet (3.045734) 
exhibit (5.904570) cupcak (5.616881) yoga (5.348985) church (5.286678) museum (5.185166) macaron (5.134900) cigar (5.044402) garden (4.758075) admiss (4.664931) exposit (4.656940) 
une (3.522910) que (3.443610) ce (3.437129) pas (3.392948) trouv (3.356118) je (3.354118) jai (3.347793) ne (3.315827) qui (3.307789) et (3.287886) 
Error (train/valid/test) = 0.412639/1.369215/1.241877 (0.028344)
..................................................
energy after gradient step = 43682826.834885

Top words for each topic:
hotel (4.476102) room (4.041438) stay (3.736980) bed (3.474814) desk (3.214024) shower (3.040667) airport (3.035778) cat (2.983719) bathroom (2.939140) lobbi (2.938876) 
bagel (5.966945) pizza (4.414903) fairmount (4.254206) chocol (4.029641) viateur (4.000083) stviateur (3.996705) gelato (3.992932) oven (3.983790) donut (3.969894) yarn (3.894316) 
dish (3.943977) dumpl (3.346050) meal (3.287265) pork (3.283531) chicken (3.249381) foie (3.199240) rice (3.131409) beef (3.093516) spici (3.089283) appet (3.067873) 
exhibit (5.913142) cupcak (5.622156) yoga (5.376781) church (5.271487) museum (5.183365) macaron (5.133658) cigar (5.068451) garden (4.760747) admiss (4.694703) exposit (4.665286) 
une (3.537724) ce (3.494157) que (3.486655) je (3.435163) pas (3.390354) trouv (3.378802) ne (3.371047) jai (3.355589) qui (3.353899) mai (3.323683) 
Error (train/valid/test) = 0.408769/1.372746/1.244592 (0.028384)
..................................................
energy after gradient step = 43658140.418588

Top words for each topic:
hotel (4.502386) room (4.052800) stay (3.748631) bed (3.493193) desk (3.218702) shower (3.072706) airport (3.070132) cat (2.996341) bathroom (2.984633) lobbi (2.961624) 
bagel (5.957620) pizza (4.394652) fairmount (4.252337) oven (4.023842) chocol (4.017213) gelato (4.004254) stviateur (3.980225) viateur (3.980183) donut (3.939610) yarn (3.887006) 
dish (3.960350) dumpl (3.362232) pork (3.314145) meal (3.310990) chicken (3.274261) foie (3.231812) rice (3.155362) beef (3.117433) spici (3.114214) appet (3.093831) 
exhibit (5.928866) cupcak (5.629814) yoga (5.396307) church (5.276508) museum (5.190000) macaron (5.152130) cigar (5.063003) garden (4.745283) exposit (4.708192) admiss (4.704165) 
une (3.562247) que (3.507829) ce (3.497289) je (3.448153) pas (3.434951) ne (3.411486) trouv (3.406112) jai (3.400104) qui (3.371078) est (3.363144) 
Error (train/valid/test) = 0.405345/1.376317/1.247744 (0.028482)
..................................................
energy after gradient step = 43640014.715439

Top words for each topic:
hotel (4.517611) room (4.064114) stay (3.781518) bed (3.511052) desk (3.254826) airport (3.090310) shower (3.088592) cat (3.011496) lobbi (2.987756) bathroom (2.951334) 
bagel (5.938428) pizza (4.360786) fairmount (4.260587) chocol (4.025049) gelato (4.016597) oven (3.996605) stviateur (3.977341) viateur (3.974770) donut (3.942756) yarn (3.893828) 
dish (3.972373) dumpl (3.371570) pork (3.343602) meal (3.333103) chicken (3.292670) foie (3.259642) rice (3.175042) beef (3.142715) spici (3.140418) appet (3.113181) 
exhibit (5.917981) cupcak (5.650702) yoga (5.380134) church (5.275661) museum (5.197248) macaron (5.144646) cigar (5.038482) garden (4.732917) exposit (4.720676) admiss (4.708402) 
une (3.584489) ce (3.509819) que (3.508629) pas (3.499452) je (3.477937) ne (3.425017) jai (3.417969) trouv (3.401610) qui (3.397320) est (3.375620) 
Error (train/valid/test) = 0.402724/1.379010/1.249120 (0.028513)
..................................................
energy after gradient step = 43619676.203268

Top words for each topic:
hotel (4.531308) room (4.081067) stay (3.786241) bed (3.530457) desk (3.250283) shower (3.117052) airport (3.107156) cat (3.019559) bathroom (3.010681) lobbi (3.005629) 
bagel (5.934282) pizza (4.336250) fairmount (4.267081) chocol (4.021503) gelato (4.007739) oven (4.000178) stviateur (3.984386) viateur (3.974457) yarn (3.897156) donut (3.895471) 
dish (3.994128) dumpl (3.389293) pork (3.367427) meal (3.346932) chicken (3.316284) foie (3.282905) rice (3.198346) beef (3.168525) spici (3.158259) appet (3.138001) 
exhibit (5.934142) cupcak (5.647396) yoga (5.381615) church (5.272835) museum (5.172267) macaron (5.113872) cigar (5.056591) exposit (4.737597) admiss (4.719050) garden (4.716817) 
une (3.628160) que (3.544036) ce (3.524423) pas (3.499334) je (3.472838) ne (3.441385) jai (3.434728) trouv (3.426836) qui (3.404318) est (3.385148) 
Error (train/valid/test) = 0.399779/1.381698/1.252046 (0.028574)
..................................................
energy after gradient step = 43598880.762695

Top words for each topic:
hotel (4.552041) room (4.084101) stay (3.793873) bed (3.548426) desk (3.290224) airport (3.137246) shower (3.129412) cat (3.039071) lobbi (3.029043) bathroom (3.005638) 
bagel (5.924106) pizza (4.320493) fairmount (4.270851) chocol (4.013784) gelato (3.994086) viateur (3.984573) oven (3.980793) stviateur (3.967533) donut (3.922708) yarn (3.878835) 
dish (4.011310) dumpl (3.404425) pork (3.395860) meal (3.378793) chicken (3.322955) foie (3.307549) rice (3.211660) beef (3.198957) spici (3.178654) appet (3.158766) 
exhibit (5.939229) cupcak (5.649073) yoga (5.382870) church (5.294762) macaron (5.164435) museum (5.162065) cigar (5.025032) exposit (4.757729) garden (4.720342) admiss (4.720119) 
une (3.638083) que (3.593321) ce (3.536878) pas (3.506539) je (3.487679) jai (3.468679) qui (3.452425) ne (3.444967) et (3.421371) trouv (3.414856) 
Error (train/valid/test) = 0.396575/1.385120/1.254231 (0.028648)
..................................................
energy after gradient step = 43575901.291295

Top words for each topic:
hotel (4.572201) room (4.092415) stay (3.810146) bed (3.564638) desk (3.307055) airport (3.154765) shower (3.150185) cat (3.049089) lobbi (3.043448) bathroom (3.034455) 
bagel (5.906476) pizza (4.305504) fairmount (4.258189) chocol (4.009127) gelato (4.000165) viateur (3.975720) oven (3.975524) stviateur (3.957436) donut (3.899256) yarn (3.883890) 
dish (4.017244) pork (3.416452) dumpl (3.410530) meal (3.383662) chicken (3.331976) foie (3.324642) rice (3.225553) beef (3.222541) spici (3.199728) appet (3.180072) 
exhibit (5.943954) cupcak (5.650858) yoga (5.382908) church (5.296135) museum (5.180317) macaron (5.105681) cigar (5.039535) exposit (4.759155) admiss (4.732653) garden (4.694224) 
une (3.666275) que (3.641216) ce (3.556462) pas (3.532919) qui (3.500456) je (3.494140) jai (3.467796) ne (3.466942) trouv (3.456255) et (3.418476) 
Error (train/valid/test) = 0.393950/1.387333/1.255933 (0.028692)
..................................................
energy after gradient step = 43560954.858895

Top words for each topic:
hotel (4.582005) room (4.109524) stay (3.822014) bed (3.575524) desk (3.330430) airport (3.176933) shower (3.174597) lobbi (3.076901) bathroom (3.062560) cat (3.060504) 
bagel (5.895450) pizza (4.279539) fairmount (4.272009) gelato (4.012060) chocol (3.986257) viateur (3.974968) oven (3.963278) stviateur (3.946397) bakeri (3.911835) latt (3.877475) 
dish (4.047154) dumpl (3.430682) pork (3.429100) meal (3.396011) foie (3.348218) chicken (3.325053) rice (3.251877) beef (3.247905) spici (3.225530) fri (3.210072) 
exhibit (5.937262) cupcak (5.650916) yoga (5.400203) church (5.292158) museum (5.185304) macaron (5.151195) cigar (5.022745) exposit (4.760521) admiss (4.741909) garden (4.700474) 
une (3.694119) que (3.627187) ce (3.566867) qui (3.529322) pas (3.525328) je (3.521985) jai (3.506907) ne (3.498349) et (3.451719) mai (3.449953) 
Error (train/valid/test) = 0.390306/1.389606/1.258423 (0.028746)
..................................................
energy after gradient step = 43550389.332797

Top words for each topic:
hotel (4.596634) room (4.130224) stay (3.821673) bed (3.595604) desk (3.343633) airport (3.201792) shower (3.185892) lobbi (3.082366) bathroom (3.079652) cat (3.066029) 
bagel (5.883640) pizza (4.259511) fairmount (4.249702) gelato (4.018776) viateur (3.984126) oven (3.967348) chocol (3.957725) stviateur (3.945349) bakeri (3.891957) donut (3.877751) 
dish (4.045034) dumpl (3.443831) pork (3.441404) meal (3.410208) foie (3.373091) chicken (3.331399) beef (3.272880) rice (3.270671) spici (3.239992) fri (3.234596) 
exhibit (5.943769) cupcak (5.653454) yoga (5.378644) church (5.294890) museum (5.206125) macaron (5.145270) cigar (5.032148) exposit (4.772793) admiss (4.741722) garden (4.695505) 
une (3.712088) que (3.655479) ce (3.591915) pas (3.574936) je (3.555869) qui (3.537411) jai (3.519595) ne (3.512197) mai (3.492222) trouv (3.471243) 
Error (train/valid/test) = 0.387922/1.391917/1.260514 (0.028784)
..................................................
energy after gradient step = 43541295.343220

Top words for each topic:
hotel (4.618981) room (4.152682) stay (3.825858) bed (3.593013) desk (3.357217) airport (3.224082) shower (3.208361) lobbi (3.111962) bathroom (3.084336) schwartz (3.074264) 
bagel (5.874662) fairmount (4.278628) pizza (4.245683) gelato (4.021310) oven (3.971819) stviateur (3.966876) viateur (3.965352) chocol (3.957324) latt (3.916489) bakeri (3.909698) 
dish (4.060694) pork (3.476245) dumpl (3.460905) meal (3.435038) foie (3.401424) chicken (3.346166) beef (3.304623) rice (3.294204) spici (3.260539) appet (3.250127) 
exhibit (5.924081) cupcak (5.631046) yoga (5.381438) church (5.266096) museum (5.136159) macaron (5.097827) cigar (5.024314) exposit (4.763371) admiss (4.700620) galleri (4.665316) 
une (3.753583) que (3.665323) ce (3.586150) qui (3.558925) pas (3.552428) je (3.551369) jai (3.547000) ne (3.522473) trouv (3.492471) et (3.468388) 
Error (train/valid/test) = 0.384381/1.395811/1.263351 (0.028833)
