corpus = pittonly.gz
latentReg = 0.000000
lambda = 5.000000
K = 10

nUsers = 17799, nItems = 3041, nRatings = 66116

Error w/ offset term only (train/valid/test) = 1.513726/1.531036/1.488641 (0.023944)
Error w/ offset and bias (train/valid/test) = 0.735244/1.272122/1.262878 (0.023736)

..................................................
energy after gradient step = 193090660.584909

Top words for each topic:
grandma (0.488679) avocado (0.454440) listen (0.453714) forget (0.446212) budget (0.443592) bed (0.427714) descript (0.420603) garden (0.419155) stuck (0.411632) father (0.405376) 
muffin (0.583010) minor (0.437298) kudo (0.435524) cod (0.420139) memor (0.405814) cart (0.403348) turkey (0.398447) wedg (0.395431) flatbread (0.391660) nut (0.369751) 
slowli (0.620439) yeah (0.450785) refresh (0.445904) mash (0.445729) invent (0.439523) regist (0.439081) pour (0.430794) 11 (0.413916) membership (0.402437) nation (0.401486) 
w (0.497342) appetit (0.474328) tapa (0.457588) mt (0.441773) send (0.433068) san (0.430577) excus (0.418234) gigant (0.409786) layout (0.402687) men (0.392751) 
40 (0.513450) annoy (0.453726) result (0.441117) edit (0.436479) under (0.429740) guest (0.409696) entertain (0.408461) bakeri (0.407242) fee (0.390478) polish (0.380818) 
polit (0.529565) attitud (0.445606) pretzel (0.434907) ruin (0.431232) asid (0.423501) d (0.419696) 50 (0.413795) desk (0.410159) mysteri (0.409776) prior (0.409439) 
suit (0.486330) 40 (0.472762) chunk (0.471387) superb (0.427993) diet (0.415881) soy (0.415516) access (0.414063) ave (0.408959) lover (0.408767) s (0.383493) 
spoil (0.530554) sugar (0.509429) deep (0.509074) hall (0.478586) coat (0.469238) caus (0.446514) settl (0.436247) breast (0.432590) hibachi (0.428077) stroll (0.427768) 
shell (0.732257) opportun (0.600089) theyll (0.482172) belgian (0.466588) stretch (0.465186) needless (0.456258) doubt (0.450158) decad (0.442514) display (0.440979) fell (0.436643) 
caus (0.566320) picki (0.561849) tart (0.531044) leftov (0.526412) dim (0.472644) pm (0.456948) holiday (0.450223) bed (0.432789) fluffi (0.424990) ground (0.423114) 
Error (train/valid/test) = 1.247894/1.328703/1.314604 (0.020816)
..................................................
energy after gradient step = 192757014.103478

Top words for each topic:
european (1.106705) el (0.881420) casino (0.851242) carn (0.838282) barbecu (0.801873) kobe (0.800439) cross (0.794424) father (0.763046) pipe (0.734451) till (0.733637) 
hangout (1.045038) led (0.898164) visual (0.835816) theatr (0.809554) toni (0.809171) mainten (0.805828) complement (0.796346) toy (0.774853) miami (0.769190) trim (0.765826) 
liquid (0.852818) entr (0.838238) exercis (0.815061) ruth (0.810460) f (0.774204) membership (0.766658) nicki (0.760295) nestl (0.757416) 75 (0.745873) quot (0.742242) 
divey (0.952929) u (0.911762) element (0.906324) shadi (0.875385) grub (0.867999) hurt (0.841703) tongu (0.820314) pushi (0.804282) harsh (0.797794) abund (0.785884) 
ahi (1.161840) peak (0.930158) grandma (0.874532) o (0.798742) yep (0.798674) halfway (0.746843) guarante (0.719909) consum (0.718018) marin (0.715957) scale (0.704078) 
nondescript (0.853313) ugli (0.850748) alex (0.821633) jerri (0.809771) skimp (0.788068) construct (0.769437) lesson (0.762609) tort (0.752024) burst (0.739628) arcad (0.734528) 
penni (0.955340) tag (0.896242) news (0.888212) penguin (0.859357) moon (0.858713) liberti (0.858309) argu (0.843645) margherita (0.809593) histor (0.808133) mr (0.806842) 
opposit (1.046400) carpet (0.857347) hurri (0.832980) elsewher (0.823884) gooey (0.790190) target (0.762862) muscl (0.721057) 200 (0.719031) fatti (0.717830) clam (0.691195) 
setup (1.097425) narrow (0.910379) pear (0.857833) marin (0.836764) materi (0.833076) furnitur (0.794172) stretch (0.788177) atria (0.781462) chic (0.774817) sweat (0.764454) 
bellevu (0.896657) faster (0.878885) rout (0.857894) perk (0.838518) coaster (0.782030) wendi (0.773852) broken (0.770877) navig (0.770208) esp (0.768850) marrow (0.764718) 
Error (train/valid/test) = 1.068734/1.255131/1.250647 (0.020701)
..................................................
energy after gradient step = 192586729.332102

Top words for each topic:
european (1.214996) admiss (1.039464) bikram (1.013546) el (0.974634) father (0.972416) involv (0.961683) vinegari (0.945677) guid (0.940486) carn (0.923494) pipe (0.921880) 
hangout (1.496246) led (1.271252) homestead (1.159299) toni (1.150253) char (1.092426) mcdonald (1.042410) trim (1.041780) polenta (1.023012) wrapper (1.002932) sink (1.001366) 
blame (1.164785) 75 (1.126741) exercis (1.094162) habanero (1.047406) electr (1.046348) sketchi (1.024647) andor (0.965854) ruth (0.932087) entr (0.926540) central (0.925854) 
tongu (1.252541) homey (1.243554) silver (1.238414) outdat (1.129262) capres (1.073232) compet (1.042269) eve (1.040466) plethora (1.024984) drown (1.008144) permit (0.991348) 
grandma (1.466735) cracker (1.054626) farm (1.042521) boil (1.007979) comparison (0.983872) ahi (0.966394) forc (0.949157) lo (0.948770) shade (0.932034) scone (0.918250) 
veg (1.208245) underneath (1.131475) mountain (1.056820) tort (1.008901) along (1.006245) penguin (0.981267) nola (0.940351) saute (0.925586) spanish (0.920137) strict (0.914592) 
jerri (1.122067) penni (1.073530) margherita (1.061869) region (1.060351) cigar (1.040024) sidewalk (1.023126) resist (1.019086) reput (0.990874) grey (0.946274) unimpress (0.946129) 
nonsmok (1.147359) yuck (1.128222) tone (1.088314) cheeseburg (1.080540) macaron (1.002275) research (0.963930) elsewher (0.928580) gooey (0.922238) nightmar (0.909629) 200 (0.906721) 
setup (1.334737) stretch (1.124882) fusion (1.102088) sevich (1.091135) quail (1.008539) arena (0.977614) sweat (0.940636) wouldv (0.934954) cornbread (0.931575) chilli (0.928739) 
esp (1.230629) coaster (1.220496) dedic (1.089110) marrow (1.029547) navig (1.016832) content (0.998793) yelper (0.994053) plantain (0.989288) arugula (0.984217) lukewarm (0.938929) 
Error (train/valid/test) = 0.977198/1.230825/1.222968 (0.022279)
..................................................
energy after gradient step = 192436854.013615

Top words for each topic:
involv (1.258603) european (1.227701) clue (1.125388) father (1.112561) 57 (1.072018) facil (1.064893) chick (1.055541) bikram (1.038120) barbecu (1.034075) guid (1.031464) 
hangout (1.432678) hung (1.300342) phipp (1.258200) trim (1.247687) aiello (1.180217) led (1.170954) homestead (1.157074) stackd (1.154829) mainten (1.115704) fake (1.105841) 
sketchi (1.356121) 75 (1.309522) central (1.135867) nicki (1.116482) arsenal (1.094570) blame (1.084974) entr (1.048299) frost (1.043911) exampl (1.039386) habanero (0.998399) 
divey (1.383041) plethora (1.303436) permit (1.216697) silver (1.188090) valentin (1.177917) warhol (1.137048) u (1.100497) outdat (1.072486) victori (1.048312) task (1.046640) 
grandma (1.724843) cracker (1.206023) scone (1.165481) farm (1.156666) corkag (1.152173) pedi (1.129771) rachel (1.105721) farmer (1.100981) forc (1.093905) bubbl (1.091166) 
veg (1.313855) hofbrauhaus (1.177977) nola (1.139300) delic (1.135105) itd (1.134509) fear (1.107796) soba (1.099077) penguin (1.086918) shes (1.059595) exceed (1.028093) 
sidewalk (1.202284) jerri (1.168153) cigar (1.152800) seawe (1.091814) unimpress (1.075181) queso (1.052214) sammi (1.047805) region (1.036388) penni (1.036296) lens (1.010156) 
cheeseburg (1.403248) lift (1.229726) kennywood (1.194412) scienc (1.145510) nonsmok (1.118256) elsewher (1.117762) macaron (1.051098) occur (1.026999) 200 (1.008426) kraut (0.987836) 
chilli (1.384178) setup (1.312977) sevich (1.298359) stretch (1.193054) nation (1.173683) arena (1.127528) freez (1.109727) intrigu (1.027242) pear (1.007959) heap (1.005357) 
esp (1.358838) marrow (1.354138) butternut (1.225572) drove (1.219997) yuengl (1.121754) child (1.089338) coaster (1.060726) fluffi (1.057299) wrote (1.050407) navig (1.041256) 
Error (train/valid/test) = 0.928696/1.224579/1.221080 (0.022312)
..................................................
energy after gradient step = 192310146.417048

Top words for each topic:
involv (1.370314) european (1.348376) winner (1.246785) chick (1.229044) condiment (1.222382) guid (1.167932) factori (1.157777) exchang (1.129620) foil (1.124067) intent (1.086895) 
hung (1.432931) stackd (1.407642) homestead (1.393692) aiello (1.351310) phipp (1.317761) hangout (1.303092) trim (1.290661) non (1.170848) gf (1.169375) wrapper (1.160848) 
75 (1.503910) sketchi (1.307172) blame (1.292478) ounc (1.244597) central (1.184249) nicki (1.182622) hassl (1.178018) f (1.177651) arsenal (1.176890) entr (1.170734) 
task (1.312086) warhol (1.299200) permit (1.293994) parm (1.247345) drown (1.230687) trust (1.222035) abund (1.221212) valentin (1.198136) u (1.176372) plethora (1.168867) 
grandma (1.667756) cracker (1.369509) scone (1.333178) boil (1.327537) forc (1.322397) bubbl (1.314450) comfi (1.284422) pedi (1.206107) starv (1.200197) turkish (1.179762) 
nola (1.348985) soba (1.264514) penguin (1.248015) shine (1.244207) cmu (1.232951) fear (1.220654) szechuan (1.157712) hofbrauhaus (1.150174) strict (1.149310) saute (1.138536) 
sidewalk (1.305608) region (1.245471) microwav (1.215747) penni (1.193677) stupid (1.185928) pit (1.182318) moder (1.178374) seawe (1.139745) cigar (1.128159) lens (1.120516) 
kennywood (1.490244) macaron (1.461554) cheeseburg (1.355633) lift (1.214163) rangoon (1.196755) weight (1.129335) elsewher (1.115020) charact (1.112553) sole (1.107995) belov (1.102877) 
setup (1.413203) stretch (1.322623) sevich (1.313441) needless (1.311242) inconsist (1.280035) harri (1.233807) freez (1.224337) sashimi (1.224053) quail (1.211381) nation (1.186797) 
marrow (1.485428) esp (1.403846) drove (1.387066) mattress (1.319060) growler (1.309370) aspect (1.295026) arugula (1.260541) asada (1.260494) brugg (1.248861) yuengl (1.240211) 
Error (train/valid/test) = 0.889569/1.220136/1.223306 (0.021829)
..................................................
energy after gradient step = 192166145.686140

Top words for each topic:
involv (1.755326) guid (1.347802) cooler (1.307430) shed (1.301085) exchang (1.238424) battl (1.233693) beach (1.231138) theatr (1.231138) factori (1.222997) stew (1.218168) 
stackd (1.513425) homestead (1.478479) phipp (1.448271) aiello (1.429637) led (1.394532) gf (1.363998) housemad (1.341735) hangout (1.338739) cancel (1.292636) e2 (1.291592) 
nicki (1.383636) grace (1.357108) 75 (1.306626) sketchi (1.284310) wet (1.275168) central (1.228353) merchandis (1.206448) incorrect (1.191360) iron (1.186375) slowli (1.182163) 
permit (1.498786) warhol (1.432643) ship (1.361585) task (1.353526) parm (1.343295) cab (1.337285) silver (1.319053) april (1.302759) compet (1.263288) tongu (1.233571) 
bubbl (1.499263) turkish (1.482556) necessari (1.466292) grandma (1.461016) farm (1.456694) rachel (1.343003) starv (1.316385) sunni (1.281443) cracker (1.272717) farmer (1.266703) 
nola (1.447359) soba (1.416813) penguin (1.358737) s (1.297186) cmu (1.276250) wasabi (1.258789) elbow (1.258156) szechuan (1.257640) broke (1.207924) hofbrauhaus (1.199108) 
spell (1.511359) jerri (1.443085) penni (1.362798) lens (1.355970) sidewalk (1.348477) northsid (1.282890) jukebox (1.273445) mass (1.235783) union (1.193034) gear (1.177659) 
macaron (1.638144) kennywood (1.465319) scienc (1.351189) cheeseburg (1.345430) belov (1.311157) comedi (1.286474) maintain (1.264905) regard (1.246707) sole (1.220767) temperatur (1.218782) 
stretch (1.684030) setup (1.555959) chilli (1.453423) needless (1.357927) quail (1.355535) sashimi (1.317293) grown (1.284031) harri (1.275152) smoki (1.255755) mid (1.248193) 
marrow (1.724900) boot (1.612340) mattress (1.589909) drove (1.536899) esp (1.473559) brugg (1.465452) knife (1.377511) record (1.339349) leaf (1.279629) imposs (1.276358) 
Error (train/valid/test) = 0.845156/1.218343/1.226882 (0.021931)
..................................................
energy after gradient step = 192017490.134679

Top words for each topic:
involv (1.789868) father (1.496121) facil (1.420241) univers (1.373931) concert (1.355095) theatr (1.339177) guac (1.335790) gelato (1.330608) european (1.330420) battl (1.320482) 
phipp (1.717977) non (1.681538) aiello (1.648164) footbal (1.632132) homestead (1.598762) tequila (1.473424) stackd (1.444202) gf (1.400960) e2 (1.378707) festiv (1.372393) 
nicki (1.580078) sketchi (1.531445) central (1.443643) liquid (1.434851) grace (1.358439) escap (1.328209) slowli (1.309764) essenti (1.307068) schenley (1.271665) kudo (1.261880) 
cab (1.679243) warhol (1.653031) parm (1.500654) task (1.495572) buse (1.455278) permit (1.451472) union (1.439940) silver (1.359759) compet (1.358066) drown (1.356967) 
turkish (1.713470) bubbl (1.566949) farm (1.545523) grandma (1.485502) sunni (1.421238) maci (1.399805) scone (1.382268) comfi (1.372638) farmer (1.332025) cranberri (1.305152) 
soba (1.601940) szechuan (1.504565) tamari (1.471450) librari (1.409472) shoe (1.406479) nail (1.389762) penguin (1.387509) 1st (1.354774) nola (1.341447) delic (1.327193) 
jukebox (1.590294) sidewalk (1.554377) lens (1.443308) penni (1.440493) stupid (1.440413) jerri (1.428771) spell (1.420873) taiwanes (1.350134) union (1.349276) quirki (1.303168) 
kennywood (1.612711) macaron (1.589086) comedi (1.523926) cheeseburg (1.485061) belov (1.466161) maintain (1.436892) scienc (1.413033) metal (1.368027) rangoon (1.354272) weight (1.342030) 
minus (1.595062) power (1.544340) sashimi (1.523223) inn (1.516832) harri (1.489064) setup (1.477357) 730 (1.455821) needless (1.428964) smoki (1.423949) stretch (1.354816) 
drove (1.754714) mattress (1.753666) brugg (1.707409) marrow (1.660885) boot (1.613826) aspect (1.551204) esp (1.484021) imposs (1.466828) record (1.445593) knife (1.400456) 
Error (train/valid/test) = 0.815057/1.218984/1.230985 (0.021974)
..................................................
energy after gradient step = 191852002.468861

Top words for each topic:
involv (1.558953) twist (1.486223) father (1.479911) guid (1.428462) stage (1.423509) caesar (1.405434) tight (1.395249) cloud (1.356242) concert (1.354012) theatr (1.349828) 
phipp (1.803778) footbal (1.700950) non (1.617368) tequila (1.599869) aiello (1.579439) stackd (1.570091) tapa (1.458425) listen (1.447343) led (1.434411) homestead (1.401870) 
nicki (1.839792) grace (1.782443) liquid (1.708017) alfredo (1.539087) quot (1.446122) sketchi (1.401850) central (1.395429) naan (1.383698) alot (1.380182) weak (1.366937) 
warhol (1.998453) cab (1.845563) buse (1.535477) union (1.520305) washington (1.460017) compet (1.451367) permit (1.437752) trust (1.406019) 21st (1.402215) unbeliev (1.387495) 
turkish (1.870848) bubbl (1.615918) fiori (1.495610) scone (1.469427) maci (1.454922) contemporari (1.420427) grandma (1.406753) comfi (1.404999) argu (1.351545) wateri (1.350755) 
soba (1.698767) szechuan (1.566104) nail (1.552041) librari (1.547386) shoe (1.528371) tamari (1.525990) nola (1.517862) hofbrauhaus (1.482701) fear (1.467617) wasabi (1.448124) 
sidewalk (1.618537) jerri (1.586573) lens (1.548831) spell (1.486657) penni (1.469504) stupid (1.449061) jukebox (1.384130) statement (1.372455) hawaiian (1.358281) irish (1.354872) 
kennywood (2.091212) macaron (1.747228) rangoon (1.583749) comedi (1.573823) p (1.492197) lift (1.474974) belov (1.453476) maintain (1.445823) carnegi (1.427868) metal (1.421428) 
power (1.733956) harri (1.696060) popcorn (1.619273) minus (1.598685) needless (1.517514) inn (1.512367) setup (1.472802) grown (1.452774) nation (1.431208) sashimi (1.419540) 
marrow (2.112343) mattress (1.893386) boot (1.804147) brugg (1.720626) record (1.674347) target (1.527163) drove (1.523081) knife (1.515757) esp (1.475183) pinbal (1.468242) 
Error (train/valid/test) = 0.781717/1.221348/1.232758 (0.022516)
..................................................
energy after gradient step = 191658703.294430

Top words for each topic:
involv (1.811570) guid (1.681060) father (1.572788) gelato (1.558196) factori (1.530190) theatr (1.509123) stage (1.496552) european (1.477975) instal (1.465641) cloud (1.449612) 
phipp (2.107808) stackd (1.739917) aiello (1.691496) stylist (1.656857) haircut (1.619862) footbal (1.615895) tapa (1.571701) tie (1.538571) tequila (1.533004) homestead (1.527249) 
nicki (1.892683) liquid (1.688570) alfredo (1.546196) naan (1.545589) grace (1.511208) temperatur (1.487832) schenley (1.466660) sketchi (1.423180) iron (1.415437) alot (1.390327) 
warhol (2.219847) cab (2.067174) andi (1.819674) washington (1.682448) silver (1.564635) buse (1.530726) 21st (1.504486) union (1.473287) omg (1.456472) access (1.421514) 
turkish (1.786824) bubbl (1.662941) maci (1.606043) fiori (1.578846) bagel (1.520064) contemporari (1.494161) comfi (1.456017) contact (1.455903) michell (1.450178) wateri (1.429806) 
nail (1.776058) soba (1.768608) librari (1.757629) sichuan (1.703204) szechuan (1.649942) shoe (1.629110) tamari (1.542419) conflict (1.488921) fear (1.488445) nola (1.450039) 
jerri (1.797090) irish (1.680407) cigar (1.649624) sidewalk (1.589386) lens (1.573117) penni (1.496307) spell (1.491800) sight (1.465378) safe (1.452370) stupid (1.439294) 
kennywood (2.160007) macaron (1.917812) maintain (1.670171) barber (1.614380) truck (1.580157) rangoon (1.568130) lift (1.555208) metal (1.548815) comedi (1.532669) whiskey (1.498057) 
harri (1.689006) popcorn (1.687360) inn (1.670098) sashimi (1.667886) power (1.642686) minus (1.608954) smoki (1.554151) alter (1.499138) nation (1.454004) brgr (1.451707) 
marrow (2.051354) brugg (2.033063) record (1.877290) boot (1.821197) mattress (1.735308) stock (1.632656) target (1.568408) knife (1.527950) susan (1.488969) drove (1.482674) 
Error (train/valid/test) = 0.760343/1.222313/1.236542 (0.022675)
..................................................
energy after gradient step = 191452583.286889

Top words for each topic:
involv (1.730334) gelato (1.707763) guid (1.679666) stage (1.673799) theatr (1.659094) eagl (1.653864) battl (1.628661) european (1.627797) factori (1.626783) control (1.600610) 
phipp (2.351199) stylist (2.106497) aiello (1.824902) haircut (1.720278) silk (1.708818) tequila (1.694298) tie (1.664735) non (1.652157) footbal (1.647222) stackd (1.585135) 
nicki (1.931945) liquid (1.709118) temperatur (1.672327) naan (1.631153) alot (1.619851) blame (1.585073) grace (1.577623) schenley (1.555080) sketchi (1.505199) savor (1.489193) 
warhol (2.529774) cab (2.252061) andi (1.907132) buse (1.648875) 21st (1.604038) washington (1.602721) silver (1.593792) trust (1.592288) permit (1.562444) union (1.560198) 
bagel (1.803108) turkish (1.789360) bubbl (1.658062) contact (1.625741) michell (1.622260) breez (1.615396) contemporari (1.604448) hat (1.602213) grandma (1.553325) fiori (1.527889) 
nail (2.042633) soba (2.031403) librari (1.903228) szechuan (1.841334) shoe (1.808071) sichuan (1.775168) fear (1.684903) penguin (1.613467) conflict (1.612587) nola (1.552452) 
jerri (1.873329) cigar (1.746260) irish (1.697436) penni (1.669365) lens (1.666687) sidewalk (1.655850) taiwanes (1.567500) beto (1.552450) boat (1.550379) safe (1.485256) 
kennywood (2.367499) macaron (2.129945) barber (1.784650) whiskey (1.752519) maintain (1.706255) tempt (1.556273) truck (1.546276) micro (1.543582) pet (1.540710) comedi (1.535121) 
popcorn (1.941226) harri (1.873282) alter (1.804148) sashimi (1.781845) inn (1.780840) brgr (1.703888) tessaro (1.672275) 24 (1.648140) power (1.625289) minus (1.604811) 
record (2.228771) marrow (2.174417) brugg (2.043552) mattress (1.975061) boot (1.754733) target (1.681817) pinbal (1.662496) susan (1.613579) aisl (1.556703) drove (1.534426) 
Error (train/valid/test) = 0.734371/1.225622/1.240975 (0.022610)
..................................................
energy after gradient step = 191207648.862727

Top words for each topic:
involv (1.834300) gelato (1.795391) eagl (1.778265) theatr (1.772833) stage (1.753705) guid (1.727771) factori (1.708046) caesar (1.697817) instal (1.672046) european (1.649283) 
phipp (2.518796) stylist (2.295669) aiello (2.072638) haircut (2.036648) tapa (1.940017) tequila (1.824659) silk (1.786971) non (1.700916) homestead (1.670847) panera (1.662327) 
nicki (2.120312) naan (1.806667) temperatur (1.749619) alot (1.709429) indian (1.669682) liquid (1.610298) schenley (1.583203) sketchi (1.568818) blame (1.559428) escap (1.526818) 
warhol (2.744769) cab (2.407117) andi (2.208895) washington (1.736183) silver (1.723234) buse (1.709901) union (1.697809) field (1.689040) 21st (1.681324) exhibit (1.661180) 
bagel (2.072199) turkish (1.848025) bubbl (1.729391) internet (1.722216) michell (1.721292) breez (1.666384) hat (1.663251) arena (1.608958) maci (1.605541) fiori (1.593077) 
nail (2.191843) soba (2.148785) librari (2.016375) sichuan (2.006576) shoe (1.927911) szechuan (1.904925) tamari (1.719063) nola (1.652593) conflict (1.649027) pedi (1.595343) 
jerri (2.077372) irish (1.982401) lens (1.781957) penni (1.771846) cigar (1.766672) boat (1.744178) sidewalk (1.679024) beto (1.673193) jukebox (1.661190) safe (1.641440) 
kennywood (2.575166) macaron (2.268478) whiskey (1.922813) pet (1.803184) barber (1.793644) maintain (1.735106) micro (1.659396) shirt (1.629009) comedi (1.609996) rangoon (1.573568) 
popcorn (2.176376) tessaro (1.820051) brgr (1.797932) alter (1.795165) sashimi (1.785817) harri (1.782632) inn (1.750203) nation (1.686676) needless (1.661429) smoki (1.639058) 
brugg (2.352025) record (2.321661) marrow (2.251618) mattress (2.153731) succul (1.756752) boot (1.751523) pinbal (1.744589) mushi (1.666881) stock (1.640410) susan (1.632323) 
Error (train/valid/test) = 0.716566/1.227683/1.246353 (0.022444)
..................................................
energy after gradient step = 190942764.602253

Top words for each topic:
gelato (2.024202) factori (1.996955) theatr (1.938758) cheesecak (1.918029) guid (1.862016) involv (1.836973) eagl (1.794002) cramp (1.739117) stage (1.717757) european (1.714202) 
phipp (2.637444) stylist (2.565661) haircut (2.319275) tapa (2.091348) aiello (2.058344) silk (1.950402) pho (1.881747) gyro (1.773697) tequila (1.740493) non (1.725293) 
nicki (2.113242) naan (2.092085) indian (1.939893) temperatur (1.680834) alot (1.680786) escap (1.581987) bruge (1.571807) liquor (1.568757) yogurt (1.537764) alfredo (1.515697) 
warhol (2.878557) cab (2.641907) andi (2.471599) exhibit (2.067568) 21st (1.934958) field (1.901168) silver (1.862544) buse (1.854950) union (1.780825) washington (1.766206) 
bagel (2.268169) turkish (1.953147) michell (1.839907) hat (1.814883) mocha (1.775042) internet (1.768863) bubbl (1.751313) contact (1.733253) maci (1.706324) interact (1.659562) 
nail (2.386232) librari (2.245438) soba (2.217485) sichuan (2.033723) tamari (1.978020) shoe (1.965016) szechuan (1.910396) nola (1.838960) conflict (1.711976) penguin (1.706329) 
jerri (2.205652) irish (2.170823) boat (1.960918) cigar (1.927653) lens (1.804794) sidewalk (1.790180) beto (1.745656) fountain (1.731146) taiwanes (1.663336) donut (1.655170) 
kennywood (2.775362) macaron (2.493983) barber (2.088184) whiskey (1.991525) maintain (1.802965) pita (1.748215) pet (1.737323) comedi (1.677754) deli (1.668869) mad (1.666630) 
popcorn (2.420847) brgr (2.123671) tessaro (2.036770) sashimi (1.989437) harri (1.963668) alter (1.864415) hotdog (1.845632) inn (1.679575) power (1.629691) smoki (1.624688) 
record (2.569064) marrow (2.374963) brugg (2.327197) mattress (2.021815) pinbal (1.943583) boot (1.864450) facial (1.836062) target (1.829611) stock (1.743256) susan (1.715199) 
Error (train/valid/test) = 0.698754/1.231228/1.245904 (0.022792)
..................................................
energy after gradient step = 190543800.476243

Top words for each topic:
gelato (2.322094) factori (2.193490) cheesecak (2.059226) theatr (2.051549) stage (1.962733) eagl (1.921077) concert (1.862196) cramp (1.800920) involv (1.778820) guid (1.778158) 
stylist (2.757145) haircut (2.650516) phipp (2.635336) tapa (2.244812) pho (2.199597) aiello (2.120562) gyro (2.027680) silk (1.973584) salon (1.855742) mcn (1.850161) 
indian (2.179551) nicki (2.163992) naan (2.106190) yogurt (1.732093) lemonad (1.646563) escap (1.637224) cat (1.636724) temperatur (1.636068) alfredo (1.613258) sketchi (1.602889) 
warhol (3.106587) cab (2.809989) andi (2.675254) exhibit (2.355406) field (2.194973) museum (2.107107) cone (1.965248) silver (1.963151) washington (1.963014) buse (1.924925) 
bagel (2.606635) mocha (2.066687) internet (1.979457) michell (1.936649) turkish (1.870781) bubbl (1.868107) contact (1.858527) crepe (1.797991) latt (1.780766) maci (1.760390) 
nail (2.573254) soba (2.269249) librari (2.246831) shoe (2.056863) tamari (1.968379) szechuan (1.951354) sichuan (1.930029) nola (1.915221) conflict (1.845172) dumpl (1.822571) 
jerri (2.260424) irish (2.210634) cigar (2.127085) boat (1.997818) fountain (1.922207) lens (1.869979) taiwanes (1.851470) donut (1.840909) tour (1.817098) sidewalk (1.800790) 
kennywood (2.858008) macaron (2.570857) whiskey (2.304774) barber (2.095111) pita (2.019497) ride (1.973008) trader (1.929681) maintain (1.915808) pet (1.831846) deli (1.827931) 
popcorn (2.432660) brgr (2.209661) tessaro (2.162234) harri (2.133943) sashimi (2.042455) alter (1.838257) inn (1.810225) hotdog (1.717201) stretch (1.686465) 730 (1.683889) 
record (2.684326) brugg (2.536788) marrow (2.482652) mattress (2.094793) boot (2.039045) facial (1.938607) pinbal (1.926624) target (1.893787) stock (1.872723) plantain (1.786050) 
Error (train/valid/test) = 0.686828/1.234131/1.249453 (0.022955)
..................................................
energy after gradient step = 190040133.235942

Top words for each topic:
gelato (2.463223) factori (2.419283) cheesecak (2.210139) eagl (2.069471) theatr (2.062158) stage (2.050056) concert (1.986776) instal (1.926759) guid (1.828571) involv (1.785607) 
stylist (2.881211) phipp (2.711404) haircut (2.610073) pho (2.424276) tapa (2.307106) gyro (2.272394) aiello (2.137916) salon (2.052860) mcn (1.972456) trail (1.956101) 
indian (2.484576) nicki (2.252028) naan (2.193307) cat (1.982983) yogurt (1.938013) lemonad (1.647254) escap (1.642044) samosa (1.639843) sketchi (1.639322) alot (1.614726) 
warhol (3.157528) cab (2.911617) andi (2.760780) exhibit (2.547569) museum (2.451979) field (2.239288) cone (2.208039) silver (2.066048) buse (2.007197) washington (1.960635) 
bagel (2.861682) mocha (2.152973) latt (2.018245) internet (2.016187) michell (1.996729) crepe (1.984363) bubbl (1.945232) tattoo (1.941418) hat (1.908955) contact (1.899991) 
nail (2.626974) soba (2.297260) librari (2.291918) dumpl (2.025417) szechuan (2.023041) pedicur (1.974391) nola (1.968236) sichuan (1.967809) pretzel (1.952026) tamari (1.936589) 
jerri (2.435356) irish (2.397236) cigar (2.375448) tour (2.137237) fountain (2.076790) donut (2.043453) boat (2.033420) taiwanes (1.972101) lens (1.917670) manicur (1.817975) 
kennywood (3.065693) macaron (2.745990) whiskey (2.471932) barber (2.251691) ride (2.237341) pita (2.158718) trader (2.023949) deli (2.012364) maintain (1.996788) pet (1.943219) 
popcorn (2.427162) brgr (2.278866) tessaro (2.209559) harri (2.146993) sashimi (2.042738) alter (1.881639) inn (1.832290) hotdog (1.828304) burgatori (1.793272) nation (1.693895) 
record (2.911837) brugg (2.615509) marrow (2.335334) mattress (2.258147) boot (2.099969) facial (2.000042) target (1.994101) pinbal (1.941805) plantain (1.894167) mussel (1.885718) 
Error (train/valid/test) = 0.677314/1.237327/1.251697 (0.023114)
..................................................
energy after gradient step = 189358543.290673

Top words for each topic:
gelato (2.548481) factori (2.530167) cheesecak (2.428520) eagl (2.344074) theatr (2.119682) stage (2.098161) guid (1.975607) instal (1.954859) concert (1.923670) carn (1.827397) 
stylist (2.908774) phipp (2.833546) haircut (2.781861) pho (2.638129) gyro (2.503190) tapa (2.450543) salon (2.396465) hair (2.334289) aiello (2.145019) mcn (2.093369) 
indian (2.657935) naan (2.364197) nicki (2.313700) cat (2.053785) yogurt (2.011919) lemonad (1.798607) buffet (1.772030) romant (1.721399) milkshak (1.702841) escap (1.701411) 
warhol (3.262254) cab (3.065881) andi (2.990382) museum (2.837943) exhibit (2.808296) field (2.443944) cone (2.347944) silver (2.183899) buse (2.059410) basebal (2.037760) 
bagel (3.051188) coffe (2.443550) mocha (2.386343) crepe (2.367019) latt (2.318442) wifi (2.156471) internet (2.064757) michell (2.023084) tattoo (1.957614) turkish (1.950387) 
nail (2.702709) soba (2.327909) dumpl (2.192534) librari (2.186549) pretzel (2.110848) szechuan (2.053363) pedicur (2.032067) nola (2.007671) sichuan (2.006148) thai (2.004468) 
jerri (2.562303) irish (2.475145) cigar (2.421802) donut (2.317676) tour (2.212051) fountain (2.208114) boat (2.208103) taiwanes (2.132498) safe (1.949262) lens (1.948823) 
kennywood (3.130813) macaron (2.888422) ride (2.547591) whiskey (2.523704) barber (2.336917) pita (2.312129) trader (2.183699) maintain (2.090494) deli (2.052241) cupcak (2.047960) 
popcorn (2.560442) brgr (2.486385) tessaro (2.314369) sashimi (2.191541) harri (2.119883) burger (1.922931) burgatori (1.916900) inn (1.858784) alter (1.856178) hotdog (1.845557) 
record (2.985059) brugg (2.782242) marrow (2.465071) mattress (2.378095) facial (2.164681) target (2.061434) pinbal (2.055142) boot (2.046552) mussel (2.002101) cure (1.986512) 
Error (train/valid/test) = 0.671616/1.241828/1.257607 (0.022698)
..................................................
energy after gradient step = 188370181.162377

Top words for each topic:
factori (2.742293) gelato (2.688263) cheesecak (2.542136) eagl (2.482792) stage (2.286485) theatr (2.166245) instal (2.092887) concert (2.069163) guid (1.951648) chipotl (1.894349) 
stylist (3.033780) haircut (2.896639) phipp (2.850080) pho (2.842610) gyro (2.642815) salon (2.625446) hair (2.615635) tapa (2.438655) trail (2.228659) aiello (2.219090) 
indian (2.856762) naan (2.496955) nicki (2.406595) yogurt (2.225414) cat (2.108925) buffet (1.892219) samosa (1.819534) lemonad (1.753152) milkshak (1.727113) romant (1.714628) 
warhol (3.367228) cab (3.197151) museum (3.075023) andi (3.045817) exhibit (2.928302) cone (2.497666) field (2.378603) silver (2.286311) bridg (2.284621) stadium (2.274617) 
bagel (3.224411) coffe (2.834442) crepe (2.675941) latt (2.527194) mocha (2.490558) wifi (2.264875) internet (2.182923) barista (2.136370) espresso (2.126376) tattoo (2.078703) 
nail (2.704862) soba (2.364227) thai (2.294062) dumpl (2.278955) pad (2.089856) librari (2.084627) szechuan (2.055374) pretzel (2.038515) pedicur (2.013920) tamari (1.998985) 
jerri (2.629334) irish (2.584677) donut (2.576019) cigar (2.528683) tour (2.462358) fountain (2.362008) boat (2.329368) taiwanes (2.204358) lens (2.064480) safe (1.957212) 
kennywood (3.278371) macaron (2.954336) whiskey (2.818460) ride (2.683419) barber (2.437616) cupcak (2.361823) trader (2.347889) pita (2.332709) deli (2.280744) coaster (2.155794) 
popcorn (2.588935) brgr (2.503991) tessaro (2.337707) burger (2.305683) harri (2.191436) sashimi (2.124201) burgatori (2.075408) hibachi (1.902843) alter (1.829631) inn (1.815672) 
record (3.099726) brugg (2.793318) marrow (2.561937) mattress (2.440790) target (2.274309) facial (2.272381) cure (2.177349) pinbal (2.157325) boot (2.099703) film (2.092953) 
Error (train/valid/test) = 0.666406/1.244776/1.259661 (0.022823)
..................................................
energy after gradient step = 187143797.514682

Top words for each topic:
gelato (2.948375) factori (2.877011) cheesecak (2.634802) eagl (2.522121) stage (2.424314) theatr (2.355449) instal (2.324721) concert (2.283537) chipotl (2.256772) mineo (2.103268) 
stylist (3.198015) pho (3.046230) haircut (2.971109) phipp (2.901935) hair (2.891070) gyro (2.828198) salon (2.791658) tapa (2.585264) mcn (2.399521) trail (2.358180) 
indian (3.012045) naan (2.626135) yogurt (2.402067) cat (2.249501) nicki (2.179833) buffet (2.120807) milkshak (1.954836) india (1.900061) gourmet (1.817715) samosa (1.809294) 
warhol (3.502543) museum (3.293347) cab (3.276008) andi (3.184266) exhibit (3.141720) field (2.739568) cone (2.675964) stadium (2.633635) basebal (2.482819) bridg (2.453600) 
bagel (3.345871) coffe (3.234433) crepe (2.926347) latt (2.808070) mocha (2.709878) wifi (2.531019) barista (2.525577) espresso (2.498493) internet (2.412961) hotel (2.387159) 
thai (2.746647) nail (2.712844) dumpl (2.446423) pad (2.297411) soba (2.244589) noodl (2.205569) pretzel (2.185277) chines (2.112106) librari (2.108351) tofu (2.093016) 
donut (2.866872) cigar (2.766953) irish (2.738842) jerri (2.693506) tour (2.689606) fountain (2.537245) boat (2.481043) taiwanes (2.289463) lens (2.190816) bed (2.110045) 
kennywood (3.449730) macaron (3.180382) whiskey (2.989144) ride (2.900284) cupcak (2.734378) barber (2.702714) trader (2.600857) coaster (2.554052) pita (2.504633) deli (2.494761) 
burger (2.737288) popcorn (2.571622) brgr (2.542726) tessaro (2.518292) sashimi (2.291856) burgatori (2.268027) harri (2.170194) japanes (1.981503) alter (1.943252) sushi (1.886798) 
record (3.153530) brugg (2.978269) marrow (2.680237) mattress (2.666829) facial (2.469971) target (2.402512) film (2.364669) boot (2.352670) frite (2.330527) shoe (2.311755) 
Error (train/valid/test) = 0.655796/1.248893/1.263991 (0.022970)
..................................................
energy after gradient step = 185519992.079147

Top words for each topic:
gelato (3.078032) factori (3.008364) cheesecak (2.832590) eagl (2.781728) stage (2.684195) theatr (2.447478) pizza (2.410123) instal (2.406630) concert (2.384110) chipotl (2.377409) 
pho (3.247037) stylist (3.211461) haircut (3.161716) hair (3.151490) salon (3.039442) gyro (3.033234) phipp (2.977198) tapa (2.660015) trail (2.452391) mcn (2.442012) 
indian (3.228734) naan (2.693376) yogurt (2.656287) buffet (2.406572) cat (2.316370) nicki (2.212961) india (2.057670) milkshak (2.033480) samosa (1.939696) gourmet (1.815445) 
warhol (3.628123) museum (3.562652) cab (3.388563) exhibit (3.355091) andi (3.338615) cone (2.848518) stadium (2.825886) field (2.821922) bridg (2.681522) art (2.678493) 
coffe (3.880751) bagel (3.580532) crepe (3.264009) latt (3.119394) mocha (2.914602) barista (2.898957) wifi (2.783323) espresso (2.729505) hotel (2.689028) pastri (2.604962) 
thai (2.957453) nail (2.583939) noodl (2.431279) pad (2.389963) dumpl (2.345404) soba (2.311468) curri (2.309581) chines (2.266856) dish (2.226779) pretzel (2.190660) 
donut (3.074385) tour (2.954650) cigar (2.890494) jerri (2.849439) irish (2.809392) fountain (2.710174) boat (2.546326) bed (2.296639) taiwanes (2.254976) lens (2.254557) 
kennywood (3.528979) macaron (3.293768) cupcak (3.173378) whiskey (3.130135) ride (3.048074) trader (2.793326) coaster (2.762013) bakeri (2.759556) barber (2.718766) class (2.692980) 
burger (3.157920) brgr (2.678624) popcorn (2.627091) tessaro (2.591611) burgatori (2.390205) sashimi (2.270868) harri (2.183692) sushi (2.160052) japanes (2.061831) alter (2.005348) 
record (3.395883) brugg (3.098763) marrow (2.783660) mattress (2.732575) shoe (2.699199) facial (2.573439) target (2.570844) film (2.553245) frite (2.489056) vintag (2.460749) 
Error (train/valid/test) = 0.658892/1.258222/1.266634 (0.024286)
..................................................
energy after gradient step = 183564527.320082

Top words for each topic:
gelato (3.155956) pizza (3.152894) factori (3.082022) cheesecak (2.971565) eagl (2.847006) stage (2.748590) mineo (2.580408) instal (2.534157) concert (2.515100) theatr (2.499606) 
pho (3.371746) stylist (3.358515) hair (3.340827) haircut (3.191712) salon (3.149436) gyro (3.101531) phipp (3.003112) tapa (2.838428) pamela (2.630611) vietnames (2.579625) 
indian (3.307474) naan (2.817591) yogurt (2.767690) buffet (2.557706) cat (2.385137) india (2.158377) nicki (2.048203) samosa (2.013575) milkshak (1.981222) pet (1.920257) 
warhol (3.702595) museum (3.683717) cab (3.525068) exhibit (3.451679) andi (3.424424) stadium (3.059650) cone (3.008054) field (2.937080) pirat (2.870658) art (2.862204) 
coffe (3.823761) bagel (3.664257) crepe (3.322304) latt (3.189648) barista (2.991623) hotel (2.978506) mocha (2.964749) espresso (2.943855) wifi (2.930960) pastri (2.748231) 
thai (3.043456) noodl (2.566010) nail (2.488509) curri (2.436589) dish (2.430856) dumpl (2.409530) pad (2.395141) chines (2.348844) soba (2.245556) tofu (2.228303) 
donut (3.260419) tour (3.068476) cigar (2.957952) jerri (2.899695) irish (2.894737) fountain (2.801939) boat (2.661160) car (2.496016) bed (2.480274) lens (2.281441) 
kennywood (3.646800) macaron (3.352831) cupcak (3.340664) whiskey (3.261748) ride (3.223889) class (2.938066) trader (2.910100) coaster (2.856766) bakeri (2.851471) deli (2.787857) 
burger (3.333879) brgr (2.714176) popcorn (2.696130) tessaro (2.648840) burgatori (2.528177) sashimi (2.331056) japanes (2.251870) sushi (2.248314) harri (2.239617) hibachi (2.035532) 
record (3.463029) brugg (3.137649) shoe (3.099314) marrow (2.922782) mattress (2.842551) target (2.725866) facial (2.699134) film (2.693497) vintag (2.679056) frite (2.649257) 
Error (train/valid/test) = 0.655159/1.257149/1.270147 (0.022731)
..................................................
energy after gradient step = 181459079.053257

Top words for each topic:
pizza (3.595221) gelato (3.347066) factori (3.290929) cheesecak (3.138187) eagl (3.026503) mineo (2.946328) stage (2.943040) crust (2.810628) instal (2.670723) theatr (2.630725) 
pho (3.578364) hair (3.486226) stylist (3.466905) haircut (3.380532) salon (3.277903) gyro (3.253744) phipp (3.163206) tapa (2.881261) vietnames (2.768563) pamela (2.748660) 
indian (3.452254) naan (2.902055) yogurt (2.873995) buffet (2.730184) cat (2.467161) india (2.237425) milkshak (2.170605) samosa (2.147050) razzi (2.103911) froyo (2.059980) 
museum (3.858022) warhol (3.833771) cab (3.661503) exhibit (3.629493) andi (3.529362) stadium (3.211193) cone (3.193779) field (3.056324) art (3.012702) bridg (2.950018) 
coffe (4.147429) bagel (3.839773) crepe (3.519158) latt (3.399361) barista (3.263097) mocha (3.188977) hotel (3.173414) espresso (3.165484) wifi (3.039210) pastri (2.923730) 
thai (3.113937) noodl (2.699939) dish (2.677177) curri (2.586078) chines (2.452290) pad (2.406446) dumpl (2.367822) nail (2.355691) tofu (2.291168) sushi (2.207985) 
donut (3.435333) tour (3.244058) irish (3.055127) cigar (3.024165) jerri (2.986919) fountain (2.796290) boat (2.779856) car (2.757305) bed (2.625475) mile (2.383406) 
kennywood (3.796879) cupcak (3.557407) macaron (3.492554) whiskey (3.425573) ride (3.339402) class (3.187481) trader (3.091537) coaster (3.077362) bakeri (3.074397) deli (2.914689) 
burger (3.558913) brgr (2.806865) tessaro (2.720363) popcorn (2.717106) burgatori (2.585693) sushi (2.388305) sashimi (2.337096) japanes (2.245737) harri (2.218510) taco (2.135799) 
record (3.616700) shoe (3.417574) brugg (3.276494) marrow (3.044404) mattress (3.005806) film (2.981064) vintag (2.952036) target (2.848754) danc (2.831936) facial (2.830410) 
Error (train/valid/test) = 0.648063/1.256165/1.267071 (0.023192)
..................................................
energy after gradient step = 179200663.401991

Top words for each topic:
pizza (4.019487) gelato (3.473250) factori (3.321685) eagl (3.227351) crust (3.188077) cheesecak (3.180139) mineo (3.071966) stage (2.991322) instal (2.764224) theatr (2.751767) 
pho (3.738892) hair (3.639632) stylist (3.612215) salon (3.474937) haircut (3.445028) gyro (3.383324) phipp (3.239328) tapa (2.981277) vietnames (2.962604) pamela (2.922551) 
indian (3.585669) naan (3.058781) yogurt (3.048559) buffet (2.925719) cat (2.578122) india (2.395676) samosa (2.276064) razzi (2.254149) fruit (2.246755) froyo (2.229094) 
museum (4.012188) warhol (3.916184) exhibit (3.741933) cab (3.708418) andi (3.645002) stadium (3.389732) cone (3.317663) field (3.260028) art (3.202262) waffl (3.152111) 
coffe (4.478123) bagel (3.926798) crepe (3.687424) latt (3.519610) barista (3.353221) hotel (3.346861) mocha (3.294497) espresso (3.283310) wifi (3.208207) pastri (3.182523) 
thai (3.190644) dish (2.901208) noodl (2.799528) curri (2.670675) chines (2.532474) pad (2.380424) sauc (2.378939) dumpl (2.357615) shrimp (2.317517) tofu (2.303936) 
donut (3.567194) tour (3.413481) cigar (3.171598) irish (3.134187) jerri (3.132245) fountain (2.962457) car (2.957268) boat (2.811323) bed (2.716651) mile (2.498711) 
kennywood (3.933754) cupcak (3.775634) macaron (3.676350) ride (3.511984) whiskey (3.464782) class (3.452087) yoga (3.339470) bakeri (3.322351) trader (3.293317) coaster (3.235493) 
burger (3.814152) brgr (2.818407) tessaro (2.793573) burgatori (2.780490) popcorn (2.753400) sushi (2.451441) japanes (2.397383) sashimi (2.365139) harri (2.314992) bun (2.295540) 
record (3.744288) shoe (3.612829) brugg (3.413009) film (3.210990) mattress (3.162053) marrow (3.139062) danc (3.081245) target (3.062192) vintag (3.031780) facial (3.025052) 
Error (train/valid/test) = 0.645090/1.258003/1.266548 (0.023403)
..................................................
energy after gradient step = 177177026.579424

Top words for each topic:
pizza (4.364717) gelato (3.549525) crust (3.438909) factori (3.400108) cheesecak (3.301549) eagl (3.266924) mineo (3.223681) stage (3.083715) instal (2.838310) theatr (2.817057) 
pho (3.878717) hair (3.766724) stylist (3.670873) salon (3.610439) haircut (3.564146) gyro (3.508448) phipp (3.300746) vietnames (3.124546) pamela (3.007855) tapa (2.881414) 
indian (3.694330) yogurt (3.168649) buffet (3.109390) naan (3.052752) cat (2.638303) india (2.441907) froyo (2.398667) frozen (2.395579) razzi (2.361767) fruit (2.342144) 
museum (4.104582) warhol (3.986243) exhibit (3.853608) cab (3.788887) andi (3.727119) stadium (3.480196) cone (3.444314) art (3.345038) waffl (3.298573) field (3.270003) 
coffe (4.673813) bagel (4.027871) crepe (3.830770) latt (3.621333) hotel (3.511817) barista (3.500209) wifi (3.398778) espresso (3.387655) mocha (3.377370) starbuck (3.268826) 
thai (3.250215) dish (3.054727) noodl (2.895842) curri (2.732648) sauc (2.536735) chines (2.528944) shrimp (2.440278) restaur (2.393253) sushi (2.371426) pad (2.357233) 
donut (3.651661) tour (3.465121) cigar (3.292848) car (3.178750) irish (3.172277) jerri (3.170077) fountain (3.024895) boat (2.885154) bed (2.863866) inclin (2.649623) 
kennywood (4.019854) cupcak (3.951681) macaron (3.731993) whiskey (3.633585) class (3.624763) ride (3.567588) yoga (3.519628) bakeri (3.472724) trader (3.402130) coaster (3.339790) 
burger (4.029376) brgr (2.937450) burgatori (2.857543) tessaro (2.846154) popcorn (2.794991) sushi (2.474811) salsa (2.438355) sashimi (2.423612) bun (2.397718) japanes (2.387389) 
shoe (3.849600) record (3.816095) brugg (3.479844) film (3.319672) mattress (3.209695) vintag (3.190850) danc (3.158230) marrow (3.148955) casino (3.146802) facial (3.133059) 
Error (train/valid/test) = 0.642258/1.258641/1.267666 (0.023440)
..................................................
energy after gradient step = 175329339.773970

Top words for each topic:
pizza (4.636486) gelato (3.659693) crust (3.601337) factori (3.571985) mineo (3.426487) eagl (3.364092) cheesecak (3.289342) stage (3.251382) hoagi (3.057954) instal (2.967910) 
pho (3.975580) hair (3.918868) stylist (3.760850) salon (3.706437) haircut (3.641627) gyro (3.625649) phipp (3.307845) pamela (3.194496) vietnames (3.187479) trail (2.954689) 
indian (3.798604) yogurt (3.264312) buffet (3.253233) naan (3.198274) cat (2.806454) froyo (2.551364) india (2.543263) razzi (2.507972) frozen (2.480815) samosa (2.437460) 
museum (4.213152) warhol (4.071422) exhibit (3.945796) cab (3.880625) andi (3.800412) stadium (3.619824) cone (3.512459) art (3.461132) waffl (3.438295) view (3.394914) 
coffe (4.812941) bagel (4.101726) crepe (3.906744) latt (3.725673) hotel (3.690270) barista (3.596805) espresso (3.528122) mocha (3.473294) wifi (3.457567) starbuck (3.358040) 
thai (3.227456) dish (3.192387) noodl (2.898103) curri (2.743084) sauc (2.654294) restaur (2.531014) chines (2.511949) shrimp (2.492012) meal (2.471318) chicken (2.437424) 
donut (3.817797) tour (3.573578) cigar (3.348375) car (3.337100) jerri (3.315144) irish (3.261180) fountain (3.163391) boat (2.936854) bed (2.922510) manicur (2.800113) 
kennywood (4.140343) cupcak (4.106686) macaron (3.815031) class (3.781413) yoga (3.745119) whiskey (3.702484) bakeri (3.655350) ride (3.625183) trader (3.523169) coaster (3.476089) 
burger (4.159929) brgr (3.012984) burgatori (2.942013) tessaro (2.917300) popcorn (2.844033) salsa (2.600353) taco (2.580158) sushi (2.544442) bun (2.497070) japanes (2.463587) 
shoe (3.988856) record (3.946162) brugg (3.594773) film (3.460613) vintag (3.353499) mattress (3.315179) danc (3.305275) cloth (3.278711) facial (3.274025) target (3.267069) 
Error (train/valid/test) = 0.637975/1.260115/1.269814 (0.023539)
..................................................
energy after gradient step = 173478119.341404

Top words for each topic:
pizza (5.110741) crust (3.732260) gelato (3.705744) mineo (3.580905) factori (3.501718) eagl (3.394504) cheesecak (3.381226) stage (3.351668) hoagi (3.324751) slice (3.103983) 
pho (4.128466) hair (4.067329) stylist (3.876655) salon (3.843388) haircut (3.801560) gyro (3.731057) vietnames (3.356819) phipp (3.340790) pamela (3.336107) cut (3.060363) 
indian (3.957328) buffet (3.447723) yogurt (3.441252) naan (3.353575) cat (2.863950) india (2.807309) razzi (2.720331) froyo (2.718192) samosa (2.588726) ethiopian (2.582530) 
museum (4.329770) warhol (4.144996) exhibit (4.069156) cab (3.992703) andi (3.864971) stadium (3.752963) view (3.652329) cone (3.644765) waffl (3.555862) art (3.534550) 
coffe (4.992340) bagel (4.188577) crepe (4.039427) hotel (4.026057) latt (3.836796) barista (3.730148) wifi (3.621088) espresso (3.616536) mocha (3.581350) starbuck (3.542832) 
thai (3.246141) dish (3.217782) noodl (2.803422) sauc (2.775703) curri (2.724847) restaur (2.718948) meal (2.660766) food (2.633388) chicken (2.554756) menu (2.552580) 
donut (3.849219) tour (3.722482) car (3.491776) cigar (3.451582) nail (3.405761) jerri (3.391717) irish (3.287349) manicur (3.178104) fountain (3.145025) shuttl (3.006218) 
cupcak (4.312549) kennywood (4.231093) macaron (3.997380) class (3.988201) yoga (3.932968) bakeri (3.799898) trader (3.729024) ride (3.700474) whiskey (3.687803) coaster (3.655434) 
burger (4.430498) taco (3.118294) burgatori (3.092055) brgr (3.033058) tessaro (2.987114) popcorn (2.964683) salsa (2.799291) sushi (2.711973) bun (2.649824) japanes (2.613246) 
shoe (4.147253) record (4.077615) brugg (3.639587) vintag (3.631960) film (3.588587) danc (3.584250) target (3.540162) casino (3.539274) mattress (3.519071) facial (3.517597) 
Error (train/valid/test) = 0.630589/1.262315/1.272560 (0.023603)
..................................................
energy after gradient step = 171883437.366111

Top words for each topic:
pizza (5.325892) crust (3.905593) gelato (3.827720) factori (3.622683) mineo (3.616526) eagl (3.558911) hoagi (3.483579) cheesecak (3.389199) slice (3.296403) stage (3.274916) 
pho (4.294255) hair (4.172671) salon (3.963035) stylist (3.941945) gyro (3.860333) haircut (3.839213) pamela (3.458739) phipp (3.450396) vietnames (3.423210) cut (3.179825) 
indian (4.077838) buffet (3.611057) yogurt (3.553473) naan (3.431329) cat (3.005220) india (2.928368) froyo (2.841059) razzi (2.799433) ethiopian (2.740182) samosa (2.701646) 
museum (4.420316) warhol (4.189298) exhibit (4.121028) cab (3.968455) andi (3.930026) stadium (3.848288) view (3.742698) cone (3.697046) waffl (3.659719) art (3.624184) 
coffe (5.099334) bagel (4.237402) crepe (4.124466) hotel (4.118889) latt (3.928335) barista (3.754327) espresso (3.723138) wifi (3.662202) mocha (3.621035) starbuck (3.585564) 
thai (3.307623) dish (3.265805) noodl (2.855454) sauc (2.836026) restaur (2.791529) meal (2.789724) curri (2.776552) menu (2.653825) chicken (2.645498) entre (2.633678) 
donut (3.957014) nail (3.903296) tour (3.797536) car (3.622912) cigar (3.546668) jerri (3.424312) irish (3.375282) manicur (3.367468) fountain (3.222978) librari (3.185441) 
cupcak (4.457080) kennywood (4.340800) class (4.194412) yoga (4.175162) macaron (4.038090) bakeri (3.973910) trader (3.811411) whiskey (3.756133) coaster (3.716986) ride (3.684878) 
burger (4.536787) taco (3.329486) brgr (3.170589) burgatori (3.152750) tessaro (3.035690) salsa (2.973127) sushi (2.934234) popcorn (2.922837) bun (2.778988) mexican (2.713163) 
shoe (4.272792) record (4.141794) danc (3.740294) brugg (3.721102) film (3.682219) casino (3.645125) vintag (3.619016) facial (3.612002) target (3.608286) cloth (3.591543) 
Error (train/valid/test) = 0.625826/1.262283/1.274457 (0.023676)
..................................................
energy after gradient step = 170234687.196660

Top words for each topic:
pizza (5.465481) crust (4.009595) gelato (3.856891) factori (3.715215) mineo (3.694249) eagl (3.635341) hoagi (3.610041) primanti (3.374683) cheesecak (3.351729) slice (3.328430) 
pho (4.343702) hair (4.241443) stylist (4.015258) salon (4.000612) haircut (3.940732) gyro (3.935878) vietnames (3.523744) phipp (3.517778) pamela (3.516708) hotcak (3.240031) 
indian (4.172022) buffet (3.725060) yogurt (3.688230) naan (3.532043) cat (3.107314) india (2.997458) froyo (2.905128) razzi (2.878038) ethiopian (2.855656) samosa (2.771823) 
museum (4.483468) warhol (4.252373) exhibit (4.207000) cab (4.068056) andi (3.999530) stadium (3.901791) view (3.817403) cone (3.727544) waffl (3.714316) art (3.639724) 
coffe (5.192760) bagel (4.304620) hotel (4.198572) crepe (4.177052) latt (3.953298) barista (3.839426) espresso (3.747243) wifi (3.717323) starbuck (3.690991) mocha (3.641695) 
dish (3.333227) thai (3.333127) sauc (2.909087) noodl (2.899298) meal (2.880477) restaur (2.854848) curri (2.809281) menu (2.730664) chicken (2.727168) food (2.710695) 
nail (4.165726) donut (4.038578) tour (3.834467) car (3.736321) cigar (3.603986) manicur (3.575635) librari (3.424118) jerri (3.419286) irish (3.381510) fountain (3.251664) 
cupcak (4.564219) kennywood (4.429118) class (4.329904) yoga (4.236747) macaron (4.123857) bakeri (3.954165) trader (3.930614) coaster (3.822225) whiskey (3.797183) instructor (3.757387) 
burger (4.683082) taco (3.548014) burgatori (3.228646) brgr (3.192755) tessaro (3.113885) salsa (3.112495) sushi (2.968168) popcorn (2.937423) mexican (2.893215) bun (2.875451) 
shoe (4.310340) record (4.196288) brugg (3.803499) film (3.776105) casino (3.758796) danc (3.753379) vintag (3.703204) cloth (3.688992) facial (3.659128) target (3.622507) 
Error (train/valid/test) = 0.621666/1.263177/1.277202 (0.023730)
..................................................
energy after gradient step = 169133605.254729

Top words for each topic:
pizza (5.603179) crust (4.065088) gelato (3.884100) mineo (3.798733) factori (3.667679) eagl (3.649992) hoagi (3.647646) primanti (3.507727) pepperoni (3.429117) slice (3.425022) 
pho (4.412964) hair (4.328408) salon (4.072777) stylist (4.055363) gyro (3.992165) haircut (3.955898) vietnames (3.604688) pamela (3.590533) phipp (3.575085) hotcak (3.338240) 
indian (4.286507) buffet (3.862203) yogurt (3.778355) naan (3.617638) cat (3.156370) india (3.070327) froyo (3.049572) razzi (3.014706) ethiopian (3.010814) samosa (2.916376) 
museum (4.557999) warhol (4.288782) exhibit (4.249431) cab (4.161168) andi (4.022906) stadium (3.960460) view (3.904532) cone (3.800533) waffl (3.783290) art (3.693873) 
coffe (5.273317) bagel (4.288754) hotel (4.265337) crepe (4.185806) latt (4.005472) barista (3.858405) espresso (3.801797) wifi (3.764327) mocha (3.699410) starbuck (3.697089) 
dish (3.430318) thai (3.350779) sauc (3.002654) meal (2.998495) noodl (2.964450) restaur (2.939810) curri (2.868267) chicken (2.822395) menu (2.818793) food (2.793414) 
nail (4.404407) donut (4.104002) tour (3.956130) car (3.805837) manicur (3.726855) cigar (3.650673) librari (3.536636) jerri (3.523041) irish (3.470998) shuttl (3.419120) 
cupcak (4.690889) kennywood (4.506113) yoga (4.400937) class (4.372921) macaron (4.236232) bakeri (4.115067) trader (3.997503) coaster (3.931984) instructor (3.913037) growler (3.887272) 
burger (4.813230) taco (3.862531) burgatori (3.322916) brgr (3.273490) salsa (3.252645) tessaro (3.185156) fri (3.101023) mexican (3.089474) popcorn (3.035265) sushi (2.987629) 
shoe (4.446457) record (4.251010) danc (3.885547) film (3.860807) vintag (3.857941) brugg (3.787855) theater (3.760960) target (3.730756) facial (3.723712) cloth (3.714808) 
Error (train/valid/test) = 0.616186/1.265967/1.279994 (0.023789)
..................................................
energy after gradient step = 168144692.259969

Top words for each topic:
pizza (5.714140) crust (4.098239) gelato (3.896882) mineo (3.809397) hoagi (3.715111) eagl (3.658232) factori (3.639939) primanti (3.626476) slice (3.450545) pepperoni (3.439153) 
pho (4.479540) hair (4.380236) salon (4.169624) stylist (4.094850) gyro (4.049225) haircut (4.008163) vietnames (3.657919) pamela (3.644820) phipp (3.616812) tram (3.345845) 
indian (4.411559) buffet (4.019504) yogurt (3.878394) naan (3.740371) cat (3.324377) india (3.197900) froyo (3.126622) ethiopian (3.121480) frozen (3.074739) razzi (3.071851) 
museum (4.599447) warhol (4.330927) exhibit (4.323126) cab (4.090755) andi (4.061247) stadium (4.019458) view (3.993907) cone (3.829587) waffl (3.815613) art (3.682997) 
coffe (5.317948) bagel (4.379373) hotel (4.341585) crepe (4.275179) latt (4.041921) barista (3.903157) espresso (3.818516) wifi (3.809627) starbuck (3.765712) mocha (3.713172) 
dish (3.506986) thai (3.383643) sauc (3.078962) meal (3.075709) noodl (3.001741) restaur (2.995471) chicken (2.923887) menu (2.898590) curri (2.883148) food (2.869365) 
nail (4.434556) donut (4.190754) car (3.957933) tour (3.901566) manicur (3.848406) cigar (3.708596) librari (3.646769) jerri (3.597305) polish (3.503805) irish (3.474310) 
cupcak (4.805632) kennywood (4.583329) class (4.503536) yoga (4.467509) macaron (4.271766) bakeri (4.180919) trader (4.061682) coaster (4.017975) instructor (3.982702) growler (3.949282) 
burger (4.957188) taco (4.059230) salsa (3.375907) brgr (3.364884) burgatori (3.357047) mexican (3.268397) fri (3.268287) tessaro (3.238146) bun (3.025247) sushi (3.021163) 
shoe (4.477612) record (4.377218) danc (3.943440) film (3.894738) vintag (3.893706) theater (3.872895) cloth (3.845895) brugg (3.844626) casino (3.799492) facial (3.799365) 
Error (train/valid/test) = 0.610914/1.267472/1.282089 (0.023850)
..................................................
energy after gradient step = 167097397.759033

Top words for each topic:
pizza (5.824458) crust (4.176332) gelato (3.941738) mineo (3.796951) hoagi (3.772187) primanti (3.715189) eagl (3.695778) factori (3.695214) pepperoni (3.605492) slice (3.486618) 
pho (4.514703) hair (4.433579) salon (4.183038) stylist (4.104149) gyro (4.092857) haircut (4.045127) pamela (3.709949) phipp (3.653507) vietnames (3.617395) hotcak (3.411134) 
indian (4.500941) buffet (4.112852) yogurt (3.979251) naan (3.816690) cat (3.339614) ethiopian (3.315227) india (3.310811) froyo (3.271102) razzi (3.221407) samosa (3.204507) 
museum (4.666428) warhol (4.385130) exhibit (4.364410) cab (4.229661) stadium (4.096300) andi (4.065538) view (4.060701) cone (3.879241) waffl (3.843646) art (3.722987) 
coffe (5.383780) hotel (4.414247) bagel (4.364060) crepe (4.252905) latt (4.069643) barista (3.932803) espresso (3.840230) wifi (3.835788) starbuck (3.828645) breakfast (3.746595) 
dish (3.614216) thai (3.433459) meal (3.142469) sauc (3.117833) restaur (3.068527) noodl (3.043526) menu (2.974093) chicken (2.966688) food (2.946217) curri (2.938782) 
nail (4.596044) donut (4.280854) car (4.023974) tour (4.015075) manicur (3.995614) cigar (3.817348) pedicur (3.796047) librari (3.744612) polish (3.714240) jerri (3.657706) 
cupcak (4.916351) kennywood (4.682174) yoga (4.668201) class (4.545798) macaron (4.327686) bakeri (4.300850) trader (4.187779) instructor (4.170059) coaster (4.140463) growler (4.051180) 
burger (5.073581) taco (4.228078) salsa (3.530444) burgatori (3.463898) fri (3.438857) mexican (3.427095) brgr (3.366757) tessaro (3.295285) sushi (3.100650) bun (3.090289) 
shoe (4.556636) record (4.346683) theater (4.020792) cloth (4.020505) danc (3.992922) vintag (3.962602) film (3.956925) casino (3.861826) target (3.837525) facial (3.828313) 
Error (train/valid/test) = 0.604644/1.269120/1.283397 (0.023866)
..................................................
energy after gradient step = 166351401.973513

Top words for each topic:
pizza (5.922694) crust (4.241880) gelato (3.991878) mineo (3.881089) hoagi (3.867053) primanti (3.844717) eagl (3.742790) factori (3.719225) pepperoni (3.644276) slice (3.567235) 
pho (4.575692) hair (4.482224) salon (4.253828) stylist (4.147322) gyro (4.125539) haircut (4.085580) pamela (3.742862) vietnames (3.682379) phipp (3.652755) hotcak (3.490360) 
indian (4.583621) buffet (4.211692) yogurt (4.071310) naan (3.943417) cat (3.465647) ethiopian (3.411346) india (3.399249) froyo (3.376952) razzi (3.293112) masala (3.280982) 
museum (4.721954) exhibit (4.436062) warhol (4.421817) cab (4.195873) andi (4.187494) stadium (4.170567) view (4.120104) cone (3.985179) waffl (3.892394) field (3.777231) 
coffe (5.451780) hotel (4.487584) bagel (4.385943) crepe (4.307411) latt (4.104304) barista (3.984493) breakfast (3.965122) espresso (3.905621) starbuck (3.872933) wifi (3.861852) 
dish (3.705179) thai (3.480177) meal (3.244532) sauc (3.180625) restaur (3.157410) noodl (3.098210) menu (3.065612) chicken (3.052589) food (3.046325) entre (3.002652) 
nail (4.670826) donut (4.303801) manicur (4.105108) car (4.073209) tour (4.063947) pedicur (3.966196) cigar (3.925567) polish (3.874428) librari (3.846225) jerri (3.694881) 
cupcak (5.034839) kennywood (4.770873) yoga (4.697552) class (4.618051) bakeri (4.463804) macaron (4.456610) trader (4.307852) instructor (4.229871) coaster (4.203456) growler (4.174176) 
burger (5.175979) taco (4.369274) salsa (3.639660) mexican (3.582459) fri (3.572007) burgatori (3.508322) brgr (3.442902) tessaro (3.311904) burrito (3.161474) sushi (3.156192) 
shoe (4.581928) record (4.409880) vintag (4.104886) danc (4.082216) cloth (4.080536) theater (4.078038) film (4.050518) casino (3.955910) bike (3.916267) facial (3.877176) 
Error (train/valid/test) = 0.596261/1.270405/1.285718 (0.023937)
..................................................
energy after gradient step = 165660340.113365

Top words for each topic:
pizza (5.998268) crust (4.242925) primanti (3.920366) gelato (3.905933) hoagi (3.895253) mineo (3.861339) pepperoni (3.725343) factori (3.675235) eagl (3.639346) slice (3.603504) 
pho (4.595850) hair (4.508058) salon (4.253354) gyro (4.153921) stylist (4.145018) haircut (4.085807) pamela (3.737754) vietnames (3.678387) phipp (3.611151) hotcak (3.496105) 
indian (4.698665) buffet (4.334127) yogurt (4.173493) naan (3.977508) cat (3.547862) froyo (3.470903) ethiopian (3.462861) india (3.438790) razzi (3.396440) masala (3.359711) 
museum (4.787138) warhol (4.501789) exhibit (4.499211) cab (4.288531) stadium (4.239871) view (4.186293) andi (4.173627) cone (3.945744) waffl (3.915223) field (3.783110) 
coffe (5.487810) hotel (4.552506) bagel (4.451461) crepe (4.371733) latt (4.173559) breakfast (4.095006) barista (4.012287) espresso (3.927242) starbuck (3.906308) wifi (3.897512) 
dish (3.778695) thai (3.541200) meal (3.323535) sauc (3.236438) restaur (3.213018) noodl (3.157493) menu (3.134422) chicken (3.131204) food (3.104731) entre (3.091529) 
nail (4.754934) donut (4.369378) manicur (4.180723) car (4.169939) pedicur (4.099760) tour (4.015851) cigar (3.937713) librari (3.924200) polish (3.893978) jerri (3.753011) 
cupcak (5.126235) yoga (4.867890) kennywood (4.822342) class (4.665869) bakeri (4.555260) macaron (4.533824) trader (4.387064) instructor (4.371988) coaster (4.272365) studio (4.238991) 
burger (5.274393) taco (4.502121) salsa (3.741490) mexican (3.711376) fri (3.666773) burgatori (3.553955) brgr (3.457487) tessaro (3.385598) burrito (3.282437) bun (3.231951) 
shoe (4.639742) record (4.421002) danc (4.136723) theater (4.134664) cloth (4.128697) vintag (4.044713) bike (4.017181) film (4.009803) casino (3.987852) target (3.895929) 
Error (train/valid/test) = 0.589332/1.272234/1.288162 (0.024006)
..................................................
energy after gradient step = 165094017.067327

Top words for each topic:
pizza (6.075108) crust (4.265744) primanti (3.996856) gelato (3.974901) hoagi (3.968974) mineo (3.909264) pepperoni (3.763561) eagl (3.730074) slice (3.647256) aiello (3.631276) 
pho (4.645923) hair (4.544515) salon (4.301907) gyro (4.189647) stylist (4.186027) haircut (4.124454) pamela (3.796372) vietnames (3.733365) phipp (3.618308) hotcak (3.519311) 
indian (4.767384) buffet (4.429911) yogurt (4.246184) naan (4.074439) ethiopian (3.651373) india (3.606029) cat (3.593545) froyo (3.538989) razzi (3.472343) masala (3.434376) 
museum (4.847303) exhibit (4.549762) warhol (4.513099) cab (4.319861) stadium (4.315267) view (4.263740) andi (4.210849) cone (4.075427) waffl (3.884579) bridg (3.865575) 
coffe (5.558521) hotel (4.580147) bagel (4.462976) crepe (4.412775) breakfast (4.192740) latt (4.188716) barista (4.058165) espresso (3.960053) starbuck (3.945488) wifi (3.936152) 
dish (3.864698) thai (3.603933) meal (3.378291) sauc (3.255627) restaur (3.250093) noodl (3.221750) menu (3.201925) entre (3.184063) chicken (3.177468) food (3.135993) 
nail (4.833975) donut (4.436288) manicur (4.260931) car (4.240234) pedicur (4.222506) librari (4.080775) polish (4.057023) tour (4.056367) cigar (4.036327) gel (3.901892) 
cupcak (5.228354) kennywood (4.939943) yoga (4.915815) class (4.711690) bakeri (4.685073) macaron (4.620444) trader (4.472279) instructor (4.458655) growler (4.378471) coaster (4.357846) 
burger (5.357000) taco (4.612684) salsa (3.845830) mexican (3.824189) fri (3.756100) burgatori (3.619540) brgr (3.503050) tessaro (3.412312) burrito (3.381709) bun (3.271881) 
shoe (4.647984) record (4.396121) danc (4.175777) vintag (4.158219) theater (4.157748) cloth (4.149722) casino (4.028543) film (4.021436) bike (3.995135) facial (3.913766) 
Error (train/valid/test) = 0.580986/1.275088/1.291610 (0.024111)
..................................................
energy after gradient step = 164570047.441650

Top words for each topic:
pizza (6.185445) crust (4.303546) primanti (4.086225) hoagi (4.011684) gelato (3.963292) mineo (3.935105) pepperoni (3.851241) slice (3.731079) eagl (3.711327) aiello (3.679120) 
pho (4.700621) hair (4.566408) salon (4.330619) gyro (4.235490) stylist (4.190358) haircut (4.160989) pamela (3.843716) vietnames (3.736422) phipp (3.557122) hotcak (3.520398) 
indian (4.844246) buffet (4.538098) yogurt (4.313615) naan (4.151152) ethiopian (3.680922) cat (3.654354) froyo (3.632415) india (3.548995) razzi (3.542302) masala (3.530221) 
museum (4.902989) exhibit (4.631018) warhol (4.587482) cab (4.365208) stadium (4.361385) view (4.346781) andi (4.262479) cone (4.116356) waffl (3.912901) field (3.900996) 
coffe (5.621131) hotel (4.640818) bagel (4.526671) crepe (4.460237) breakfast (4.274560) latt (4.248358) barista (4.115808) espresso (4.011030) starbuck (4.008664) wifi (3.984278) 
dish (3.957096) thai (3.675435) meal (3.466097) restaur (3.301650) sauc (3.292196) noodl (3.290234) menu (3.286607) entre (3.285763) chicken (3.233982) salad (3.221448) 
nail (4.862958) donut (4.463787) manicur (4.392486) car (4.311370) pedicur (4.259051) polish (4.164613) cigar (4.095221) librari (4.079707) tour (4.017339) gel (4.001696) 
cupcak (5.294040) yoga (5.011593) kennywood (4.964436) bakeri (4.753335) class (4.739461) macaron (4.655081) instructor (4.542194) trader (4.525737) studio (4.490869) growler (4.408168) 
burger (5.456728) taco (4.742611) salsa (3.940933) mexican (3.926311) fri (3.883309) burgatori (3.656786) brgr (3.566316) burrito (3.470529) tessaro (3.435528) margarita (3.379915) 
shoe (4.689241) record (4.364256) theater (4.263613) danc (4.215946) vintag (4.205549) cloth (4.164879) film (4.138286) casino (4.131211) bike (4.086056) target (3.926591) 
Error (train/valid/test) = 0.570547/1.278272/1.294128 (0.024190)
..................................................
energy after gradient step = 164090814.881548

Top words for each topic:
pizza (6.218486) crust (4.307269) primanti (4.131164) hoagi (4.058209) gelato (3.947026) mineo (3.913503) pepperoni (3.878043) slice (3.722307) aiello (3.695388) eagl (3.660827) 
pho (4.710763) hair (4.569119) salon (4.338772) gyro (4.246977) stylist (4.205963) haircut (4.159960) pamela (3.852444) vietnames (3.782914) hotcak (3.602689) phipp (3.525050) 
indian (4.940291) buffet (4.651280) yogurt (4.440180) naan (4.196264) ethiopian (3.776651) cat (3.774216) froyo (3.680901) india (3.680580) razzi (3.616225) masala (3.610302) 
museum (4.992689) exhibit (4.681408) warhol (4.626245) stadium (4.459792) cab (4.405980) view (4.379955) andi (4.306734) cone (4.154757) bridg (3.985434) waffl (3.924192) 
coffe (5.670836) hotel (4.680247) bagel (4.537045) crepe (4.497804) breakfast (4.371741) latt (4.289742) barista (4.143940) starbuck (4.043474) espresso (4.042895) wifi (4.037828) 
dish (4.061251) thai (3.734718) meal (3.539669) entre (3.371198) noodl (3.357816) menu (3.352307) restaur (3.339155) salad (3.322761) appet (3.303952) sauc (3.286647) 
nail (4.928914) donut (4.515985) manicur (4.431138) car (4.359841) pedicur (4.333543) cigar (4.156312) polish (4.155261) librari (4.075601) gel (4.064521) tour (3.849731) 
cupcak (5.412425) yoga (5.117448) kennywood (4.995884) bakeri (4.882751) class (4.799579) macaron (4.714672) trader (4.636089) instructor (4.635886) studio (4.562861) coaster (4.519122) 
burger (5.515552) taco (4.830997) salsa (4.023083) mexican (4.018207) fri (3.935208) burgatori (3.672113) brgr (3.580612) burrito (3.560785) tessaro (3.488245) margarita (3.459682) 
shoe (4.709841) record (4.378039) theater (4.295975) danc (4.249506) vintag (4.202635) cloth (4.188292) bike (4.102043) film (4.082647) casino (4.034231) target (4.022294) 
Error (train/valid/test) = 0.562385/1.281849/1.295571 (0.024250)
..................................................
energy after gradient step = 163629818.943304

Top words for each topic:
pizza (6.269771) crust (4.315973) primanti (4.172102) hoagi (4.077687) gelato (3.976694) mineo (3.950924) pepperoni (3.921835) slice (3.766526) aiello (3.710597) eagl (3.666986) 
pho (4.726888) hair (4.563251) salon (4.354274) gyro (4.249279) stylist (4.215932) haircut (4.187767) pamela (3.899035) vietnames (3.754851) hotcak (3.617534) phipp (3.608660) 
indian (5.010626) buffet (4.732785) yogurt (4.483345) naan (4.263192) ethiopian (3.885300) cat (3.799761) froyo (3.759093) india (3.740690) masala (3.697142) razzi (3.678195) 
museum (5.055583) exhibit (4.761221) warhol (4.691537) stadium (4.512522) cab (4.431608) view (4.419722) andi (4.348850) cone (4.227891) waffl (3.984780) field (3.976761) 
coffe (5.700866) hotel (4.691161) bagel (4.553582) crepe (4.464519) breakfast (4.419957) latt (4.330943) barista (4.183043) starbuck (4.113755) wifi (4.071939) espresso (4.068019) 
dish (4.123913) thai (3.796979) meal (3.583438) entre (3.449580) noodl (3.421462) menu (3.411421) appet (3.377157) restaur (3.371588) salad (3.346099) sauc (3.323329) 
nail (4.978348) donut (4.529336) manicur (4.491698) pedicur (4.433929) car (4.372932) polish (4.239739) librari (4.196392) cigar (4.182070) gel (4.127989) shuttl (3.843023) 
cupcak (5.495585) yoga (5.195811) kennywood (5.063125) bakeri (4.932305) class (4.815756) macaron (4.738599) instructor (4.693976) trader (4.691829) studio (4.652004) growler (4.537349) 
burger (5.564049) taco (4.889366) mexican (4.086599) salsa (4.061860) fri (3.972192) burgatori (3.746244) burrito (3.628378) brgr (3.572981) margarita (3.524295) tessaro (3.492364) 
shoe (4.740728) record (4.372661) theater (4.303576) danc (4.292455) vintag (4.209774) cloth (4.177905) film (4.141120) bike (4.137066) casino (4.105943) target (3.955555) 
Error (train/valid/test) = 0.554903/1.284026/1.297656 (0.024321)
..................................................
energy after gradient step = 163256239.430309

Top words for each topic:
pizza (6.311127) crust (4.315048) primanti (4.236772) hoagi (4.129398) pepperoni (3.979846) gelato (3.976965) mineo (3.931202) slice (3.815447) sandwich (3.734297) aiello (3.702835) 
pho (4.768727) hair (4.601203) salon (4.398450) gyro (4.286123) stylist (4.252599) haircut (4.220265) pamela (3.922343) vietnames (3.845587) hotcak (3.602685) phipp (3.582025) 
indian (5.075275) buffet (4.838532) yogurt (4.560367) naan (4.369735) ethiopian (3.972590) froyo (3.840476) cat (3.805969) india (3.785312) razzi (3.757672) masala (3.752975) 
museum (5.120280) exhibit (4.820391) warhol (4.753280) stadium (4.585690) cab (4.477868) view (4.450235) andi (4.405344) cone (4.279119) bridg (4.019270) basebal (4.013625) 
coffe (5.769865) hotel (4.776575) bagel (4.598791) crepe (4.520795) breakfast (4.487857) latt (4.381115) barista (4.231795) starbuck (4.144939) espresso (4.116747) wifi (4.098275) 
dish (4.190736) thai (3.868313) meal (3.662479) entre (3.551235) noodl (3.504675) menu (3.478005) restaur (3.453802) appet (3.448161) salad (3.386831) curri (3.380651) 
nail (5.033762) manicur (4.588360) donut (4.536170) pedicur (4.466182) car (4.392087) librari (4.282392) polish (4.221013) cigar (4.216768) gel (4.206901) mechan (3.948929) 
cupcak (5.566173) yoga (5.260891) kennywood (5.130464) bakeri (5.010374) macaron (4.887688) class (4.834160) instructor (4.783054) trader (4.740375) studio (4.733374) growler (4.618978) 
burger (5.619826) taco (4.969059) mexican (4.147508) salsa (4.132734) fri (4.003832) burgatori (3.746005) burrito (3.680494) brgr (3.627602) margarita (3.591171) tessaro (3.520674) 
shoe (4.710243) theater (4.367737) record (4.360514) danc (4.312243) vintag (4.187193) cloth (4.185411) bike (4.167598) film (4.135206) casino (4.066805) target (3.950663) 
Error (train/valid/test) = 0.545358/1.286436/1.301245 (0.024436)
..................................................
energy after gradient step = 163074848.537921

Top words for each topic:
pizza (6.326373) crust (4.361550) primanti (4.260418) hoagi (4.103643) pepperoni (3.974595) gelato (3.963908) mineo (3.939010) sandwich (3.817944) slice (3.801874) aiello (3.726482) 
pho (4.791253) hair (4.619375) salon (4.426040) gyro (4.263076) stylist (4.247416) haircut (4.224890) pamela (3.913280) vietnames (3.776034) hotcak (3.633812) phipp (3.552154) 
indian (5.161250) buffet (4.914189) yogurt (4.616935) naan (4.390133) ethiopian (4.023973) cat (3.963772) froyo (3.902388) india (3.865928) masala (3.817871) razzi (3.786802) 
museum (5.170743) exhibit (4.873900) warhol (4.791873) stadium (4.664977) cab (4.533141) view (4.496321) andi (4.424768) cone (4.312276) river (4.082312) field (4.074593) 
coffe (5.809175) hotel (4.787596) bagel (4.601623) breakfast (4.560687) crepe (4.549868) latt (4.420900) barista (4.276311) starbuck (4.169680) wifi (4.155982) espresso (4.132519) 
dish (4.273693) thai (3.938235) meal (3.705755) entre (3.628380) noodl (3.581082) menu (3.546869) restaur (3.519660) appet (3.518656) salad (3.496588) curri (3.443859) 
nail (5.057591) manicur (4.641083) pedicur (4.585620) donut (4.557218) car (4.411465) librari (4.384477) cigar (4.282753) gel (4.255403) polish (4.201691) mechan (4.018370) 
cupcak (5.631012) yoga (5.340964) kennywood (5.172218) bakeri (5.033801) macaron (4.860917) instructor (4.852442) class (4.838909) studio (4.803697) trader (4.792857) growler (4.691693) 
burger (5.644867) taco (5.020393) mexican (4.191383) salsa (4.184528) fri (4.014212) burgatori (3.771117) burrito (3.742872) margarita (3.625123) brgr (3.588853) tessaro (3.517181) 
shoe (4.731935) theater (4.442148) record (4.315624) danc (4.299031) vintag (4.228260) cloth (4.211139) bike (4.175630) casino (4.112621) film (4.084217) band (4.055310) 
Error (train/valid/test) = 0.536995/1.289049/1.304307 (0.024558)
..................................................
energy after gradient step = 162778336.218250

Top words for each topic:
pizza (6.372426) crust (4.393767) primanti (4.274948) hoagi (4.154191) pepperoni (4.033539) gelato (3.976143) mineo (3.961606) sandwich (3.910575) slice (3.820674) chees (3.722382) 
pho (4.814798) hair (4.635903) salon (4.466993) stylist (4.282664) gyro (4.273972) haircut (4.264113) pamela (3.949641) vietnames (3.870073) hotcak (3.620511) dr (3.596857) 
indian (5.224808) buffet (4.988686) yogurt (4.690718) naan (4.479628) ethiopian (4.084368) froyo (3.930191) cat (3.903996) masala (3.903968) india (3.898716) razzi (3.861571) 
museum (5.224657) exhibit (4.934267) warhol (4.859324) stadium (4.724140) cab (4.553231) andi (4.516552) view (4.514871) cone (4.364629) river (4.169422) basebal (4.090851) 
coffe (5.848207) hotel (4.789585) bagel (4.652864) breakfast (4.610776) crepe (4.572373) latt (4.465289) barista (4.299603) starbuck (4.209325) wifi (4.192222) espresso (4.184719) 
dish (4.332241) thai (3.991522) meal (3.766182) entre (3.704334) noodl (3.650116) menu (3.581672) appet (3.578877) restaur (3.574025) salad (3.538254) curri (3.509822) 
nail (5.013356) manicur (4.665590) pedicur (4.621699) donut (4.518500) car (4.402544) librari (4.387099) cigar (4.315452) gel (4.304433) polish (4.247036) mechan (4.083363) 
cupcak (5.703845) yoga (5.390588) kennywood (5.194255) bakeri (5.130461) macaron (4.991889) instructor (4.922407) studio (4.895483) class (4.856953) trader (4.833650) growler (4.738977) 
burger (5.716934) taco (5.088739) mexican (4.241251) salsa (4.220811) fri (4.044380) burgatori (3.814358) burrito (3.790139) margarita (3.682776) brgr (3.665104) tortilla (3.550118) 
shoe (4.757921) theater (4.456109) record (4.339008) danc (4.321357) vintag (4.286561) cloth (4.212981) bike (4.198515) film (4.138356) casino (4.124213) band (4.054528) 
Error (train/valid/test) = 0.527489/1.293294/1.306929 (0.024622)
..................................................
energy after gradient step = 162447623.577537

Top words for each topic:
pizza (6.396823) crust (4.392113) primanti (4.319217) hoagi (4.195742) pepperoni (4.082511) mineo (3.969602) sandwich (3.966889) gelato (3.952464) slice (3.840100) wing (3.786264) 
pho (4.849511) hair (4.667074) salon (4.510147) gyro (4.292723) stylist (4.283989) haircut (4.282189) pamela (3.973429) vietnames (3.794214) hotcak (3.695441) dr (3.573133) 
indian (5.285007) buffet (5.061682) yogurt (4.740457) naan (4.521748) ethiopian (4.173081) froyo (4.045883) india (3.994627) cat (3.982718) razzi (3.934384) masala (3.933445) 
museum (5.298979) exhibit (5.016448) warhol (4.899807) stadium (4.796645) view (4.607834) cab (4.576511) andi (4.505324) cone (4.423915) river (4.217969) basebal (4.176187) 
coffe (5.890741) hotel (4.859558) bagel (4.699535) breakfast (4.639070) crepe (4.618821) latt (4.510787) barista (4.341504) starbuck (4.248174) wifi (4.227169) espresso (4.200155) 
dish (4.414286) thai (4.055600) meal (3.816663) entre (3.782184) noodl (3.722514) appet (3.677323) menu (3.645034) restaur (3.570485) curri (3.561826) shrimp (3.558590) 
nail (5.059996) manicur (4.747794) pedicur (4.666942) donut (4.576614) car (4.427117) cigar (4.422640) librari (4.385278) gel (4.313807) polish (4.278317) mechan (4.147782) 
cupcak (5.760799) yoga (5.470908) kennywood (5.203102) bakeri (5.199179) macaron (5.034062) instructor (4.965436) studio (4.913176) trader (4.911322) class (4.852116) growler (4.760839) 
burger (5.771168) taco (5.161474) mexican (4.308652) salsa (4.286100) fri (4.064541) burrito (3.861421) burgatori (3.836703) margarita (3.758566) brgr (3.681143) tortilla (3.622503) 
shoe (4.741211) theater (4.487406) danc (4.358641) vintag (4.339299) record (4.260883) cloth (4.173014) bike (4.167245) casino (4.151150) film (4.126324) band (4.069780) 
Error (train/valid/test) = 0.516230/1.297595/1.312804 (0.024759)
..................................................
energy after gradient step = 162171552.996974

Top words for each topic:
pizza (6.442647) crust (4.390560) primanti (4.352627) hoagi (4.236050) pepperoni (4.106699) sandwich (4.028384) gelato (4.010102) mineo (3.983715) slice (3.872159) wing (3.838908) 
pho (4.889677) hair (4.699893) salon (4.555459) stylist (4.343427) haircut (4.334505) gyro (4.319433) pamela (3.980284) vietnames (3.927405) hotcak (3.720850) dr (3.672727) 
indian (5.338426) buffet (5.096848) yogurt (4.782139) naan (4.582458) ethiopian (4.195957) froyo (4.042450) cat (4.030496) india (4.022097) masala (4.015093) razzi (3.969897) 
museum (5.363576) exhibit (5.077004) warhol (4.934590) stadium (4.861476) view (4.640184) cab (4.594779) andi (4.593333) cone (4.467613) river (4.255339) basebal (4.129574) 
coffe (5.925081) hotel (4.885263) bagel (4.740706) breakfast (4.682005) crepe (4.667772) latt (4.558964) barista (4.399148) starbuck (4.304385) wifi (4.283648) espresso (4.232845) 
dish (4.498777) thai (4.127032) entre (3.870526) meal (3.865172) noodl (3.804347) appet (3.758594) menu (3.716452) curri (3.653585) sushi (3.635113) soup (3.626929) 
nail (5.066760) manicur (4.805181) pedicur (4.685734) donut (4.588255) car (4.462298) gel (4.444709) librari (4.416523) cigar (4.337792) polish (4.310079) mechan (4.250053) 
cupcak (5.818583) yoga (5.509866) kennywood (5.317981) bakeri (5.258544) instructor (5.059909) macaron (5.028559) trader (4.997172) studio (4.980229) class (4.862601) growler (4.827282) 
burger (5.837820) taco (5.222652) salsa (4.349727) mexican (4.349683) fri (4.117515) burrito (3.933574) burgatori (3.848972) margarita (3.817241) brgr (3.707059) tortilla (3.663006) 
shoe (4.712978) theater (4.498718) danc (4.372100) vintag (4.301596) record (4.270312) bike (4.197207) cloth (4.195387) casino (4.178399) band (4.169438) film (4.136859) 
Error (train/valid/test) = 0.504350/1.303240/1.317108 (0.024827)
..................................................
energy after gradient step = 161832154.661862

Top words for each topic:
pizza (6.462444) crust (4.407560) primanti (4.385821) hoagi (4.215052) pepperoni (4.125228) sandwich (4.054597) mineo (3.999545) gelato (3.956059) slice (3.927119) wing (3.871383) 
pho (4.928747) hair (4.729927) salon (4.582689) haircut (4.361228) stylist (4.350031) gyro (4.333859) pamela (3.978235) vietnames (3.903551) hotcak (3.793562) dr (3.693116) 
indian (5.389651) buffet (5.163202) yogurt (4.872633) naan (4.597200) ethiopian (4.267212) froyo (4.151044) india (4.075643) cat (4.035216) masala (4.030557) razzi (4.024048) 
museum (5.419570) exhibit (5.141445) warhol (5.020742) stadium (4.922421) view (4.650691) cab (4.609066) andi (4.596137) cone (4.504920) river (4.270176) basebal (4.241031) 
coffe (5.973113) hotel (4.891549) bagel (4.766307) breakfast (4.755256) crepe (4.727298) latt (4.615060) barista (4.430422) starbuck (4.325757) wifi (4.290128) espresso (4.256785) 
dish (4.556034) thai (4.178455) entre (3.932574) meal (3.901443) noodl (3.854847) appet (3.826964) sushi (3.768177) menu (3.716237) curri (3.702890) shrimp (3.669931) 
nail (5.089750) manicur (4.837251) pedicur (4.808454) donut (4.503861) librari (4.496185) cigar (4.431226) car (4.421744) gel (4.358928) repair (4.332841) mechan (4.253837) 
cupcak (5.845327) yoga (5.553895) kennywood (5.285561) bakeri (5.260265) macaron (5.155262) instructor (5.069688) studio (5.017541) trader (5.007608) growler (4.864493) class (4.837973) 
burger (5.862162) taco (5.262298) salsa (4.392754) mexican (4.389251) fri (4.140688) burrito (3.988887) burgatori (3.901269) margarita (3.838207) brgr (3.714030) tortilla (3.699846) 
shoe (4.722844) theater (4.501496) danc (4.369565) vintag (4.283525) casino (4.199858) band (4.190871) record (4.176225) cloth (4.148588) bike (4.139233) film (4.121663) 
Error (train/valid/test) = 0.495224/1.308503/1.319443 (0.024893)
..................................................
energy after gradient step = 161597560.476277

Top words for each topic:
pizza (6.511762) crust (4.438580) primanti (4.429894) hoagi (4.276888) pepperoni (4.149430) sandwich (4.085900) mineo (4.021246) gelato (4.020525) slice (3.972426) wing (3.911663) 
pho (4.958494) hair (4.738480) salon (4.604290) stylist (4.376350) haircut (4.372152) gyro (4.335401) pamela (3.972153) vietnames (3.929209) hotcak (3.740533) dr (3.719807) 
indian (5.452316) buffet (5.212348) yogurt (4.909392) naan (4.723127) ethiopian (4.340537) froyo (4.168143) masala (4.142774) india (4.134176) cat (4.068990) razzi (4.064837) 
museum (5.477572) exhibit (5.186907) warhol (5.027625) stadium (4.965649) view (4.650815) andi (4.649565) cab (4.612989) cone (4.568935) river (4.307765) zoo (4.213131) 
coffe (6.008525) hotel (4.912694) bagel (4.825342) breakfast (4.816034) crepe (4.763348) latt (4.662943) barista (4.504033) starbuck (4.376516) wifi (4.354961) espresso (4.305017) 
dish (4.619828) thai (4.230285) entre (3.987105) noodl (3.924970) meal (3.919759) appet (3.903897) sushi (3.846957) curri (3.769340) menu (3.749343) shrimp (3.723118) 
nail (5.113576) manicur (4.849933) pedicur (4.735167) donut (4.500765) librari (4.462082) car (4.447769) gel (4.445398) cigar (4.398369) mechan (4.366434) repair (4.354780) 
cupcak (5.898052) yoga (5.609738) kennywood (5.345957) bakeri (5.324227) instructor (5.158705) macaron (5.065268) studio (5.059928) trader (5.023623) class (4.861667) growler (4.846676) 
burger (5.913125) taco (5.303853) salsa (4.425100) mexican (4.424915) fri (4.175183) burrito (4.043095) burgatori (3.913731) margarita (3.869244) brgr (3.752232) tortilla (3.720503) 
shoe (4.717436) theater (4.471107) danc (4.376358) vintag (4.302366) band (4.257681) record (4.215358) bike (4.187576) casino (4.151153) cloth (4.148059) film (4.131088) 
Error (train/valid/test) = 0.485124/1.314602/1.323796 (0.024976)
..................................................
energy after gradient step = 161430166.715315

Top words for each topic:
pizza (6.543474) primanti (4.458296) crust (4.436627) hoagi (4.262454) pepperoni (4.163354) sandwich (4.136025) mineo (4.042896) slice (3.984212) gelato (3.976002) wing (3.943881) 
pho (4.982999) hair (4.752740) salon (4.615896) haircut (4.398958) stylist (4.388329) gyro (4.337637) pamela (3.980200) vietnames (3.939445) hotcak (3.829176) dr (3.740356) 
indian (5.507539) buffet (5.281190) yogurt (4.953109) naan (4.708134) ethiopian (4.415883) froyo (4.212992) masala (4.146587) india (4.144310) razzi (4.114534) cat (4.097437) 
museum (5.542437) exhibit (5.217519) warhol (5.117860) stadium (5.050855) view (4.694616) andi (4.664800) cab (4.612387) cone (4.537112) river (4.378999) basebal (4.331558) 
coffe (6.012910) hotel (4.904483) breakfast (4.889647) bagel (4.846590) crepe (4.806938) latt (4.688185) barista (4.502795) starbuck (4.425602) wifi (4.381031) espresso (4.332058) 
dish (4.665008) thai (4.279028) entre (4.044299) noodl (3.981524) meal (3.971971) appet (3.966230) sushi (3.927979) curri (3.831586) shrimp (3.796309) menu (3.779440) 
nail (5.074617) manicur (4.935412) pedicur (4.861159) donut (4.552538) librari (4.500421) gel (4.494267) car (4.441363) cigar (4.433293) repair (4.431769) mechan (4.318982) 
cupcak (5.963701) yoga (5.663434) bakeri (5.368357) kennywood (5.326169) instructor (5.173298) macaron (5.163130) studio (5.145511) trader (5.092075) growler (4.910177) coaster (4.904196) 
burger (5.956074) taco (5.349724) salsa (4.476401) mexican (4.448216) fri (4.193254) burrito (4.054579) burgatori (3.940476) margarita (3.900947) brgr (3.773551) tortilla (3.734317) 
shoe (4.684627) theater (4.510500) danc (4.372305) vintag (4.324108) band (4.228378) film (4.183149) thrift (4.135429) bike (4.130965) casino (4.126004) cloth (4.125776) 
Error (train/valid/test) = 0.475188/1.318146/1.329554 (0.025116)
..................................................
energy after gradient step = 161312055.340116

Top words for each topic:
pizza (6.573008) primanti (4.478428) crust (4.453030) hoagi (4.305391) sandwich (4.205456) pepperoni (4.203121) mineo (4.043641) slice (4.003621) gelato (3.983465) wing (3.953438) 
pho (5.005762) hair (4.752827) salon (4.643891) stylist (4.412263) haircut (4.408408) gyro (4.353454) pamela (4.000259) vietnames (3.970380) dr (3.803106) hotcak (3.786530) 
indian (5.550446) buffet (5.318519) yogurt (5.003850) naan (4.787241) ethiopian (4.449738) froyo (4.278959) india (4.246144) masala (4.214908) razzi (4.171465) samosa (4.150345) 
museum (5.596537) exhibit (5.281341) warhol (5.122113) stadium (5.081573) view (4.731223) andi (4.674325) cab (4.631264) cone (4.584877) river (4.386448) basebal (4.294382) 
coffe (6.064000) hotel (4.948156) breakfast (4.890825) bagel (4.851441) crepe (4.833988) latt (4.739200) barista (4.579131) starbuck (4.458457) wifi (4.403943) espresso (4.375866) 
dish (4.702070) thai (4.334615) entre (4.092180) noodl (4.035220) meal (4.028440) appet (4.020006) sushi (4.005910) curri (3.889960) shrimp (3.858419) menu (3.783008) 
nail (5.054941) manicur (4.921072) pedicur (4.825392) repair (4.524890) gel (4.520290) donut (4.520274) librari (4.507525) car (4.458172) mechan (4.414326) cigar (4.368658) 
cupcak (5.987368) yoga (5.687200) bakeri (5.426078) kennywood (5.368756) instructor (5.221080) macaron (5.162510) studio (5.153473) trader (5.090419) coaster (4.927873) growler (4.856871) 
burger (5.984952) taco (5.380471) salsa (4.503096) mexican (4.469506) fri (4.198281) burrito (4.082344) burgatori (3.949483) margarita (3.902497) brgr (3.753003) tortilla (3.737555) 
shoe (4.678726) theater (4.509984) danc (4.341905) vintag (4.287046) band (4.259083) casino (4.221061) jewelri (4.152476) film (4.148894) thrift (4.118105) record (4.093569) 
Error (train/valid/test) = 0.467363/1.322101/1.333827 (0.025219)
..................................................
energy after gradient step = 161080122.533813

Top words for each topic:
pizza (6.585768) primanti (4.502384) crust (4.459137) hoagi (4.311168) pepperoni (4.238324) sandwich (4.233220) mineo (4.056495) slice (4.010701) gelato (4.000921) wing (3.946101) 
pho (5.033998) hair (4.746588) salon (4.671864) haircut (4.441961) stylist (4.430205) gyro (4.376687) vietnames (3.996530) pamela (3.989591) hotcak (3.822117) dr (3.805982) 
indian (5.604846) buffet (5.346557) yogurt (5.053669) naan (4.816754) ethiopian (4.507044) masala (4.308368) froyo (4.303375) india (4.236312) razzi (4.219606) samosa (4.199425) 
museum (5.645639) exhibit (5.330675) warhol (5.183955) stadium (5.147367) view (4.745767) andi (4.700047) cone (4.621647) cab (4.590749) river (4.407240) basebal (4.372662) 
coffe (6.101641) breakfast (4.917047) hotel (4.912857) bagel (4.888059) crepe (4.868186) latt (4.775410) barista (4.578393) starbuck (4.486673) wifi (4.416128) espresso (4.392882) 
dish (4.759782) thai (4.382685) entre (4.142955) noodl (4.090596) sushi (4.063381) meal (4.056436) appet (4.032472) curri (3.920532) shrimp (3.891589) soup (3.808001) 
nail (5.013288) manicur (4.994171) pedicur (4.883385) librari (4.555478) gel (4.538080) repair (4.513407) donut (4.507754) car (4.442207) mechan (4.426844) cigar (4.379508) 
cupcak (6.030637) yoga (5.738666) bakeri (5.480311) kennywood (5.414142) instructor (5.246578) macaron (5.222750) studio (5.164244) trader (5.139647) coaster (4.944597) growler (4.918611) 
burger (5.996516) taco (5.408914) salsa (4.536113) mexican (4.486007) fri (4.197160) burrito (4.112080) burgatori (3.973553) margarita (3.937672) brgr (3.813618) tortilla (3.791578) 
shoe (4.678476) theater (4.478020) danc (4.349595) vintag (4.341256) band (4.311639) thrift (4.178857) film (4.171228) jewelri (4.164968) casino (4.153912) cloth (4.106673) 
Error (train/valid/test) = 0.459270/1.326791/1.339334 (0.025354)
..................................................
energy after gradient step = 160916180.430984

Top words for each topic:
pizza (6.610667) primanti (4.522079) crust (4.468454) hoagi (4.329729) pepperoni (4.278018) sandwich (4.252859) mineo (4.072826) gelato (4.031452) slice (4.030889) chees (3.968096) 
pho (5.051907) hair (4.787334) salon (4.692656) haircut (4.452368) stylist (4.444926) gyro (4.365405) pamela (4.003334) vietnames (3.962056) dr (3.872152) hotcak (3.862829) 
indian (5.650427) buffet (5.396233) yogurt (5.072902) naan (4.875799) ethiopian (4.542281) froyo (4.356256) india (4.320283) masala (4.312961) razzi (4.257132) abay (4.230288) 
museum (5.681593) exhibit (5.369003) warhol (5.223685) stadium (5.196727) view (4.738122) andi (4.716699) cab (4.652485) cone (4.623899) river (4.453839) basebal (4.395002) 
coffe (6.110501) breakfast (4.957810) hotel (4.921140) bagel (4.908549) crepe (4.880995) latt (4.806714) barista (4.630799) starbuck (4.522379) wifi (4.452391) espresso (4.404891) 
dish (4.801728) thai (4.426085) entre (4.210460) noodl (4.143834) sushi (4.120629) meal (4.081607) appet (4.069214) curri (3.988609) shrimp (3.957621) soup (3.837703) 
manicur (5.035764) nail (4.938338) pedicur (4.860218) repair (4.610954) donut (4.555540) gel (4.543894) librari (4.520293) mechan (4.494256) cigar (4.479966) car (4.444308) 
cupcak (6.042240) yoga (5.754841) bakeri (5.496971) kennywood (5.399464) instructor (5.288857) macaron (5.254248) studio (5.227017) trader (5.093334) coaster (4.980173) growler (4.923996) 
burger (6.019991) taco (5.436991) salsa (4.550399) mexican (4.499088) fri (4.201405) burrito (4.097744) burgatori (3.977069) margarita (3.933230) tortilla (3.794286) brgr (3.779267) 
shoe (4.614533) theater (4.462775) vintag (4.365395) danc (4.349013) band (4.327998) thrift (4.198547) jewelri (4.188295) film (4.170735) casino (4.164348) cloth (4.115279) 
Error (train/valid/test) = 0.450806/1.333023/1.344557 (0.025450)
..................................................
energy after gradient step = 160748044.752140

Top words for each topic:
pizza (6.634484) primanti (4.542134) crust (4.485999) hoagi (4.349329) sandwich (4.301485) pepperoni (4.269267) mineo (4.070235) slice (4.040320) gelato (4.022095) chees (3.993499) 
pho (5.062413) hair (4.796352) salon (4.698584) haircut (4.476122) stylist (4.458335) gyro (4.357626) vietnames (4.021387) pamela (3.917663) dr (3.839049) hotcak (3.821836) 
indian (5.705723) buffet (5.420714) yogurt (5.111748) naan (4.893795) ethiopian (4.589516) froyo (4.399056) masala (4.344111) india (4.302012) razzi (4.282740) abay (4.280054) 
museum (5.726693) exhibit (5.413122) warhol (5.267356) stadium (5.245392) view (4.772553) andi (4.716994) cone (4.634001) cab (4.606544) river (4.460486) basebal (4.427437) 
coffe (6.139369) breakfast (4.951713) hotel (4.933115) crepe (4.930703) bagel (4.920182) latt (4.848045) barista (4.669083) starbuck (4.566302) wifi (4.483935) espresso (4.448243) 
dish (4.849669) thai (4.480021) entre (4.257851) noodl (4.197155) sushi (4.188501) meal (4.138954) appet (4.103115) curri (4.024101) shrimp (4.010412) soup (3.879898) 
manicur (5.049482) pedicur (4.940708) nail (4.930442) repair (4.658326) gel (4.604741) donut (4.550516) librari (4.534540) mechan (4.505354) car (4.452486) cigar (4.384760) 
cupcak (6.089105) yoga (5.802343) bakeri (5.506433) kennywood (5.405644) instructor (5.291125) macaron (5.274520) studio (5.206318) trader (5.201419) coaster (4.980538) growler (4.979645) 
burger (6.027956) taco (5.461424) salsa (4.573869) mexican (4.528125) fri (4.198647) burrito (4.108348) burgatori (3.986432) margarita (3.947930) brgr (3.832931) beer (3.828081) 
shoe (4.588783) theater (4.452022) band (4.353765) danc (4.338056) vintag (4.326297) thrift (4.188069) casino (4.183884) jewelri (4.153415) cloth (4.117037) film (4.105475) 
Error (train/valid/test) = 0.443105/1.338661/1.348163 (0.025576)
..................................................
energy after gradient step = 160620684.416784

Top words for each topic:
pizza (6.661314) primanti (4.561814) crust (4.483942) hoagi (4.362117) sandwich (4.353369) pepperoni (4.302745) mineo (4.107315) slice (4.043392) gelato (4.039192) chees (4.016085) 
pho (5.086608) hair (4.798006) salon (4.715828) haircut (4.491906) stylist (4.474004) gyro (4.350037) vietnames (3.996884) pamela (3.896006) dr (3.883559) massag (3.850414) 
indian (5.734892) buffet (5.423222) yogurt (5.144440) naan (4.937707) ethiopian (4.620411) froyo (4.430480) india (4.400115) masala (4.397888) razzi (4.326984) abay (4.321835) 
museum (5.765041) exhibit (5.447302) stadium (5.293666) warhol (5.278298) view (4.792466) andi (4.728209) cab (4.563687) cone (4.562890) river (4.487219) trail (4.456081) 
coffe (6.122905) breakfast (5.018181) crepe (4.952962) bagel (4.943340) hotel (4.892248) latt (4.879876) barista (4.688355) starbuck (4.600787) wifi (4.509564) espresso (4.446328) 
dish (4.893119) thai (4.525073) entre (4.308636) noodl (4.241045) sushi (4.234813) meal (4.155365) appet (4.144145) curri (4.080316) shrimp (4.040336) soup (3.899166) 
manicur (5.079152) pedicur (4.948040) nail (4.862928) repair (4.709579) gel (4.573900) mechan (4.541336) librari (4.515428) donut (4.497681) car (4.468371) cigar (4.410133) 
cupcak (6.121856) yoga (5.839662) bakeri (5.533032) kennywood (5.456537) instructor (5.376731) macaron (5.277085) studio (5.275758) trader (5.160056) coaster (4.999953) groceri (4.922717) 
burger (6.057645) taco (5.493555) salsa (4.601428) mexican (4.553591) fri (4.206424) burrito (4.149866) burgatori (4.000407) margarita (3.972736) beer (3.928305) tortilla (3.832303) 
shoe (4.596240) theater (4.399945) band (4.363777) vintag (4.349162) danc (4.339246) thrift (4.251780) jewelri (4.160176) casino (4.133811) film (4.119969) cloth (4.109350) 
Error (train/valid/test) = 0.435449/1.343029/1.351311 (0.025697)
..................................................
energy after gradient step = 160527019.766826

Top words for each topic:
pizza (6.693027) primanti (4.584305) crust (4.513176) hoagi (4.401866) sandwich (4.384296) pepperoni (4.327663) mineo (4.104434) chees (4.079897) gelato (4.047894) slice (4.047708) 
pho (5.110263) hair (4.803725) salon (4.741178) haircut (4.513004) stylist (4.489630) gyro (4.335771) vietnames (4.035503) dr (3.896712) hotcak (3.888159) massag (3.875182) 
indian (5.758791) buffet (5.464177) yogurt (5.164379) naan (4.944799) ethiopian (4.655257) froyo (4.461567) masala (4.412257) india (4.366071) razzi (4.355119) abay (4.341327) 
museum (5.795544) exhibit (5.487430) stadium (5.332691) warhol (5.327907) view (4.751571) andi (4.714000) cone (4.617292) river (4.515589) cab (4.500636) zoo (4.497536) 
coffe (6.155634) breakfast (5.043893) crepe (4.970292) bagel (4.948035) hotel (4.901518) latt (4.900372) barista (4.704668) starbuck (4.621979) wifi (4.513445) espresso (4.473926) 
dish (4.933794) thai (4.562563) entre (4.352595) noodl (4.301915) sushi (4.291551) meal (4.179669) appet (4.167158) curri (4.134338) shrimp (4.087754) soup (3.937979) 
manicur (5.084769) pedicur (4.958168) nail (4.896499) repair (4.720491) gel (4.596011) mechan (4.576316) donut (4.491507) librari (4.488085) car (4.455825) pedi (4.395316) 
cupcak (6.129359) yoga (5.849785) bakeri (5.538540) kennywood (5.418117) instructor (5.352027) macaron (5.322550) studio (5.269301) trader (5.219715) coaster (4.956030) growler (4.942791) 
burger (6.077968) taco (5.521926) salsa (4.617968) mexican (4.582329) fri (4.228508) burrito (4.177631) burgatori (4.023075) beer (4.020401) margarita (3.989208) brgr (3.862463) 
shoe (4.555799) theater (4.437823) band (4.373525) danc (4.330702) vintag (4.318515) thrift (4.232419) jewelri (4.227890) casino (4.143393) film (4.089697) cloth (4.083893) 
Error (train/valid/test) = 0.427457/1.348260/1.356174 (0.025822)
..................................................
energy after gradient step = 160311535.213626

Top words for each topic:
pizza (6.721848) primanti (4.598823) crust (4.524117) sandwich (4.436986) hoagi (4.416595) pepperoni (4.353064) mineo (4.158050) chees (4.116618) slice (4.061082) gelato (4.051381) 
pho (5.117323) hair (4.808026) salon (4.756504) haircut (4.527918) stylist (4.503705) gyro (4.340537) vietnames (4.033045) dr (3.929168) massag (3.895704) appoint (3.868254) 
indian (5.796852) buffet (5.520109) yogurt (5.177517) naan (5.001942) ethiopian (4.706328) froyo (4.510975) masala (4.468292) india (4.441870) razzi (4.392441) abay (4.381618) 
museum (5.825335) exhibit (5.525470) stadium (5.367914) warhol (5.338123) view (4.749336) andi (4.713147) river (4.539951) trail (4.513826) ballpark (4.509531) cone (4.495358) 
coffe (6.156582) breakfast (5.034573) crepe (4.987272) bagel (4.981049) latt (4.940469) hotel (4.890194) barista (4.754265) starbuck (4.656662) wifi (4.542694) pancak (4.531242) 
dish (4.963815) thai (4.604687) entre (4.402328) noodl (4.329038) sushi (4.307212) appet (4.184170) meal (4.169047) curri (4.160932) shrimp (4.115826) soup (3.970218) 
manicur (5.115592) pedicur (5.010755) nail (4.903002) repair (4.741534) mechan (4.611359) gel (4.610124) librari (4.454280) donut (4.454222) cigar (4.424491) car (4.421740) 
cupcak (6.153603) yoga (5.864883) bakeri (5.555403) kennywood (5.484761) instructor (5.419653) macaron (5.348508) studio (5.299597) trader (5.224761) coaster (5.037508) groceri (4.944746) 
burger (6.106544) taco (5.540533) salsa (4.635652) mexican (4.589587) fri (4.244507) burrito (4.183587) beer (4.102485) burgatori (4.038526) margarita (4.012172) tortilla (3.857442) 
shoe (4.529985) theater (4.432999) band (4.377750) danc (4.335535) thrift (4.292707) vintag (4.292173) casino (4.213673) jewelri (4.206851) film (4.101056) cloth (4.052412) 
Error (train/valid/test) = 0.420660/1.352823/1.360649 (0.025923)
