corpus = data_madi.gz
latentReg = 0.000000
lambda = 2.000000
K = 10

nUsers = 11698, nItems = 2308, nRatings = 43698

Error w/ offset term only (train/valid/test) = 1.555711/1.561098/1.548624 (0.030236)
Error w/ offset and bias (train/valid/test) = 0.773809/1.344517/1.338658 (0.030265)

..................................................
energy after gradient step = 46331536.134779

Top words for each topic:
blend (0.538160) board (0.533438) cater (0.526095) remind (0.514835) meet (0.503535) american (0.490552) smoke (0.471905) spectacular (0.466379) negat (0.459986) access (0.455904) 
monro (0.606739) cater (0.565366) origin (0.539784) cozi (0.510215) correct (0.476525) couldnt (0.475069) perform (0.472021) low (0.471686) laid (0.469113) afford (0.465229) 
spring (0.572713) genuin (0.527539) either (0.511508) milwauke (0.498127) bought (0.487052) union (0.480154) multipl (0.474732) hipster (0.473781) boil (0.461693) cloth (0.446435) 
sometim (0.529826) quesadilla (0.504458) convers (0.502519) fail (0.492022) uw (0.457095) mushi (0.455362) shoe (0.455033) limit (0.451255) earlier (0.432141) sourc (0.417675) 
soggi (0.551311) youd (0.492665) smile (0.468848) whi (0.458390) cash (0.438758) gorgeous (0.437035) countri (0.430639) damn (0.425165) refil (0.417444) mcdonald (0.408296) 
extens (0.559709) ahead (0.554459) repair (0.501951) mac (0.501142) salon (0.481507) step (0.481218) carri (0.480938) section (0.474333) manner (0.451851) lost (0.448231) 
enough (0.604469) featur (0.563307) offic (0.524038) kinda (0.519229) fit (0.506240) chair (0.498894) nacho (0.495185) guacamol (0.490747) dumpl (0.483033) ahead (0.466495) 
improv (0.559548) badger (0.487917) flat (0.473220) frequent (0.467708) fee (0.458306) equal (0.449453) pad (0.447310) rock (0.442732) nois (0.426675) futur (0.415410) 
center (0.686916) lucki (0.686373) hint (0.640218) cab (0.600319) although (0.549172) flavorless (0.514840) report (0.509455) pass (0.506219) into (0.503006) facil (0.498663) 
belli (0.637767) rich (0.524780) simpli (0.512979) less (0.504115) expans (0.479594) pad (0.479310) discov (0.470905) crazi (0.470719) english (0.459041) lobster (0.455979) 
Error (train/valid/test) = 1.147634/1.333775/1.311855 (0.029150)
..................................................
energy after gradient step = 46176179.501847

Top words for each topic:
brussel (1.228319) saigon (1.129283) sip (1.030997) herb (1.003338) milkshak (0.959914) calm (0.945887) beyond (0.922138) fool (0.918385) grow (0.808601) load (0.802204) 
thick (1.075466) flank (0.975462) shes (0.949424) potenti (0.912163) ground (0.898068) doctor (0.868803) fianc (0.832575) bay (0.827882) perhap (0.804135) micki (0.803300) 
bump (1.327146) culver (1.039626) tom (0.974308) sangria (0.959130) verona (0.952938) soy (0.948286) patient (0.884662) lazi (0.874608) cheesecak (0.863803) scotch (0.849153) 
neat (1.120100) whip (0.960975) madtown (0.912473) contrast (0.911075) yay (0.900548) success (0.887513) carpet (0.859483) plant (0.848612) refund (0.842776) 16 (0.838311) 
cultur (1.128412) shape (1.019161) funki (0.933375) anywher (0.906132) famous (0.903664) shuttl (0.890927) killer (0.859843) atwood (0.832865) shame (0.831369) central (0.800259) 
broccoli (1.127201) oili (1.068297) child (1.027673) checkout (0.978267) couch (0.901106) crappi (0.893088) sunni (0.885543) california (0.872737) togeth (0.841847) squeez (0.829909) 
fianc (1.143348) equip (0.928052) itll (0.915984) background (0.909463) bunki (0.899025) dens (0.865950) grandma (0.845737) layer (0.833751) gear (0.826400) miso (0.822605) 
gnocchi (1.021895) bank (0.954229) california (0.938902) brandi (0.915747) togeth (0.894348) privat (0.880640) dislik (0.859734) jukebox (0.857687) fee (0.856866) phenomen (0.846409) 
depart (0.949113) tripl (0.937828) picki (0.935823) promis (0.908974) histori (0.906163) awar (0.900859) track (0.877032) opportun (0.871242) collect (0.870463) sent (0.858483) 
hype (1.071739) fountain (1.000358) none (0.975510) film (0.920854) kimchi (0.885260) takara (0.884214) al (0.881600) target (0.849449) english (0.841673) tag (0.835332) 
Error (train/valid/test) = 0.905127/1.306942/1.282414 (0.028578)
..................................................
energy after gradient step = 46114365.309133

Top words for each topic:
brussel (1.384418) saigon (1.313205) sip (1.262276) grow (1.158852) milkshak (1.157305) gnocchi (1.145716) maintain (1.025848) beyond (1.004999) younger (0.954478) prosciutto (0.947094) 
initi (1.145069) micki (1.138104) asylum (1.133738) appropri (1.112521) shes (1.110504) luck (1.083502) potenti (1.079841) homey (1.070244) anywher (1.021553) devil (1.008653) 
introduc (1.509131) patient (1.291736) sangria (1.194605) ya (1.159244) path (1.157785) tom (1.156677) shoulder (1.137011) bump (1.116176) partner (1.069987) regardless (1.037152) 
neat (1.295040) mushi (1.258234) nom (1.178783) 16 (1.135324) dude (1.085808) gym (1.063047) holiday (1.046459) syrup (1.045839) fail (1.044995) masala (1.043576) 
shuttl (1.520561) cultur (1.302833) terrac (1.193404) shape (1.191981) spread (1.122914) browni (1.117462) inch (1.062380) chop (1.002635) eno (1.001248) atwood (0.998339) 
broccoli (1.412334) sunni (1.222967) daisi (1.217230) inch (1.216398) steer (1.144545) repair (1.102049) pan (1.089074) trek (1.024339) cure (1.019426) walnut (0.987866) 
bunki (1.463186) frite (1.241683) bookstor (1.133479) facebook (1.086351) itll (1.066850) chile (1.051291) fianc (1.013287) 18 (0.974042) handl (0.967265) alcohol (0.950171) 
owl (1.330201) cabbag (1.289937) privat (1.167834) fee (1.140806) under (1.137127) slaw (1.121103) rangoon (1.084591) stir (1.051348) bank (1.034949) sent (1.026713) 
track (1.407893) bay (1.297408) sprout (1.166959) aspect (1.151589) favor (1.125331) histori (1.113439) remark (1.099709) promis (1.091856) bead (1.069502) camp (1.064053) 
fountain (1.403167) film (1.316782) gigant (1.264286) hype (1.224837) english (1.138025) greatest (1.104027) cinema (1.086905) catch (1.050346) tag (1.028701) none (1.025299) 
Error (train/valid/test) = 0.799648/1.313004/1.288089 (0.028700)
..................................................
energy after gradient step = 46067513.229957

Top words for each topic:
brussel (1.777973) saigon (1.473142) zoo (1.257234) milkshak (1.256563) doughnut (1.237557) recal (1.229254) setup (1.216030) sip (1.200867) hospit (1.194605) beyond (1.188225) 
titl (1.470782) homey (1.329356) san (1.323485) appropri (1.296899) shes (1.257117) hook (1.176214) luck (1.147694) thick (1.146603) jean (1.131458) gracious (1.128061) 
path (1.644391) tom (1.375543) ventur (1.342982) introduc (1.310712) hype (1.307886) shoulder (1.306611) bump (1.281584) partner (1.244905) nut (1.243281) ya (1.229242) 
neat (1.477127) dead (1.447498) arugula (1.395294) mushi (1.392655) nom (1.386624) known (1.289181) uw (1.241528) gym (1.234544) shake (1.215678) dick (1.178277) 
shuttl (1.709173) cultur (1.690010) terrac (1.456836) massiv (1.327039) tex (1.291050) naan (1.198796) slaw (1.197535) spread (1.163781) paul (1.160916) drank (1.097825) 
steer (1.550948) sunni (1.398376) togeth (1.387597) inch (1.362586) clinic (1.249504) imposs (1.239716) air (1.226924) leg (1.207151) clientel (1.201687) anywher (1.156316) 
control (1.495241) bunki (1.471836) frite (1.428544) alcohol (1.349506) chile (1.271048) pud (1.245630) wasabi (1.241562) desert (1.209959) bookstor (1.184166) non (1.168051) 
sake (1.395666) comparison (1.393695) phenomen (1.296872) cabbag (1.241091) convinc (1.231657) fee (1.227365) degre (1.217410) rangoon (1.211648) barber (1.194276) instal (1.175685) 
track (1.498210) stare (1.324409) theater (1.323840) camp (1.308845) cab (1.261415) depart (1.242279) anytim (1.236209) remark (1.220933) octopus (1.187762) picki (1.169970) 
fountain (1.784506) film (1.567897) plantain (1.323690) overload (1.264725) none (1.262951) genuin (1.227390) hype (1.220617) venu (1.199599) vietnames (1.192732) greatest (1.183300) 
Error (train/valid/test) = 0.710896/1.329703/1.309295 (0.030027)
..................................................
energy after gradient step = 46017047.849267

Top words for each topic:
brussel (1.580569) harvest (1.398931) grow (1.373635) saigon (1.341395) calm (1.308893) recal (1.277548) setup (1.244739) sip (1.229465) adjust (1.217095) primarili (1.211761) 
appropri (1.453001) san (1.417868) shes (1.376714) homey (1.376612) titl (1.365812) falafel (1.271947) stink (1.271708) initi (1.235308) steve (1.227342) heritag (1.213568) 
monro (1.473751) path (1.421335) introduc (1.417268) partner (1.405927) tom (1.380864) nut (1.343356) hype (1.273599) ventur (1.254040) tab (1.249572) graze (1.249370) 
dead (1.716322) nom (1.661140) mushi (1.377246) neat (1.370336) pesto (1.328189) whip (1.300785) tasteless (1.289413) breast (1.285313) pop (1.262542) laugh (1.227524) 
shuttl (1.862273) cultur (1.518424) barista (1.486064) empanada (1.357373) terrac (1.350070) naan (1.340083) drank (1.287561) spread (1.263469) target (1.228301) paul (1.227541) 
omg (1.544842) steer (1.539161) cinnamon (1.415536) sunni (1.367261) clientel (1.329994) boot (1.318655) clinic (1.314926) vote (1.287556) broccoli (1.263183) pan (1.260209) 
bunki (1.515579) pud (1.510920) desert (1.506285) bookstor (1.421270) alcohol (1.419471) frite (1.357483) lose (1.350239) noisi (1.349059) jambalaya (1.320582) non (1.314300) 
sake (1.571622) rangoon (1.466150) comparison (1.429567) newspap (1.353277) 21 (1.308947) 5star (1.302587) attitud (1.301781) cabbag (1.292453) doctor (1.291548) whiskey (1.289324) 
theater (1.749905) track (1.690100) stare (1.595783) sub (1.440688) spanish (1.368999) minor (1.301118) camp (1.261756) depart (1.256826) cab (1.249931) laugh (1.243431) 
fountain (1.792670) film (1.633143) hype (1.559148) intim (1.468591) greatest (1.410076) written (1.333444) narrow (1.321646) cinema (1.279417) genuin (1.262019) plantain (1.247976) 
Error (train/valid/test) = 0.650464/1.344369/1.321725 (0.030201)
..................................................
energy after gradient step = 45961739.252312

Top words for each topic:
adjust (1.585651) grow (1.541243) encourag (1.503777) brussel (1.449510) text (1.417918) gnocchi (1.376520) humbl (1.374395) 1520 (1.362611) hide (1.336426) freshest (1.332056) 
appropri (1.707370) gracious (1.677685) homey (1.582793) micki (1.431650) devil (1.426642) titl (1.349763) steve (1.340853) initi (1.330300) jean (1.311319) san (1.283406) 
yarn (1.559589) bump (1.498077) nut (1.463580) tab (1.460622) blow (1.427411) tornado (1.382845) august (1.375501) ventur (1.372440) path (1.364711) root (1.350193) 
whip (1.615911) dead (1.601212) mushi (1.592410) neat (1.417267) gym (1.404502) pesto (1.402956) tasteless (1.402494) dude (1.367651) laugh (1.360646) central (1.356436) 
shuttl (1.917811) barista (1.750288) terrac (1.642532) empanada (1.630466) paul (1.496714) scoop (1.474768) naan (1.432122) caus (1.382646) bigger (1.374736) weari (1.357177) 
steer (1.758420) cinnamon (1.593798) soap (1.577108) omg (1.574858) distinct (1.509886) sunni (1.467046) minim (1.449758) clinic (1.431170) resist (1.413947) belgian (1.401798) 
bookstor (1.810212) bunki (1.708107) non (1.663574) wasabi (1.594307) desert (1.565016) lazi (1.455073) meatbal (1.438261) protein (1.433986) frite (1.429026) control (1.425017) 
comparison (1.581372) sake (1.475187) kill (1.455894) attitud (1.439052) degre (1.427253) habanero (1.378498) shouldnt (1.374564) 5star (1.364994) 21 (1.358786) doctor (1.354435) 
theater (1.819558) stare (1.742973) track (1.737098) laugh (1.710492) cab (1.594452) sub (1.590171) explan (1.405672) depart (1.403920) distanc (1.334002) tikka (1.312571) 
intim (1.683042) island (1.609037) dust (1.521624) feet (1.511617) film (1.487222) fountain (1.478477) written (1.440856) narrow (1.406298) spell (1.391244) hype (1.385583) 
Error (train/valid/test) = 0.561454/1.371722/1.363364 (0.031295)
..................................................
energy after gradient step = 45917854.946334

Top words for each topic:
adjust (1.766703) brussel (1.580326) humbl (1.564912) grow (1.512773) butteri (1.512029) iphon (1.507810) 1520 (1.474554) key (1.468352) blend (1.441134) encourag (1.425915) 
appropri (1.858777) devil (1.733935) homey (1.642896) potenti (1.578528) initi (1.563061) bank (1.521310) key (1.505323) steve (1.479551) micki (1.465921) jean (1.460129) 
yarn (1.865169) path (1.702112) nut (1.669960) introduc (1.662665) tornado (1.633118) natt (1.605469) tab (1.586793) ricotta (1.551451) sangria (1.502489) hype (1.456228) 
dead (1.883473) whip (1.654937) gym (1.619325) pesto (1.615397) brows (1.591831) checkin (1.583663) stool (1.550491) venu (1.495983) mushi (1.494244) neat (1.471970) 
shuttl (1.904439) paul (1.889293) barista (1.867661) terrac (1.824397) naan (1.599551) empanada (1.595111) cultur (1.478676) zero (1.473294) caus (1.470634) websit (1.411491) 
soap (1.878287) cinnamon (1.841825) pedicur (1.838620) steer (1.818231) omg (1.718716) minim (1.626652) boot (1.600304) ha (1.567243) broccoli (1.566819) bus (1.566541) 
bookstor (1.937057) desert (1.855003) non (1.761109) bunki (1.711442) wasabi (1.658511) gay (1.627394) noisi (1.623129) pud (1.544043) partner (1.526353) control (1.492065) 
comparison (1.638217) groupon (1.540368) lao (1.511642) habanero (1.507314) rangoon (1.503257) court (1.473901) jerk (1.465120) fudg (1.462133) attitud (1.444686) owl (1.444156) 
theater (2.088356) cab (1.901530) track (1.787407) stare (1.708734) laugh (1.671330) sub (1.661506) liquor (1.587113) tikka (1.512646) distract (1.498872) po (1.422408) 
written (1.943352) intim (1.808653) film (1.771150) feet (1.670453) repair (1.647320) gyro (1.598415) fountain (1.590698) spell (1.573071) packer (1.572555) china (1.548141) 
Error (train/valid/test) = 0.503523/1.402370/1.387707 (0.031627)
..................................................
energy after gradient step = 45867102.868182

Top words for each topic:
butteri (1.718319) massag (1.699429) humbl (1.659512) everybodi (1.636436) prosciutto (1.626055) iphon (1.624571) gnocchi (1.617916) brussel (1.589864) text (1.584295) until (1.571537) 
micki (1.760386) initi (1.730895) homey (1.722852) devil (1.707233) appropri (1.659538) pita (1.521687) potenti (1.520706) plantain (1.498468) distanc (1.481628) heavili (1.446914) 
path (1.873537) yarn (1.821859) introduc (1.720958) nut (1.718241) hype (1.638966) tornado (1.634596) verona (1.586693) respect (1.585815) natt (1.577373) notch (1.537516) 
pesto (2.009429) venu (1.863198) checkin (1.839208) stool (1.819089) dead (1.777744) central (1.773209) 90 (1.665733) gym (1.604332) whip (1.583611) assum (1.576870) 
terrac (2.060888) target (1.970549) barista (1.955906) paul (1.898365) shuttl (1.879487) naan (1.765117) caus (1.720568) weari (1.607782) children (1.594142) bisqu (1.592858) 
pedicur (2.098477) boot (1.912226) soap (1.886735) broccoli (1.852014) cinnamon (1.828441) vet (1.788881) bus (1.707324) safe (1.678753) minim (1.660888) omg (1.626420) 
non (1.963884) gay (1.909725) desert (1.899740) pud (1.768475) bunki (1.768174) bookstor (1.720609) noisi (1.677125) lazi (1.650981) partner (1.631139) frite (1.610239) 
comparison (1.813484) court (1.797259) habanero (1.680030) jerk (1.671785) privat (1.605206) fudg (1.574588) gourmet (1.484805) screen (1.482610) michael (1.481639) barber (1.472063) 
cab (2.306407) theater (2.164906) sub (1.834712) stare (1.707878) tikka (1.690655) track (1.531366) distract (1.505712) laugh (1.494279) bike (1.469091) camp (1.454779) 
gyro (1.934182) greek (1.853399) ring (1.829298) intim (1.826412) creat (1.784385) written (1.704631) perform (1.691946) fountain (1.679556) china (1.659185) repair (1.651639) 
Error (train/valid/test) = 0.459087/1.428725/1.416873 (0.032922)
..................................................
energy after gradient step = 45805009.750897

Top words for each topic:
massag (1.956895) everybodi (1.853885) iphon (1.851384) adjust (1.753198) beet (1.735800) butteri (1.676572) grow (1.639833) encourag (1.638979) brussel (1.638165) bear (1.598297) 
homey (1.760926) devil (1.743799) appropri (1.729924) ala (1.682463) access (1.666484) initi (1.649558) micki (1.617882) steve (1.592593) potenti (1.577778) meant (1.552271) 
yarn (2.148038) path (1.897898) tornado (1.785407) august (1.714554) ya (1.688440) nut (1.648116) dr (1.611950) tour (1.593958) natt (1.590352) respect (1.587995) 
venu (2.041667) pesto (1.961550) central (1.891227) brisket (1.831489) dead (1.829151) mushi (1.823698) spacious (1.814871) alley (1.810727) period (1.778152) assum (1.696970) 
target (2.257255) terrac (2.132734) shuttl (2.069215) naan (2.007231) barista (2.000080) caus (1.849120) chowder (1.838476) paul (1.812901) children (1.754027) empanada (1.750493) 
pedicur (2.397937) soap (2.129789) boot (2.068227) broccoli (2.061924) cinnamon (2.008478) vet (1.945367) salon (1.899457) express (1.894369) bus (1.862790) cab (1.822510) 
gay (2.045679) desert (1.959121) brioch (1.839609) bookstor (1.833971) non (1.819760) jambalaya (1.777034) bunki (1.709688) frite (1.654885) pud (1.647924) ravioli (1.633735) 
jerk (1.783021) sent (1.750882) dotti (1.625996) kill (1.608080) pot (1.551386) court (1.550737) stir (1.541354) habanero (1.534254) promis (1.524016) cha (1.508701) 
cab (2.456966) theater (2.195772) sub (2.061825) lasagna (1.813336) tikka (1.740330) movi (1.726430) stare (1.677922) bike (1.653602) gas (1.645877) liquor (1.631854) 
gyro (2.290959) perform (1.903914) intim (1.846638) awar (1.816165) repair (1.783745) union (1.779798) china (1.763798) greek (1.757538) written (1.751570) greatest (1.737329) 
Error (train/valid/test) = 0.418311/1.456656/1.444396 (0.033693)
..................................................
energy after gradient step = 45743889.475152

Top words for each topic:
massag (2.261255) everybodi (1.968017) adjust (1.920283) trader (1.741230) grow (1.737348) iphon (1.684571) text (1.652924) beet (1.615533) bear (1.613341) salon (1.604601) 
devil (1.938667) micki (1.833199) pita (1.829812) access (1.819721) homey (1.813636) steve (1.787961) quaint (1.782768) potenti (1.780363) goat (1.760419) ala (1.719863) 
yarn (2.336320) ramen (1.928707) path (1.888797) tornado (1.885612) nut (1.797000) dr (1.696443) notch (1.693768) tab (1.691927) graze (1.689716) tour (1.667768) 
venu (2.072583) checkin (2.048821) dead (1.956611) pesto (1.886725) brisket (1.875326) spacious (1.814504) inn (1.764633) whip (1.744774) shoe (1.741081) mushi (1.735581) 
target (2.575131) terrac (2.363013) paul (2.136671) shuttl (2.121609) barista (2.013015) weari (1.985674) naan (1.904449) chowder (1.899287) lobbi (1.866452) zero (1.837335) 
pedicur (2.575948) boot (2.122859) soap (2.060091) express (2.057259) salon (2.055925) broccoli (2.028200) vet (1.932594) bus (1.900594) nail (1.896305) freezer (1.848319) 
gay (2.172880) desert (2.012770) bookstor (2.003268) bunki (1.979891) anytim (1.853777) ravioli (1.851548) jambalaya (1.839646) frite (1.811223) brioch (1.788032) alright (1.784394) 
jerk (1.845388) pho (1.710259) pad (1.708555) cha (1.682932) merchant (1.657968) kill (1.633912) dotti (1.625633) comparison (1.610820) habanero (1.609370) stir (1.600607) 
cab (2.552088) theater (2.520029) sub (2.155289) movi (1.826554) tikka (1.753784) lasagna (1.751222) liquor (1.739609) gas (1.731335) bike (1.715272) belgian (1.654795) 
gyro (2.580472) perform (2.085726) union (2.036183) common (1.980886) written (1.976692) fountain (1.945183) repair (1.894745) ring (1.829733) earlier (1.816385) greek (1.804374) 
Error (train/valid/test) = 0.390240/1.477341/1.465485 (0.034080)
..................................................
energy after gradient step = 45676584.342130

Top words for each topic:
massag (2.373778) adjust (1.965642) everybodi (1.953575) trader (1.891976) stylist (1.861972) bagel (1.786977) iphon (1.772283) beet (1.748937) librari (1.706927) drove (1.706795) 
micki (1.910401) pita (1.871605) homey (1.864082) walmart (1.818685) devil (1.810157) access (1.773683) ala (1.765150) goat (1.762244) yoga (1.743551) quaint (1.739392) 
yarn (2.334925) ramen (2.166850) tornado (2.165906) nut (1.941755) path (1.858963) natt (1.784024) tour (1.783804) graze (1.733890) notch (1.723160) tab (1.722174) 
venu (2.285464) pesto (2.127932) dead (2.019195) brisket (1.967139) brows (1.963174) checkin (1.938639) spacious (1.869687) alley (1.843341) whip (1.825908) inn (1.800104) 
target (2.587084) terrac (2.471140) paul (2.275911) naan (2.261648) shuttl (2.200029) barista (2.043828) lobbi (2.011951) weari (2.001098) wifi (1.967344) caus (1.820919) 
pedicur (2.738787) salon (2.268879) boot (2.256800) broccoli (2.143869) soap (2.120056) nail (2.080914) bus (2.066793) vet (2.058885) express (2.056158) freezer (1.966865) 
gay (2.199537) bunki (2.081190) bookstor (2.013027) desert (1.967541) pud (1.965246) ravioli (1.948895) frite (1.941431) jambalaya (1.875238) brioch (1.853375) ale (1.790129) 
jerk (1.994715) pho (1.946000) merchant (1.916078) pad (1.883649) children (1.774591) mickey (1.723665) cha (1.719984) owl (1.690654) kill (1.677535) ian (1.670791) 
cab (2.778403) theater (2.633566) sub (2.281688) bike (2.061212) movi (2.055729) lasagna (1.985951) liquor (1.847866) gas (1.809303) belgian (1.793330) woodman (1.722133) 
gyro (2.797442) perform (2.124748) union (2.109756) fountain (2.044800) repair (2.023730) common (1.965712) written (1.922615) ring (1.918184) greek (1.894406) earlier (1.883993) 
Error (train/valid/test) = 0.373023/1.487660/1.480168 (0.034505)
..................................................
energy after gradient step = 45587723.846020

Top words for each topic:
massag (2.654522) stylist (2.114260) adjust (2.027395) trader (2.014146) hair (2.000837) joe (1.998640) crepe (1.991741) librari (1.965337) bradburi (1.955486) barber (1.953466) 
walmart (2.044783) devil (1.973911) pita (1.955272) homey (1.914618) quaint (1.841918) goat (1.811569) micki (1.808844) access (1.793102) dumpl (1.785754) heritag (1.784250) 
ramen (2.591987) yarn (2.556943) tour (2.322124) tornado (2.169740) path (1.911670) natt (1.902572) dentist (1.849326) espresso (1.829622) tab (1.791086) dr (1.787667) 
venu (2.236510) brows (2.125842) pesto (2.100501) brisket (2.085717) mustard (2.077662) gym (2.014856) dead (1.967848) spacious (1.940446) whip (1.925812) alley (1.897805) 
target (2.773826) terrac (2.647706) paul (2.474189) shuttl (2.417500) naan (2.396516) barista (2.270595) lobbi (2.247490) wifi (2.168738) weari (2.047872) caus (1.987996) 
pedicur (2.929537) boot (2.502213) salon (2.427749) manicur (2.319641) nail (2.317088) vet (2.288373) soap (2.116304) broccoli (2.066111) indian (1.989069) bus (1.981792) 
bunki (2.234138) gay (2.209373) desert (2.144298) frite (2.122117) brioch (2.061005) ravioli (2.054636) jambalaya (2.029462) ale (2.019613) bookstor (1.941322) horchata (1.854184) 
pho (2.197330) merchant (2.174894) jerk (2.149569) owl (1.974079) ian (1.907088) pad (1.884272) stir (1.841004) sent (1.832895) mickey (1.817810) cod (1.816746) 
cab (2.940686) theater (2.765130) sub (2.517116) movi (2.374826) bike (2.338659) lasagna (2.330021) liquor (2.030676) gas (1.991943) belgian (1.899685) sundanc (1.863941) 
gyro (3.005698) fountain (2.387663) perform (2.317761) ring (2.208176) union (2.164238) repair (2.134254) kimchi (2.058082) greek (1.978676) asian (1.945226) korean (1.937852) 
Error (train/valid/test) = 0.357016/1.511138/1.502327 (0.036017)
..................................................
energy after gradient step = 45489531.736248

Top words for each topic:
massag (3.028856) stylist (2.487436) hair (2.410110) trader (2.229734) bagel (2.207947) bradburi (2.202385) barber (2.190177) crepe (2.180865) librari (2.150800) wax (2.135047) 
walmart (2.337592) pita (2.095808) yoga (2.063443) devil (2.022047) monti (1.993141) steve (1.919311) initi (1.887127) homey (1.883482) ala (1.864068) falafel (1.840633) 
ramen (2.846644) yarn (2.734496) tour (2.396060) tornado (2.368131) natt (2.014361) graze (2.004089) espresso (1.988564) dentist (1.955435) nut (1.952682) knit (1.927010) 
mustard (2.370285) shoe (2.296617) pesto (2.222153) gym (2.194127) brisket (2.133997) venu (2.128779) brows (2.126080) zoo (2.121713) whip (2.084900) class (2.052155) 
target (2.857291) terrac (2.779060) shuttl (2.670233) naan (2.615838) lobbi (2.569786) paul (2.530346) wifi (2.317259) barista (2.146296) indian (2.135786) muramoto (2.006706) 
pedicur (2.974549) boot (2.654125) nail (2.580033) soap (2.414309) manicur (2.392441) salon (2.351100) vet (2.306735) broccoli (2.201264) tire (2.198203) express (2.141837) 
bunki (2.417508) gay (2.381799) ale (2.258577) frite (2.189800) brioch (2.109416) desert (2.100088) bookstor (2.019495) irish (1.994055) ravioli (1.989678) pud (1.962089) 
pho (2.435446) ian (2.245837) merchant (2.220796) jerk (2.200417) owl (2.018197) pad (2.005397) mickey (1.942140) wing (1.928595) cod (1.910934) thai (1.853622) 
cab (3.180382) theater (2.909674) movi (2.743426) sub (2.658676) bike (2.561441) lasagna (2.312863) popcorn (2.092864) liquor (2.064019) gas (1.980177) song (1.973657) 
gyro (3.144926) union (2.316463) fountain (2.305604) korean (2.222448) ring (2.191034) asian (2.112040) china (2.108121) greek (2.081100) repair (2.050494) perform (2.018929) 
Error (train/valid/test) = 0.338843/1.527361/1.525925 (0.036567)
..................................................
energy after gradient step = 45368718.591193

Top words for each topic:
massag (3.148493) stylist (2.783427) hair (2.644240) bagel (2.517437) haircut (2.509883) crepe (2.483885) barber (2.483747) bradburi (2.355283) trader (2.341425) wax (2.336909) 
walmart (2.253510) yoga (2.182887) pita (2.173132) monti (2.166752) dumpl (2.081556) devil (2.070247) steve (2.059246) falafel (2.053872) goat (2.037217) ala (2.017968) 
ramen (3.064335) yarn (2.846698) tour (2.513932) tornado (2.443704) nut (2.246544) graze (2.204892) natt (2.161051) knit (2.115660) espresso (2.084223) dr (1.991420) 
mustard (2.694588) gym (2.524692) venu (2.507037) brows (2.342506) anim (2.301680) zoo (2.294083) class (2.284534) shoe (2.278398) whip (2.239460) pesto (2.227859) 
terrac (3.065742) target (3.049974) naan (2.741269) shuttl (2.729074) paul (2.607227) lobbi (2.577766) indian (2.446985) wifi (2.414171) barista (2.259775) airport (2.239259) 
pedicur (3.108624) nail (2.850664) boot (2.809888) manicur (2.714630) salon (2.585316) soap (2.534947) polish (2.428079) vet (2.393752) tire (2.368474) express (2.272124) 
gay (2.477938) pud (2.252459) brioch (2.244497) ale (2.244214) bunki (2.214360) bookstor (2.210486) desert (2.209004) frite (2.204522) ravioli (2.139895) irish (2.047683) 
pho (2.696717) ian (2.488089) merchant (2.311714) pad (2.299005) jerk (2.296511) mickey (2.110785) wing (2.073047) thai (2.047828) owl (1.983225) lao (1.966406) 
cab (3.234980) theater (3.078088) sub (2.884200) movi (2.830465) bike (2.734614) lasagna (2.241186) woodman (2.143942) liquor (2.118000) popcorn (2.104411) gas (2.047455) 
gyro (3.238784) korean (2.361619) asian (2.282446) union (2.269871) ring (2.266514) fountain (2.210195) china (2.176181) kimchi (2.171593) perform (2.102996) greek (2.095707) 
Error (train/valid/test) = 0.327579/1.541600/1.535525 (0.036486)
..................................................
energy after gradient step = 45231400.097407

Top words for each topic:
massag (3.384275) stylist (2.909494) haircut (2.888900) bagel (2.872874) hair (2.840499) appoint (2.707641) crepe (2.663157) trader (2.564536) wax (2.539756) barber (2.504026) 
yoga (2.306952) walmart (2.276548) pita (2.252181) monti (2.238235) dumpl (2.159185) falafel (2.140035) goat (2.073391) devil (2.057510) studio (2.049134) steve (2.020283) 
ramen (3.166669) yarn (2.888225) tornado (2.626471) tour (2.519732) graze (2.473438) nut (2.276478) knit (2.148517) natt (2.126663) espresso (2.117081) umami (2.113411) 
mustard (2.925313) venu (2.683896) gym (2.554500) zoo (2.545134) scone (2.519816) brows (2.418845) class (2.410316) bed (2.405215) pesto (2.398504) shoe (2.386649) 
target (3.066622) terrac (3.036458) shuttl (2.898350) naan (2.897032) paul (2.688595) wifi (2.685619) lobbi (2.661288) indian (2.599158) barista (2.427576) airport (2.417842) 
pedicur (3.170608) nail (3.108743) boot (2.776183) manicur (2.729003) vet (2.611662) salon (2.542004) tire (2.522668) soap (2.378911) express (2.265224) polish (2.264970) 
gay (2.447112) ale (2.357516) bunki (2.321093) pud (2.303943) ravioli (2.251842) irish (2.200142) frite (2.196616) brioch (2.193812) desert (2.176576) bookstor (2.136382) 
pho (2.911298) ian (2.552975) merchant (2.479567) wing (2.366796) pad (2.362691) jerk (2.337157) thai (2.299999) mickey (2.142044) cod (2.045119) stir (1.983952) 
cab (3.415042) theater (3.212448) movi (3.072881) sub (2.999093) bike (2.919801) woodman (2.366667) liquor (2.274598) lasagna (2.240457) popcorn (2.200055) sundanc (2.190043) 
gyro (3.295400) korean (2.574303) asian (2.511715) union (2.425647) ring (2.255442) fountain (2.243742) greek (2.184161) repair (2.173560) kimchi (2.164285) parthenon (2.157252) 
Error (train/valid/test) = 0.324866/1.561227/1.546170 (0.036650)
..................................................
energy after gradient step = 45059307.769606

Top words for each topic:
massag (3.495576) hair (3.269910) bagel (3.146229) stylist (3.115075) haircut (3.099761) appoint (2.864729) crepe (2.864190) salon (2.770453) barber (2.703557) wax (2.682107) 
yoga (2.527455) monti (2.470202) pita (2.381281) walmart (2.341097) dumpl (2.287063) falafel (2.283639) studio (2.135966) devil (2.131472) diner (2.106948) micki (2.054288) 
ramen (3.258288) yarn (2.881888) tour (2.780871) graze (2.688253) tornado (2.659866) umami (2.334380) knit (2.293322) natt (2.279395) breweri (2.237761) nut (2.204139) 
mustard (3.167849) gym (2.931324) zoo (2.763474) venu (2.758156) scone (2.725937) class (2.685410) bed (2.652871) shoe (2.637394) anim (2.478061) toy (2.419671) 
target (3.274006) terrac (3.156156) shuttl (2.976812) naan (2.900575) indian (2.871624) wifi (2.862284) paul (2.798455) lobbi (2.794409) barista (2.659988) desk (2.624663) 
pedicur (3.241811) nail (3.216106) manicur (2.987770) boot (2.881840) tire (2.705929) salon (2.642207) german (2.563054) soap (2.519731) vet (2.513407) polish (2.509384) 
ale (2.571618) gay (2.448432) ravioli (2.425048) bunki (2.377375) irish (2.257947) brioch (2.222789) salsa (2.196202) desert (2.174031) pud (2.158686) bookstor (2.149336) 
pho (3.062035) wing (2.690189) ian (2.661669) thai (2.467313) pad (2.461818) jerk (2.444328) merchant (2.376725) vietnames (2.127999) owl (2.086761) cod (2.041607) 
cab (3.443127) theater (3.361116) bike (3.158762) movi (3.118137) sub (3.009345) woodman (2.389660) liquor (2.373853) ticket (2.329447) sundanc (2.327448) lasagna (2.278127) 
gyro (3.317086) korean (2.720894) asian (2.654449) ring (2.377384) perform (2.319438) union (2.310477) parthenon (2.306238) fountain (2.297337) repair (2.288348) greek (2.274530) 
Error (train/valid/test) = 0.319429/1.571526/1.556084 (0.037466)
..................................................
energy after gradient step = 44839921.707324

Top words for each topic:
massag (3.555847) hair (3.530012) bagel (3.377537) haircut (3.246354) stylist (3.199092) appoint (3.053175) salon (2.964361) crepe (2.953836) wax (2.842758) cupcak (2.749579) 
pita (2.554202) yoga (2.532136) monti (2.525174) walmart (2.442477) falafel (2.426153) dumpl (2.309693) diner (2.238631) micki (2.115522) devil (2.105971) studio (2.103448) 
ramen (3.366172) yarn (2.946042) graze (2.756941) tour (2.751731) tornado (2.695413) umami (2.425873) knit (2.323437) breweri (2.286914) natt (2.272565) espresso (2.270102) 
mustard (3.217724) class (3.008314) gym (2.931597) zoo (2.895880) venu (2.866900) shoe (2.781954) scone (2.739943) bed (2.696334) anim (2.584456) brows (2.518600) 
target (3.266545) terrac (3.254357) shuttl (3.123264) naan (2.997410) wifi (2.972380) indian (2.960289) paul (2.884091) lobbi (2.878894) hotel (2.864583) barista (2.729837) 
nail (3.379605) pedicur (3.325414) boot (3.013245) manicur (2.945350) tire (2.838418) polish (2.628861) vet (2.625985) soap (2.619439) german (2.569553) salon (2.515741) 
ale (2.531171) gay (2.421144) bunki (2.420838) irish (2.385053) ravioli (2.330969) brioch (2.300593) salsa (2.287931) pud (2.272231) desert (2.254222) mexican (2.204720) 
pho (3.145336) wing (2.847350) ian (2.798487) thai (2.607652) pad (2.563925) jerk (2.498770) merchant (2.474091) vietnames (2.266006) owl (2.194621) saigon (2.186813) 
cab (3.620276) theater (3.414017) bike (3.255641) movi (3.253677) sub (3.117063) woodman (2.561053) ticket (2.514246) sundanc (2.449840) liquor (2.423300) lasagna (2.360918) 
gyro (3.413377) korean (2.869739) asian (2.765803) sushi (2.496690) tofu (2.386626) seafood (2.357806) chines (2.349473) fountain (2.335292) parthenon (2.310519) greek (2.281688) 
Error (train/valid/test) = 0.319785/1.574931/1.558255 (0.037690)
..................................................
energy after gradient step = 44614327.529036

Top words for each topic:
hair (3.724364) massag (3.689863) bagel (3.563655) haircut (3.369766) stylist (3.321848) salon (3.186221) crepe (3.124203) appoint (3.092613) cupcak (2.990938) wax (2.927418) 
pita (2.636983) yoga (2.614188) monti (2.549886) falafel (2.489590) walmart (2.449827) dumpl (2.387467) diner (2.369551) pelmeni (2.264893) goat (2.219706) micki (2.170918) 
ramen (3.380677) yarn (2.969132) graze (2.924102) tour (2.846591) tornado (2.834854) umami (2.536351) breweri (2.423669) brew (2.403093) knit (2.376460) dr (2.305409) 
mustard (3.457796) class (3.209864) gym (3.111388) venu (3.042002) zoo (2.934429) scone (2.909725) shoe (2.804550) bed (2.751913) anim (2.747748) dog (2.661356) 
terrac (3.386236) target (3.320090) shuttl (3.211225) hotel (3.151795) naan (3.103616) indian (3.073399) wifi (3.061104) lobbi (3.021760) paul (2.963395) barista (2.831892) 
pedicur (3.458108) nail (3.448509) boot (3.180367) tire (2.993173) manicur (2.987960) vet (2.803739) polish (2.710326) german (2.576528) soap (2.560099) salon (2.421907) 
ale (2.553261) bunki (2.484233) salsa (2.435915) ravioli (2.359633) irish (2.358850) mexican (2.352910) gay (2.308613) pud (2.305535) frite (2.235373) desert (2.231244) 
pho (3.273514) ian (2.942798) wing (2.899657) thai (2.696907) merchant (2.626193) pad (2.572465) jerk (2.515955) vietnames (2.405010) noodl (2.241420) cod (2.190442) 
cab (3.696665) theater (3.512968) movi (3.427102) bike (3.349746) sub (3.260721) woodman (2.746636) sundanc (2.639255) ticket (2.613862) liquor (2.551885) driver (2.494837) 
gyro (3.394152) korean (2.858994) asian (2.816123) sushi (2.789538) chines (2.554956) tofu (2.463071) seafood (2.445586) fountain (2.429952) china (2.374035) parthenon (2.362657) 
Error (train/valid/test) = 0.324775/1.581539/1.565812 (0.038197)
..................................................
energy after gradient step = 44337231.279336

Top words for each topic:
hair (3.908795) massag (3.831604) bagel (3.657351) haircut (3.507098) stylist (3.434944) salon (3.340004) appoint (3.311994) cupcak (3.248086) crepe (3.216095) wax (3.118958) 
pita (2.794520) monti (2.757732) falafel (2.711591) dumpl (2.547137) yoga (2.514664) walmart (2.472619) pelmeni (2.422997) diner (2.420144) pastri (2.312256) goat (2.243493) 
ramen (3.503392) graze (3.046012) yarn (3.009001) tour (2.791958) tornado (2.752426) beer (2.650166) umami (2.639846) brew (2.590242) breweri (2.526824) pair (2.465422) 
mustard (3.528552) class (3.340554) gym (3.193792) zoo (3.193096) scone (3.127144) venu (3.115023) shoe (3.065762) anim (2.913612) dog (2.901974) market (2.736769) 
hotel (3.572681) target (3.479359) terrac (3.410583) shuttl (3.322416) wifi (3.299870) naan (3.252162) indian (3.245094) lobbi (3.179478) desk (3.077759) paul (3.067055) 
nail (3.619069) pedicur (3.540056) boot (3.157808) tire (3.114769) manicur (3.041586) vet (2.937589) german (2.712213) polish (2.708370) essen (2.581978) toe (2.570009) 
ale (2.656627) salsa (2.571704) bunki (2.535975) mexican (2.529429) irish (2.449370) gay (2.370786) ravioli (2.355401) frite (2.323161) taco (2.291274) filet (2.251930) 
pho (3.340212) ian (3.031641) wing (3.017726) thai (2.868192) pad (2.794282) merchant (2.638263) jerk (2.558860) vietnames (2.384289) noodl (2.371976) saigon (2.340831) 
cab (3.807417) theater (3.581424) movi (3.502900) bike (3.432810) sub (3.309304) ticket (2.881668) sundanc (2.809293) woodman (2.643075) liquor (2.607314) driver (2.579877) 
gyro (3.396478) sushi (3.240767) korean (2.998554) asian (2.958206) chines (2.784986) tofu (2.600947) seafood (2.560243) noodl (2.470714) fountain (2.451244) roll (2.409444) 
Error (train/valid/test) = 0.326030/1.582323/1.579383 (0.038848)
..................................................
energy after gradient step = 44018328.526671

Top words for each topic:
hair (4.050011) massag (3.954626) bagel (3.854157) haircut (3.613397) stylist (3.555308) salon (3.541728) cupcak (3.500904) appoint (3.440677) crepe (3.328057) wax (3.228113) 
falafel (2.936590) monti (2.900596) pita (2.853819) dumpl (2.750336) pelmeni (2.619664) yoga (2.542731) diner (2.519385) micki (2.467716) walmart (2.458835) pastri (2.419066) 
ramen (3.583042) graze (3.149249) yarn (3.009366) tornado (2.943845) tour (2.847535) beer (2.824414) umami (2.727506) brew (2.713817) breweri (2.640207) espresso (2.554380) 
mustard (3.656604) class (3.502939) gym (3.445710) scone (3.299769) zoo (3.251797) venu (3.179796) dog (3.058766) shoe (3.013561) anim (2.989595) market (2.907634) 
hotel (3.922953) terrac (3.587463) target (3.492403) wifi (3.440810) shuttl (3.417605) lobbi (3.319330) naan (3.254527) indian (3.199824) inn (3.169056) barista (3.156866) 
nail (3.712529) pedicur (3.612882) boot (3.357914) manicur (3.217386) tire (3.183933) vet (3.145507) german (2.893399) polish (2.856288) soap (2.783943) shellac (2.625941) 
salsa (2.717777) mexican (2.687366) irish (2.629648) bunki (2.566050) ale (2.558842) ravioli (2.553524) taco (2.459278) frite (2.458275) beer (2.399088) steak (2.360710) 
pho (3.461407) wing (3.146446) ian (3.144707) thai (2.969197) pad (2.824439) vietnames (2.624936) merchant (2.591970) noodl (2.489880) jerk (2.475895) broth (2.447813) 
cab (3.921912) theater (3.741050) movi (3.649732) bike (3.551751) sub (3.444991) woodman (2.982238) ticket (2.978477) sundanc (2.881689) driver (2.847488) liquor (2.720785) 
sushi (3.544057) gyro (3.413874) asian (3.039654) chines (3.000298) korean (2.999257) roll (2.765420) seafood (2.696435) tofu (2.692928) noodl (2.620012) takara (2.554612) 
Error (train/valid/test) = 0.319175/1.576390/1.582020 (0.038353)
..................................................
energy after gradient step = 43676265.176947

Top words for each topic:
hair (4.160725) bagel (4.008952) massag (3.969449) haircut (3.708613) cupcak (3.690771) salon (3.666556) stylist (3.588886) appoint (3.527095) crepe (3.393361) wax (3.364099) 
falafel (3.130366) monti (3.040006) pita (3.009454) dumpl (2.845027) pelmeni (2.777575) diner (2.707741) yoga (2.566227) walmart (2.550226) micki (2.511295) pastri (2.485993) 
ramen (3.632826) graze (3.249083) beer (3.075189) yarn (3.066066) tour (3.027951) tornado (2.967247) umami (2.852880) brew (2.819365) breweri (2.744344) espresso (2.650069) 
mustard (3.737007) class (3.652361) gym (3.468982) scone (3.441955) venu (3.369831) zoo (3.353376) dog (3.224904) shoe (3.224759) market (3.120481) farmer (3.084099) 
hotel (4.160600) terrac (3.634572) shuttl (3.542299) target (3.534860) wifi (3.522585) naan (3.410388) stay (3.398317) airport (3.383840) indian (3.336868) lobbi (3.304955) 
nail (3.851519) pedicur (3.699513) boot (3.403841) tire (3.367092) manicur (3.251370) vet (3.115983) german (2.953201) polish (2.929965) soap (2.873665) essen (2.710309) 
mexican (2.818622) salsa (2.812545) irish (2.675157) taco (2.653490) steak (2.561405) ale (2.539647) ravioli (2.529187) frite (2.524864) bunki (2.515983) beer (2.513958) 
pho (3.513176) wing (3.256182) ian (3.131626) thai (3.060021) pad (2.964360) merchant (2.748916) vietnames (2.704342) jerk (2.588161) noodl (2.530237) broth (2.457989) 
cab (4.071576) theater (3.839502) movi (3.769457) bike (3.716666) sub (3.544308) ticket (3.128668) sundanc (2.995243) woodman (2.925952) driver (2.887352) liquor (2.768790) 
sushi (3.702895) gyro (3.401066) chines (3.157835) asian (3.080864) korean (3.048279) roll (2.953245) tofu (2.795768) noodl (2.722650) seafood (2.659626) rice (2.621624) 
Error (train/valid/test) = 0.319686/1.575780/1.578258 (0.038299)
..................................................
energy after gradient step = 43368269.070885

Top words for each topic:
hair (4.231685) bagel (4.052612) massag (4.042111) cupcak (3.876411) haircut (3.794333) salon (3.756908) stylist (3.694393) appoint (3.654794) crepe (3.371095) wax (3.359966) 
falafel (3.343776) pita (3.153140) monti (3.103039) diner (2.987815) dumpl (2.929716) pelmeni (2.755160) yoga (2.695246) pastri (2.693447) walmart (2.688734) micki (2.625016) 
ramen (3.627516) graze (3.378682) beer (3.283923) yarn (3.098051) tornado (3.043431) brew (3.009917) tour (2.996644) fashion (2.885059) umami (2.873436) breweri (2.823387) 
class (3.925280) mustard (3.900082) gym (3.664158) zoo (3.555085) scone (3.524006) dog (3.503285) venu (3.424590) shoe (3.368249) market (3.351027) anim (3.241875) 
hotel (4.381523) terrac (3.719794) stay (3.664704) target (3.645563) wifi (3.605513) shuttl (3.588623) bed (3.551248) room (3.502360) naan (3.480427) desk (3.477025) 
nail (3.967521) pedicur (3.810812) boot (3.587302) tire (3.518762) manicur (3.332505) vet (3.317733) polish (2.997190) german (2.979909) pancak (2.942260) indian (2.931323) 
salsa (2.989012) mexican (2.954008) taco (2.844446) steak (2.769674) irish (2.759360) ale (2.548563) beer (2.547793) frite (2.512266) bunki (2.473015) ravioli (2.455728) 
pho (3.628465) wing (3.381026) ian (3.269203) thai (3.170091) vietnames (2.864931) pad (2.856458) merchant (2.782424) broth (2.594361) pizza (2.561142) jerk (2.559490) 
cab (4.167277) theater (3.971499) movi (3.893561) bike (3.871355) sub (3.645442) ticket (3.256506) woodman (3.164343) sundanc (3.076556) liquor (3.021729) driver (2.995662) 
sushi (3.827575) gyro (3.448069) chines (3.325138) roll (3.174408) asian (3.106088) korean (3.093556) rice (2.868612) noodl (2.851119) tofu (2.842102) seafood (2.783369) 
Error (train/valid/test) = 0.326675/1.579111/1.576828 (0.038617)
..................................................
energy after gradient step = 43029853.974473

Top words for each topic:
hair (4.316785) bagel (4.182041) massag (4.139607) cupcak (3.962655) haircut (3.869714) salon (3.812885) appoint (3.767660) stylist (3.682477) crepe (3.515262) wax (3.429829) 
falafel (3.407496) monti (3.253541) pita (3.231778) diner (3.216995) pelmeni (2.911841) dumpl (2.909558) micki (2.804639) walmart (2.775420) pastri (2.697901) yoga (2.678137) 
ramen (3.750072) beer (3.536193) graze (3.444397) brew (3.160314) yarn (3.154785) tour (3.106156) fashion (3.073886) tornado (2.977861) umami (2.941495) cocktail (2.913172) 
class (4.022428) mustard (3.949452) gym (3.749496) dog (3.673785) zoo (3.624329) scone (3.623270) venu (3.506964) farmer (3.482865) market (3.441391) shoe (3.347967) 
hotel (4.511265) stay (3.814021) terrac (3.793397) target (3.748399) room (3.711147) wifi (3.706966) bed (3.700321) shuttl (3.674944) airport (3.660101) naan (3.562489) 
nail (4.089040) pedicur (3.906065) tire (3.626320) boot (3.570061) manicur (3.495257) vet (3.417665) polish (3.187247) pancak (3.135727) indian (3.086304) german (3.054802) 
mexican (3.105953) salsa (3.035347) taco (2.963337) steak (2.950486) irish (2.778337) frite (2.632416) beer (2.572634) ale (2.548713) pub (2.499965) filet (2.494058) 
pho (3.698361) wing (3.483848) ian (3.298881) thai (3.189392) pad (3.109294) pizza (2.834611) vietnames (2.820030) merchant (2.786867) broth (2.613492) jerk (2.593059) 
cab (4.292773) movi (4.051587) theater (4.037683) bike (3.976401) sub (3.713184) ticket (3.405535) woodman (3.289194) sundanc (3.217167) driver (3.083445) liquor (3.052089) 
sushi (3.930238) chines (3.454416) gyro (3.378672) roll (3.369027) korean (3.174948) asian (3.155543) rice (3.051544) noodl (2.965516) spici (2.891727) tofu (2.840582) 
Error (train/valid/test) = 0.323187/1.577891/1.577303 (0.038225)
..................................................
energy after gradient step = 42712103.269334

Top words for each topic:
hair (4.344881) bagel (4.170659) massag (4.161656) cupcak (4.005950) haircut (3.896148) salon (3.842152) appoint (3.812022) stylist (3.772904) wax (3.488706) crepe (3.369657) 
falafel (3.561980) pita (3.367125) diner (3.318781) monti (3.296523) pelmeni (2.967130) pastri (2.921687) walmart (2.873388) dumpl (2.852153) micki (2.845353) hummus (2.729999) 
beer (3.684375) ramen (3.682606) graze (3.585829) brew (3.256067) yarn (3.180202) fashion (3.174231) tour (3.120613) cocktail (3.022167) tornado (3.000448) curd (2.991763) 
class (4.139229) mustard (4.040257) gym (3.865018) dog (3.811174) scone (3.792903) zoo (3.724204) venu (3.577991) shoe (3.564455) market (3.527552) farmer (3.504356) 
hotel (4.646057) stay (3.954393) terrac (3.868710) bed (3.850712) room (3.833827) wifi (3.797926) target (3.778024) shuttl (3.754052) airport (3.713939) desk (3.619702) 
nail (4.183092) pedicur (3.978948) boot (3.713065) tire (3.681607) manicur (3.560760) vet (3.533628) indian (3.410060) pancak (3.328234) polish (3.245348) german (3.116322) 
mexican (3.170586) taco (3.095265) steak (3.074306) salsa (3.058965) irish (2.810031) frite (2.632747) beer (2.557360) ravioli (2.527387) pub (2.517744) filet (2.469835) 
pho (3.766259) wing (3.531294) ian (3.400967) thai (3.240227) pizza (3.064778) vietnames (3.007409) pad (2.975318) merchant (2.958495) slice (2.679419) mac (2.674670) 
cab (4.401029) theater (4.199599) movi (4.139461) bike (4.104187) sub (3.834007) ticket (3.490537) woodman (3.378658) sundanc (3.272998) driver (3.141562) liquor (3.106423) 
sushi (3.999575) chines (3.545267) roll (3.449763) gyro (3.441955) rice (3.186783) korean (3.150398) asian (3.134632) noodl (3.076621) spici (3.039968) curri (2.932142) 
Error (train/valid/test) = 0.324711/1.578272/1.575764 (0.038170)
..................................................
energy after gradient step = 42419092.809250

Top words for each topic:
hair (4.389297) bagel (4.277479) massag (4.224822) cupcak (4.083117) haircut (3.943509) appoint (3.884804) salon (3.876349) stylist (3.809597) wax (3.492650) crepe (3.478765) 
falafel (3.676736) monti (3.432895) diner (3.416593) pita (3.346915) pastri (3.090415) pelmeni (3.083166) walmart (2.961543) micki (2.942194) biscuit (2.930211) hummus (2.881397) 
beer (3.917400) ramen (3.806469) graze (3.584066) brew (3.305033) fashion (3.290771) yarn (3.222042) curd (3.150035) tour (3.129230) cocktail (3.118374) breweri (3.039450) 
class (4.258867) mustard (4.101097) dog (3.935580) gym (3.909956) zoo (3.840619) scone (3.766866) farmer (3.708437) venu (3.666984) market (3.664448) shoe (3.570339) 
hotel (4.739034) stay (4.013545) terrac (3.937265) bed (3.893751) target (3.820709) room (3.820185) shuttl (3.814570) wifi (3.805108) airport (3.793254) naan (3.700811) 
nail (4.277166) pedicur (4.099012) tire (3.868540) boot (3.673574) manicur (3.673573) vet (3.645383) indian (3.634911) pancak (3.412736) polish (3.340423) german (3.267954) 
mexican (3.235386) taco (3.200914) steak (3.167531) salsa (3.106298) irish (2.730367) burger (2.683342) beer (2.610621) frite (2.596234) server (2.589510) fri (2.576736) 
pho (3.860307) wing (3.619847) ian (3.467616) pizza (3.278120) thai (3.189342) pad (3.014491) merchant (2.949959) vietnames (2.912094) mac (2.834817) slice (2.798457) 
cab (4.439299) theater (4.287086) movi (4.268357) bike (4.211893) sub (3.860620) ticket (3.604857) woodman (3.515852) sundanc (3.384942) driver (3.283821) liquor (3.261226) 
sushi (4.091787) chines (3.643602) roll (3.521781) gyro (3.407718) rice (3.351245) noodl (3.196503) asian (3.185773) korean (3.175579) spici (3.142890) curri (3.090071) 
Error (train/valid/test) = 0.326335/1.582139/1.577837 (0.038526)
..................................................
energy after gradient step = 42146703.278918

Top words for each topic:
hair (4.418583) bagel (4.284293) massag (4.245591) cupcak (4.126053) haircut (3.991399) salon (3.919810) appoint (3.909726) stylist (3.854753) wax (3.544076) store (3.430684) 
falafel (3.775622) diner (3.606337) pita (3.526190) monti (3.513531) pelmeni (3.171572) biscuit (3.157940) pastri (3.157326) hummus (3.105429) micki (3.050491) walmart (3.035127) 
beer (4.039720) ramen (3.767071) graze (3.663311) brew (3.438862) fashion (3.357663) curd (3.332638) yarn (3.209921) tour (3.206354) cocktail (3.126750) breweri (3.123567) 
class (4.310257) mustard (4.172835) gym (4.075453) dog (4.049567) scone (3.918380) zoo (3.885565) market (3.785553) venu (3.768753) shoe (3.699827) farmer (3.649732) 
hotel (4.824226) stay (4.076023) bed (3.962332) terrac (3.941742) room (3.915060) wifi (3.905373) shuttl (3.820963) target (3.812765) airport (3.811356) desk (3.777846) 
nail (4.357724) pedicur (4.157031) indian (3.964993) tire (3.907173) boot (3.835377) manicur (3.747620) vet (3.653497) pancak (3.456007) polish (3.402345) soap (3.273019) 
steak (3.288742) taco (3.273200) mexican (3.246268) salsa (3.134592) burger (2.819034) irish (2.809206) frite (2.750149) fri (2.699837) beer (2.686362) server (2.648105) 
pho (3.939268) wing (3.741392) ian (3.555819) pizza (3.465560) pad (3.104702) thai (3.094204) vietnames (3.083339) merchant (2.980203) mac (2.953349) bbq (2.827810) 
cab (4.581679) theater (4.367411) bike (4.307516) movi (4.283464) sub (4.004143) ticket (3.718456) sundanc (3.513472) woodman (3.464601) liquor (3.411766) driver (3.347328) 
sushi (4.160022) chines (3.708550) roll (3.608030) rice (3.454388) gyro (3.454045) noodl (3.309395) curri (3.271319) korean (3.258317) spici (3.256717) asian (3.193074) 
Error (train/valid/test) = 0.328669/1.589145/1.587212 (0.037815)
..................................................
energy after gradient step = 41894768.029170

Top words for each topic:
hair (4.461313) bagel (4.356207) massag (4.303136) cupcak (4.203844) haircut (4.057576) appoint (3.974830) salon (3.934966) stylist (3.867700) wax (3.586670) store (3.567514) 
falafel (3.875245) diner (3.644226) pita (3.632204) monti (3.630026) pelmeni (3.304539) bakeri (3.247625) micki (3.239199) pastri (3.220268) biscuit (3.209282) hummus (3.161266) 
beer (4.216598) ramen (3.826900) graze (3.771770) brew (3.506847) curd (3.494730) fashion (3.434789) cocktail (3.284409) yarn (3.279145) breweri (3.179703) tap (3.123737) 
class (4.388440) mustard (4.115070) dog (4.112694) gym (4.052492) scone (4.020180) zoo (3.960727) yoga (3.849077) farmer (3.848659) market (3.793843) venu (3.745307) 
hotel (4.912170) stay (4.144279) terrac (4.022861) bed (4.022128) wifi (3.953121) shuttl (3.907401) target (3.887332) room (3.880665) airport (3.868561) desk (3.799403) 
nail (4.451061) pedicur (4.219563) indian (4.029772) tire (3.943841) boot (3.903762) manicur (3.785047) vet (3.780926) pancak (3.575754) polish (3.493411) german (3.389839) 
steak (3.434982) taco (3.357615) mexican (3.330425) salsa (3.206698) burger (2.977540) irish (2.835237) fri (2.830870) server (2.823524) dinner (2.754570) waitress (2.751803) 
pho (4.030554) wing (3.811822) pizza (3.714902) ian (3.599406) merchant (3.177146) vietnames (3.163366) pad (3.131921) mac (3.088873) thai (3.058617) bbq (3.015403) 
cab (4.609919) theater (4.495555) movi (4.399812) bike (4.346738) sub (3.964098) ticket (3.793867) sundanc (3.637428) theatr (3.518237) liquor (3.498154) driver (3.440874) 
sushi (4.182023) chines (3.807394) roll (3.655024) rice (3.622032) noodl (3.438967) curri (3.436431) spici (3.419372) gyro (3.405528) dish (3.306280) asian (3.265760) 
Error (train/valid/test) = 0.318662/1.582443/1.579787 (0.037877)
..................................................
energy after gradient step = 41645953.226671

Top words for each topic:
hair (4.505554) bagel (4.399628) massag (4.394081) cupcak (4.312965) haircut (4.123768) appoint (4.060922) stylist (3.970648) salon (3.925601) store (3.662196) wax (3.592961) 
falafel (3.908036) diner (3.813740) monti (3.649946) pita (3.612529) biscuit (3.414673) pastri (3.375983) hummus (3.364946) pelmeni (3.320867) bakeri (3.296394) micki (3.293405) 
beer (4.359920) ramen (3.846360) graze (3.791395) curd (3.612166) brew (3.590744) fashion (3.502662) cocktail (3.350867) tap (3.242026) breweri (3.241659) yarn (3.236843) 
class (4.500712) mustard (4.232351) dog (4.201768) gym (4.186912) scone (4.058568) zoo (4.020346) farmer (3.884231) yoga (3.880856) market (3.822123) shoe (3.747164) 
hotel (4.977876) stay (4.168320) bed (4.067389) airport (4.058442) terrac (4.044767) wifi (4.008131) shuttl (3.943865) target (3.898033) room (3.888720) desk (3.819851) 
nail (4.524234) pedicur (4.267483) indian (4.257868) tire (4.078021) boot (3.944029) manicur (3.874006) vet (3.838006) polish (3.618655) pancak (3.537192) soap (3.382771) 
steak (3.499289) taco (3.432534) mexican (3.339741) salsa (3.229793) burger (3.066252) fri (2.963036) server (2.915169) irish (2.866849) dinner (2.842117) frite (2.810637) 
pho (4.145263) pizza (3.930230) wing (3.929527) ian (3.739053) bbq (3.266581) vietnames (3.209106) merchant (3.179152) mac (3.094869) pad (3.083193) thai (3.080017) 
cab (4.738421) theater (4.565426) bike (4.473783) movi (4.423773) sub (4.154668) ticket (3.916240) sundanc (3.682420) theatr (3.564732) liquor (3.526892) driver (3.489395) 
sushi (4.258338) chines (3.847640) rice (3.727548) roll (3.687349) noodl (3.548412) curri (3.508586) spici (3.477557) gyro (3.461185) dish (3.347537) korean (3.288550) 
Error (train/valid/test) = 0.317138/1.584655/1.585592 (0.037970)
..................................................
energy after gradient step = 41434637.095731

Top words for each topic:
hair (4.525637) bagel (4.414811) massag (4.395485) cupcak (4.315182) haircut (4.132975) appoint (4.073757) salon (3.990621) stylist (3.986597) store (3.760590) wax (3.640450) 
falafel (4.039763) diner (3.850569) pita (3.750260) monti (3.706423) breakfast (3.634409) bakeri (3.480637) pastri (3.425724) biscuit (3.421058) hummus (3.405761) pelmeni (3.351851) 
beer (4.473847) graze (3.821896) ramen (3.809087) curd (3.742704) brew (3.670833) fashion (3.515517) cocktail (3.330988) ale (3.318645) tap (3.296806) dane (3.266531) 
class (4.546014) dog (4.269101) gym (4.198543) scone (4.184774) mustard (4.146239) zoo (4.088108) yoga (3.914339) farmer (3.900762) market (3.870760) shoe (3.790375) 
hotel (5.045110) stay (4.174016) bed (4.144979) terrac (4.054291) wifi (3.981836) shuttl (3.977711) airport (3.939039) room (3.915763) target (3.888685) lobbi (3.799878) 
nail (4.585685) pedicur (4.328996) indian (4.304170) tire (4.056433) boot (3.992460) manicur (3.941905) vet (3.882552) polish (3.662044) pancak (3.475302) soap (3.391274) 
steak (3.515296) taco (3.452208) mexican (3.373331) salsa (3.289217) burger (3.147061) fri (3.022326) server (3.010903) dinner (2.965770) waitress (2.888925) fish (2.876726) 
pho (4.170179) pizza (4.100368) wing (4.006774) ian (3.789064) bbq (3.359327) vietnames (3.297907) merchant (3.289374) mac (3.241182) slice (3.151400) crust (3.128396) 
cab (4.724003) theater (4.602390) movi (4.513039) bike (4.505818) sub (4.068526) ticket (3.930244) sundanc (3.713477) theatr (3.643399) liquor (3.616171) driver (3.557303) 
sushi (4.295786) chines (3.892131) rice (3.772869) roll (3.696423) noodl (3.648885) curri (3.562460) spici (3.512478) dish (3.426582) gyro (3.404052) thai (3.299469) 
Error (train/valid/test) = 0.314323/1.586524/1.588944 (0.037859)
..................................................
energy after gradient step = 41233505.460983

Top words for each topic:
hair (4.537073) massag (4.494398) bagel (4.451474) cupcak (4.398761) haircut (4.258240) appoint (4.188789) stylist (4.061745) salon (4.023647) store (3.840644) wax (3.740428) 
falafel (4.031757) diner (3.911515) pita (3.810667) monti (3.785436) breakfast (3.779569) biscuit (3.544051) pastri (3.511055) bakeri (3.494874) hummus (3.482780) cafe (3.459502) 
beer (4.575301) graze (3.903416) ramen (3.849527) curd (3.837859) brew (3.783164) fashion (3.569825) burger (3.492693) ale (3.453574) tap (3.407757) cocktail (3.366047) 
class (4.628872) gym (4.332948) dog (4.310604) scone (4.209262) mustard (4.206577) zoo (4.185878) yoga (4.075649) farmer (3.961770) market (3.921527) shoe (3.909244) 
hotel (5.106318) bed (4.177963) terrac (4.142310) stay (4.140787) wifi (4.048035) airport (4.026182) shuttl (4.012639) room (3.964952) target (3.934926) inn (3.867200) 
nail (4.649878) indian (4.420951) pedicur (4.374802) tire (4.167897) boot (4.052264) vet (3.933903) manicur (3.924875) polish (3.715862) soap (3.496777) essen (3.463725) 
steak (3.664682) taco (3.579862) mexican (3.441568) salsa (3.342601) burger (3.229334) fri (3.124492) server (3.032910) dinner (3.007033) fish (2.993201) waitress (2.954954) 
pizza (4.318434) pho (4.289578) wing (4.075802) ian (3.900563) bbq (3.474802) merchant (3.349343) vietnames (3.331218) mac (3.328066) crust (3.301759) slice (3.227830) 
cab (4.850100) theater (4.718500) bike (4.597953) movi (4.596738) sub (4.251403) ticket (3.940505) theatr (3.840535) sundanc (3.839851) woodman (3.775263) liquor (3.610353) 
sushi (4.344954) chines (3.951727) rice (3.878200) noodl (3.742386) roll (3.737962) curri (3.661093) spici (3.568918) dish (3.550730) gyro (3.454696) thai (3.440073) 
Error (train/valid/test) = 0.310800/1.588548/1.598458 (0.038187)
..................................................
energy after gradient step = 40952328.879858

Top words for each topic:
hair (4.552040) massag (4.511681) bagel (4.471825) cupcak (4.444926) haircut (4.259264) appoint (4.172983) stylist (4.066874) salon (3.988303) store (3.848266) wax (3.661867) 
falafel (4.115545) breakfast (3.974007) diner (3.944327) monti (3.833555) pita (3.830157) bakeri (3.595664) hummus (3.590369) pastri (3.564719) biscuit (3.517717) croissant (3.506866) 
beer (4.646161) curd (3.932824) graze (3.890151) ramen (3.863257) brew (3.838798) burger (3.628039) fashion (3.612444) ale (3.554101) tap (3.517419) bartend (3.449631) 
class (4.692866) dog (4.349238) scone (4.301428) gym (4.292403) zoo (4.237904) mustard (4.151866) yoga (4.133531) market (4.022645) farmer (4.010025) shoe (3.953824) 
hotel (5.154570) bed (4.182313) terrac (4.161439) stay (4.135360) wifi (4.074051) airport (4.072717) shuttl (4.045396) room (3.969180) target (3.930218) desk (3.918111) 
nail (4.716080) indian (4.476217) pedicur (4.414268) tire (4.203602) boot (4.048017) vet (4.015206) manicur (4.010683) polish (3.736531) soap (3.509268) shellac (3.505174) 
steak (3.675507) taco (3.613070) mexican (3.473519) salsa (3.389107) burger (3.268561) fri (3.195922) server (3.117471) fish (3.072791) dinner (3.032312) waitress (2.989900) 
pizza (4.572757) pho (4.388726) wing (4.199894) ian (3.974232) bbq (3.581644) crust (3.489199) mac (3.426245) merchant (3.407769) vietnames (3.360393) slice (3.291346) 
cab (4.853319) theater (4.773358) bike (4.690807) movi (4.678603) sub (4.136416) ticket (3.972929) sundanc (3.921903) theatr (3.815508) woodman (3.727398) driver (3.724846) 
sushi (4.385506) chines (3.990390) rice (3.901313) noodl (3.812391) curri (3.716209) roll (3.713986) spici (3.613024) dish (3.609063) thai (3.558441) gyro (3.451140) 
Error (train/valid/test) = 0.312051/1.595638/1.601596 (0.038766)
..................................................
energy after gradient step = 40778213.387215

Top words for each topic:
hair (4.562700) massag (4.558555) cupcak (4.490714) bagel (4.455624) haircut (4.337300) appoint (4.267969) stylist (4.156363) salon (3.985057) store (3.859533) wax (3.734615) 
falafel (4.126938) breakfast (4.102361) diner (3.969175) pita (3.900769) monti (3.803311) bakeri (3.705377) pastri (3.607708) biscuit (3.602560) cafe (3.594617) pancak (3.584566) 
beer (4.676868) curd (4.008767) graze (3.879079) brew (3.862099) ramen (3.849717) burger (3.770689) fashion (3.616201) ale (3.561807) tap (3.558123) bartend (3.540377) 
class (4.715041) gym (4.408205) dog (4.382119) scone (4.292328) zoo (4.280173) mustard (4.167352) yoga (4.151678) market (4.054121) farmer (3.974765) shoe (3.896585) 
hotel (5.216672) bed (4.235239) terrac (4.213921) wifi (4.170101) stay (4.130887) shuttl (4.109722) airport (4.103814) inn (3.984137) target (3.983756) room (3.979968) 
nail (4.705950) indian (4.571769) pedicur (4.465656) tire (4.232575) boot (4.123065) manicur (4.096489) vet (4.060437) polish (3.827814) essen (3.565227) shellac (3.536641) 
steak (3.749826) taco (3.652358) mexican (3.504131) salsa (3.425657) burger (3.309279) fri (3.275525) fish (3.169371) server (3.165685) dinner (3.106658) waitress (3.071011) 
pizza (4.727117) pho (4.457216) wing (4.278332) ian (4.128418) bbq (3.674385) crust (3.639998) merchant (3.569981) mac (3.562544) vietnames (3.483507) slice (3.374217) 
cab (4.971506) theater (4.817110) bike (4.789088) movi (4.667847) sub (4.251491) ticket (4.127848) theatr (3.970608) sundanc (3.966605) woodman (3.871489) driver (3.706999) 
sushi (4.434162) chines (4.040502) rice (3.930458) noodl (3.874601) curri (3.792504) roll (3.727815) dish (3.697599) thai (3.648719) spici (3.643559) gyro (3.479502) 
Error (train/valid/test) = 0.303917/1.602015/1.605570 (0.038380)
..................................................
energy after gradient step = 40603040.495064

Top words for each topic:
massag (4.610360) hair (4.577523) cupcak (4.530019) bagel (4.436766) haircut (4.368505) appoint (4.297108) stylist (4.175767) salon (4.062785) store (3.972304) wax (3.741558) 
breakfast (4.239596) falafel (4.157872) diner (4.035591) monti (3.867467) pita (3.866408) bakeri (3.782118) pancak (3.771921) sandwich (3.675596) pastri (3.667299) hummus (3.641096) 
beer (4.756410) curd (4.106895) burger (3.992665) graze (3.950276) brew (3.891864) ramen (3.817478) ale (3.682120) tap (3.648205) fashion (3.645698) bartend (3.604495) 
class (4.760111) dog (4.454562) gym (4.364163) scone (4.357547) zoo (4.337270) yoga (4.252357) mustard (4.097060) market (4.073360) farmer (4.002471) shoe (3.931604) 
hotel (5.267761) bed (4.283437) terrac (4.260879) airport (4.136721) stay (4.109381) shuttl (4.102856) wifi (4.086144) room (4.042644) inn (3.981413) lobbi (3.975157) 
nail (4.757061) indian (4.616499) pedicur (4.481512) tire (4.270449) manicur (4.087513) vet (4.074775) boot (4.065832) polish (3.784621) shellac (3.577558) essen (3.542032) 
steak (3.805358) taco (3.706120) mexican (3.573858) salsa (3.473945) fri (3.373945) burger (3.263738) fish (3.255242) server (3.238300) dinner (3.196307) waitress (3.156979) 
pizza (4.868115) pho (4.544059) wing (4.343307) ian (4.171069) bbq (3.797786) crust (3.789883) mac (3.600404) merchant (3.573338) vietnames (3.464045) slice (3.431167) 
cab (4.957924) theater (4.906192) bike (4.826410) movi (4.763713) ticket (4.192233) sub (4.180389) sundanc (4.022354) theatr (3.952016) woodman (3.912763) driver (3.856760) 
sushi (4.471063) chines (4.071480) rice (3.995668) noodl (3.962381) curri (3.847731) thai (3.741749) dish (3.734526) roll (3.731698) spici (3.709509) chicken (3.468614) 
Error (train/valid/test) = 0.299332/1.609608/1.604896 (0.038365)
..................................................
energy after gradient step = 40463048.974258

Top words for each topic:
massag (4.647210) cupcak (4.568990) hair (4.567829) bagel (4.448177) haircut (4.435567) appoint (4.343821) stylist (4.233309) salon (3.973022) store (3.954386) wax (3.708313) 
breakfast (4.334439) falafel (4.200181) diner (4.029237) pancak (3.924728) pita (3.920338) monti (3.848205) bakeri (3.782928) sandwich (3.764619) pastri (3.726171) cafe (3.677389) 
beer (4.801742) curd (4.170847) burger (4.087073) graze (3.966601) brew (3.931936) ramen (3.825559) tap (3.723256) bartend (3.685099) ale (3.679618) fashion (3.676097) 
class (4.760940) gym (4.497436) dog (4.450001) zoo (4.337371) scone (4.317586) yoga (4.271486) market (4.101735) mustard (4.078802) shoe (3.982352) farmer (3.971706) 
hotel (5.298128) terrac (4.287331) bed (4.262818) wifi (4.235690) airport (4.219368) shuttl (4.208921) inn (4.145790) stay (4.065056) room (4.030826) target (4.025657) 
nail (4.776571) indian (4.674140) pedicur (4.518245) tire (4.280430) manicur (4.091692) vet (4.089143) boot (4.054955) polish (3.872978) shellac (3.616941) car (3.541535) 
steak (3.848435) taco (3.745845) mexican (3.622232) salsa (3.523277) fri (3.435933) fish (3.305642) server (3.294701) burger (3.261483) waitress (3.212581) dinner (3.206069) 
pizza (5.023738) pho (4.631849) wing (4.429604) ian (4.313209) bbq (3.960825) crust (3.929758) mac (3.711814) merchant (3.678402) vietnames (3.564853) slice (3.446461) 
cab (5.087258) theater (4.931999) bike (4.867537) movi (4.786722) sub (4.218294) ticket (4.095858) sundanc (4.053715) theatr (4.017026) woodman (4.004310) mechan (3.833325) 
sushi (4.510824) chines (4.113028) rice (4.043550) noodl (4.010091) curri (3.904756) thai (3.829389) dish (3.807353) roll (3.772827) spici (3.688581) chicken (3.503366) 
Error (train/valid/test) = 0.298539/1.617409/1.616324 (0.038100)
..................................................
energy after gradient step = 40315351.436558

Top words for each topic:
massag (4.669018) cupcak (4.594863) hair (4.565228) bagel (4.469256) haircut (4.461743) appoint (4.383920) stylist (4.268202) salon (3.998759) store (3.952035) wax (3.823778) 
breakfast (4.417074) falafel (4.196484) pancak (4.046617) pita (3.984676) diner (3.977207) monti (3.897600) bakeri (3.880116) sandwich (3.808480) pastri (3.757548) cafe (3.726848) 
beer (4.862681) curd (4.217988) burger (4.203440) graze (3.986515) brew (3.969592) ramen (3.835409) tap (3.787160) ale (3.768659) bartend (3.768219) fashion (3.681978) 
class (4.803110) dog (4.463771) gym (4.456238) zoo (4.418130) yoga (4.379182) scone (4.235580) market (4.096519) mustard (4.076450) shoe (4.007858) instructor (3.998373) 
hotel (5.351809) terrac (4.337402) bed (4.298363) shuttl (4.229819) wifi (4.207581) airport (4.160934) inn (4.061406) room (4.059029) stay (4.023694) desk (4.003333) 
nail (4.786768) indian (4.699438) pedicur (4.479193) tire (4.286385) vet (4.167786) manicur (4.137501) boot (4.086780) polish (3.798399) shellac (3.636773) essen (3.577777) 
steak (3.901055) taco (3.819951) mexican (3.656271) salsa (3.590004) fri (3.469140) fish (3.439283) server (3.414961) waitress (3.274097) dinner (3.248285) burger (3.243754) 
pizza (5.143602) pho (4.671087) wing (4.523846) ian (4.373053) bbq (4.084730) crust (4.058978) mac (3.735290) merchant (3.704903) slice (3.515384) vietnames (3.514906) 
cab (5.068961) theater (5.004920) bike (4.900029) movi (4.783185) ticket (4.202384) sub (4.198463) woodman (4.135181) sundanc (4.109708) theatr (4.101905) driver (3.869591) 
sushi (4.545585) chines (4.143894) rice (4.093858) noodl (4.031982) curri (3.939854) thai (3.894727) dish (3.882538) roll (3.760349) spici (3.674469) chicken (3.581236) 
Error (train/valid/test) = 0.293683/1.624814/1.615632 (0.038082)
..................................................
energy after gradient step = 40173589.945124

Top words for each topic:
massag (4.732661) cupcak (4.624380) hair (4.574409) haircut (4.526068) bagel (4.434481) appoint (4.410160) stylist (4.338453) salon (4.008522) store (3.964171) dr (3.807930) 
breakfast (4.475146) falafel (4.270021) pancak (4.164991) diner (3.994019) bakeri (3.972871) pita (3.920415) sandwich (3.852123) monti (3.851466) croissant (3.787479) pastri (3.769872) 
beer (4.873616) burger (4.318985) curd (4.286367) graze (4.028553) brew (4.025017) tap (3.827883) bartend (3.819690) ale (3.786648) ramen (3.749720) fashion (3.689835) 
class (4.859448) gym (4.471487) dog (4.466858) zoo (4.452569) yoga (4.372841) scone (4.235329) instructor (4.099461) market (4.080291) mustard (4.010078) farmer (4.008179) 
hotel (5.396439) terrac (4.370493) bed (4.311737) shuttl (4.304325) airport (4.284178) wifi (4.255392) inn (4.173970) room (4.076090) desk (4.021331) lobbi (4.016103) 
nail (4.825770) indian (4.717555) pedicur (4.547372) tire (4.299586) manicur (4.134103) boot (4.091487) vet (4.078567) polish (3.887280) naan (3.798075) shellac (3.634520) 
steak (3.932385) taco (3.872556) mexican (3.702046) salsa (3.628203) fri (3.521040) server (3.480931) fish (3.428443) waitress (3.350293) dinner (3.286180) burger (3.261979) 
pizza (5.380412) pho (4.799014) wing (4.601830) ian (4.471479) crust (4.267436) bbq (4.240921) mac (3.869280) merchant (3.750851) slice (3.609586) vietnames (3.529706) 
cab (5.113501) theater (5.107806) bike (4.944924) movi (4.807127) ticket (4.193181) sub (4.153945) sundanc (4.152228) theatr (4.148575) woodman (4.047815) driver (3.889720) 
sushi (4.573663) chines (4.178384) rice (4.146096) noodl (4.095772) curri (3.991443) thai (3.969310) dish (3.921659) roll (3.784078) spici (3.726617) chicken (3.653835) 
Error (train/valid/test) = 0.288112/1.624931/1.619208 (0.039001)
..................................................
energy after gradient step = 40063660.643713

Top words for each topic:
massag (4.756210) cupcak (4.643855) haircut (4.592724) hair (4.550070) appoint (4.457903) stylist (4.388399) bagel (4.386500) salon (4.049028) store (3.923684) wax (3.874148) 
breakfast (4.571880) falafel (4.245145) pancak (4.208168) pita (3.970523) bakeri (3.953642) monti (3.947101) diner (3.943501) sandwich (3.870018) pastri (3.818661) cafe (3.787902) 
beer (4.928912) burger (4.395955) curd (4.282911) brew (4.041625) graze (4.038440) tap (3.881452) bartend (3.864480) ale (3.823173) ramen (3.772515) fashion (3.721729) 
class (4.854380) gym (4.515070) yoga (4.494594) zoo (4.464658) dog (4.439757) museum (4.147791) market (4.086810) instructor (4.081346) mustard (4.078762) store (4.049910) 
hotel (5.446851) terrac (4.458947) bed (4.348215) wifi (4.288102) airport (4.262877) shuttl (4.251019) inn (4.138453) lobbi (4.125787) desk (4.115203) shower (4.087515) 
nail (4.784511) indian (4.702690) pedicur (4.481040) tire (4.252565) vet (4.167109) manicur (4.122778) boot (4.045874) polish (3.825921) naan (3.707156) salon (3.658187) 
steak (3.994351) taco (3.929979) mexican (3.762606) salsa (3.682179) fri (3.544506) server (3.533236) fish (3.514835) margarita (3.402386) waitress (3.392130) dinner (3.351799) 
pizza (5.553731) pho (4.871276) wing (4.681094) ian (4.540425) crust (4.414756) bbq (4.354390) mac (3.919777) merchant (3.824056) vietnames (3.751702) slice (3.736169) 
cab (5.245818) theater (5.092769) bike (4.977204) movi (4.912387) ticket (4.339258) sub (4.322439) woodman (4.292681) theatr (4.237227) sundanc (4.231307) driver (4.028659) 
sushi (4.606738) chines (4.206118) rice (4.199735) noodl (4.129524) curri (4.050148) thai (4.016413) dish (3.956230) roll (3.784201) spici (3.708182) chicken (3.675120) 
Error (train/valid/test) = 0.285050/1.632876/1.627079 (0.038860)
..................................................
energy after gradient step = 39947074.507573

Top words for each topic:
massag (4.811818) cupcak (4.682641) haircut (4.614488) hair (4.534744) appoint (4.500981) stylist (4.431087) bagel (4.349141) salon (4.082147) store (3.872987) dr (3.868415) 
breakfast (4.644682) falafel (4.254861) pancak (4.245422) bakeri (4.010105) pita (3.960819) sandwich (3.951688) diner (3.943486) monti (3.877112) croissant (3.853739) pastri (3.808580) 
beer (4.959190) burger (4.445610) curd (4.377549) graze (4.066933) brew (4.064775) tap (3.904392) ale (3.866662) bartend (3.858170) fashion (3.725745) ramen (3.719680) 
class (4.866148) zoo (4.561513) gym (4.513828) yoga (4.455000) dog (4.412805) instructor (4.212513) store (4.175550) museum (4.126819) market (4.099020) farmer (4.041986) 
hotel (5.479443) shuttl (4.407530) terrac (4.371843) airport (4.369731) bed (4.343127) wifi (4.299372) inn (4.258983) room (4.125708) lobbi (4.089658) desk (4.068207) 
nail (4.834924) indian (4.736514) pedicur (4.508109) tire (4.299378) manicur (4.162035) vet (4.117911) boot (4.069180) polish (3.826483) naan (3.721044) car (3.683279) 
steak (4.050708) taco (4.027405) mexican (3.792715) salsa (3.737133) server (3.576810) fri (3.561519) fish (3.536564) waitress (3.453676) margarita (3.402988) dinner (3.375147) 
pizza (5.788128) pho (4.938276) wing (4.761555) ian (4.648548) crust (4.534056) bbq (4.432962) mac (3.965646) merchant (3.929657) slice (3.819305) vietnames (3.688358) 
theater (5.205756) cab (5.203452) bike (5.013141) movi (4.867907) theatr (4.317752) sundanc (4.314671) ticket (4.263956) woodman (4.242248) sub (4.190420) driver (4.007905) 
sushi (4.636414) chines (4.244489) rice (4.228950) noodl (4.190664) curri (4.109202) thai (4.078544) dish (4.028963) spici (3.747019) roll (3.728721) chicken (3.709175) 
Error (train/valid/test) = 0.279677/1.637307/1.633652 (0.039228)
..................................................
energy after gradient step = 39817913.073037

Top words for each topic:
massag (4.846487) cupcak (4.711382) haircut (4.701861) hair (4.576416) appoint (4.555393) stylist (4.499468) bagel (4.338431) salon (4.207195) dr (3.925558) wax (3.889897) 
breakfast (4.715932) falafel (4.288627) pancak (4.273009) bakeri (4.047822) pita (3.991572) sandwich (3.971919) monti (3.939768) diner (3.926351) coffe (3.902844) pastri (3.882614) 
beer (4.929781) burger (4.525420) curd (4.432619) brew (4.108689) graze (4.058419) tap (3.929016) bartend (3.887571) ale (3.862875) pub (3.768586) fashion (3.723234) 
class (4.882411) yoga (4.572565) zoo (4.563067) gym (4.521823) dog (4.369736) store (4.349441) instructor (4.196701) shoe (4.181957) museum (4.168543) market (4.084355) 
hotel (5.508721) terrac (4.508730) bed (4.344336) shuttl (4.333082) airport (4.329541) wifi (4.306380) inn (4.248544) shower (4.188417) desk (4.142795) lobbi (4.121811) 
nail (4.823427) indian (4.728625) pedicur (4.496675) tire (4.267789) vet (4.171015) manicur (4.156870) boot (4.040113) naan (3.845687) polish (3.768653) car (3.757649) 
taco (4.065564) steak (4.045330) mexican (3.853881) salsa (3.836102) fish (3.642743) server (3.588011) fri (3.567466) waitress (3.494641) margarita (3.479838) dinner (3.400431) 
pizza (6.142570) pho (4.983761) wing (4.855387) ian (4.716023) crust (4.697134) bbq (4.497595) mac (3.996901) merchant (3.986073) slice (3.831790) brisket (3.814758) 
cab (5.304911) theater (5.226353) bike (5.039477) movi (4.932863) sundanc (4.396309) woodman (4.364743) ticket (4.357741) theatr (4.356231) sub (4.190550) mechan (4.110816) 
sushi (4.683075) rice (4.284166) chines (4.283731) noodl (4.214626) curri (4.150145) thai (4.133028) dish (4.058375) spici (3.767238) roll (3.729684) chicken (3.708784) 
Error (train/valid/test) = 0.274381/1.649558/1.639698 (0.039513)
..................................................
energy after gradient step = 39702332.767075

Top words for each topic:
massag (4.937731) cupcak (4.788155) haircut (4.752581) hair (4.590682) appoint (4.560478) stylist (4.509270) salon (4.291006) bagel (4.231745) dr (4.011891) barber (3.894861) 
breakfast (4.734000) falafel (4.303152) pancak (4.277156) bakeri (4.084264) coffe (4.016751) pita (4.000644) sandwich (3.997211) monti (3.917518) croissant (3.899431) scone (3.870367) 
beer (4.962882) burger (4.584474) curd (4.483962) brew (4.140785) graze (4.093681) tap (3.973247) ale (3.936498) bartend (3.930328) pub (3.832694) fashion (3.693668) 
class (4.905948) zoo (4.643752) yoga (4.636961) gym (4.539703) dog (4.386063) store (4.375679) instructor (4.292265) museum (4.241326) shoe (4.106011) market (4.095650) 
hotel (5.522155) terrac (4.459369) shuttl (4.418473) airport (4.384232) wifi (4.350540) bed (4.346009) inn (4.295220) lobbi (4.139334) desk (4.138549) shower (4.136897) 
nail (4.790321) indian (4.689253) pedicur (4.518994) tire (4.251369) manicur (4.116990) vet (4.080381) boot (4.000325) car (3.783709) naan (3.759725) polish (3.737916) 
taco (4.104003) steak (4.098800) salsa (3.878025) mexican (3.869089) server (3.656232) fish (3.644251) fri (3.582878) waitress (3.549903) margarita (3.532397) entre (3.430811) 
pizza (6.215711) pho (5.053372) wing (4.947166) crust (4.789096) ian (4.765021) bbq (4.598756) merchant (4.076472) mac (4.049004) slice (3.878842) brisket (3.834955) 
theater (5.349242) cab (5.328100) bike (5.064531) movi (4.975510) woodman (4.444246) theatr (4.434841) sundanc (4.412604) ticket (4.343060) sub (4.226256) mechan (4.117958) 
sushi (4.721963) rice (4.340122) chines (4.318234) noodl (4.263110) curri (4.208037) thai (4.172734) dish (4.116441) spici (3.774586) roll (3.745702) authent (3.738382) 
Error (train/valid/test) = 0.270815/1.657869/1.644392 (0.039592)
..................................................
energy after gradient step = 39605410.755204

Top words for each topic:
massag (4.951495) cupcak (4.811649) haircut (4.789558) appoint (4.652809) stylist (4.604134) hair (4.590100) salon (4.390656) bagel (4.149719) dr (4.086610) barber (3.927668) 
breakfast (4.790215) falafel (4.316836) pancak (4.304773) coffe (4.166996) bakeri (4.101023) pita (4.014715) sandwich (3.992737) scone (3.964824) monti (3.908872) croissant (3.892721) 
beer (4.978654) burger (4.671849) curd (4.476246) brew (4.163511) graze (4.107919) bartend (4.041058) tap (3.999077) ale (3.928395) pub (3.902173) fashion (3.714050) 
class (4.860842) yoga (4.630496) zoo (4.611623) gym (4.526916) store (4.435245) dog (4.308678) instructor (4.302242) museum (4.231196) mustard (4.089849) jewelri (4.086768) 
hotel (5.574067) terrac (4.594793) airport (4.448817) shuttl (4.396086) bed (4.364291) wifi (4.315550) inn (4.310694) shower (4.237985) lobbi (4.186645) barista (4.161266) 
nail (4.795163) indian (4.699508) pedicur (4.513505) tire (4.235436) vet (4.162783) manicur (4.144752) boot (3.992589) naan (3.879672) car (3.873157) polish (3.735333) 
taco (4.172342) steak (4.127801) salsa (3.912556) mexican (3.903024) fish (3.706163) server (3.681175) margarita (3.594250) fri (3.584933) waitress (3.582698) entre (3.464168) 
pizza (6.314191) pho (5.066287) wing (4.991006) crust (4.870973) ian (4.828763) bbq (4.669384) mac (4.082181) merchant (4.051963) brisket (3.997870) slice (3.940546) 
cab (5.404346) theater (5.354954) bike (5.081365) movi (5.027558) theatr (4.473098) sundanc (4.469986) woodman (4.459728) ticket (4.427629) sub (4.231829) mechan (4.149376) 
sushi (4.743277) rice (4.381403) chines (4.362340) noodl (4.296623) curri (4.254228) thai (4.222433) dish (4.147616) spici (3.786410) authent (3.774469) roll (3.737611) 
Error (train/valid/test) = 0.267272/1.664931/1.653458 (0.039721)
..................................................
energy after gradient step = 39528327.142370

Top words for each topic:
massag (5.014235) haircut (4.850821) cupcak (4.803933) appoint (4.673819) stylist (4.627997) hair (4.578799) salon (4.341389) dr (4.069983) barber (3.972430) wax (3.961242) 
breakfast (4.834190) pancak (4.350097) falafel (4.323382) coffe (4.261651) bakeri (4.108722) scone (4.038917) pita (4.005513) monti (3.963141) sandwich (3.959707) croissant (3.951659) 
beer (4.991324) burger (4.738031) curd (4.522925) brew (4.173072) graze (4.079923) bartend (4.054340) tap (4.043214) ale (3.985635) pub (3.862237) fashion (3.717087) 
class (4.876879) yoga (4.719502) zoo (4.671132) gym (4.567369) store (4.489299) instructor (4.402406) museum (4.338290) dog (4.262212) jewelri (4.122250) market (4.075836) 
hotel (5.578847) terrac (4.524003) shuttl (4.500952) airport (4.454453) inn (4.392328) bed (4.380787) wifi (4.342402) shower (4.243719) union (4.191837) desk (4.190353) 
nail (4.788706) indian (4.674668) pedicur (4.471910) tire (4.178571) vet (4.154698) manicur (4.125190) boot (3.953234) car (3.913770) polish (3.840098) naan (3.831740) 
taco (4.193838) steak (4.156232) mexican (3.937966) salsa (3.934345) server (3.717830) fish (3.679811) margarita (3.635778) waitress (3.630060) fri (3.611259) entre (3.506515) 
pizza (6.411456) pho (5.117488) wing (5.046743) crust (4.947769) ian (4.895805) bbq (4.718267) merchant (4.154760) mac (4.146138) rib (4.052758) brisket (4.016856) 
theater (5.470215) cab (5.401911) bike (5.142704) movi (5.117758) woodman (4.721412) sundanc (4.561095) theatr (4.542232) ticket (4.430122) sub (4.288965) mechan (4.249839) 
sushi (4.784869) rice (4.448350) chines (4.394107) noodl (4.328185) curri (4.308633) thai (4.266900) dish (4.171349) authent (3.807796) spici (3.791774) chicken (3.750115) 
Error (train/valid/test) = 0.264497/1.673303/1.655919 (0.039924)
..................................................
energy after gradient step = 39433757.202650

Top words for each topic:
massag (5.055214) haircut (4.899444) cupcak (4.838443) appoint (4.713544) stylist (4.691573) hair (4.606107) salon (4.387156) dr (4.126765) barber (4.027368) wax (3.984142) 
breakfast (4.860730) pancak (4.376826) falafel (4.373550) coffe (4.331869) bakeri (4.148930) scone (4.072856) bagel (4.030417) pita (4.015067) sandwich (3.992579) croissant (3.972088) 
beer (4.997363) burger (4.789529) curd (4.549366) brew (4.200524) graze (4.129742) tap (4.085903) bartend (4.070035) ale (3.989300) pub (3.925450) fashion (3.712370) 
class (4.833041) zoo (4.696320) yoga (4.694597) store (4.566751) gym (4.491317) instructor (4.372205) museum (4.304957) dog (4.186944) jewelri (4.102187) shoe (4.099794) 
hotel (5.593001) terrac (4.644969) airport (4.487768) shuttl (4.464951) inn (4.403499) wifi (4.387387) bed (4.382671) shower (4.279938) lobbi (4.232144) barista (4.206518) 
nail (4.788046) indian (4.688229) pedicur (4.511876) tire (4.169960) manicur (4.121315) vet (4.100797) naan (3.926392) boot (3.917831) car (3.899040) polish (3.692761) 
taco (4.230019) steak (4.180623) mexican (3.968717) salsa (3.967282) server (3.781924) fish (3.715236) waitress (3.646405) margarita (3.643071) fri (3.619935) entre (3.552557) 
pizza (6.516009) pho (5.151665) wing (5.092428) crust (5.037867) ian (4.948100) bbq (4.797779) mac (4.164942) merchant (4.159480) brisket (4.127327) rib (4.096828) 
theater (5.464502) cab (5.457613) bike (5.150600) movi (5.118271) woodman (4.664751) theatr (4.625442) sundanc (4.603688) ticket (4.513009) sub (4.346536) mechan (4.312634) 
sushi (4.815360) rice (4.483452) chines (4.421696) noodl (4.354962) curri (4.331865) thai (4.301766) dish (4.190016) authent (3.836378) spici (3.803074) dumpl (3.799828) 
Error (train/valid/test) = 0.260769/1.677143/1.658481 (0.039871)
..................................................
energy after gradient step = 39351271.875983

Top words for each topic:
massag (5.075595) haircut (4.956426) cupcak (4.840750) appoint (4.741415) stylist (4.707982) hair (4.597355) salon (4.409476) dr (4.199798) barber (4.065044) wax (3.966074) 
breakfast (4.927137) coffe (4.444484) pancak (4.401814) falafel (4.361571) bagel (4.222702) scone (4.192652) bakeri (4.173435) pita (4.082997) sandwich (4.015263) croissant (3.991451) 
beer (4.992530) burger (4.853480) curd (4.617804) brew (4.225034) graze (4.144527) tap (4.111862) bartend (4.070692) ale (4.003053) pub (3.981604) fashion (3.696793) 
class (4.798977) yoga (4.783711) zoo (4.677036) store (4.643453) gym (4.481928) instructor (4.436290) museum (4.379611) shoe (4.223221) jewelri (4.206926) dog (4.134108) 
hotel (5.563155) terrac (4.589261) shuttl (4.527346) airport (4.511938) inn (4.443219) bed (4.413854) wifi (4.412845) lobbi (4.254708) shower (4.238619) starbuck (4.212824) 
nail (4.762401) indian (4.704060) pedicur (4.476659) tire (4.184010) vet (4.135967) manicur (4.082841) car (3.950441) boot (3.890115) naan (3.816333) polish (3.761439) 
taco (4.268617) steak (4.196601) mexican (4.029793) salsa (4.023590) server (3.840560) fish (3.766697) margarita (3.719512) waitress (3.693919) fri (3.652173) entre (3.594558) 
pizza (6.638989) pho (5.198620) wing (5.144478) crust (5.119102) ian (5.015147) bbq (4.882474) mac (4.195975) brisket (4.192975) rib (4.187218) merchant (4.155572) 
theater (5.605792) cab (5.551786) bike (5.208874) movi (5.166418) woodman (4.813599) theatr (4.667439) sundanc (4.653808) ticket (4.519949) mechan (4.447553) sub (4.401034) 
sushi (4.849359) rice (4.542112) chines (4.464436) noodl (4.418786) curri (4.374614) thai (4.346116) dish (4.218366) authent (3.886207) spici (3.842435) dumpl (3.842272) 
Error (train/valid/test) = 0.256884/1.688165/1.666941 (0.040047)
..................................................
energy after gradient step = 39270137.003696

Top words for each topic:
massag (5.152557) haircut (5.026543) cupcak (4.882876) stylist (4.805373) appoint (4.766288) hair (4.604991) salon (4.410485) dr (4.264470) barber (4.100557) wax (4.040200) 
breakfast (4.967472) coffe (4.563941) falafel (4.435615) pancak (4.422838) bagel (4.317274) scone (4.250731) bakeri (4.229420) pita (4.071606) croissant (4.069879) sandwich (4.061517) 
beer (5.012537) burger (4.922800) curd (4.661252) brew (4.275664) graze (4.180676) tap (4.164299) bartend (4.119456) ale (4.075062) pub (4.040233) breweri (3.686657) 
yoga (4.824535) class (4.800749) zoo (4.794559) store (4.679509) gym (4.522214) instructor (4.520063) museum (4.361488) jewelri (4.170069) shoe (4.152883) dog (4.121046) 
hotel (5.615361) terrac (4.710168) shuttl (4.558705) airport (4.511004) inn (4.475962) wifi (4.409330) bed (4.374149) barista (4.317301) shower (4.302838) desk (4.276096) 
nail (4.771799) indian (4.684106) pedicur (4.497639) tire (4.194456) vet (4.098689) manicur (4.098127) car (3.962880) naan (3.948500) boot (3.891559) polish (3.735962) 
taco (4.330961) steak (4.236310) salsa (4.088539) mexican (4.072296) server (3.857243) fish (3.789965) margarita (3.766768) waitress (3.736033) entre (3.677246) fri (3.676505) 
pizza (6.711764) crust (5.240913) pho (5.205297) wing (5.173210) ian (5.065613) bbq (4.949007) brisket (4.265856) mac (4.230254) rib (4.219486) merchant (4.192061) 
cab (5.587137) theater (5.572349) movi (5.213580) bike (5.202498) woodman (4.932707) theatr (4.721702) sundanc (4.674695) ticket (4.467533) stadium (4.390763) sub (4.315356) 
sushi (4.902015) rice (4.588756) chines (4.506239) noodl (4.461879) curri (4.440307) thai (4.398069) dish (4.209278) authent (3.906975) spici (3.887711) dumpl (3.872172) 
Error (train/valid/test) = 0.251298/1.700300/1.680208 (0.040612)
..................................................
energy after gradient step = 39236010.287742

Top words for each topic:
massag (5.198222) haircut (5.069305) cupcak (4.891589) stylist (4.855106) appoint (4.834022) hair (4.605593) salon (4.525797) dr (4.327425) barber (4.134930) hyve (4.023179) 
breakfast (5.015411) coffe (4.644131) pancak (4.461392) falafel (4.459582) bagel (4.406073) bakeri (4.293059) scone (4.289728) croissant (4.107818) sandwich (4.076923) monti (4.070392) 
beer (5.006990) burger (5.001205) curd (4.664944) brew (4.283865) tap (4.208259) graze (4.204166) bartend (4.117888) pub (4.107094) ale (4.094617) fashion (3.717377) 
yoga (4.868453) class (4.808750) store (4.747002) zoo (4.710819) gym (4.447068) instructor (4.446155) museum (4.377329) jewelri (4.261840) shoe (4.212262) farmer (4.136588) 
hotel (5.620147) terrac (4.707584) shuttl (4.591728) airport (4.564567) inn (4.530777) shower (4.398585) bed (4.390032) wifi (4.364627) lobbi (4.319374) barista (4.284393) 
nail (4.775867) indian (4.673474) pedicur (4.476888) tire (4.182289) manicur (4.122452) vet (4.070536) car (3.917423) naan (3.845071) boot (3.819150) polish (3.652400) 
taco (4.368485) steak (4.263291) mexican (4.111935) salsa (4.100182) server (3.901698) fish (3.820247) margarita (3.807833) waitress (3.752274) entre (3.721534) fri (3.648628) 
pizza (6.780125) crust (5.276694) pho (5.234498) wing (5.222023) ian (5.136018) bbq (5.042588) mac (4.310386) rib (4.301355) brisket (4.289120) merchant (4.241403) 
theater (5.668771) cab (5.593202) movi (5.243329) bike (5.188579) woodman (5.015339) theatr (4.845300) sundanc (4.778022) ticket (4.622930) stadium (4.485900) driver (4.391990) 
sushi (4.948047) rice (4.629328) chines (4.548763) noodl (4.511350) curri (4.478791) thai (4.439118) dish (4.241715) authent (3.954576) dumpl (3.915347) spici (3.913152) 
Error (train/valid/test) = 0.246482/1.699849/1.686962 (0.041011)
..................................................
energy after gradient step = 39136572.698810

Top words for each topic:
massag (5.226583) haircut (5.122945) cupcak (4.919782) stylist (4.899908) appoint (4.859638) hair (4.609753) salon (4.582653) dr (4.349225) barber (4.210082) wax (4.054479) 
breakfast (5.071533) coffe (4.714379) pancak (4.502670) bagel (4.496886) falafel (4.483775) scone (4.338526) bakeri (4.313918) croissant (4.165517) pita (4.141674) sandwich (4.118679) 
burger (5.040629) beer (5.012825) curd (4.704928) brew (4.270283) tap (4.248103) graze (4.224351) bartend (4.190500) pub (4.160086) ale (4.110971) breweri (3.776406) 
yoga (4.922010) store (4.847993) zoo (4.840512) class (4.807686) instructor (4.577904) gym (4.473762) museum (4.439316) shoe (4.378537) jewelri (4.267055) farmer (4.129321) 
hotel (5.624576) terrac (4.707800) shuttl (4.652250) inn (4.592612) airport (4.560903) wifi (4.423217) bed (4.407616) shower (4.401451) barista (4.383268) starbuck (4.323242) 
nail (4.766206) indian (4.600439) pedicur (4.474925) tire (4.157851) manicur (4.115053) vet (4.045230) car (3.901133) naan (3.891030) boot (3.836110) polish (3.631575) 
taco (4.430746) steak (4.281554) mexican (4.160998) salsa (4.136823) server (3.946158) margarita (3.872617) waitress (3.861475) fish (3.854052) entre (3.794050) dinner (3.659574) 
pizza (6.842018) crust (5.340450) wing (5.304383) ian (5.201083) pho (5.114496) bbq (5.075286) mac (4.428273) brisket (4.368545) rib (4.356175) pepperoni (4.308803) 
theater (5.749426) cab (5.660004) movi (5.334261) bike (5.191183) woodman (5.080211) theatr (4.899684) sundanc (4.852238) ticket (4.590553) stadium (4.552824) driver (4.524024) 
sushi (4.983895) rice (4.670528) chines (4.580960) noodl (4.567959) curri (4.529240) thai (4.458700) dish (4.276518) authent (4.017206) dumpl (3.965442) chicken (3.917698) 
Error (train/valid/test) = 0.242638/1.707728/1.694316 (0.041251)
..................................................
energy after gradient step = 39076311.688186

Top words for each topic:
massag (5.274452) haircut (5.176565) stylist (4.944262) cupcak (4.907215) appoint (4.862815) hair (4.607312) salon (4.570473) dr (4.468090) barber (4.265769) wax (4.199617) 
breakfast (5.094280) coffe (4.756666) bagel (4.565640) pancak (4.532067) falafel (4.487736) scone (4.374964) bakeri (4.343634) croissant (4.171518) pita (4.163195) sandwich (4.161497) 
burger (5.088118) beer (4.974883) curd (4.734664) brew (4.275738) tap (4.275323) graze (4.250305) bartend (4.220031) pub (4.215653) ale (4.150726) breweri (3.782012) 
yoga (4.915264) store (4.869937) class (4.806140) zoo (4.793747) instructor (4.578311) gym (4.415876) museum (4.405302) shoe (4.374385) jewelri (4.304051) produc (4.156282) 
hotel (5.604174) terrac (4.774216) shuttl (4.664767) inn (4.603808) airport (4.585928) wifi (4.422975) bed (4.410377) lobbi (4.394223) shower (4.383951) barista (4.338879) 
nail (4.750690) indian (4.591362) pedicur (4.460225) tire (4.098403) manicur (4.087996) vet (4.056638) car (3.935678) naan (3.904549) polish (3.740798) boot (3.710998) 
taco (4.506998) steak (4.296249) mexican (4.185618) salsa (4.142038) server (3.971542) margarita (3.939782) waitress (3.909595) fish (3.836631) entre (3.807266) frite (3.728577) 
pizza (6.909340) crust (5.400019) wing (5.347825) ian (5.254338) bbq (5.116833) pho (4.998287) mac (4.439941) rib (4.418281) brisket (4.400115) pepperoni (4.324469) 
theater (5.804468) cab (5.698510) movi (5.359101) bike (5.167073) woodman (5.105999) theatr (4.944574) sundanc (4.930876) ticket (4.664562) stadium (4.621781) walmart (4.469797) 
sushi (5.031249) rice (4.702026) chines (4.626572) noodl (4.584979) curri (4.582302) thai (4.515858) dish (4.307119) authent (4.052919) dumpl (4.015149) chicken (3.916425) 
Error (train/valid/test) = 0.238457/1.716165/1.701187 (0.041573)
..................................................
energy after gradient step = 39011232.586592

Top words for each topic:
massag (5.296017) haircut (5.238015) stylist (5.008885) cupcak (4.928644) appoint (4.871894) salon (4.659396) hair (4.608082) dr (4.466901) barber (4.315360) dentist (4.145155) 
breakfast (5.126172) coffe (4.822209) bagel (4.643395) pancak (4.554826) falafel (4.535310) scone (4.451348) bakeri (4.398510) croissant (4.254441) pita (4.186483) sandwich (4.175204) 
burger (5.115819) beer (4.988844) curd (4.749707) brew (4.324281) graze (4.286889) tap (4.283516) bartend (4.238213) pub (4.235694) ale (4.181913) breweri (3.817109) 
yoga (4.952749) store (4.937425) zoo (4.865010) class (4.808524) instructor (4.651908) gym (4.511025) museum (4.487968) yarn (4.410569) shoe (4.391677) jewelri (4.281109) 
hotel (5.637000) terrac (4.792370) inn (4.680853) shuttl (4.657634) airport (4.587027) lobbi (4.499511) wifi (4.448525) shower (4.436522) bed (4.432339) starbuck (4.416282) 
nail (4.749627) indian (4.605338) pedicur (4.483942) manicur (4.098676) tire (4.088059) vet (4.068111) car (3.978885) naan (3.898608) boot (3.737912) salon (3.602761) 
taco (4.559756) steak (4.315781) mexican (4.224647) salsa (4.168659) margarita (4.004268) server (3.971872) waitress (3.908989) fish (3.853922) entre (3.848740) frite (3.773309) 
pizza (6.980809) crust (5.456323) wing (5.354204) ian (5.294488) bbq (5.175788) pho (4.805997) brisket (4.515394) rib (4.456977) mac (4.439675) pepperoni (4.407200) 
theater (5.836640) cab (5.739004) movi (5.427858) woodman (5.215402) bike (5.164239) theatr (4.992181) sundanc (4.989150) stadium (4.666626) ticket (4.626113) driver (4.575219) 
sushi (5.065590) rice (4.749486) chines (4.669765) noodl (4.645987) curri (4.628734) thai (4.564320) dish (4.320500) authent (4.083714) dumpl (4.057161) chicken (3.958144) 
Error (train/valid/test) = 0.234085/1.726900/1.712800 (0.041953)
..................................................
energy after gradient step = 38954360.803734

Top words for each topic:
massag (5.355254) haircut (5.292063) stylist (5.059823) cupcak (4.936578) appoint (4.879183) salon (4.838481) hair (4.646049) dr (4.546779) barber (4.366999) wax (4.214562) 
breakfast (5.154728) coffe (4.889541) bagel (4.728151) pancak (4.609116) falafel (4.511029) scone (4.483202) bakeri (4.443874) croissant (4.288285) pita (4.238174) donut (4.204261) 
burger (5.166805) beer (5.027568) curd (4.798209) brew (4.335340) tap (4.326460) graze (4.315990) bartend (4.298716) pub (4.292006) ale (4.234647) breweri (3.851165) 
store (4.972308) yoga (4.939063) zoo (4.885212) class (4.782956) instructor (4.672632) gym (4.499778) yarn (4.490532) museum (4.459030) shoe (4.413201) jewelri (4.344127) 
hotel (5.635026) terrac (4.838464) shuttl (4.711135) inn (4.674433) airport (4.646082) shower (4.486625) barista (4.477228) wifi (4.447051) bed (4.437777) starbuck (4.426699) 
nail (4.754941) indian (4.564535) pedicur (4.462698) manicur (4.099428) tire (4.077028) car (4.049794) vet (4.015856) naan (3.925417) polish (3.739377) boot (3.687598) 
taco (4.547650) steak (4.353022) mexican (4.229633) salsa (4.207332) margarita (4.064238) server (3.999615) entre (3.924919) waitress (3.923469) fish (3.879930) appet (3.784620) 
pizza (7.066549) crust (5.467182) wing (5.372252) ian (5.365054) bbq (5.232955) pho (4.671529) brisket (4.514738) pepperoni (4.509078) rib (4.502202) mac (4.443800) 
theater (5.884426) cab (5.759194) movi (5.459765) woodman (5.271343) bike (5.163644) theatr (5.103211) sundanc (5.059488) stadium (4.720734) ticket (4.718094) driver (4.627913) 
sushi (5.094311) rice (4.788882) chines (4.709052) noodl (4.682564) curri (4.669426) thai (4.614698) dish (4.351316) authent (4.137774) dumpl (4.109656) chicken (3.990077) 
Error (train/valid/test) = 0.229426/1.741254/1.722078 (0.042225)
