corpus = data_char.gz
latentReg = 0.000000
lambda = 8.000000
K = 5

nUsers = 24649, nItems = 5149, nRatings = 98034

Error w/ offset term only (train/valid/test) = 1.538870/1.512279/1.538328 (0.019992)
Error w/ offset and bias (train/valid/test) = 0.763218/1.284585/1.295652 (0.019978)

..................................................
energy after gradient step = 395978660.515025

Top words for each topic:
twist (0.341778) trivia (0.338028) coat (0.331130) needless (0.328597) eh (0.317777) race (0.298539) winner (0.281920) picnic (0.280542) butteri (0.280510) label (0.276907) 
hesit (0.351254) panther (0.342249) attend (0.284762) beet (0.280218) teriyaki (0.274469) indoor (0.270261) calm (0.260296) join (0.259831) bass (0.259652) batch (0.252307) 
freak (0.404981) complex (0.328966) ador (0.303029) older (0.283967) extens (0.274191) begin (0.268217) fyi (0.266822) yet (0.266809) gorgeous (0.264906) refund (0.264383) 
chat (0.323688) pleasur (0.288754) skin (0.269277) target (0.262343) fire (0.259440) brew (0.246515) environ (0.243905) upgrad (0.242690) decis (0.241618) joke (0.239414) 
laugh (0.364397) polic (0.291310) mimosa (0.270811) san (0.266686) settl (0.263373) footbal (0.256439) ideal (0.252141) hello (0.244805) bud (0.244459) crabcak (0.241889) 
Error (train/valid/test) = 1.409682/1.414817/1.442644 (0.018945)
..................................................
energy after gradient step = 395577874.056304

Top words for each topic:
linger (0.520686) 23 (0.492560) doggi (0.468157) mama (0.464693) ac (0.459178) confid (0.453270) mellow (0.447984) length (0.437828) tablesid (0.433292) letter (0.433017) 
info (0.648152) pit (0.606915) hundr (0.546853) liberti (0.500025) growler (0.491488) concret (0.489790) hat (0.466591) recogn (0.462925) moder (0.460322) stain (0.457567) 
exercis (0.669593) trio (0.581933) ador (0.581536) sink (0.537338) sticker (0.526638) trout (0.513638) jersey (0.501721) nurs (0.487575) fyi (0.487419) prescript (0.478600) 
accent (0.670242) communic (0.644166) wilt (0.585208) film (0.564365) booz (0.531659) batteri (0.530724) sangria (0.492258) soooo (0.479249) vida (0.470568) brush (0.464773) 
cobbler (0.807697) bookstor (0.553983) squeez (0.516517) tail (0.512194) lighter (0.483189) zoe (0.472386) snap (0.451410) hustl (0.451235) underneath (0.451104) purpos (0.446429) 
Error (train/valid/test) = 1.279006/1.335851/1.359899 (0.018255)
..................................................
energy after gradient step = 395426160.431033

Top words for each topic:
length (0.677983) vacuum (0.667732) tzatziki (0.661297) mama (0.630044) itll (0.626036) macaroon (0.619146) mechan (0.612160) region (0.603956) string (0.597355) recal (0.595094) 
info (1.192696) 247 (0.815076) growler (0.793409) river (0.700766) bouncer (0.700270) lion (0.685480) outback (0.684207) moder (0.649741) hundr (0.644996) goodwil (0.640129) 
tremend (0.753137) spa (0.745515) exercis (0.716165) contrast (0.707956) hood (0.701830) del (0.679072) tenderloin (0.665885) panera (0.652815) oili (0.647373) ounc (0.646638) 
accent (0.901625) 750 (0.820862) film (0.726111) p (0.703429) sangria (0.701984) communic (0.692250) batteri (0.669896) arrang (0.651276) happier (0.647662) lay (0.639339) 
duti (0.766938) sucker (0.698385) golf (0.697546) purpos (0.690761) underneath (0.676809) 0 (0.668777) bookstor (0.644922) exit (0.642833) tail (0.637589) debit (0.611199) 
Error (train/valid/test) = 1.209601/1.301512/1.324646 (0.018034)
..................................................
energy after gradient step = 395262043.437247

Top words for each topic:
tzatziki (0.896283) mama (0.864027) pat (0.792275) repres (0.732109) ms (0.730120) report (0.728863) besid (0.709695) yard (0.702439) struggl (0.701145) wit (0.700031) 
info (1.056588) guid (0.968449) pit (0.895640) outback (0.875068) bouncer (0.874724) domino (0.802695) liberti (0.794692) transact (0.790219) lion (0.786594) sooo (0.746050) 
hood (1.036512) sticker (0.815796) tremend (0.798781) swim (0.774205) toni (0.766319) trio (0.761766) raleigh (0.741732) nurs (0.731533) puff (0.731399) norm (0.724173) 
accent (0.953722) graham (0.816323) p (0.813846) visual (0.796376) mein (0.767432) happier (0.765670) eddi (0.743878) 5pm (0.730196) libretto (0.721547) film (0.713350) 
metal (0.848616) sucker (0.841855) plug (0.835842) cobbler (0.797250) duti (0.794935) exit (0.767535) grace (0.759479) flow (0.718389) disorgan (0.717053) duckworth (0.706709) 
Error (train/valid/test) = 1.164523/1.283367/1.306097 (0.017949)
..................................................
energy after gradient step = 395101517.911742

Top words for each topic:
skillet (0.884151) tzatziki (0.883177) pat (0.860657) report (0.847842) mama (0.828871) ms (0.802610) commit (0.784293) repres (0.776570) epicentr (0.775326) page (0.747515) 
info (1.171478) guid (1.036440) outback (1.022958) pit (0.954983) domino (0.933089) lion (0.858248) sooo (0.842112) minimum (0.836789) liberti (0.828879) auto (0.813846) 
swim (0.959786) hood (0.951944) intend (0.908812) nurs (0.869766) primari (0.848424) smokehous (0.841964) inspect (0.840939) del (0.838662) offici (0.824010) sticker (0.813767) 
accent (0.958883) graham (0.906485) 131 (0.857890) eddi (0.840295) morton (0.824474) yell (0.805563) upsid (0.800385) everytim (0.799730) surgeri (0.799338) map (0.798057) 
sucker (1.032401) cobbler (0.991013) smokey (0.959620) plug (0.953612) grace (0.934654) exit (0.923919) shelf (0.825558) duti (0.823248) jumbo (0.808734) poach (0.801002) 
Error (train/valid/test) = 1.134612/1.272763/1.295315 (0.017914)
..................................................
energy after gradient step = 394956252.270870

Top words for each topic:
equival (0.956645) commit (0.948609) tzatziki (0.948074) genuin (0.917943) mex (0.917699) struggl (0.870448) valid (0.860362) mama (0.850601) rais (0.846193) thrift (0.829661) 
info (1.157312) outback (1.074025) pit (1.054069) guid (1.033630) auto (0.976575) minimum (0.967946) lion (0.939431) 22 (0.883898) subway (0.881350) foreign (0.859561) 
swim (1.081775) toni (1.060730) lip (1.045295) intend (0.982064) perspect (0.974488) hood (0.965751) strict (0.936579) smokehous (0.925009) fyi (0.915600) dedic (0.913483) 
stall (1.051884) mongolian (0.995466) accent (0.961888) graham (0.952757) eddi (0.940812) 131 (0.922469) ceil (0.902271) provolon (0.872991) volunt (0.862636) unhealthi (0.856466) 
exit (1.258010) sucker (1.230571) cobbler (1.091591) omni (0.977995) grace (0.974215) duti (0.938767) smokey (0.936503) batteri (0.900509) plug (0.871376) poach (0.871115) 
Error (train/valid/test) = 1.105923/1.264103/1.286105 (0.017897)
..................................................
energy after gradient step = 394799539.369050

Top words for each topic:
equival (1.116700) commit (1.040260) mama (1.020928) report (0.984956) valid (0.939409) mex (0.935929) struggl (0.931968) gorgonzola (0.892317) nonetheless (0.891856) genuin (0.881424) 
info (1.212175) outback (1.150397) guid (1.086962) pit (1.074228) auto (1.049323) minimum (1.024945) t (1.015673) subway (1.008505) brother (0.970288) andor (0.965100) 
toni (1.255885) swim (1.170888) tremend (1.064854) plazamidwood (1.037805) lip (1.020436) cuban (1.000209) strict (0.991201) intend (0.975187) inspir (0.972546) smokehous (0.943431) 
mongolian (1.206301) eddi (1.143016) stall (1.096733) communic (1.005468) graham (1.001631) 131 (1.000284) signatur (0.994142) ceil (0.991968) map (0.987655) happier (0.970043) 
sucker (1.263517) omni (1.111729) exit (1.089149) oz (1.087245) industri (1.069122) smokey (1.049623) plug (1.031109) cobbler (1.029717) duti (0.984879) fondu (0.981041) 
Error (train/valid/test) = 1.083180/1.258338/1.279566 (0.017895)
..................................................
energy after gradient step = 394623339.545993

Top words for each topic:
mex (1.048214) lupi (1.039856) mama (1.010916) struggl (1.010256) pedicur (0.979677) 1511 (0.970923) maci (0.969706) selfserv (0.961786) genuin (0.957195) nfl (0.952169) 
info (1.295412) pit (1.171823) t (1.117233) subway (1.092588) guid (1.080454) outback (1.061336) minimum (1.051754) adopt (1.027540) julia (1.013707) andor (0.996991) 
swim (1.353415) toni (1.349332) lip (1.279412) tan (1.193247) relish (1.155205) intend (1.151822) led (1.142376) hood (1.105505) strict (1.091931) jet (1.062188) 
mongolian (1.223684) map (1.196728) graham (1.194651) eddi (1.188150) stall (1.095660) signatur (1.044660) hangov (1.036498) communic (1.023981) film (1.011059) exot (1.001710) 
sucker (1.325227) omni (1.276330) exit (1.152279) oz (1.138177) industri (1.119542) 500 (1.095571) plug (1.055416) smokey (1.047308) fondu (1.042518) nova (1.029821) 
Error (train/valid/test) = 1.060982/1.253233/1.273951 (0.017903)
..................................................
energy after gradient step = 394417894.737864

Top words for each topic:
mama (1.195380) genuin (1.128036) 1511 (1.126767) hookah (1.126654) mex (1.077342) nonetheless (1.046772) instal (1.045966) silver (1.036618) pedicur (1.023853) length (1.023671) 
info (1.270772) guid (1.239106) adopt (1.179826) pit (1.171527) prais (1.127153) subway (1.116730) minimum (1.112761) outback (1.108752) fave (1.105551) julia (1.084336) 
swim (1.546815) tan (1.508094) toni (1.438123) lip (1.267734) relish (1.258157) intend (1.168568) histori (1.140223) inspect (1.136703) cuban (1.133649) exchang (1.108718) 
eddi (1.485446) map (1.260646) bojangl (1.219279) mongolian (1.213411) film (1.190719) signatur (1.121859) graham (1.111597) 131 (1.110673) yell (1.076395) stall (1.076134) 
omni (1.302940) exit (1.280996) sucker (1.194975) media (1.140748) grace (1.125919) nutrit (1.098723) costco (1.097078) 3d (1.082650) fondu (1.080360) nova (1.078486) 
Error (train/valid/test) = 1.041383/1.249733/1.269877 (0.017919)
..................................................
energy after gradient step = 394239913.933744

Top words for each topic:
hookah (1.338331) mex (1.274062) mama (1.247228) 1511 (1.243468) instal (1.142609) pedicur (1.096707) fuel (1.096557) nfl (1.093898) length (1.081301) genuin (1.066443) 
pit (1.365216) info (1.354885) subway (1.312175) outback (1.223755) prais (1.222000) minimum (1.182102) grandma (1.179729) guid (1.179478) consign (1.175226) walmart (1.084488) 
swim (1.656006) tan (1.543448) toni (1.433624) lip (1.417182) cabo (1.267548) understaf (1.221629) exchang (1.181655) jet (1.166941) nascar (1.161602) ht (1.152205) 
eddi (1.459631) bojangl (1.286160) map (1.271715) china (1.257793) stall (1.211695) shouldnt (1.199908) 131 (1.198345) hangov (1.157004) graham (1.155169) film (1.138740) 
omni (1.438189) grace (1.266482) tamal (1.264779) exit (1.236729) fondu (1.214683) media (1.211861) costco (1.198895) nova (1.156094) tongu (1.146062) smokey (1.139758) 
Error (train/valid/test) = 1.024037/1.246562/1.266228 (0.017929)
..................................................
energy after gradient step = 394048648.295272

Top words for each topic:
1511 (1.335188) hookah (1.309874) length (1.289848) mex (1.273234) video (1.249677) pedicur (1.201073) smoothi (1.194748) comic (1.170053) vine (1.162237) mama (1.161677) 
info (1.420477) subway (1.407477) pit (1.349052) outback (1.280537) consign (1.265894) adopt (1.243575) walmart (1.241097) inspir (1.150738) grandma (1.147598) flea (1.119120) 
swim (1.667672) tan (1.532265) toni (1.396704) jet (1.387603) lip (1.357250) trader (1.348176) nascar (1.294486) mert (1.277270) cabo (1.258959) construct (1.236685) 
bojangl (1.455630) map (1.426601) eddi (1.424596) china (1.388490) film (1.314122) yell (1.224205) barber (1.218880) graham (1.212645) bead (1.210045) mongolian (1.192750) 
omni (1.551726) costco (1.343027) tamal (1.333396) exit (1.280794) fondu (1.269101) nova (1.253877) grace (1.230040) abc (1.196803) tongu (1.186613) smokey (1.167162) 
Error (train/valid/test) = 1.009714/1.244371/1.263650 (0.017942)
..................................................
energy after gradient step = 393866013.630342

Top words for each topic:
mex (1.409934) pedicur (1.405773) mama (1.400816) instal (1.394675) smoothi (1.371204) length (1.334792) 1511 (1.293604) vine (1.270253) fuel (1.269936) hookah (1.265663) 
subway (1.476481) pit (1.441685) info (1.424451) outback (1.311407) walmart (1.308207) consign (1.281592) grandma (1.262655) adopt (1.209696) bold (1.188823) guid (1.175435) 
tan (1.872097) swim (1.751872) nascar (1.527155) trader (1.484190) mert (1.459928) jet (1.431875) trio (1.360335) toni (1.315619) cuban (1.296626) brixx (1.278362) 
eddi (1.603753) bojangl (1.558283) map (1.496321) china (1.421812) vet (1.404869) 131 (1.281665) groom (1.259591) film (1.256230) mongolian (1.245428) mattress (1.229949) 
omni (1.495696) tamal (1.342333) costco (1.311594) nova (1.289009) grace (1.278116) oz (1.275450) abc (1.243864) tongu (1.235482) 500 (1.228258) overlook (1.223403) 
Error (train/valid/test) = 0.996946/1.242714/1.261918 (0.017963)
..................................................
energy after gradient step = 393600122.204070

Top words for each topic:
smoothi (1.572467) wax (1.519295) pedicur (1.507392) length (1.475606) 1511 (1.449319) comic (1.421269) hookah (1.389060) mama (1.380865) pinki (1.356772) instal (1.342474) 
subway (1.630690) pit (1.499814) walmart (1.485324) info (1.457489) outback (1.385956) adopt (1.326599) donut (1.310453) grandma (1.285911) consign (1.284710) flea (1.274717) 
tan (1.940311) swim (1.785323) trader (1.713555) nascar (1.655639) jet (1.535251) mert (1.500591) cuban (1.493793) intend (1.401391) tjs (1.390228) ht (1.386264) 
bojangl (1.722681) eddi (1.644160) vet (1.551859) map (1.472988) china (1.436001) groom (1.355274) graham (1.323987) barber (1.310340) mattress (1.296358) bead (1.292478) 
omni (1.633527) nova (1.490322) oz (1.403301) stir (1.371354) grace (1.349949) capit (1.338493) tamal (1.337222) overlook (1.303303) exit (1.299958) costco (1.284346) 
Error (train/valid/test) = 0.984513/1.241298/1.260016 (0.017982)
..................................................
energy after gradient step = 393269190.127489

Top words for each topic:
smoothi (1.766870) hookah (1.699416) pedicur (1.698741) wax (1.588162) 1511 (1.529480) comic (1.526279) nfl (1.475940) instal (1.460804) fuel (1.392147) mex (1.391609) 
subway (1.738834) walmart (1.628522) info (1.554207) outback (1.544063) liberti (1.541525) pit (1.533780) consign (1.498945) adopt (1.412903) donut (1.401703) irish (1.382641) 
tan (2.005672) trader (1.874324) mert (1.789316) swim (1.786877) nascar (1.691476) cuban (1.668045) jet (1.656089) ht (1.628219) tjs (1.558271) pf (1.493929) 
bojangl (1.841133) vet (1.757670) eddi (1.717510) map (1.698914) mattress (1.550225) groom (1.540502) anim (1.455234) barber (1.450991) baklava (1.431061) film (1.410019) 
omni (1.644231) nova (1.606000) fondu (1.461315) exit (1.427963) oz (1.425387) stir (1.404670) grace (1.388589) tamal (1.366051) overlook (1.359158) york (1.344704) 
Error (train/valid/test) = 0.972085/1.240251/1.258069 (0.017997)
..................................................
energy after gradient step = 392886949.236369

Top words for each topic:
smoothi (1.901423) pedicur (1.872112) wax (1.797471) hookah (1.791963) instal (1.691140) comic (1.681805) 1511 (1.570806) genuin (1.544521) pierc (1.504494) stadium (1.486038) 
subway (1.863783) walmart (1.746594) liberti (1.611259) consign (1.563450) donut (1.559457) pit (1.550903) irish (1.540517) info (1.496041) outback (1.487388) hat (1.447396) 
tan (2.122491) trader (2.015509) swim (1.930944) mert (1.904652) nascar (1.798304) ht (1.732539) cuban (1.727504) jet (1.695956) tjs (1.661460) brixx (1.569679) 
vet (1.945063) bojangl (1.900123) eddi (1.813496) anim (1.590786) map (1.540670) mongolian (1.520927) graham (1.492860) groom (1.490765) rita (1.485596) mattress (1.479752) 
omni (1.632500) fondu (1.592184) nova (1.573490) oz (1.498377) capit (1.469512) stir (1.417903) tin (1.408182) media (1.400841) grace (1.378651) overlook (1.377999) 
Error (train/valid/test) = 0.960762/1.238708/1.257163 (0.018028)
..................................................
energy after gradient step = 392406821.287722

Top words for each topic:
pedicur (2.095894) wax (2.044566) smoothi (1.995774) hookah (1.877533) 1511 (1.811345) comic (1.739522) instal (1.695045) stadium (1.645853) gym (1.627851) librari (1.611445) 
subway (1.950204) walmart (1.896928) donut (1.649095) consign (1.647826) liberti (1.633264) irish (1.632498) pit (1.583070) outback (1.580782) penguin (1.528098) gas (1.499482) 
tan (2.185717) trader (2.156994) mert (2.113010) swim (2.045505) ht (1.927891) nascar (1.899214) cuban (1.886398) tjs (1.794632) jet (1.747095) dosa (1.673440) 
vet (2.141478) bojangl (1.997752) eddi (1.857932) anim (1.770800) groom (1.755054) map (1.623958) barber (1.613526) mongolian (1.598282) mattress (1.578646) cat (1.575650) 
nova (1.671242) fondu (1.627954) omni (1.603737) stir (1.587646) capit (1.586246) ru (1.555618) tin (1.482149) crawfish (1.460379) overlook (1.432619) hibachi (1.428784) 
Error (train/valid/test) = 0.950527/1.237970/1.256100 (0.018048)
..................................................
energy after gradient step = 391784715.608654

Top words for each topic:
pedicur (2.333799) wax (2.237702) smoothi (2.141421) hookah (2.014544) comic (1.982387) gym (1.866414) instal (1.851483) fuel (1.832715) equip (1.785179) cvs (1.782149) 
subway (1.998515) walmart (1.984881) irish (1.826491) consign (1.822761) liberti (1.811602) donut (1.715773) penguin (1.679385) shirt (1.628620) jewelri (1.627843) auto (1.605762) 
trader (2.317733) mert (2.294892) tan (2.272478) swim (2.173708) ht (2.040252) cuban (2.033019) nascar (1.932663) jet (1.917425) tjs (1.843263) exhibit (1.814932) 
bojangl (2.174392) vet (2.171367) groom (1.898432) anim (1.885745) eddi (1.875794) barber (1.777906) cat (1.747324) mongolian (1.655497) map (1.636734) cab (1.634698) 
fondu (1.727472) ru (1.703537) omni (1.687814) stir (1.685646) nova (1.670928) hibachi (1.592399) cowfish (1.586951) crawfish (1.543025) capit (1.489846) tin (1.488474) 
Error (train/valid/test) = 0.939387/1.237460/1.254813 (0.018071)
..................................................
energy after gradient step = 390883681.486591

Top words for each topic:
pedicur (2.560544) wax (2.450856) smoothi (2.317160) gym (2.138446) hookah (2.119923) comic (2.091421) massag (2.054956) equip (2.025673) hair (2.001645) instal (1.980515) 
walmart (2.161663) subway (2.104663) donut (1.884812) consign (1.854254) irish (1.816183) liberti (1.805938) penguin (1.774650) shirt (1.752320) jewelri (1.738939) pit (1.731695) 
tan (2.461783) trader (2.459769) mert (2.366174) cuban (2.221242) ht (2.182582) swim (2.176239) nascar (2.044554) tjs (1.982108) exhibit (1.939613) pf (1.890628) 
vet (2.322931) bojangl (2.311907) anim (2.002619) cat (1.963615) barber (1.953142) groom (1.937795) eddi (1.924409) graham (1.732570) map (1.701269) mongolian (1.697444) 
ru (1.857197) hibachi (1.808341) cowfish (1.806311) fondu (1.718814) nova (1.690779) capit (1.688560) stir (1.665260) omni (1.655033) tin (1.645536) crawfish (1.611850) 
Error (train/valid/test) = 0.929845/1.237374/1.254353 (0.018101)
..................................................
energy after gradient step = 389785799.137699

Top words for each topic:
pedicur (2.834514) wax (2.682592) smoothi (2.477676) massag (2.458789) gym (2.426289) manicur (2.400873) nail (2.393167) equip (2.233429) salon (2.219363) hair (2.210168) 
walmart (2.302147) subway (2.172150) irish (2.072708) donut (2.035972) jewelri (1.985000) consign (1.964511) penguin (1.903468) shirt (1.880938) liberti (1.866353) pint (1.819992) 
trader (2.629133) tan (2.531127) mert (2.498085) ht (2.302008) swim (2.277884) cuban (2.196464) nascar (2.135434) tjs (2.127422) joe (2.071833) pf (2.023466) 
vet (2.478687) bojangl (2.344413) anim (2.180586) groom (2.116419) cat (2.074827) eddi (1.935047) barber (1.912710) pet (1.775548) chickfila (1.767275) mattress (1.751789) 
cowfish (1.967444) hibachi (1.961146) ru (1.901100) bento (1.777602) fondu (1.708046) pho (1.707397) omni (1.702138) crawfish (1.691477) zink (1.681236) stir (1.654302) 
Error (train/valid/test) = 0.922452/1.236717/1.254288 (0.018135)
..................................................
energy after gradient step = 388155926.442507

Top words for each topic:
pedicur (3.007356) wax (2.865298) massag (2.822988) nail (2.776903) gym (2.684686) smoothi (2.617662) manicur (2.608037) salon (2.584770) hair (2.417357) polish (2.414251) 
walmart (2.447326) subway (2.215665) donut (2.135043) shirt (2.079812) irish (2.068316) penguin (2.053433) consign (2.023492) jewelri (2.007790) pint (1.929097) liberti (1.903620) 
trader (2.733272) tan (2.648995) mert (2.507426) ht (2.364406) swim (2.335480) cuban (2.295686) joe (2.280672) nascar (2.231813) tjs (2.184417) crepe (2.160917) 
vet (2.494881) bojangl (2.457117) anim (2.214159) groom (2.186705) cat (2.127985) barber (2.049803) dog (2.013956) airport (1.976442) eddi (1.939505) pet (1.856230) 
hibachi (2.137839) cowfish (2.047134) pho (1.969591) ru (1.969205) sushi (1.944456) bento (1.814996) japanes (1.782206) crawfish (1.768115) dumpl (1.767280) fondu (1.735459) 
Error (train/valid/test) = 0.916401/1.236946/1.253746 (0.018156)
..................................................
energy after gradient step = 385973773.425170

Top words for each topic:
nail (3.221364) pedicur (3.211727) massag (3.155158) wax (3.066145) salon (3.014553) gym (2.925905) manicur (2.871744) hair (2.778131) smoothi (2.730872) polish (2.676686) 
walmart (2.576505) subway (2.268621) irish (2.260839) penguin (2.230807) donut (2.222923) shirt (2.181500) jewelri (2.152524) consign (2.133517) pint (2.085564) liberti (2.019915) 
trader (2.786542) tan (2.676402) mert (2.644508) ht (2.486153) crepe (2.450153) joe (2.406847) cuban (2.398068) nascar (2.366113) swim (2.290003) tjs (2.257709) 
vet (2.636924) bojangl (2.525443) airport (2.330341) anim (2.297535) dog (2.294245) groom (2.270023) cat (2.226501) barber (2.050722) pet (2.031533) eddi (2.013382) 
sushi (2.310716) hibachi (2.285357) pho (2.204563) cowfish (2.101055) ru (1.982185) crawfish (1.895204) roll (1.890140) japanes (1.874456) bento (1.871087) buffet (1.812607) 
Error (train/valid/test) = 0.909621/1.236166/1.253265 (0.018187)
..................................................
energy after gradient step = 383233829.748913

Top words for each topic:
nail (3.496627) massag (3.458065) salon (3.385841) pedicur (3.384118) wax (3.241859) gym (3.164324) hair (3.062035) manicur (3.022672) appoint (2.980309) polish (2.914224) 
walmart (2.639933) shirt (2.377733) irish (2.368224) donut (2.364781) subway (2.348899) penguin (2.305297) consign (2.257757) pint (2.256168) jewelri (2.240172) breweri (2.225970) 
trader (2.952964) tan (2.756150) mert (2.703517) crepe (2.672636) ht (2.619097) cuban (2.554224) joe (2.543775) nascar (2.480076) naan (2.442591) cigar (2.346146) 
vet (2.708382) airport (2.606358) bojangl (2.535632) dog (2.500539) anim (2.406789) groom (2.330640) cat (2.306058) barber (2.162974) pet (2.143765) mexican (2.107722) 
sushi (2.673132) pho (2.392730) hibachi (2.376402) roll (2.238802) cowfish (2.146245) japanes (2.002537) buffet (1.985029) bento (1.980820) rice (1.970252) ru (1.960145) 
Error (train/valid/test) = 0.904086/1.236526/1.253478 (0.018226)
..................................................
energy after gradient step = 379960936.957082

Top words for each topic:
nail (3.777009) massag (3.684949) salon (3.663915) pedicur (3.550467) hair (3.464159) wax (3.377604) appoint (3.287397) gym (3.285484) manicur (3.231164) stylist (3.193847) 
walmart (2.718334) penguin (2.510712) donut (2.505331) shirt (2.488200) subway (2.469910) jewelri (2.450929) breweri (2.445609) irish (2.435636) consign (2.399072) shoe (2.339891) 
trader (3.052682) crepe (2.933929) mert (2.852892) tan (2.806316) ht (2.722519) joe (2.689685) cuban (2.672219) naan (2.618118) indian (2.561737) nascar (2.546546) 
airport (2.863012) vet (2.754662) dog (2.752130) bojangl (2.681062) anim (2.473811) cat (2.451652) groom (2.404922) mexican (2.345502) pet (2.279781) barber (2.211274) 
sushi (3.029613) roll (2.588419) pho (2.566688) hibachi (2.472818) rice (2.222008) cowfish (2.215186) bbq (2.108050) buffet (2.098163) japanes (2.071313) pork (2.009735) 
Error (train/valid/test) = 0.898371/1.236042/1.253575 (0.018259)
..................................................
energy after gradient step = 376284805.857924

Top words for each topic:
nail (3.905101) massag (3.854218) salon (3.842853) pedicur (3.659797) hair (3.619178) appoint (3.480206) wax (3.479282) gym (3.444209) stylist (3.348978) manicur (3.297975) 
walmart (2.889895) breweri (2.656463) donut (2.635468) shirt (2.627041) jewelri (2.621623) shoe (2.605863) penguin (2.574472) subway (2.571065) pub (2.536763) irish (2.534500) 
trader (3.155457) crepe (3.149006) mert (2.893617) tan (2.871983) indian (2.865918) joe (2.753338) ht (2.750925) naan (2.722322) cuban (2.716148) nascar (2.594185) 
airport (3.026387) dog (2.934374) vet (2.846127) bojangl (2.724256) anim (2.550060) cat (2.529338) mexican (2.521412) groom (2.489121) pet (2.372444) salsa (2.305834) 
sushi (3.240029) roll (2.839856) pho (2.556699) hibachi (2.459839) rice (2.385594) bbq (2.365756) pork (2.187902) cowfish (2.186680) thai (2.186443) buffet (2.161429) 
Error (train/valid/test) = 0.895541/1.236164/1.253647 (0.018287)
..................................................
energy after gradient step = 372291436.023107

Top words for each topic:
nail (4.008148) salon (3.969381) massag (3.946794) hair (3.766738) pedicur (3.731546) appoint (3.611603) wax (3.558595) gym (3.513279) stylist (3.483027) yoga (3.416079) 
walmart (2.990428) breweri (2.845293) shoe (2.773845) donut (2.762638) penguin (2.750936) jewelri (2.697625) shirt (2.662292) subway (2.658471) irish (2.626831) pub (2.597787) 
crepe (3.278821) trader (3.246744) indian (3.053114) mert (2.975994) tan (2.956383) naan (2.887473) ht (2.868599) joe (2.829558) cuban (2.822331) vegan (2.665047) 
airport (3.198460) dog (3.111813) vet (2.921377) bojangl (2.778983) mexican (2.724716) anim (2.637689) cat (2.608042) pizza (2.558820) groom (2.547436) salsa (2.469604) 
sushi (3.362294) roll (2.983217) pho (2.613420) rice (2.499777) bbq (2.485373) hibachi (2.452435) thai (2.388717) shrimp (2.378812) pork (2.368955) dish (2.284899) 
Error (train/valid/test) = 0.892844/1.236020/1.253790 (0.018305)
..................................................
energy after gradient step = 368735323.093015

Top words for each topic:
nail (4.115433) salon (4.093644) massag (4.058233) hair (3.912514) pedicur (3.821188) appoint (3.742262) wax (3.623059) gym (3.599039) stylist (3.577640) yoga (3.505611) 
walmart (3.105590) breweri (3.005955) shoe (2.938534) donut (2.901389) shirt (2.847775) jewelri (2.824743) subway (2.809824) pub (2.808174) penguin (2.807424) irish (2.802285) 
crepe (3.432318) trader (3.338935) indian (3.295677) mert (3.072497) naan (3.048875) joe (3.009997) ht (3.007457) tan (2.969630) cuban (2.892155) ame (2.825196) 
airport (3.378933) dog (3.253400) vet (3.023474) mexican (2.952215) pizza (2.908567) bojangl (2.886589) anim (2.759813) cat (2.684088) salsa (2.660068) groom (2.625667) 
sushi (3.497057) roll (3.135895) pho (2.670260) rice (2.659023) bbq (2.653226) shrimp (2.565136) thai (2.556229) pork (2.518683) hibachi (2.487747) sauc (2.472558) 
Error (train/valid/test) = 0.888518/1.236124/1.253841 (0.018325)
..................................................
energy after gradient step = 365189586.381702

Top words for each topic:
nail (4.197453) salon (4.191727) massag (4.141472) hair (4.003732) pedicur (3.866346) appoint (3.852772) wax (3.680541) gym (3.673717) stylist (3.670026) yoga (3.605342) 
walmart (3.188221) breweri (3.144587) shoe (3.128623) jewelri (2.985671) shirt (2.957548) donut (2.924540) pub (2.917435) penguin (2.896759) irish (2.892381) subway (2.872424) 
crepe (3.637636) indian (3.514866) trader (3.451260) naan (3.206734) mert (3.161220) ht (3.121621) joe (3.071956) cuban (3.035746) vegan (3.011983) tan (3.001427) 
airport (3.561670) dog (3.455566) pizza (3.230464) mexican (3.135000) vet (3.122555) bojangl (2.957544) salsa (2.843612) anim (2.798150) cat (2.771915) bagel (2.735899) 
sushi (3.552142) roll (3.227779) fri (2.749908) bbq (2.731867) rice (2.730381) sauc (2.702601) pho (2.688064) thai (2.672857) shrimp (2.670727) pork (2.641168) 
Error (train/valid/test) = 0.884655/1.236269/1.254132 (0.018349)
..................................................
energy after gradient step = 361874934.407115

Top words for each topic:
salon (4.276868) nail (4.268472) massag (4.222442) hair (4.110372) pedicur (3.940979) appoint (3.935388) stylist (3.755448) gym (3.738358) wax (3.737890) yoga (3.691066) 
walmart (3.317371) breweri (3.296236) shoe (3.241883) pub (3.104471) jewelri (3.103213) donut (3.098114) shirt (2.986000) irish (2.983754) penguin (2.968832) starbuck (2.943389) 
crepe (3.775190) indian (3.698328) trader (3.569272) naan (3.336576) mert (3.316799) joe (3.281373) ht (3.266955) vegan (3.143853) ame (3.134852) tan (3.061592) 
airport (3.737304) dog (3.617542) pizza (3.528167) mexican (3.342509) vet (3.162200) bojangl (3.031077) salsa (2.992299) bagel (2.969855) anim (2.907961) cat (2.888820) 
sushi (3.622761) roll (3.334069) fri (3.036611) sauc (2.919050) rice (2.862725) shrimp (2.845894) bbq (2.808249) thai (2.774447) pork (2.770031) pho (2.717411) 
Error (train/valid/test) = 0.879981/1.236559/1.254223 (0.018371)
..................................................
energy after gradient step = 358726288.848404

Top words for each topic:
salon (4.351435) nail (4.321715) massag (4.289205) hair (4.163836) appoint (4.032855) pedicur (3.985354) stylist (3.819807) wax (3.784382) gym (3.763822) yoga (3.756024) 
breweri (3.403414) walmart (3.384130) shoe (3.320994) jewelri (3.223332) pub (3.174398) donut (3.172961) beer (3.135636) starbuck (3.095731) irish (3.084610) brew (3.065775) 
crepe (3.960570) indian (3.889680) trader (3.694852) naan (3.473356) ht (3.412825) mert (3.364112) vegan (3.320692) joe (3.307747) ame (3.284665) luna (3.191209) 
airport (3.909785) pizza (3.804150) dog (3.739876) mexican (3.570720) vet (3.258858) bagel (3.183165) bojangl (3.145085) salsa (3.130595) anim (2.978203) burrito (2.940048) 
sushi (3.668341) roll (3.368758) fri (3.266916) sauc (3.093649) shrimp (2.988115) rice (2.934765) menu (2.916506) burger (2.901579) bbq (2.892338) thai (2.864024) 
Error (train/valid/test) = 0.875055/1.236324/1.254252 (0.018393)
..................................................
energy after gradient step = 356008270.879246

Top words for each topic:
salon (4.406896) nail (4.354957) massag (4.334162) hair (4.151936) appoint (4.079977) pedicur (4.031277) stylist (3.874535) gym (3.826632) wax (3.797280) yoga (3.767704) 
breweri (3.530897) walmart (3.477547) shoe (3.436658) jewelri (3.324231) pub (3.283501) beer (3.270378) starbuck (3.236119) brew (3.231248) donut (3.210336) irish (3.169935) 
crepe (4.115368) indian (4.068956) trader (3.809664) naan (3.630619) ht (3.508106) mert (3.492168) cupcak (3.485438) joe (3.450276) ame (3.443138) vegan (3.420212) 
pizza (4.056048) airport (4.024040) dog (3.864989) mexican (3.719517) bagel (3.368376) vet (3.320438) salsa (3.284285) bojangl (3.200778) burrito (3.084257) anim (3.067495) 
sushi (3.715479) roll (3.443716) fri (3.397100) sauc (3.229612) burger (3.079080) menu (3.068870) shrimp (3.043840) rice (3.011819) bbq (2.958567) dish (2.944971) 
Error (train/valid/test) = 0.870903/1.236363/1.254551 (0.018415)
..................................................
energy after gradient step = 353659802.123603

Top words for each topic:
salon (4.467968) nail (4.394661) massag (4.383251) hair (4.152993) appoint (4.138277) pedicur (4.059448) stylist (3.909880) gym (3.859938) yoga (3.843558) wax (3.820804) 
breweri (3.618906) shoe (3.527523) walmart (3.491390) beer (3.430269) pub (3.428276) jewelri (3.367114) starbuck (3.350920) brew (3.297328) donut (3.270222) accessori (3.247540) 
crepe (4.270462) indian (4.219933) trader (3.946473) cupcak (3.842391) naan (3.754102) ht (3.669064) mert (3.645703) ame (3.592048) bakeri (3.580875) vegan (3.565087) 
pizza (4.248198) airport (4.144603) dog (3.956658) mexican (3.872170) bagel (3.535536) salsa (3.463894) vet (3.377365) bojangl (3.266360) burrito (3.240608) anim (3.119652) 
sushi (3.745376) fri (3.559845) roll (3.523827) sauc (3.315753) burger (3.231564) menu (3.188065) shrimp (3.126154) rice (3.071888) dish (3.061214) chicken (3.049319) 
Error (train/valid/test) = 0.866039/1.236164/1.254703 (0.018441)
..................................................
energy after gradient step = 351671972.883755

Top words for each topic:
salon (4.529220) massag (4.452116) nail (4.446980) appoint (4.189812) hair (4.170108) pedicur (4.120736) stylist (3.996745) gym (3.912323) yoga (3.891808) wax (3.865302) 
breweri (3.727298) shoe (3.633155) beer (3.565321) pub (3.514894) walmart (3.514472) starbuck (3.411327) jewelri (3.399288) brew (3.394434) donut (3.352881) accessori (3.293261) 
indian (4.398329) crepe (4.390656) cupcak (4.269548) trader (4.055128) naan (3.924677) chocol (3.817446) ht (3.792881) ame (3.733554) bakeri (3.733321) vegan (3.713401) 
pizza (4.451553) airport (4.262528) dog (4.096829) mexican (4.015842) bagel (3.711764) salsa (3.655684) burrito (3.485067) vet (3.471720) bojangl (3.366494) taco (3.224867) 
sushi (3.785784) fri (3.663090) roll (3.561683) sauc (3.442737) burger (3.389685) menu (3.326594) chicken (3.286800) shrimp (3.217668) dish (3.180681) rice (3.150895) 
Error (train/valid/test) = 0.859481/1.236388/1.255189 (0.018476)
..................................................
energy after gradient step = 349853973.396653

Top words for each topic:
salon (4.565431) massag (4.484949) nail (4.463016) appoint (4.213261) pedicur (4.146823) hair (4.135419) stylist (4.034754) gym (3.933040) yoga (3.896305) wax (3.879731) 
breweri (3.807369) shoe (3.691926) beer (3.672866) pub (3.585021) walmart (3.542060) starbuck (3.490590) jewelri (3.471212) brew (3.461887) game (3.359116) irish (3.352948) 
crepe (4.513259) indian (4.487445) cupcak (4.461473) trader (4.151140) naan (4.035312) chocol (3.977512) bakeri (3.905684) ht (3.867819) ame (3.865740) vegan (3.804387) 
pizza (4.587464) airport (4.374877) dog (4.205014) mexican (4.185636) bagel (3.834262) salsa (3.754213) burrito (3.613648) vet (3.504159) bojangl (3.386460) taco (3.354398) 
sushi (3.837591) fri (3.764841) roll (3.584070) sauc (3.532181) burger (3.505847) menu (3.443520) chicken (3.435548) shrimp (3.291824) dish (3.282324) server (3.240972) 
Error (train/valid/test) = 0.854181/1.236491/1.254781 (0.018490)
..................................................
energy after gradient step = 348582052.701610

Top words for each topic:
salon (4.620128) massag (4.522159) nail (4.457795) appoint (4.261975) pedicur (4.191484) hair (4.092356) stylist (4.085766) gym (3.973880) yoga (3.939508) wax (3.898938) 
breweri (3.892314) beer (3.792475) shoe (3.752473) pub (3.659963) walmart (3.550511) starbuck (3.535966) jewelri (3.503134) brew (3.487284) game (3.467888) vendor (3.420957) 
cupcak (4.682494) crepe (4.639808) indian (4.633763) trader (4.180144) chocol (4.164026) naan (4.143619) bakeri (4.063803) ht (3.919876) ame (3.914197) vegan (3.892771) 
pizza (4.757774) airport (4.480179) mexican (4.294522) dog (4.288246) bagel (3.974436) salsa (3.868676) burrito (3.784753) vet (3.562633) bojangl (3.472045) taco (3.447861) 
sushi (3.898381) fri (3.876033) sauc (3.670876) roll (3.632811) burger (3.627175) menu (3.597214) chicken (3.579238) dish (3.404690) shrimp (3.392399) server (3.382812) 
Error (train/valid/test) = 0.847142/1.237018/1.255070 (0.018521)
..................................................
energy after gradient step = 347340975.892022

Top words for each topic:
salon (4.666957) massag (4.559403) nail (4.488664) appoint (4.294316) pedicur (4.219005) stylist (4.122268) hair (4.019910) gym (3.981008) yoga (3.957488) wax (3.910026) 
breweri (3.918376) beer (3.869961) shoe (3.801515) pub (3.696458) starbuck (3.572904) walmart (3.554890) brew (3.539568) game (3.531942) jewelri (3.521954) irish (3.438544) 
cupcak (4.845323) crepe (4.754782) indian (4.748118) trader (4.308236) chocol (4.301260) naan (4.261143) bakeri (4.178528) ame (4.086437) ht (4.040311) vegan (3.966624) 
pizza (4.877915) airport (4.595376) mexican (4.405111) dog (4.378268) bagel (4.083758) salsa (4.022886) burrito (3.919012) vet (3.627198) taco (3.549527) bojangl (3.545031) 
fri (3.979858) sushi (3.957173) burger (3.743368) sauc (3.740259) roll (3.686138) menu (3.685728) chicken (3.668995) dish (3.508854) server (3.474018) shrimp (3.462378) 
Error (train/valid/test) = 0.840723/1.237540/1.255728 (0.018553)
..................................................
energy after gradient step = 346336755.346491

Top words for each topic:
salon (4.709555) massag (4.596626) nail (4.515707) appoint (4.343795) pedicur (4.255332) stylist (4.168037) hair (3.983275) gym (3.980012) yoga (3.972417) manicur (3.930796) 
breweri (3.972072) beer (3.971954) shoe (3.808319) pub (3.743860) starbuck (3.600250) game (3.578930) brew (3.567629) walmart (3.554375) jewelri (3.548682) accessori (3.489144) 
cupcak (4.997968) crepe (4.863238) indian (4.834837) chocol (4.415482) trader (4.374483) naan (4.343644) bakeri (4.307582) ame (4.130497) ht (4.050665) cake (4.040245) 
pizza (4.982424) airport (4.697815) mexican (4.511058) dog (4.407280) bagel (4.174104) salsa (4.119959) burrito (4.049404) vet (3.648810) taco (3.630231) enchilada (3.629656) 
fri (4.079151) sushi (4.018344) burger (3.851004) sauc (3.838732) menu (3.792787) chicken (3.790590) roll (3.715307) dish (3.600839) server (3.583026) shrimp (3.539201) 
Error (train/valid/test) = 0.833801/1.238251/1.256455 (0.018586)
..................................................
energy after gradient step = 345557524.506494

Top words for each topic:
salon (4.746605) massag (4.632620) nail (4.525017) appoint (4.367446) pedicur (4.284585) stylist (4.201473) yoga (3.997337) gym (3.976112) hair (3.949211) wax (3.945164) 
beer (4.062607) breweri (4.010564) shoe (3.860430) pub (3.783704) starbuck (3.619853) brew (3.617703) jewelri (3.613865) game (3.603427) walmart (3.504003) vendor (3.498534) 
cupcak (5.115589) crepe (4.954951) indian (4.914259) chocol (4.416616) naan (4.396250) bakeri (4.394166) trader (4.374797) ame (4.206447) ht (4.134217) yogurt (4.114540) 
pizza (5.054029) airport (4.763236) mexican (4.596403) dog (4.461057) bagel (4.250803) salsa (4.215689) burrito (4.161857) taco (3.724486) enchilada (3.709688) vet (3.697115) 
fri (4.173352) sushi (4.061879) burger (3.931548) sauc (3.929613) menu (3.877965) chicken (3.867551) roll (3.769633) server (3.668788) dish (3.654293) shrimp (3.599696) 
Error (train/valid/test) = 0.827140/1.238624/1.256866 (0.018613)
..................................................
energy after gradient step = 344742991.299418

Top words for each topic:
salon (4.781060) massag (4.654853) nail (4.508996) appoint (4.385085) pedicur (4.311486) stylist (4.238433) yoga (4.024900) gym (3.971553) manicur (3.968925) wax (3.939612) 
beer (4.127298) breweri (4.024100) shoe (3.862812) pub (3.829174) starbuck (3.673867) brew (3.628524) game (3.568244) jewelri (3.546823) irish (3.507018) vendor (3.488273) 
cupcak (5.232234) crepe (5.032326) indian (4.992953) chocol (4.500411) naan (4.487799) trader (4.462405) bakeri (4.452081) ame (4.289532) yogurt (4.194753) ht (4.166158) 
pizza (5.151711) airport (4.841866) mexican (4.683810) dog (4.492754) bagel (4.343053) salsa (4.305419) burrito (4.253875) taco (3.797363) enchilada (3.754636) vet (3.703724) 
fri (4.244337) sushi (4.094896) burger (4.005918) sauc (3.983942) menu (3.978060) chicken (3.915567) roll (3.796835) dish (3.743154) server (3.719419) shrimp (3.679498) 
Error (train/valid/test) = 0.819947/1.239676/1.257138 (0.018643)
..................................................
energy after gradient step = 344109113.712989

Top words for each topic:
salon (4.805847) massag (4.687892) nail (4.496863) appoint (4.393788) pedicur (4.339327) stylist (4.269665) yoga (4.023696) gym (4.011299) manicur (3.996222) wax (3.966690) 
beer (4.167211) breweri (4.066397) pub (3.868950) shoe (3.858119) starbuck (3.680751) brew (3.638558) jewelri (3.602246) game (3.588418) irish (3.549034) growler (3.523593) 
cupcak (5.330061) crepe (5.110536) indian (5.049460) naan (4.556764) bakeri (4.518579) chocol (4.498311) trader (4.462470) ame (4.364476) yogurt (4.252339) ht (4.232566) 
pizza (5.287061) airport (4.899240) mexican (4.795311) dog (4.556337) bagel (4.435001) salsa (4.356332) burrito (4.340361) taco (3.908091) enchilada (3.849076) bojangl (3.788304) 
fri (4.315637) sushi (4.149181) burger (4.072877) menu (4.039612) sauc (4.034007) chicken (3.984922) dish (3.808702) server (3.808441) roll (3.804577) shrimp (3.746174) 
Error (train/valid/test) = 0.812960/1.240223/1.257659 (0.018667)
..................................................
energy after gradient step = 343689345.697948

Top words for each topic:
salon (4.846008) massag (4.720321) nail (4.464631) appoint (4.444534) pedicur (4.371566) stylist (4.310732) yoga (4.032821) manicur (4.017771) gym (4.004622) haircut (3.966596) 
beer (4.186838) breweri (4.111017) pub (3.889673) shoe (3.851993) brew (3.649385) game (3.608947) jewelri (3.604345) starbuck (3.594253) irish (3.559652) growler (3.546209) 
cupcak (5.418546) crepe (5.160950) indian (5.086784) naan (4.603104) bakeri (4.584475) trader (4.482847) chocol (4.475736) ame (4.391754) yogurt (4.283287) luna (4.225480) 
pizza (5.365384) airport (4.954909) mexican (4.849736) dog (4.623930) bagel (4.499675) salsa (4.419620) burrito (4.392387) taco (3.972542) enchilada (3.942138) flight (3.788065) 
fri (4.408699) sushi (4.182076) burger (4.167398) menu (4.136159) sauc (4.062756) chicken (4.051916) server (3.878305) dish (3.841392) roll (3.825057) shrimp (3.808242) 
Error (train/valid/test) = 0.805475/1.241097/1.258709 (0.018697)
..................................................
energy after gradient step = 343521375.463884

Top words for each topic:
salon (4.870331) massag (4.747271) appoint (4.451737) nail (4.435753) pedicur (4.380171) stylist (4.339969) manicur (4.044895) yoga (4.017621) gym (4.000440) haircut (3.989070) 
beer (4.225458) breweri (4.138080) pub (3.906387) shoe (3.873120) brew (3.689025) game (3.638691) jewelri (3.628196) growler (3.564490) barista (3.558205) irish (3.554883) 
cupcak (5.486855) crepe (5.213264) indian (5.124502) naan (4.644415) bakeri (4.637351) chocol (4.470157) trader (4.452055) ame (4.439412) yogurt (4.326629) luna (4.274133) 
pizza (5.429636) airport (4.978192) mexican (4.933250) dog (4.640743) bagel (4.556681) salsa (4.511332) burrito (4.442601) taco (4.052075) enchilada (4.000969) bojangl (3.846393) 
fri (4.480622) burger (4.248284) sushi (4.241119) menu (4.179553) sauc (4.130718) chicken (4.073211) server (3.968462) dish (3.906198) shrimp (3.870462) roll (3.841083) 
Error (train/valid/test) = 0.798429/1.241621/1.259258 (0.018728)
..................................................
energy after gradient step = 343195664.608918

Top words for each topic:
salon (4.901415) massag (4.775192) appoint (4.492163) pedicur (4.415403) nail (4.415356) stylist (4.374203) manicur (4.073246) haircut (4.020976) gym (4.020810) yoga (4.018569) 
beer (4.233239) breweri (4.182916) pub (3.925673) shoe (3.881112) brew (3.712474) game (3.669338) irish (3.641772) jewelri (3.631449) growler (3.579125) accessori (3.525819) 
cupcak (5.545579) crepe (5.247773) indian (5.180250) bakeri (4.692393) naan (4.687291) trader (4.508528) ame (4.481377) chocol (4.452433) yogurt (4.366583) masala (4.318519) 
pizza (5.454804) airport (5.041590) mexican (4.991755) dog (4.690688) bagel (4.606280) salsa (4.571397) burrito (4.513433) taco (4.115832) enchilada (4.073632) flight (3.898266) 
fri (4.512444) burger (4.311180) sushi (4.273517) menu (4.233126) sauc (4.188886) chicken (4.123637) server (4.025027) dish (3.987252) shrimp (3.933648) roll (3.859795) 
Error (train/valid/test) = 0.791346/1.242748/1.259576 (0.018762)
..................................................
energy after gradient step = 342962726.489150

Top words for each topic:
salon (4.918393) massag (4.790582) appoint (4.506614) pedicur (4.429019) nail (4.406411) stylist (4.389452) manicur (4.081609) haircut (4.030036) yoga (4.024339) gym (4.017079) 
beer (4.259463) breweri (4.197019) pub (3.917415) shoe (3.881819) brew (3.753720) jewelri (3.675483) game (3.664110) growler (3.590965) irish (3.588795) barista (3.575353) 
cupcak (5.586720) crepe (5.281515) indian (5.205728) bakeri (4.741880) naan (4.697027) trader (4.514876) ame (4.502637) chocol (4.423988) yogurt (4.378573) masala (4.338640) 
pizza (5.497863) airport (5.080480) mexican (5.031640) dog (4.699984) bagel (4.643939) salsa (4.591151) burrito (4.575750) taco (4.171247) enchilada (4.124607) margarita (3.953919) 
fri (4.551941) burger (4.354465) sushi (4.289663) menu (4.284165) sauc (4.244297) chicken (4.209084) server (4.066635) dish (4.033032) shrimp (3.979975) roll (3.851096) 
Error (train/valid/test) = 0.785320/1.243148/1.260281 (0.018793)
..................................................
energy after gradient step = 342754076.011584

Top words for each topic:
salon (4.941382) massag (4.820515) appoint (4.521671) pedicur (4.452297) stylist (4.418152) nail (4.381184) manicur (4.110801) haircut (4.064070) yoga (4.039063) gym (4.023997) 
beer (4.338787) breweri (4.204889) pub (3.905038) shoe (3.817837) brew (3.753784) jewelri (3.697780) growler (3.670931) game (3.665251) irish (3.617708) barista (3.550343) 
cupcak (5.633117) crepe (5.314724) indian (5.214954) bakeri (4.760800) naan (4.735493) ame (4.532874) trader (4.510541) yogurt (4.425149) chocol (4.367382) luna (4.358721) 
pizza (5.558526) airport (5.113767) mexican (5.067523) dog (4.713735) bagel (4.688584) salsa (4.671608) burrito (4.621194) taco (4.236356) enchilada (4.163129) margarita (4.004065) 
fri (4.619312) burger (4.409844) sushi (4.335144) menu (4.327203) sauc (4.323185) chicken (4.233924) server (4.138977) dish (4.084748) shrimp (4.016536) roll (3.851528) 
Error (train/valid/test) = 0.778823/1.244328/1.260995 (0.018821)
..................................................
energy after gradient step = 342622672.005635

Top words for each topic:
salon (4.964270) massag (4.842732) appoint (4.523829) pedicur (4.469582) stylist (4.444146) nail (4.391732) manicur (4.128611) haircut (4.080218) yoga (4.043791) gym (4.033038) 
beer (4.349171) breweri (4.209784) pub (3.951578) shoe (3.795489) brew (3.734818) jewelri (3.692397) game (3.685357) irish (3.652886) growler (3.637726) barista (3.596079) 
cupcak (5.666896) crepe (5.349995) indian (5.226025) bakeri (4.805106) naan (4.770235) ame (4.560949) trader (4.496900) yogurt (4.461622) masala (4.392437) luna (4.373856) 
pizza (5.600952) airport (5.138518) mexican (5.119980) bagel (4.729790) salsa (4.727567) dog (4.724911) burrito (4.684094) taco (4.275420) enchilada (4.192645) margarita (4.043306) 
fri (4.685802) burger (4.441365) sauc (4.385766) menu (4.376036) sushi (4.370170) chicken (4.280521) server (4.185536) dish (4.152637) shrimp (4.052142) pork (3.879695) 
Error (train/valid/test) = 0.773092/1.245346/1.261789 (0.018853)
..................................................
energy after gradient step = 342600381.377502

Top words for each topic:
salon (4.992489) massag (4.861350) appoint (4.535912) pedicur (4.487054) stylist (4.467925) nail (4.389342) manicur (4.143534) haircut (4.106873) yoga (4.060981) gym (4.059958) 
beer (4.366179) breweri (4.206687) pub (4.007007) shoe (3.756995) brew (3.737161) jewelri (3.714931) game (3.697516) growler (3.694841) irish (3.670336) bar (3.622827) 
cupcak (5.700184) crepe (5.385344) indian (5.250039) bakeri (4.826928) naan (4.769808) ame (4.578633) trader (4.513022) yogurt (4.471990) masala (4.414532) chocol (4.391551) 
pizza (5.659728) airport (5.177098) mexican (5.145158) salsa (4.773199) bagel (4.763518) burrito (4.716646) dog (4.709044) taco (4.324596) enchilada (4.224417) margarita (4.082448) 
fri (4.728634) burger (4.502860) sauc (4.442944) menu (4.438714) sushi (4.404856) chicken (4.315074) server (4.226557) dish (4.189953) shrimp (4.105207) pork (3.926003) 
Error (train/valid/test) = 0.766978/1.246303/1.262518 (0.018891)
..................................................
energy after gradient step = 342559344.599591

Top words for each topic:
salon (5.016175) massag (4.883193) appoint (4.548440) pedicur (4.502371) stylist (4.489532) nail (4.375730) manicur (4.159096) haircut (4.115178) yoga (4.055792) gym (4.045856) 
beer (4.400939) breweri (4.222393) pub (4.052033) brew (3.732120) game (3.729132) shoe (3.726700) growler (3.689718) irish (3.661750) jewelri (3.641602) bar (3.638494) 
cupcak (5.722734) crepe (5.376273) indian (5.244011) bakeri (4.842275) naan (4.790453) ame (4.593897) trader (4.507253) yogurt (4.464838) masala (4.425475) luna (4.400531) 
pizza (5.688584) airport (5.181807) mexican (5.156924) salsa (4.800831) bagel (4.791467) burrito (4.754189) dog (4.701665) taco (4.389351) enchilada (4.252113) margarita (4.079916) 
fri (4.773295) burger (4.538550) menu (4.466867) sauc (4.463827) sushi (4.434317) chicken (4.326101) server (4.258857) dish (4.234169) shrimp (4.149927) pork (3.948259) 
Error (train/valid/test) = 0.761543/1.247557/1.263201 (0.018914)
..................................................
energy after gradient step = 342482206.353730

Top words for each topic:
salon (5.036137) massag (4.904001) appoint (4.568720) pedicur (4.520477) stylist (4.504798) nail (4.378722) manicur (4.172380) haircut (4.136247) yoga (4.048612) dr (4.047890) 
beer (4.438148) breweri (4.239082) pub (4.077618) shoe (3.761976) game (3.757179) brew (3.744049) jewelri (3.742363) growler (3.721899) irish (3.682802) bar (3.677667) 
cupcak (5.747189) crepe (5.401360) indian (5.268660) bakeri (4.858180) naan (4.809865) ame (4.613920) yogurt (4.475070) trader (4.462100) masala (4.434206) luna (4.414240) 
pizza (5.745989) airport (5.207323) mexican (5.175525) salsa (4.836930) bagel (4.813448) burrito (4.787067) dog (4.699057) taco (4.418072) enchilada (4.277223) margarita (4.099730) 
fri (4.802438) burger (4.574327) sauc (4.507280) menu (4.503284) sushi (4.470957) chicken (4.335677) server (4.285034) dish (4.267212) shrimp (4.190944) pork (3.988886) 
Error (train/valid/test) = 0.756113/1.248282/1.263944 (0.018934)
..................................................
energy after gradient step = 342416765.742139

Top words for each topic:
salon (5.044927) massag (4.923425) appoint (4.558462) pedicur (4.533175) stylist (4.527587) nail (4.367235) manicur (4.191887) haircut (4.161003) dr (4.073468) yoga (4.064882) 
beer (4.434800) breweri (4.250048) pub (4.114125) growler (3.748284) brew (3.743869) game (3.739912) irish (3.694139) shoe (3.693238) bar (3.684957) raft (3.653441) 
cupcak (5.766593) crepe (5.410774) indian (5.244972) bakeri (4.859459) naan (4.811587) ame (4.620670) trader (4.487236) yogurt (4.477661) masala (4.418452) luna (4.397771) 
pizza (5.777318) airport (5.209225) mexican (5.175951) bagel (4.828171) salsa (4.827450) burrito (4.802783) dog (4.720253) taco (4.459576) enchilada (4.298727) margarita (4.105716) 
fri (4.822361) burger (4.607661) menu (4.541378) sauc (4.539923) sushi (4.498089) chicken (4.351209) server (4.333984) dish (4.313262) shrimp (4.232351) pork (4.039334) 
Error (train/valid/test) = 0.750513/1.249144/1.264840 (0.018972)
..................................................
energy after gradient step = 342380270.738296

Top words for each topic:
salon (5.063136) massag (4.946612) appoint (4.571858) pedicur (4.548288) stylist (4.548284) nail (4.363346) manicur (4.213220) haircut (4.171054) studio (4.069461) gym (4.063057) 
beer (4.445223) breweri (4.271414) pub (4.130572) growler (3.767190) brew (3.746669) shoe (3.718381) game (3.697726) irish (3.688556) bar (3.687227) raft (3.645437) 
cupcak (5.782236) crepe (5.431653) indian (5.255564) bakeri (4.878739) naan (4.824362) ame (4.647072) yogurt (4.503602) trader (4.477245) luna (4.431035) masala (4.430636) 
pizza (5.814112) airport (5.233735) mexican (5.212520) salsa (4.864194) bagel (4.848639) burrito (4.830141) dog (4.694331) taco (4.495507) enchilada (4.313346) fajita (4.129529) 
fri (4.856881) burger (4.632421) sauc (4.578682) menu (4.547338) sushi (4.529473) chicken (4.389473) server (4.347471) dish (4.336557) shrimp (4.270938) pork (4.086262) 
Error (train/valid/test) = 0.744572/1.250281/1.265637 (0.019000)
