corpus = data_karl.gz
latentReg = 0.000000
lambda = 3.500000
K = 5

nUsers = 613, nItems = 756, nRatings = 2692

Error w/ offset term only (train/valid/test) = 1.544034/1.377422/1.562568 (0.127964)
Error w/ offset and bias (train/valid/test) = 0.692509/1.183882/1.321985 (0.127154)

..................................................
energy after gradient step = 5029986.895123

Top words for each topic:
pizzaservic (1.833315) gelohnt (1.827337) car (1.827114) verhltni (1.827114) stimmig (1.827098) sehe (1.768198) aufgefllt (1.703693) zh (1.703693) kaff (1.703603) zubereiten (1.696298) 
geschmacksverstrk (1.887955) honig (1.828151) afrika (1.828151) papayasalat (1.828151) hngen (1.822266) jungen (1.822266) variant (1.780723) bus (1.698771) crema (1.691134) schnste (1.691134) 
400 (1.941641) realli (1.931461) live (1.869674) spielen (1.869570) institut (1.855813) holztisch (1.811099) umfangreichen (1.811099) open (1.732331) softdrink (1.710149) straenbahnen (1.680473) 
ingwer (2.267887) sour (2.145498) wintergarten (1.884777) chanc (1.871181) trop (1.819865) qm (1.819852) stcke (1.747088) zuerst (1.711728) inmitten (1.695494) andererseit (1.689533) 
nichtmal (2.282822) mediterran (1.957112) brauchen (1.957112) 05l (1.956889) balkon (1.826234) groupongutschein (1.826234) spaziergang (1.819872) eisdiel (1.747307) gebraucht (1.747067) willkommen (1.745187) 
Error (train/valid/test) = 0.567545/1.252723/1.384036 (0.128660)
..................................................
energy after gradient step = 5002808.340745

Top words for each topic:
hauptschlich (2.550855) zh (2.547437) away (2.418144) aufpassen (2.373158) parkmglichkeiten (2.309828) karg (2.288542) wickeltisch (2.286103) summ (2.272770) rindfleisch (2.268054) kaff (2.266578) 
hngen (2.447777) whiski (2.317607) go (2.298361) einfachen (2.284738) gespart (2.283379) view (2.277086) reklamationen (2.261250) schnste (2.260857) mark (2.221555) make (2.194859) 
realli (2.494045) fritten (2.485269) hinzugehen (2.364193) bedenken (2.362227) 400 (2.344873) begonnen (2.237289) kunstwerk (2.237203) billigst (2.227512) recommend (2.198045) geschmackssach (2.181315) 
glatt (2.562828) ingwer (2.530790) zeitpunkt (2.389824) vorbestellen (2.308423) glser (2.288343) darin (2.278551) inmitten (2.270063) andererseit (2.249892) zusatzstoff (2.218240) getestet (2.203493) 
verbreitet (2.509374) bitten (2.463384) mediterran (2.325471) lob (2.285947) erledigt (2.257926) fugngerzon (2.243283) rumen (2.239118) pluspunkt (2.228608) krzlich (2.182169) repariert (2.128513) 
Error (train/valid/test) = 0.401458/1.347381/1.384076 (0.134733)
..................................................
energy after gradient step = 4980503.286832

Top words for each topic:
away (2.465061) ouzo (2.395577) traditionell (2.339751) locker (2.329376) erfllen (2.326687) sfte (2.312750) tri (2.306999) arbeit (2.300226) sehe (2.288858) want (2.281470) 
selbstgemacht (2.650096) go (2.577433) alter (2.505917) hemden (2.478110) variant (2.404613) wait (2.365160) reklamationen (2.317818) schnste (2.317309) hole (2.306013) appetit (2.236747) 
live (2.764425) realli (2.649098) bewerten (2.491272) auszuprobieren (2.461329) tasch (2.423876) richtigen (2.414512) recommend (2.413725) 20min (2.408517) geschmackssach (2.385143) glhwein (2.327335) 
frankfurt (2.595114) stcke (2.517627) riesigen (2.514348) wintergarten (2.459775) darin (2.394767) angesicht (2.392425) eigenen (2.382136) mitarbeiterin (2.337569) berfllt (2.332543) bekanntlich (2.323218) 
nichtmal (2.651068) lob (2.598465) erledigt (2.585286) speck (2.570195) beobachtet (2.557452) brauchen (2.539836) mediterran (2.510156) gebraucht (2.505155) weis (2.357054) belegen (2.356458) 
Error (train/valid/test) = 0.363070/1.452206/1.458839 (0.130449)
..................................................
energy after gradient step = 4955918.683143

Top words for each topic:
zh (2.890545) away (2.840219) wickeltisch (2.711143) schick (2.697782) aufgefllt (2.692136) locker (2.621207) joey (2.615734) nachhinein (2.609846) lter (2.560295) gesetz (2.539598) 
selbstgemacht (2.730136) zurck (2.686183) alter (2.686037) heraus (2.609497) hauptspeis (2.602425) olio (2.579365) reklamationen (2.577299) sit (2.568735) gewhlt (2.560565) hemden (2.539441) 
verteilt (2.739237) ma (2.708808) amerikanisch (2.705839) bewerten (2.701792) recommend (2.681875) einkauft (2.668774) 20min (2.665989) lokalitten (2.607234) glhwein (2.606835) live (2.602325) 
gepflegt (2.821148) andererseit (2.671104) 15min (2.651654) mangelhaft (2.578374) anlag (2.573920) empfand (2.570671) blichen (2.562416) zusatzstoff (2.545337) automaten (2.545096) eigenen (2.529793) 
erledigt (2.840327) pluspunkt (2.766936) speck (2.725084) bibliothek (2.710592) kellnerinnen (2.693404) nichtmal (2.652003) herren (2.651811) design (2.649582) brauchen (2.634959) sauer (2.621620) 
Error (train/valid/test) = 0.271922/1.410597/1.534117 (0.153591)
..................................................
energy after gradient step = 4939054.290341

Top words for each topic:
locker (2.913112) wickeltisch (2.794466) joey (2.761577) away (2.737663) kopf (2.713268) wies (2.693122) leistungsverhltni (2.669193) scheiben (2.659385) popcorn (2.649591) aufgefllt (2.644479) 
ungewhnlich (3.067506) schauburg (2.914884) hemden (2.846067) view (2.758186) schlicht (2.731014) ludwigsplatz (2.714577) selbstgemacht (2.665572) say (2.653922) sort (2.641506) schlechten (2.627229) 
20min (2.816572) dick (2.815159) live (2.773377) glhwein (2.743624) tasch (2.740774) lokalitten (2.717191) zieh (2.701898) durchweg (2.690070) abholen (2.685371) deftig (2.644357) 
gepflegt (2.815664) berfllt (2.791303) eigenen (2.759974) folgend (2.750577) automaten (2.718279) frankfurt (2.711125) ausgefallen (2.663104) glatt (2.655820) traditionel (2.647642) wintergarten (2.644997) 
pluspunkt (2.870512) mediterran (2.827396) speck (2.821427) whlen (2.819939) herren (2.767214) enttuschung (2.746811) erledigt (2.696256) rustik (2.672298) rumen (2.667966) info (2.631700) 
Error (train/valid/test) = 0.264392/1.541377/1.716630 (0.183701)
..................................................
energy after gradient step = 4931201.658967

Top words for each topic:
zh (2.863421) locker (2.853811) away (2.811672) mglichkeit (2.731592) vogel (2.723582) berraschung (2.704376) koch (2.701129) beilagensalat (2.693946) strae (2.681659) aufgefllt (2.653760) 
schauburg (2.913467) hemden (2.876993) ungewhnlich (2.828266) ludwigsplatz (2.709852) gesprch (2.689309) appetit (2.679001) zurck (2.653211) view (2.646650) gewhlt (2.642625) grozgig (2.622615) 
live (2.850013) richtung (2.825162) brauhaus (2.753512) 20min (2.724527) tageskart (2.682868) tasch (2.672495) zieh (2.668739) gross (2.664993) ideal (2.636148) richtigen (2.626800) 
gepflegt (2.983241) folgend (2.914436) fteren (2.728891) eigenen (2.687646) 15min (2.653186) frankfurt (2.643465) berfllt (2.584647) fragt (2.564936) qm (2.544399) hamburg (2.534422) 
erledigt (2.853616) whlen (2.812275) pluspunkt (2.787153) mediterran (2.777392) mittagessen (2.736304) speck (2.715122) schnitt (2.688187) willkommen (2.650773) brauchen (2.650291) enttuschung (2.636639) 
Error (train/valid/test) = 0.268317/1.603470/1.691663 (0.180767)
..................................................
energy after gradient step = 4920789.773875

Top words for each topic:
away (2.962725) zh (2.848296) vogel (2.775590) aufgefllt (2.683039) scheiben (2.666966) joey (2.665007) praxi (2.664069) kopf (2.647397) ruhe (2.641192) locker (2.632547) 
hemden (2.940150) ludwigsplatz (2.939282) schauburg (2.898458) l (2.853623) ungewhnlich (2.799035) selbstgemacht (2.794732) view (2.758238) schlicht (2.736009) appetit (2.733455) oststadt (2.659996) 
durchweg (2.808778) live (2.785489) 20min (2.720461) zieh (2.706933) tasch (2.695092) experi (2.691578) bewerten (2.685595) ma (2.680719) amerikanisch (2.604442) brauhaus (2.596177) 
folgend (2.753648) 15min (2.710291) dish (2.678883) fteren (2.671964) frankfurt (2.668144) fragt (2.656338) blichen (2.647259) ausgefallen (2.646574) eigenen (2.626681) bleiben (2.616907) 
erledigt (2.887921) pluspunkt (2.873591) mediterran (2.766610) ihm (2.735494) rustik (2.735122) speck (2.701373) herren (2.650395) willkommen (2.646983) enttuschung (2.640648) nichtmal (2.612415) 
Error (train/valid/test) = 0.254676/1.660687/1.735991 (0.189977)
..................................................
energy after gradient step = 4904373.637480

Top words for each topic:
away (3.046090) locker (2.978336) vogel (2.960877) zh (2.866874) kopf (2.825179) popcorn (2.816829) wickeltisch (2.810683) koch (2.769942) aufgefllt (2.719943) mac (2.696678) 
schauburg (3.117885) ludwigsplatz (3.079373) hemden (2.908068) view (2.872656) oststadt (2.857857) ungewhnlich (2.841765) gesprch (2.833782) l (2.819571) schlicht (2.761173) zurck (2.733540) 
durchweg (2.769831) bewerten (2.754948) live (2.752701) brauhaus (2.748704) amerikanisch (2.735157) hinteren (2.731572) ma (2.720812) experi (2.718343) tasch (2.706652) 20min (2.695847) 
gepflegt (3.085326) hamburg (2.890403) eigenen (2.851413) folgend (2.827540) mangelhaft (2.791054) enjoy (2.735875) fragt (2.713692) ausgefallen (2.708481) berfllt (2.697660) automaten (2.692771) 
pluspunkt (2.898442) erledigt (2.762513) schnitt (2.750991) apothek (2.678752) speck (2.672069) mittagessen (2.660724) mitt (2.647358) enttuschung (2.640173) rustik (2.634744) whlen (2.633704) 
Error (train/valid/test) = 0.256915/1.684365/1.749829 (0.171990)
..................................................
energy after gradient step = 4888449.098346

Top words for each topic:
away (3.106744) joey (2.936915) vogel (2.924347) wickeltisch (2.903232) kino (2.881313) koch (2.874217) popcorn (2.806306) locker (2.791552) zh (2.787431) kopf (2.778544) 
ludwigsplatz (3.028763) grozgig (2.992992) gesprch (2.987805) schauburg (2.967993) oststadt (2.912513) l (2.900299) hemden (2.883518) ungewhnlich (2.883065) sit (2.883000) zurck (2.859637) 
durchweg (2.855688) live (2.851608) 20min (2.794023) bewerten (2.769922) brauhaus (2.756224) besetzt (2.683642) dick (2.664439) tasch (2.604545) bereichen (2.598159) gegrillt (2.590634) 
mangelhaft (2.806961) folgend (2.800474) frankfurt (2.762048) fragt (2.737204) gepflegt (2.736417) hamburg (2.720977) traditionel (2.715539) qm (2.671914) stcke (2.634287) fteren (2.600444) 
pluspunkt (2.796126) herren (2.782068) speck (2.749234) erledigt (2.746146) willkommen (2.742292) schnitt (2.739515) mediterran (2.699325) mitt (2.650102) design (2.642436) spaghetti (2.629583) 
Error (train/valid/test) = 0.254084/1.651277/1.779386 (0.170599)
..................................................
energy after gradient step = 4865459.535470

Top words for each topic:
away (3.195818) popcorn (3.059023) vogel (3.029459) wickeltisch (3.013724) kino (2.967162) zh (2.938977) joey (2.887742) locker (2.869323) koch (2.865011) pour (2.860883) 
hemden (3.190791) appetit (3.030966) schauburg (3.030132) schlicht (3.004168) l (2.997273) tabak (2.989455) gesprch (2.980979) be (2.970941) stein (2.934845) say (2.927359) 
durchweg (2.959860) 20min (2.861142) gegrillt (2.820951) zieh (2.820275) deftig (2.809054) amerikanisch (2.788253) achtung (2.778558) ma (2.752457) brauhaus (2.731997) ideal (2.702510) 
folgend (3.088221) gepflegt (2.947227) eigenen (2.910118) frankfurt (2.840550) waschen (2.779363) automaten (2.772579) qm (2.734784) stcke (2.728754) mangelhaft (2.727811) blichen (2.717613) 
pluspunkt (2.918467) darin (2.904991) speck (2.869044) rustik (2.734991) fugngerzon (2.721063) lob (2.714919) erledigt (2.700214) spaghetti (2.683369) nichtmal (2.676109) ihm (2.675146) 
Error (train/valid/test) = 0.242898/1.703607/1.806136 (0.177014)
..................................................
energy after gradient step = 4844571.968056

Top words for each topic:
vogel (3.236619) vous (3.201234) kino (3.184663) away (3.180498) joey (3.103260) wickeltisch (3.089428) pas (3.056135) koch (3.037260) pour (2.998640) popcorn (2.965960) 
schauburg (3.260298) hemden (3.188330) l (3.087879) appetit (3.034695) tabak (3.011456) stein (2.998709) vertragen (2.973673) zurck (2.955804) oststadt (2.955240) be (2.929392) 
durchweg (3.015465) 20min (2.864125) hoch (2.762592) gegrillt (2.727554) dick (2.692919) achtung (2.691381) amerikanisch (2.658574) auszuprobieren (2.650955) geschmackssach (2.625276) fad (2.598678) 
folgend (3.053130) eigenen (2.912957) automaten (2.780297) mann (2.778907) qm (2.761329) ausgefallen (2.744275) ice (2.712123) zusatzstoff (2.696734) gepflegt (2.687511) frankfurt (2.674770) 
pluspunkt (2.875695) speck (2.823576) erledigt (2.770479) caf (2.682376) lob (2.670585) apothek (2.670488) fugngerzon (2.650116) mediterran (2.624344) spaghetti (2.574848) antipasti (2.569297) 
Error (train/valid/test) = 0.246566/1.697121/1.810379 (0.179051)
..................................................
energy after gradient step = 4813535.437979

Top words for each topic:
kino (3.392767) vogel (3.251778) away (3.238425) joey (3.215982) pour (3.196149) koch (3.175014) vous (3.151489) popcorn (3.139037) les (3.138874) et (3.125493) 
hemden (3.377082) schauburg (3.286061) ludwigsplatz (3.184521) oststadt (3.113642) stein (3.092261) gewhlt (3.089141) zurck (3.062052) view (3.060502) tabak (3.037704) sit (3.023755) 
durchweg (2.920667) 20min (2.854339) brauhaus (2.751812) amerikanisch (2.700576) zieh (2.655854) auszuprobieren (2.644517) weder (2.616747) ma (2.612717) webseit (2.601213) deftig (2.572468) 
folgend (3.040472) eigenen (2.896339) gepflegt (2.882219) blichen (2.789048) qm (2.788159) ice (2.758682) frankfurt (2.748167) automaten (2.715007) 15min (2.710151) mangelhaft (2.695067) 
pluspunkt (2.850293) erledigt (2.762894) caf (2.748648) lob (2.655848) speck (2.649659) apothek (2.647429) fugngerzon (2.635109) nichtmal (2.573192) ihm (2.565452) fu (2.552119) 
Error (train/valid/test) = 0.256297/1.670295/1.750431 (0.168661)
..................................................
energy after gradient step = 4782740.739356

Top words for each topic:
vous (3.480535) away (3.394553) kino (3.384369) en (3.369777) vogel (3.362720) pas (3.359521) et (3.344108) popcorn (3.324122) joey (3.322789) pour (3.302274) 
hemden (3.500962) schauburg (3.372941) tabak (3.205173) view (3.187604) l (3.180505) gesprch (3.090888) hauptspeis (3.082322) say (3.037205) sur (3.031810) schlicht (3.024117) 
durchweg (2.924802) 20min (2.838221) brauhaus (2.762073) zieh (2.662440) hoch (2.654502) deftig (2.575703) kollegen (2.574523) geschmackssach (2.568157) gegrillt (2.560200) live (2.556399) 
folgend (3.072734) gepflegt (2.952407) eigenen (2.936303) qm (2.821318) stcke (2.776885) mangelhaft (2.760334) 15min (2.754467) ice (2.719678) waschen (2.711775) zusatzstoff (2.703595) 
pluspunkt (2.805696) erledigt (2.725472) caf (2.701373) speck (2.644744) apothek (2.606830) fugngerzon (2.596684) fu (2.574643) rustik (2.559483) spaghetti (2.556579) lob (2.534725) 
Error (train/valid/test) = 0.260078/1.668663/1.748995 (0.168184)
..................................................
energy after gradient step = 4745702.198289

Top words for each topic:
kino (3.680675) vogel (3.508277) vous (3.505765) et (3.504883) pour (3.487867) koch (3.463263) que (3.448678) pas (3.436645) away (3.435302) les (3.391943) 
hemden (3.618063) schauburg (3.532298) l (3.456783) view (3.294047) schlicht (3.231519) sur (3.206129) ludwigsplatz (3.201222) gesprch (3.165494) tabak (3.129095) hauptspeis (3.115407) 
durchweg (2.838537) 20min (2.823362) brauhaus (2.647245) deftig (2.624131) live (2.617981) bewerten (2.617872) achtung (2.603197) zieh (2.582028) geschmackssach (2.562553) kollegen (2.560310) 
folgend (3.148023) gepflegt (3.028577) eigenen (2.833963) stcke (2.819863) hierher (2.810092) 15min (2.784727) qm (2.777713) frankfurt (2.759631) bleiben (2.740287) mangelhaft (2.723097) 
pluspunkt (2.773562) erledigt (2.694512) speck (2.669882) caf (2.649003) apothek (2.586758) fugngerzon (2.570505) spaghetti (2.559019) fu (2.557920) schnitt (2.538854) darin (2.528108) 
Error (train/valid/test) = 0.258827/1.623124/1.762055 (0.170661)
..................................................
energy after gradient step = 4707476.965486

Top words for each topic:
vous (3.784813) et (3.754711) away (3.658067) pas (3.657407) kino (3.642599) pour (3.625780) popcorn (3.607052) que (3.601331) les (3.592141) en (3.586268) 
schauburg (3.753054) hemden (3.524385) view (3.477887) schlicht (3.452365) oststadt (3.443499) zoo (3.374654) tabak (3.365046) l (3.354931) sit (3.341372) alter (3.272773) 
durchweg (2.859381) zieh (2.687708) 20min (2.684205) amerikanisch (2.596673) brauhaus (2.591284) hoch (2.536380) geschmackssach (2.536135) weder (2.534356) palac (2.527424) reisezentrum (2.520284) 
folgend (3.215042) eigenen (2.995678) gepflegt (2.934630) frankfurt (2.922102) blichen (2.901276) 15min (2.837514) fragt (2.819260) mangelhaft (2.815871) hierher (2.812199) bestel (2.796046) 
caf (2.683167) erledigt (2.628645) pluspunkt (2.600036) lob (2.501018) burger (2.497856) mediterran (2.450918) nichtmal (2.445141) apothek (2.436229) willkommen (2.433044) spaghetti (2.432291) 
Error (train/valid/test) = 0.261604/1.647944/1.770779 (0.172889)
..................................................
energy after gradient step = 4665851.658965

Top words for each topic:
et (4.031947) kino (3.941975) pas (3.886133) pour (3.884150) que (3.866392) les (3.855604) vous (3.849907) away (3.803641) en (3.797398) le (3.778379) 
hemden (3.919923) schlicht (3.784150) oststadt (3.768322) schauburg (3.737179) view (3.636871) ludwigsplatz (3.616525) zoo (3.511437) thai (3.437388) bischen (3.405800) geffnet (3.395820) 
durchweg (2.810463) 20min (2.732186) brauhaus (2.718815) amerikanisch (2.599945) nacht (2.590865) kollegen (2.540478) hoch (2.525653) ettlingen (2.500885) bereichen (2.494775) ausgesprochen (2.482262) 
folgend (3.191961) gepflegt (3.181099) frankfurt (2.984188) eigenen (2.940793) waschen (2.901258) 15min (2.889836) mangelhaft (2.867992) glatt (2.793967) gebrauchen (2.789024) wintergarten (2.786974) 
caf (2.687386) pluspunkt (2.624348) fu (2.565461) erledigt (2.487205) lob (2.460813) speck (2.457200) fugngerzon (2.443825) dabei (2.431685) spaghetti (2.427202) zubereitet (2.417928) 
Error (train/valid/test) = 0.266449/1.653804/1.776631 (0.177858)
..................................................
energy after gradient step = 4627948.897856

Top words for each topic:
et (4.185556) vous (4.170666) que (4.087197) pas (4.077420) le (4.058610) pour (4.045933) les (4.043388) en (4.014124) away (3.978759) kino (3.957868) 
schauburg (4.091672) hemden (4.015849) thai (3.916009) schlicht (3.895932) ludwigsplatz (3.854453) zoo (3.837799) view (3.835810) trs (3.734073) oststadt (3.667306) 60 (3.633661) 
durchweg (2.907667) 20min (2.750813) zieh (2.705914) brauhaus (2.698259) hoch (2.616918) amerikanisch (2.604610) bewerten (2.590678) ideal (2.564308) bereichen (2.513061) ausgesprochen (2.497395) 
folgend (3.357433) gepflegt (3.122569) eigenen (2.998503) hierher (2.989529) 15min (2.960772) blichen (2.939011) ice (2.936495) wintergarten (2.886730) begrt (2.869347) zusatzstoff (2.860307) 
pluspunkt (2.574431) erledigt (2.494024) speck (2.477673) caf (2.451175) gar (2.438772) spaghetti (2.426218) apothek (2.424594) dabei (2.405198) lob (2.403381) fugngerzon (2.396867) 
Error (train/valid/test) = 0.263283/1.697021/1.760959 (0.181295)
..................................................
energy after gradient step = 4586727.296869

Top words for each topic:
et (4.382463) que (4.365747) vous (4.360824) pas (4.347143) pour (4.333788) les (4.261511) en (4.249646) kino (4.197225) le (4.191399) away (4.185344) 
hemden (4.325817) sur (4.039158) schauburg (4.025169) ludwigsplatz (3.964984) zoo (3.919765) be (3.907926) view (3.895541) oststadt (3.873809) 60 (3.854701) sit (3.854631) 
durchweg (2.947422) 20min (2.752284) hoch (2.655810) brauhaus (2.639742) bewerten (2.607734) gegrillt (2.591523) zieh (2.574897) fan (2.563281) ettlingen (2.547593) bereichen (2.527330) 
folgend (3.214743) hierher (3.201129) frankfurt (3.157958) just (3.069664) ice (3.056530) hotel (3.022632) bestel (3.014600) bahnhof (3.007709) raucher (3.005453) stcke (3.004281) 
pluspunkt (2.513196) fu (2.443316) erledigt (2.435657) caf (2.433697) zubereitet (2.392440) gar (2.364422) fugngerzon (2.345357) willkommen (2.324456) burger (2.318861) antipasti (2.300103) 
Error (train/valid/test) = 0.263587/1.667833/1.802088 (0.181214)
..................................................
energy after gradient step = 4550210.910127

Top words for each topic:
et (4.794449) vous (4.642819) que (4.624821) le (4.591961) pas (4.575671) les (4.566999) pour (4.518935) kino (4.428284) en (4.412948) est (4.385286) 
hemden (4.482062) zoo (4.301237) schauburg (4.178697) view (4.136158) be (4.093871) espresso (4.054175) thai (4.053266) tabak (4.019137) sur (3.978278) 60 (3.953705) 
durchweg (3.007204) hoch (2.792646) 20min (2.764744) zieh (2.700892) brauhaus (2.676859) fan (2.656725) kollegen (2.633744) bewerten (2.631071) amerikanisch (2.572289) gegrillt (2.533470) 
hotel (3.439774) zimmer (3.238352) gekauft (3.213627) ice (3.146155) hierher (3.123170) folgend (3.115450) frankfurt (3.108000) stcke (3.084283) hour (3.052492) gebrauchen (3.032185) 
caf (2.415784) erledigt (2.391272) spaghetti (2.382824) speck (2.368363) pluspunkt (2.353923) fugngerzon (2.309022) burger (2.276566) zubereitet (2.241462) nichtmal (2.231326) antipasti (2.223654) 
Error (train/valid/test) = 0.253968/1.722541/1.771009 (0.175511)
..................................................
energy after gradient step = 4514994.584906

Top words for each topic:
et (4.898805) le (4.729764) vous (4.728291) pas (4.703547) que (4.682473) pour (4.682157) les (4.654917) en (4.588442) bien (4.542820) une (4.517155) 
schauburg (4.587972) hemden (4.560198) zoo (4.392535) view (4.361932) sur (4.287314) coffe (4.252598) sit (4.203413) ludwigsplatz (4.178428) schlicht (4.122893) tabak (4.068252) 
durchweg (3.037310) 20min (2.781708) brauhaus (2.754098) zieh (2.733432) fan (2.701873) hoch (2.623882) ettlingen (2.623554) amerikanisch (2.604565) wenigen (2.583454) kollegen (2.571408) 
hotel (3.649549) folgend (3.509112) hierher (3.417674) frhstcksbuffet (3.347904) bahnhof (3.288581) zimmer (3.286697) ice (3.264379) frankfurt (3.209517) stcke (3.205901) bestel (3.205842) 
caf (2.461072) pluspunkt (2.415157) burger (2.389287) erledigt (2.345943) steak (2.295641) speck (2.294133) gar (2.292804) zubereitet (2.286145) geschrieben (2.277185) willkommen (2.272068) 
Error (train/valid/test) = 0.252112/1.746238/1.812955 (0.180292)
..................................................
energy after gradient step = 4485095.532687

Top words for each topic:
et (5.107347) que (4.981281) vous (4.978603) le (4.959826) pas (4.930562) les (4.912188) pour (4.876061) en (4.781628) est (4.762905) kino (4.662073) 
hemden (4.869889) thai (4.712920) zoo (4.589274) schauburg (4.565197) view (4.544079) tabak (4.509704) espresso (4.434414) sit (4.374879) sur (4.268566) say (4.254667) 
durchweg (3.004413) hoch (2.853136) 20min (2.802364) fan (2.744857) wenigen (2.668586) brauhaus (2.642950) hhnchen (2.639673) gegrillt (2.627595) amerikanisch (2.625141) zieh (2.596982) 
hotel (3.798640) zimmer (3.423842) frankfurt (3.420779) folgend (3.412371) gekauft (3.410016) hierher (3.366980) ice (3.362897) blichen (3.327005) just (3.301134) bestel (3.286737) 
burger (2.374367) pluspunkt (2.373166) caf (2.363183) fugngerzon (2.257549) ka (2.221962) gar (2.198364) apothek (2.198220) er (2.195597) tatsach (2.195126) studenten (2.176387) 
Error (train/valid/test) = 0.245880/1.819283/1.780324 (0.172098)
..................................................
energy after gradient step = 4460918.828537

Top words for each topic:
et (5.273524) le (5.144687) que (5.113189) pas (5.068982) les (5.057424) vous (5.041126) pour (5.027546) en (4.978582) est (4.909765) tea (4.806084) 
hemden (4.991476) zoo (4.858456) schauburg (4.800138) view (4.739927) espresso (4.664610) sur (4.641436) sit (4.572817) coffe (4.541684) tabak (4.505228) match (4.499907) 
fan (2.920376) brauhaus (2.845554) durchweg (2.829329) 20min (2.824379) zieh (2.784950) hoch (2.748152) men (2.664288) leber (2.661821) chinesisch (2.653662) amerikanisch (2.648242) 
hotel (3.995149) hierher (3.753349) folgend (3.660909) frankfurt (3.545125) bahnhof (3.505499) frhstcksbuffet (3.487973) zimmer (3.486020) gepflegt (3.420104) enjoy (3.404714) automaten (3.392425) 
caf (2.513454) er (2.443569) burger (2.434700) pluspunkt (2.346447) geschrieben (2.312100) willkommen (2.264831) sorten (2.229872) apothek (2.215993) steak (2.201291) kipp (2.184989) 
Error (train/valid/test) = 0.247755/1.842906/1.775946 (0.170680)
..................................................
energy after gradient step = 4435132.761686

Top words for each topic:
et (5.442363) le (5.328238) que (5.280604) pas (5.224122) pour (5.176300) vous (5.161911) les (5.154116) en (5.153822) est (5.075713) kino (4.960865) 
hemden (5.229329) schauburg (5.069722) espresso (4.904209) zoo (4.815686) view (4.725946) ludwigsplatz (4.725368) thai (4.632647) jai (4.625726) moccasin (4.623410) say (4.620800) 
durchweg (3.062266) 20min (2.860807) wenigen (2.730922) men (2.721832) hhnchen (2.714222) zieh (2.707136) hoch (2.705910) kollegen (2.700232) amerikanisch (2.685268) bewerten (2.658048) 
hotel (4.305224) folgend (3.813950) zimmer (3.731234) hierher (3.656687) just (3.645377) ice (3.634955) marktplatz (3.598206) enjoy (3.571914) bahnhof (3.566194) stcke (3.551578) 
caf (2.478630) burger (2.469311) er (2.430393) hab (2.322022) geschrieben (2.295289) steak (2.262626) tatsach (2.242276) erledigt (2.216852) speck (2.215848) fugngerzon (2.208613) 
Error (train/valid/test) = 0.231125/1.778969/1.805833 (0.171729)
..................................................
energy after gradient step = 4419241.952011

Top words for each topic:
et (5.576696) le (5.476720) que (5.366114) pas (5.295634) vous (5.272930) en (5.258319) les (5.256524) pour (5.240201) est (5.158325) tea (5.004605) 
hemden (5.299260) zoo (5.210771) sit (5.065796) espresso (5.015091) schauburg (4.978568) sur (4.896133) tabak (4.861709) be (4.852154) match (4.831182) view (4.814558) 
durchweg (2.964031) brauhaus (2.934512) 20min (2.900148) men (2.852434) chinesisch (2.845854) wenigen (2.838797) fan (2.805815) hoch (2.749188) kche (2.723458) gegrillt (2.710247) 
hotel (4.486673) folgend (3.934186) zimmer (3.912430) frankfurt (3.860502) happi (3.804049) enjoy (3.668877) gekauft (3.664207) frhstcksbuffet (3.661112) filial (3.653114) automaten (3.640085) 
caf (2.568537) er (2.455522) burger (2.437445) pluspunkt (2.361489) steak (2.329870) hab (2.290318) geschrieben (2.287540) apothek (2.234803) ka (2.234527) cocktail (2.228139) 
Error (train/valid/test) = 0.219115/1.805448/1.826295 (0.178736)
..................................................
energy after gradient step = 4405310.807455

Top words for each topic:
et (5.718520) le (5.554365) que (5.494674) pas (5.416404) vous (5.405282) les (5.384239) pour (5.364543) en (5.326798) est (5.288757) une (5.081632) 
hemden (5.442788) schauburg (5.330244) zoo (5.229175) espresso (5.205477) sit (5.029045) are (4.914342) 60 (4.887036) jai (4.882782) tabak (4.875465) stazion (4.868644) 
durchweg (3.063781) men (2.964327) 20min (2.950340) wenigen (2.836078) einzeln (2.808379) ausgesprochen (2.751443) bewerten (2.750647) kche (2.731908) wein (2.708562) fan (2.678958) 
hotel (4.640270) zimmer (4.168553) just (3.877633) straenbahnen (3.801315) marktplatz (3.799428) geschmacksverstrk (3.795821) hour (3.778274) folgend (3.763381) filial (3.758878) berfllt (3.755134) 
caf (2.732604) er (2.461628) burger (2.444928) hab (2.434272) steak (2.335698) geschrieben (2.327903) angemessen (2.310690) pluspunkt (2.300974) apothek (2.265808) cocktail (2.259103) 
Error (train/valid/test) = 0.208698/1.865346/1.805909 (0.172160)
..................................................
energy after gradient step = 4396129.921211

Top words for each topic:
et (5.835689) le (5.620826) que (5.604534) pas (5.518019) vous (5.516930) les (5.497179) en (5.458326) pour (5.457963) est (5.398647) tea (5.180929) 
hemden (5.507165) espresso (5.298834) zoo (5.257611) coffe (5.119097) schauburg (5.092424) be (5.054355) sit (5.041860) are (4.984755) rand (4.960842) moccasin (4.941983) 
ettling (3.153919) durchweg (3.083378) men (3.046174) 20min (2.996387) wenigen (2.983117) kche (2.952196) uneingeschrnkt (2.852408) brauhaus (2.821217) ausgesprochen (2.802775) bewerten (2.790197) 
hotel (4.946031) zimmer (4.388339) marktplatz (4.184036) gekauft (4.134321) folgend (4.103734) bahn (4.038123) gmx (3.992909) frhstcksbuffet (3.953906) just (3.900111) mangelhaft (3.900015) 
caf (2.631455) hab (2.508453) geschrieben (2.460710) er (2.447998) steak (2.405207) pluspunkt (2.369290) cocktail (2.331907) burger (2.308377) fugngerzon (2.298956) apothek (2.291024) 
Error (train/valid/test) = 0.199196/1.930154/1.907140 (0.211735)
..................................................
energy after gradient step = 4389624.117854

Top words for each topic:
et (5.920326) le (5.739471) que (5.694638) vous (5.608829) pas (5.602164) les (5.588916) en (5.564103) est (5.490905) pour (5.440527) sushi (5.336572) 
hemden (5.604562) zoo (5.443711) espresso (5.400791) sit (5.306677) coffe (5.220839) are (5.123781) schauburg (5.116843) match (5.115840) 60 (5.030731) did (5.010594) 
durchweg (3.194601) men (3.110962) uneingeschrnkt (3.101850) wenigen (3.023933) 20min (3.011598) beid (2.896673) ettling (2.879660) kche (2.866146) flair (2.847379) bewerten (2.823721) 
hotel (5.049919) zimmer (4.721869) gekauft (4.266636) berfllt (4.055288) mangelhaft (4.022619) folgend (3.989291) enjoy (3.987208) frhstcksbuffet (3.981598) bahn (3.975539) marktplatz (3.956319) 
caf (2.752577) geschrieben (2.510659) hab (2.420757) steak (2.395181) burger (2.379908) portion (2.368405) dabei (2.348134) cocktail (2.305504) erledigt (2.292825) willkommen (2.290468) 
Error (train/valid/test) = 0.178948/1.916837/1.942148 (0.212388)
..................................................
energy after gradient step = 4383787.107467

Top words for each topic:
et (5.987805) le (5.816432) que (5.744924) vous (5.660470) pas (5.646671) les (5.642381) en (5.630306) est (5.542925) pour (5.505995) a (5.441581) 
hemden (5.694706) espresso (5.557555) zoo (5.543280) schauburg (5.456338) coffe (5.410723) shot (5.226430) are (5.225553) be (5.220928) moccasin (5.142781) gewrzen (5.131988) 
men (3.183977) durchweg (3.144555) uneingeschrnkt (3.083993) beid (3.054471) 20min (3.053559) fan (3.048107) gegrillt (3.007369) wollten (2.991734) wenigen (2.988195) flair (2.942812) 
hotel (5.179630) zimmer (4.776071) gekauft (4.434752) folgend (4.342446) gmx (4.247820) hour (4.142620) bahn (4.120156) room (4.055691) bahnhof (4.026095) frhstcksbuffet (4.005206) 
caf (2.652415) geschrieben (2.621306) hab (2.498514) pluspunkt (2.494920) portion (2.457382) steak (2.422064) apothek (2.401805) ka (2.401077) kipp (2.388475) currywurst (2.387702) 
Error (train/valid/test) = 0.151282/1.936657/1.993313 (0.240244)
..................................................
energy after gradient step = 4378354.937400

Top words for each topic:
et (5.976128) le (5.906050) que (5.813378) vous (5.729958) les (5.713333) pas (5.711646) en (5.710030) est (5.613519) pour (5.575499) sushi (5.512925) 
hemden (5.778235) zoo (5.649077) espresso (5.574913) coffe (5.356494) sit (5.299360) match (5.284745) they (5.279460) be (5.229161) moccasin (5.195888) schauburg (5.192462) 
uneingeschrnkt (3.272794) men (3.262921) 20min (3.106953) gegrillt (3.092111) durchweg (3.073932) wollten (2.996050) beid (2.967252) einzeln (2.964733) passt (2.954438) hhnchen (2.942874) 
hotel (5.242622) zimmer (4.855343) gekauft (4.419200) folgend (4.293467) bahn (4.166315) stcke (4.124631) room (4.114809) marktplatz (4.092815) bahnhof (4.083822) mangelhaft (4.062746) 
caf (2.825102) geschrieben (2.654444) portion (2.501754) hab (2.478900) dabei (2.472296) ka (2.447552) currywurst (2.435417) bestellung (2.430571) sei (2.427497) flott (2.420819) 
Error (train/valid/test) = 0.131988/1.906482/1.963617 (0.226348)
..................................................
energy after gradient step = 4373495.613793

Top words for each topic:
et (6.032459) le (5.952456) que (5.863414) vous (5.781114) en (5.765141) les (5.763913) pas (5.759478) est (5.667200) pour (5.623484) sushi (5.426606) 
hemden (5.863983) zoo (5.759061) espresso (5.694702) coffe (5.591259) are (5.449800) schauburg (5.423766) they (5.390993) be (5.380917) oval (5.378636) entspannen (5.329719) 
uneingeschrnkt (3.353749) men (3.330856) gegrillt (3.175352) hhnchen (3.150475) 20min (3.129661) wenigen (3.064664) wir (3.037377) durchweg (3.015887) chinesisch (2.998845) wollten (2.978614) 
hotel (5.360373) zimmer (5.075883) gmx (4.389418) folgend (4.380904) marktplatz (4.371874) bahnhof (4.323837) mangelhaft (4.314188) gekauft (4.304454) stcke (4.222297) room (4.209400) 
geschrieben (2.734476) caf (2.705347) flott (2.651096) hab (2.639005) portion (2.573305) burger (2.558816) sei (2.517953) kipp (2.501835) dabei (2.475308) cocktail (2.454913) 
Error (train/valid/test) = 0.119196/1.995154/1.942992 (0.208299)
..................................................
energy after gradient step = 4373346.026870

Top words for each topic:
et (6.120486) le (6.050698) que (5.935124) vous (5.853579) en (5.845548) les (5.838147) pas (5.828925) est (5.741208) pour (5.695799) a (5.626688) 
hemden (5.918542) zoo (5.842955) espresso (5.791243) sit (5.518452) coffe (5.511829) they (5.511350) match (5.420015) be (5.399280) are (5.378610) peopl (5.367988) 
men (3.382751) uneingeschrnkt (3.282784) gegrillt (3.225422) hhnchen (3.181937) kollegen (3.172650) 20min (3.158083) wollten (3.148802) beid (3.092892) wir (3.072244) ettlingen (3.045014) 
hotel (5.475823) zimmer (4.959512) marktplatz (4.478731) gekauft (4.385249) room (4.332358) bahnhof (4.326316) folgend (4.311912) gmx (4.306292) mitarbeit (4.304840) mangelhaft (4.274591) 
caf (2.937064) portion (2.715740) flott (2.701947) burger (2.690206) geschrieben (2.684919) cocktail (2.673295) ka (2.614599) sei (2.605009) hab (2.573743) cafe (2.538611) 
Error (train/valid/test) = 0.107005/2.046131/1.916117 (0.204075)
..................................................
energy after gradient step = 4373359.953212

Top words for each topic:
et (6.140954) le (6.075719) que (5.952071) vous (5.871234) en (5.870465) les (5.857644) pas (5.843909) est (5.760772) pour (5.710303) a (5.643364) 
hemden (5.895737) zoo (5.835562) espresso (5.703523) coffe (5.627317) are (5.481015) oval (5.427402) be (5.422795) peopl (5.409859) match (5.387286) shot (5.371467) 
men (3.411910) kollegen (3.264454) gegrillt (3.259758) uneingeschrnkt (3.250317) 20min (3.169460) wollten (3.159542) beid (3.158458) ettlingen (3.131389) wir (3.106149) konnten (3.101295) 
hotel (5.584944) zimmer (5.016662) marktplatz (4.637690) folgend (4.491837) gmx (4.448280) gekauft (4.432911) mitarbeit (4.396280) room (4.387190) bahnhof (4.343042) info (4.325405) 
caf (2.854926) geschrieben (2.852306) flott (2.850997) burger (2.801255) ka (2.771670) cocktail (2.765379) hab (2.758034) sei (2.699671) kipp (2.665567) cafe (2.663076) 
Error (train/valid/test) = 0.095211/2.101313/1.941321 (0.204220)
..................................................
energy after gradient step = 4370259.592073

Top words for each topic:
et (6.211250) le (6.150860) que (6.017055) en (5.939739) vous (5.936875) les (5.924025) pas (5.908133) est (5.828861) pour (5.775134) a (5.711278) 
hemden (5.847696) zoo (5.836728) espresso (5.805808) coffe (5.592390) are (5.530060) peopl (5.504345) match (5.500700) be (5.500356) oval (5.477037) moccasin (5.454877) 
men (3.466313) kollegen (3.348045) gegrillt (3.316456) ettlingen (3.218232) 20min (3.199089) konnten (3.199004) gericht (3.187662) wir (3.162267) chinesisch (3.125007) uneingeschrnkt (3.122873) 
hotel (5.626586) zimmer (5.100954) marktplatz (4.774152) gmx (4.472333) room (4.458925) mitarbeit (4.444964) bahnhof (4.443240) mangelhaft (4.384351) gekauft (4.366983) folgend (4.362114) 
caf (3.022773) flott (2.957155) cocktail (2.936708) geschrieben (2.900749) burger (2.895420) ka (2.881105) pomm (2.836439) portion (2.813622) sei (2.774343) cafe (2.762693) 
Error (train/valid/test) = 0.085191/2.192638/1.983504 (0.221597)
..................................................
energy after gradient step = 4369784.567165

Top words for each topic:
et (6.305591) le (6.249964) que (6.098704) en (6.026832) vous (6.019282) les (6.006733) pas (5.991435) est (5.915622) pour (5.864969) kino (5.776917) 
zoo (5.928156) espresso (5.865734) hemden (5.789858) are (5.586055) coffe (5.569556) schauburg (5.568818) oval (5.544640) be (5.531916) shot (5.530291) match (5.513575) 
men (3.506274) kollegen (3.415609) wir (3.407977) gegrillt (3.362244) konnten (3.281537) wollten (3.254922) uneingeschrnkt (3.238685) hhnchen (3.235387) kche (3.220185) 20min (3.218450) 
hotel (5.721245) zimmer (5.233304) marktplatz (4.883905) bahnhof (4.537565) gmx (4.531998) room (4.520898) info (4.422799) gekauft (4.419008) folgend (4.364909) stcke (4.314180) 
caf (3.131562) flott (3.083177) cocktail (3.001068) geschrieben (2.981324) burger (2.980344) pomm (2.923403) ka (2.895560) cafe (2.881337) sei (2.876563) hab (2.825330) 
Error (train/valid/test) = 0.081324/2.400238/2.005937 (0.212806)
..................................................
energy after gradient step = 4368961.445932

Top words for each topic:
et (6.329509) le (6.276889) que (6.125011) en (6.061039) vous (6.046122) les (6.036729) pas (6.015204) est (5.943190) pour (5.887251) kino (5.830520) 
zoo (5.855539) espresso (5.823913) hemden (5.770991) coffe (5.713989) are (5.657540) peopl (5.637091) oval (5.619403) be (5.612092) schauburg (5.610199) shot (5.609679) 
men (3.525046) kollegen (3.444105) wir (3.396634) gegrillt (3.377713) kche (3.341293) konnten (3.321707) gericht (3.284007) 20min (3.234379) wollten (3.232182) speisen (3.232066) 
hotel (5.787779) zimmer (5.286546) marktplatz (4.971708) bahnhof (4.611429) gmx (4.570893) room (4.564129) info (4.456421) mangelhaft (4.432775) folgend (4.347128) gekauft (4.345508) 
caf (3.285965) cocktail (3.152629) geschrieben (3.049767) burger (3.044058) ka (3.016976) flott (2.973134) pomm (2.906889) kipp (2.890105) portion (2.888148) cafe (2.869279) 
Error (train/valid/test) = 0.077979/2.379322/2.051100 (0.231458)
..................................................
energy after gradient step = 4371782.069303

Top words for each topic:
et (6.395901) le (6.346569) que (6.178036) en (6.119434) vous (6.099604) les (6.092174) pas (6.066937) est (5.997916) sushi (5.946824) a (5.942048) 
zoo (5.838331) coffe (5.737762) espresso (5.724803) hemden (5.716415) are (5.665995) shot (5.649703) oval (5.633535) be (5.608426) match (5.594027) entspannen (5.552179) 
men (3.568547) kche (3.512650) wir (3.430962) kollegen (3.391350) kart (3.390311) konnten (3.382643) gegrillt (3.301549) uneingeschrnkt (3.294133) zweit (3.293250) 20min (3.262209) 
hotel (5.752167) zimmer (5.110052) marktplatz (4.912767) gmx (4.542531) room (4.538479) bahnhof (4.515906) gekauft (4.485044) info (4.434738) filial (4.413265) folgend (4.279427) 
caf (3.322461) cocktail (3.194663) geschrieben (3.114681) ka (3.106535) burger (3.097847) pomm (3.076722) portion (2.977441) flott (2.917943) cafe (2.882647) kipp (2.870707) 
Error (train/valid/test) = 0.074085/2.402176/2.049542 (0.221336)
..................................................
energy after gradient step = 4374076.094038

Top words for each topic:
et (6.427586) le (6.381188) que (6.211809) en (6.153848) vous (6.133962) les (6.125930) pas (6.102931) a (6.045014) est (6.036189) sushi (6.027848) 
zoo (5.775586) coffe (5.768336) espresso (5.751003) are (5.676596) oval (5.648123) hemden (5.642281) schauburg (5.633668) be (5.619396) match (5.608443) peopl (5.584954) 
kche (3.668983) men (3.608384) wir (3.422235) gegrillt (3.370216) pasta (3.358520) uneingeschrnkt (3.356366) kollegen (3.348180) kart (3.342182) konnten (3.341463) wollten (3.332272) 
hotel (5.788955) zimmer (5.202600) marktplatz (4.706499) gmx (4.563857) room (4.562000) gekauft (4.559025) bahnhof (4.558301) filial (4.459461) info (4.446947) mangelhaft (4.340187) 
caf (3.352886) cocktail (3.323432) ka (3.202984) burger (3.130492) portion (3.084154) geschrieben (3.039585) cafe (3.016479) flott (2.986986) gewesen (2.959010) kipp (2.954687) 
Error (train/valid/test) = 0.069434/2.463498/2.173949 (0.239869)
..................................................
energy after gradient step = 4376539.976717

Top words for each topic:
et (6.485854) le (6.442954) que (6.255124) en (6.204888) vous (6.177895) les (6.172476) pas (6.145732) sushi (6.132496) est (6.082459) a (6.051036) 
zoo (5.886757) coffe (5.848706) espresso (5.743070) are (5.739599) oval (5.716138) shot (5.682385) be (5.674003) match (5.660489) entspannen (5.621111) peopl (5.609328) 
kche (3.711388) men (3.657913) kart (3.483515) konnten (3.424468) kollegen (3.420620) pasta (3.365803) flammkuchen (3.346163) wir (3.328368) wollten (3.313228) 20min (3.305599) 
hotel (5.586185) zimmer (5.196369) gekauft (4.617272) bahnhof (4.604345) room (4.557634) gmx (4.553988) filial (4.474356) marktplatz (4.432991) info (4.417477) mangelhaft (4.281981) 
cocktail (3.484247) caf (3.412618) ka (3.320166) burger (3.210590) flott (3.176088) geschrieben (3.163689) gewesen (3.114341) portion (3.094713) kipp (3.079374) currywurst (3.020440) 
Error (train/valid/test) = 0.067407/2.480021/2.209022 (0.235785)
..................................................
energy after gradient step = 4377791.588662

Top words for each topic:
et (6.515594) le (6.474285) que (6.289822) en (6.244887) vous (6.212979) les (6.209975) pas (6.178479) a (6.119693) est (6.118211) sushi (6.088197) 
zoo (5.945532) coffe (5.896571) are (5.780683) oval (5.760253) shot (5.728915) be (5.715140) match (5.701701) peopl (5.677612) moccasin (5.619696) they (5.613590) 
kche (3.841051) men (3.703594) kart (3.604776) konnten (3.488989) kollegen (3.478440) wir (3.468837) wein (3.428686) pasta (3.413869) salat (3.393227) gegrillt (3.392274) 
hotel (5.578968) zimmer (5.199001) gekauft (4.612432) bahnhof (4.605939) room (4.520668) gmx (4.518417) marktplatz (4.458075) info (4.404193) filial (4.321784) mangelhaft (4.293091) 
caf (3.461634) cocktail (3.416230) ka (3.386420) burger (3.272767) gewesen (3.222218) portion (3.217165) flott (3.179350) kipp (3.152748) geschrieben (3.093433) currywurst (3.083995) 
Error (train/valid/test) = 0.063090/2.533364/2.274875 (0.245267)
..................................................
energy after gradient step = 4377783.078333

Top words for each topic:
et (6.559276) le (6.520783) que (6.324077) en (6.282619) vous (6.247608) les (6.245949) pas (6.212349) a (6.205147) sushi (6.191457) est (6.154646) 
zoo (5.985755) coffe (5.929824) are (5.804967) oval (5.787735) shot (5.771366) be (5.736082) match (5.720978) peopl (5.690820) they (5.674136) moccasin (5.638722) 
kche (3.746392) kart (3.635064) men (3.631433) wein (3.535511) konnten (3.527118) salat (3.424957) ettlingen (3.422538) kollegen (3.408078) flammkuchen (3.402059) zweit (3.390813) 
hotel (5.574671) zimmer (5.185264) gekauft (4.644480) bahnhof (4.538775) gmx (4.519985) marktplatz (4.385849) filial (4.370621) bahn (4.339925) mangelhaft (4.266724) room (4.229274) 
caf (3.511113) ka (3.468694) cocktail (3.468040) burger (3.318036) flott (3.313643) kipp (3.226929) gewesen (3.221278) portion (3.215687) geschrieben (3.205732) currywurst (3.059347) 
Error (train/valid/test) = 0.062427/2.547121/2.330900 (0.254816)
..................................................
energy after gradient step = 4378739.906535

Top words for each topic:
et (6.617126) le (6.580597) que (6.377441) en (6.342144) les (6.302319) vous (6.301380) pas (6.264095) est (6.209544) a (6.198724) sushi (6.166877) 
zoo (6.037032) coffe (5.965518) are (5.816894) shot (5.809276) oval (5.802783) they (5.742218) be (5.741977) match (5.725820) peopl (5.704748) moccasin (5.647936) 
kche (3.694651) men (3.681414) kart (3.591544) konnten (3.581584) pasta (3.525775) wein (3.524250) salat (3.501842) zweit (3.464541) kollegen (3.463619) gericht (3.432512) 
hotel (5.581699) zimmer (5.210894) gekauft (4.638931) gmx (4.474861) marktplatz (4.435262) room (4.363076) info (4.357467) bahnhof (4.323919) bahn (4.251634) mangelhaft (4.234010) 
caf (3.674753) ka (3.557648) flott (3.437520) burger (3.396715) cocktail (3.329760) geschrieben (3.309761) portion (3.259555) hab (3.229350) kipp (3.214702) einfach (3.193653) 
Error (train/valid/test) = 0.060029/2.625873/2.455340 (0.270761)
..................................................
energy after gradient step = 4376795.097157

Top words for each topic:
le (6.599958) et (6.545085) que (6.395834) en (6.364860) les (6.323062) vous (6.320010) pas (6.280689) sushi (6.232582) est (6.228683) a (6.179033) 
zoo (6.092694) are (5.907093) oval (5.895249) coffe (5.890820) shot (5.889011) they (5.836075) be (5.832669) match (5.815151) moccasin (5.737971) entspannen (5.719465) 
kart (3.668273) kche (3.660146) men (3.630254) pasta (3.605396) konnten (3.526250) zweit (3.522937) gericht (3.519926) kollegen (3.506176) fleisch (3.501084) salat (3.469413) 
hotel (5.544330) zimmer (5.194401) gekauft (4.585864) gmx (4.444825) marktplatz (4.418611) room (4.291987) bahn (4.232818) bahnhof (4.225926) mangelhaft (4.213621) info (4.181953) 
ka (3.626510) caf (3.549912) flott (3.526647) burger (3.468174) geschrieben (3.376709) cocktail (3.353569) kipp (3.315943) portion (3.297657) einfach (3.211498) bestimmt (3.166170) 
Error (train/valid/test) = 0.058747/2.584790/2.481961 (0.266387)
..................................................
energy after gradient step = 4373768.206368

Top words for each topic:
le (6.654055) et (6.617636) que (6.430572) en (6.403934) les (6.359621) vous (6.354972) pas (6.315164) est (6.265083) pour (6.187888) kino (6.149681) 
zoo (6.124395) coffe (5.995215) shot (5.902265) are (5.889192) oval (5.879505) be (5.812073) match (5.793466) the (5.728705) moccasin (5.718863) they (5.717376) 
kche (3.776083) salat (3.695529) kart (3.688473) men (3.642160) fleisch (3.627896) wein (3.548424) zweit (3.535424) kollegen (3.506755) gericht (3.479275) ettlingen (3.468914) 
hotel (5.525868) zimmer (5.164850) gekauft (4.570751) gmx (4.432662) marktplatz (4.370481) room (4.314024) info (4.265519) bahnhof (4.261731) bahn (4.229041) filial (4.145223) 
caf (3.723739) ka (3.622874) flott (3.539939) burger (3.532296) portion (3.451954) geschrieben (3.450110) cocktail (3.434899) kipp (3.414416) currywurst (3.270122) gewesen (3.237073) 
Error (train/valid/test) = 0.057562/2.646902/2.439696 (0.241242)
..................................................
energy after gradient step = 4370335.264389

Top words for each topic:
le (6.728760) et (6.684329) que (6.492005) les (6.425160) vous (6.416726) pas (6.374638) en (6.356038) sushi (6.267198) pour (6.246370) kino (6.243185) 
zoo (6.115650) coffe (5.953565) shot (5.894557) are (5.886745) oval (5.879539) they (5.831038) be (5.809054) match (5.788826) moccasin (5.715793) entspannen (5.692700) 
kche (3.921520) kart (3.756097) salat (3.694065) men (3.692024) wein (3.658012) fleisch (3.594648) zweit (3.589887) gericht (3.587171) kollegen (3.553481) ettlingen (3.530791) 
hotel (5.572766) zimmer (5.189502) gekauft (4.579020) gmx (4.422253) marktplatz (4.310877) room (4.308817) bahnhof (4.301924) mangelhaft (4.201590) info (4.181296) filial (4.158541) 
caf (3.868860) ka (3.629409) burger (3.605770) flott (3.575590) geschrieben (3.524323) cocktail (3.506235) kipp (3.505435) portion (3.472840) currywurst (3.370760) bestimmt (3.367083) 
Error (train/valid/test) = 0.056501/2.681713/2.467865 (0.240889)
..................................................
energy after gradient step = 4369112.527223

Top words for each topic:
le (6.753420) et (6.712027) que (6.532208) les (6.465434) vous (6.457190) pas (6.415775) en (6.405296) pour (6.289908) kino (6.284446) est (6.263251) 
zoo (6.121877) coffe (5.968705) shot (5.908491) are (5.891526) they (5.834743) be (5.811657) match (5.790576) moccasin (5.719030) oval (5.714051) entspannen (5.688601) 
kche (3.972283) salat (3.789699) kart (3.724416) men (3.697488) wein (3.684799) gericht (3.611030) zweit (3.602763) fleisch (3.579274) kollegen (3.555013) ettlingen (3.546516) 
hotel (5.526647) zimmer (5.183346) gekauft (4.588375) gmx (4.430289) bahnhof (4.332156) info (4.239426) marktplatz (4.237822) room (4.196437) bahn (4.172949) filial (4.161562) 
caf (3.772473) ka (3.703589) burger (3.690642) flott (3.598824) geschrieben (3.592802) kipp (3.578299) portion (3.501166) bestimmt (3.446379) currywurst (3.445362) unserem (3.398632) 
Error (train/valid/test) = 0.054279/2.682303/2.458308 (0.242353)
..................................................
energy after gradient step = 4366837.593526

Top words for each topic:
le (6.775186) et (6.732934) que (6.545102) les (6.479526) vous (6.470374) pas (6.428653) en (6.427461) sushi (6.322928) pour (6.302546) a (6.288373) 
zoo (6.132553) coffe (5.971694) shot (5.911937) oval (5.887926) are (5.886501) they (5.861693) be (5.804767) match (5.782640) moccasin (5.712212) entspannen (5.685003) 
kche (3.982006) kart (3.822992) men (3.735716) gericht (3.717141) wein (3.673528) zweit (3.644607) salat (3.615893) kollegen (3.592847) ettlingen (3.592291) fleisch (3.577363) 
hotel (5.494367) zimmer (5.154031) gekauft (4.532153) gmx (4.361792) bahnhof (4.199199) info (4.153744) bahn (4.142736) room (4.093545) mangelhaft (4.087136) bahnen (4.076237) 
caf (3.754772) burger (3.716078) ka (3.693680) kipp (3.641167) geschrieben (3.639137) flott (3.543872) bestimmt (3.518565) portion (3.512975) currywurst (3.423242) unserem (3.389237) 
Error (train/valid/test) = 0.061615/2.726068/2.488078 (0.232258)
..................................................
energy after gradient step = 4365537.982153

Top words for each topic:
le (6.775387) et (6.733357) que (6.537414) les (6.473606) vous (6.462925) en (6.427578) pas (6.420302) sushi (6.334273) pour (6.293087) est (6.286867) 
zoo (6.137163) coffe (5.979903) shot (5.924357) are (5.899369) they (5.880090) be (5.816751) oval (5.810085) match (5.793750) moccasin (5.724408) klotz (5.684074) 
kche (4.039208) kart (3.868698) gericht (3.773153) wein (3.726832) salat (3.725026) men (3.676362) zweit (3.665165) kollegen (3.609673) speisen (3.569063) ettlingen (3.544166) 
hotel (5.476663) zimmer (5.145918) gekauft (4.526684) gmx (4.364920) bahnhof (4.230770) info (4.162722) room (4.161439) bahn (4.145911) mangelhaft (4.052360) store (4.036061) 
burger (3.770869) ka (3.766764) caf (3.745703) kipp (3.694926) geschrieben (3.686255) flott (3.656184) bestimmt (3.520645) currywurst (3.503723) portion (3.469948) unserem (3.467155) 
Error (train/valid/test) = 0.052573/2.706688/2.528896 (0.236926)
..................................................
energy after gradient step = 4362213.296497

Top words for each topic:
le (6.840432) et (6.798294) que (6.595058) les (6.532509) vous (6.520983) en (6.492212) pas (6.478381) sushi (6.435051) a (6.412445) est (6.353573) 
zoo (6.038285) coffe (5.997910) shot (5.941439) they (5.916770) are (5.901025) oval (5.861635) be (5.814808) match (5.790354) moccasin (5.722582) the (5.691190) 
kche (4.115762) salat (3.940721) wein (3.780275) gericht (3.752173) men (3.716340) kart (3.696290) zweit (3.693179) kollegen (3.635930) teller (3.625687) fleisch (3.592685) 
hotel (5.493332) zimmer (5.137627) gekauft (4.524818) gmx (4.339134) bahnhof (4.254457) bahn (4.162019) room (4.133509) info (4.124874) mangelhaft (4.039047) bahnen (4.009491) 
caf (3.929492) ka (3.896897) burger (3.829058) kipp (3.771832) geschrieben (3.757262) bestimmt (3.664209) currywurst (3.595203) portion (3.550190) flott (3.523465) studenten (3.510941) 
Error (train/valid/test) = 0.052279/2.644080/2.608375 (0.252314)
..................................................
energy after gradient step = 4361576.641604

Top words for each topic:
le (6.865332) et (6.823549) que (6.616963) les (6.557540) vous (6.543241) pas (6.498487) en (6.446166) a (6.402280) sushi (6.396128) est (6.379556) 
zoo (6.056696) coffe (5.968449) shot (5.915701) they (5.900256) are (5.881260) oval (5.820500) be (5.798012) match (5.772577) the (5.738069) is (5.720882) 
kche (4.104327) salat (3.958063) fleisch (3.891900) gericht (3.844496) wein (3.834726) men (3.750430) zweit (3.726635) kollegen (3.656090) ettlingen (3.630685) kart (3.601207) 
hotel (5.457102) zimmer (5.136536) gekauft (4.498830) gmx (4.328753) bahnhof (4.246807) bahn (4.148902) info (4.134249) room (4.129786) mangelhaft (4.038294) store (4.008805) 
caf (4.099157) burger (3.910166) ka (3.882923) kipp (3.848359) geschrieben (3.834042) bestimmt (3.732568) currywurst (3.676520) studenten (3.590497) steak (3.464865) gebacken (3.464849) 
Error (train/valid/test) = 0.052304/2.722353/2.609615 (0.250576)
..................................................
energy after gradient step = 4355808.664964

Top words for each topic:
et (6.843353) le (6.810439) que (6.635325) les (6.576800) vous (6.561929) pas (6.517633) est (6.402954) pour (6.390367) a (6.344701) en (6.332666) 
zoo (6.065527) coffe (5.993643) shot (5.946110) are (5.907229) be (5.819897) they (5.805956) match (5.793551) is (5.767976) moccasin (5.727799) the (5.690101) 
kche (4.160821) salat (3.976328) fleisch (3.916087) gericht (3.899486) wein (3.867257) zweit (3.744270) men (3.686124) kart (3.638057) kollegen (3.578449) ettlingen (3.578165) 
hotel (5.462824) zimmer (5.121881) gekauft (4.478420) gmx (4.300899) bahnhof (4.237852) bahn (4.136528) room (4.109331) info (4.094810) mangelhaft (4.008488) store (3.975177) 
caf (4.157942) ka (3.951653) burger (3.923579) kipp (3.906479) geschrieben (3.878165) bestimmt (3.728510) currywurst (3.658414) studenten (3.637259) gebacken (3.517562) jedesm (3.492243) 
Error (train/valid/test) = 0.051704/2.719292/2.639967 (0.257732)
