corpus = data_all.gz
latentReg = 0.000000
lambda = 2.500000
K = 5
...............
nUsers = 366715, nItems = 60785, nRatings = 1569264
...............
Error w/ offset term only (train/valid/test) = 1.720149/1.719236/1.719047 (0.005429)
Error w/ offset and bias (train/valid/test) = 0.892007/1.419859/1.428757 (0.005472)
............
..................................................
energy after gradient step = 2013932582.806355
............
Top words for each topic:
earlier (0.077820) skill (0.077031) hidden (0.075023) forc (0.069324) wouldv (0.068165) built (0.065895) ultim (0.065449) alright (0.065312) sent (0.064094) appl (0.062171) 
major (0.095915) multipl (0.082708) char (0.080129) miso (0.077709) bc (0.072856) omg (0.066259) ravioli (0.065171) appear (0.062666) straight (0.061841) budget (0.061385) 
describ (0.081457) dj (0.076917) complex (0.064233) confer (0.061324) catch (0.061135) communiti (0.061058) version (0.060073) oz (0.059104) prix (0.059063) honey (0.058910) 
hawaiian (0.075252) track (0.070621) chicago (0.069824) specialti (0.069631) upset (0.069393) ranch (0.065913) caus (0.065642) difficult (0.065072) wood (0.065000) steep (0.058623) 
popcorn (0.087002) disgust (0.073128) hospit (0.070664) mussel (0.070260) couch (0.069990) bare (0.067465) 16 (0.063318) wander (0.061458) email (0.060884) croissant (0.059476) 
Error (train/valid/test) = 1.651415/1.655883/1.655239 (0.005297)
..................................................
energy after gradient step = 2011854533.318649
............
Top words for each topic:
built (0.151302) favourit (0.136468) cheer (0.131793) soak (0.125236) wick (0.123045) xs (0.122723) al (0.120455) overlook (0.118219) skill (0.115239) breez (0.108499) 
chile (0.182406) iron (0.153747) silli (0.124046) palat (0.122761) cosmo (0.122027) adventur (0.121755) diet (0.116478) prevent (0.115994) manicur (0.114709) remark (0.114280) 
mozzarella (0.143901) memori (0.128302) au (0.126180) rub (0.124007) complex (0.110586) confer (0.110566) content (0.108988) holi (0.106715) describ (0.105149) version (0.104600) 
news (0.142462) attach (0.136252) power (0.134027) aka (0.130239) wonton (0.124262) spoon (0.123391) track (0.118901) insan (0.118819) tangi (0.115033) gf (0.114413) 
wander (0.135723) upscal (0.124038) 16 (0.123860) throw (0.122356) tartar (0.119008) tattoo (0.117430) togo (0.110482) tall (0.110060) third (0.106739) garden (0.106170) 
Error (train/valid/test) = 1.590634/1.603495/1.603311 (0.005204)
..................................................
energy after gradient step = 2011279616.405148
............
Top words for each topic:
wick (0.279124) favourit (0.217282) plant (0.208770) pedi (0.206480) overlook (0.205305) 7th (0.173477) categori (0.172269) flow (0.171860) bacchan (0.168167) charm (0.164840) 
bon (0.234746) iron (0.213751) inexpens (0.201759) kevin (0.186657) chile (0.182523) d (0.182223) yuck (0.169827) china (0.168826) surf (0.168382) fire (0.163836) 
gabi (0.296190) tropicana (0.174696) memori (0.169005) headach (0.168378) nugget (0.166829) lux (0.164882) steal (0.164595) succul (0.163604) describ (0.162757) benedict (0.161157) 
fondu (0.211679) news (0.193156) omg (0.176284) human (0.174469) mechan (0.172940) dryer (0.165690) wave (0.165545) exit (0.163524) slaw (0.161165) tangi (0.158619) 
jeff (0.182107) scari (0.177080) wander (0.167320) sooooo (0.163129) physic (0.158543) tall (0.151725) coconut (0.148989) wet (0.148980) togo (0.146787) india (0.145902) 
Error (train/valid/test) = 1.531476/1.556394/1.556451 (0.005090)
..................................................
energy after gradient step = 2010917307.530186
............
Top words for each topic:
wick (0.460505) bacchan (0.280287) aspect (0.221602) utter (0.211163) favourit (0.211091) marrow (0.204975) al (0.202852) cuban (0.196567) bubbl (0.194235) don (0.190759) 
china (0.262622) cuz (0.236308) unabl (0.233538) wick (0.232687) killer (0.230616) bon (0.225161) prevent (0.220912) iron (0.216427) brian (0.212404) skillet (0.211880) 
gabi (0.418168) mon (0.245958) sprinkl (0.210094) steal (0.202924) newest (0.202034) locker (0.200890) ami (0.200719) unlv (0.197342) lux (0.194035) ka (0.192062) 
fondu (0.291329) news (0.261326) tangi (0.238900) drawback (0.225759) tiramisu (0.213546) sehr (0.213241) express (0.202702) dryer (0.200966) mechan (0.197573) r (0.196922) 
scari (0.235419) educ (0.227928) proud (0.224546) cigar (0.223888) 34 (0.221830) 5th (0.221374) wateri (0.207714) wasabi (0.203578) sooooo (0.203400) ich (0.202629) 
Error (train/valid/test) = 1.491839/1.527483/1.527603 (0.005065)
..................................................
energy after gradient step = 2010551604.535494
............
Top words for each topic:
wick (0.578876) bacchan (0.410665) marrow (0.282343) skeptic (0.259836) surrend (0.238468) 7th (0.233782) ami (0.228534) aspect (0.228242) cuban (0.226958) frite (0.214848) 
cuz (0.314065) wick (0.271327) file (0.262001) prevent (0.256940) skillet (0.253097) brian (0.251095) sky (0.244472) urban (0.243736) china (0.236334) resolv (0.231493) 
gabi (0.466908) mon (0.276560) prawn (0.266743) ka (0.264574) ami (0.256308) lux (0.248928) locker (0.234151) stun (0.229132) delay (0.226412) sampler (0.217272) 
fondu (0.349322) tiramisu (0.301601) mon (0.296968) drawback (0.279356) human (0.269732) bacchan (0.269564) gabi (0.268529) nous (0.256266) almond (0.249768) everywher (0.244578) 
educ (0.328331) cigar (0.301816) ein (0.290227) zu (0.285311) ich (0.271258) shift (0.264783) wasabi (0.257553) 34 (0.252487) auch (0.245321) topnotch (0.243364) 
Error (train/valid/test) = 1.463512/1.508362/1.508747 (0.005141)
..................................................
energy after gradient step = 2010214389.007945
............
Top words for each topic:
wick (0.675320) bacchan (0.461808) skeptic (0.342672) goodi (0.325200) ami (0.324047) marrow (0.300171) panel (0.293595) overlook (0.276237) aspect (0.273367) harrah (0.264218) 
cuz (0.373828) wick (0.324377) file (0.283688) mat (0.265555) resolv (0.261339) prevent (0.261269) vacuum (0.260653) cleaner (0.257923) killer (0.250245) skillet (0.244175) 
gabi (0.540859) mon (0.338833) ami (0.280659) andor (0.279271) sampler (0.277318) prawn (0.266924) blackjack (0.264960) stun (0.258635) delay (0.251321) lux (0.247244) 
bacchan (0.354576) fondu (0.322708) mon (0.300446) brie (0.294616) hookah (0.293769) gabi (0.285758) snap (0.284586) human (0.282373) mechan (0.276743) pic (0.270944) 
ein (0.436579) ich (0.416572) fr (0.381168) zu (0.370878) auch (0.346121) ist (0.342745) cigar (0.330240) topnotch (0.314531) und (0.307239) nicht (0.294655) 
Error (train/valid/test) = 1.439735/1.492736/1.493014 (0.005044)
..................................................
energy after gradient step = 2009872771.305756
............
Top words for each topic:
wick (0.741212) bacchan (0.541274) skeptic (0.357061) ami (0.352360) panel (0.329197) goodi (0.328351) marrow (0.323782) harrah (0.286830) blind (0.283725) cuban (0.282893) 
wick (0.397077) cuz (0.345148) mat (0.297489) bourbon (0.287802) falafel (0.286584) file (0.283867) cleaner (0.279913) unabl (0.272460) prevent (0.268463) brian (0.268388) 
gabi (0.701684) mon (0.399877) ami (0.371311) delay (0.327752) blackjack (0.313735) lux (0.302457) royal (0.296684) prawn (0.296623) sampler (0.290196) cow (0.288674) 
bacchan (0.417481) mon (0.380297) hookah (0.367379) fondu (0.366866) gabi (0.333080) human (0.325372) brie (0.303520) baguett (0.302076) insan (0.298104) snap (0.290967) 
ein (0.657637) ich (0.645494) nicht (0.551636) ist (0.545953) auch (0.529489) zu (0.524695) fr (0.515199) und (0.473524) der (0.436099) war (0.422011) 
Error (train/valid/test) = 1.418553/1.479694/1.480065 (0.005037)
..................................................
energy after gradient step = 2009510522.680897
............
Top words for each topic:
wick (0.858873) bacchan (0.623458) marrow (0.406957) ami (0.406558) panel (0.363894) cuban (0.363150) mon (0.350470) goodi (0.333762) skeptic (0.325825) spoon (0.323313) 
wick (0.441740) file (0.389526) cuz (0.380366) unabl (0.332143) trainer (0.327372) bien (0.321222) spoon (0.320451) brian (0.318867) flew (0.311671) bouch (0.306314) 
gabi (0.788464) ami (0.451908) mon (0.439608) frite (0.360711) lux (0.332889) delay (0.330669) pasti (0.327038) blackjack (0.319682) lo (0.316544) cultur (0.310987) 
bacchan (0.552532) fondu (0.472921) mon (0.418642) hookah (0.391408) brie (0.346716) auch (0.346071) baguett (0.341239) tiramisu (0.325789) gel (0.323106) distract (0.322875) 
ich (1.038093) ein (0.995131) ist (0.860553) zu (0.841486) nicht (0.815660) auch (0.775611) der (0.744077) und (0.726935) fr (0.719954) mit (0.671412) 
Error (train/valid/test) = 1.399085/1.468231/1.468520 (0.004957)
..................................................
energy after gradient step = 2009086845.457176
............
Top words for each topic:
wick (0.996285) bacchan (0.675697) marrow (0.492629) ami (0.442924) mon (0.440198) panel (0.393607) skeptic (0.391696) cuban (0.356558) spoon (0.352521) gelato (0.342845) 
file (0.449256) trainer (0.413313) spoon (0.400340) wick (0.394838) cuz (0.393263) falafel (0.339339) teeth (0.338639) flew (0.337415) receptionist (0.336826) bien (0.336200) 
gabi (0.833771) ami (0.510943) mon (0.462929) frite (0.460872) lux (0.405009) april (0.348758) lo (0.345923) royal (0.339320) locker (0.338586) delay (0.327723) 
bacchan (0.638788) fondu (0.455990) mon (0.439476) hookah (0.434524) prici (0.377921) brie (0.375250) pierc (0.364103) distract (0.360654) tiramisu (0.347695) und (0.345725) 
ich (1.488670) ein (1.398435) nicht (1.296714) zu (1.279630) ist (1.277548) auch (1.260933) der (1.178986) das (1.146060) fr (1.119451) und (1.117105) 
Error (train/valid/test) = 1.382919/1.459125/1.459582 (0.004982)
..................................................
energy after gradient step = 2008571896.295751
............
Top words for each topic:
wick (1.108005) bacchan (0.693559) mon (0.549089) marrow (0.536868) ami (0.486179) spoon (0.454016) skeptic (0.403635) panel (0.391170) cuban (0.388744) gelato (0.371543) 
file (0.518257) spoon (0.445122) wick (0.426527) trainer (0.418876) receptionist (0.390278) mat (0.388801) teeth (0.387672) killer (0.379355) vacuum (0.372823) bien (0.369002) 
gabi (0.874633) ami (0.628157) frite (0.543311) mon (0.486113) locker (0.414397) lux (0.395826) glutenfre (0.381685) april (0.380401) ka (0.372901) royal (0.359607) 
bacchan (0.736427) hookah (0.533860) mon (0.493834) fondu (0.475506) prici (0.444326) brie (0.393496) gabi (0.376474) tiramisu (0.374584) carv (0.357479) ami (0.349559) 
ich (1.940726) ein (1.828872) nicht (1.733012) und (1.729155) zu (1.728009) auch (1.724150) ist (1.720866) das (1.684109) der (1.667405) fr (1.562277) 
Error (train/valid/test) = 1.369074/1.451650/1.452173 (0.004972)
..................................................
energy after gradient step = 2007958271.810885
............
Top words for each topic:
wick (1.254985) bacchan (0.719480) marrow (0.660071) mon (0.562900) spoon (0.537275) cuban (0.496900) ami (0.468764) avec (0.430256) gelato (0.429786) sont (0.424636) 
file (0.561552) spoon (0.486063) mat (0.459043) trainer (0.437426) teeth (0.421416) vacuum (0.404713) receptionist (0.404548) bien (0.397478) wick (0.388909) brian (0.374601) 
gabi (0.910254) ami (0.740570) frite (0.580303) mon (0.502410) locker (0.480849) pasti (0.473313) mignon (0.423086) ka (0.420597) comedian (0.418361) glutenfre (0.410955) 
bacchan (0.826199) hookah (0.575075) mon (0.570525) fondu (0.564805) pierc (0.424359) tiramisu (0.424079) brie (0.415162) prici (0.412628) gabi (0.408554) skate (0.397127) 
und (2.520071) ich (2.399081) ein (2.266097) ist (2.262118) der (2.240660) auch (2.226336) das (2.217451) nicht (2.208843) zu (2.150706) mit (2.047692) 
Error (train/valid/test) = 1.354741/1.444206/1.444834 (0.004971)
..................................................
energy after gradient step = 2007248370.105690
............
Top words for each topic:
wick (1.364458) bacchan (0.819498) marrow (0.741291) spoon (0.605006) mon (0.597515) sont (0.569509) cuban (0.562353) gelato (0.537957) brule (0.513528) avec (0.510099) 
file (0.575749) spoon (0.518825) vacuum (0.485051) teeth (0.484361) receptionist (0.472463) bien (0.447610) tan (0.442128) mat (0.441175) spray (0.434911) eyebrow (0.434295) 
gabi (1.051370) ami (0.846568) frite (0.608295) mon (0.593208) pasti (0.506862) locker (0.498863) palazzo (0.495133) acrobat (0.467655) pate (0.462917) escargot (0.455419) 
bacchan (0.902016) hookah (0.700710) fondu (0.639728) mon (0.582252) macaroon (0.451275) liberti (0.446042) spoon (0.445943) tiramisu (0.445739) skate (0.432515) pierc (0.430819) 
und (3.017402) ich (2.733632) der (2.679783) ist (2.630370) das (2.629023) ein (2.611304) nicht (2.567422) auch (2.549824) zu (2.431772) es (2.414874) 
Error (train/valid/test) = 1.342397/1.438035/1.438693 (0.004948)
..................................................
energy after gradient step = 2006479827.281416
............
Top words for each topic:
wick (1.466355) bacchan (0.861148) marrow (0.845952) spoon (0.662152) mon (0.648444) gelato (0.630792) sont (0.630275) avec (0.611918) brule (0.585907) carv (0.556014) 
file (0.641458) vacuum (0.570899) spoon (0.552442) tan (0.525449) eyebrow (0.520135) bien (0.519928) mat (0.516899) receptionist (0.509150) spray (0.502535) teeth (0.501025) 
gabi (1.062971) ami (0.898128) mon (0.682374) frite (0.679479) locker (0.610630) pasti (0.603465) palazzo (0.552061) zoo (0.491256) roller (0.491173) acrobat (0.489608) 
bacchan (0.929302) hookah (0.860795) fondu (0.698148) mon (0.552985) pierc (0.532430) spoon (0.500972) macaroon (0.482663) skate (0.479574) brie (0.476050) buffet (0.462493) 
und (3.310781) der (2.995008) ich (2.975311) das (2.933754) ist (2.894595) ein (2.873995) nicht (2.803278) auch (2.782790) es (2.670953) zu (2.644633) 
Error (train/valid/test) = 1.331858/1.432950/1.433703 (0.004951)
..................................................
energy after gradient step = 2005506931.517617
............
Top words for each topic:
wick (1.566031) marrow (0.919022) bacchan (0.917361) sont (0.773658) mon (0.767950) vous (0.757470) gelato (0.747854) spoon (0.733958) avec (0.727923) pas (0.654310) 
file (0.750772) tan (0.684253) spray (0.662578) eyebrow (0.661936) vacuum (0.620344) bien (0.590011) appt (0.571493) teeth (0.564435) clinic (0.556692) stylist (0.549756) 
gabi (1.126481) ami (0.976111) locker (0.751596) palazzo (0.722991) frite (0.715442) mon (0.696309) pasti (0.688973) acrobat (0.622402) roller (0.601953) zoo (0.575534) 
hookah (0.997533) bacchan (0.972803) fondu (0.778692) macaron (0.563533) buffet (0.562717) mon (0.558040) pierc (0.549238) cone (0.540846) spoon (0.528896) skate (0.519190) 
und (3.551288) der (3.246971) ich (3.177945) das (3.165068) ist (3.130931) ein (3.080258) nicht (3.007010) auch (2.970745) es (2.872055) zu (2.828221) 
Error (train/valid/test) = 1.321486/1.428286/1.429303 (0.005013)
..................................................
energy after gradient step = 2004187085.047155
............
Top words for each topic:
wick (1.693125) marrow (1.036179) sont (0.988988) bacchan (0.984016) mon (0.961526) vous (0.927146) avec (0.915387) gelato (0.897631) qui (0.847413) pas (0.847036) 
file (0.821728) tan (0.816926) eyebrow (0.764431) spray (0.764215) vacuum (0.699157) bien (0.692732) insur (0.687309) appt (0.686660) manicur (0.675432) je (0.668002) 
gabi (1.202832) ami (1.028123) palazzo (0.840289) acrobat (0.800818) locker (0.797346) frite (0.740159) pasti (0.731585) cirqu (0.703765) mon (0.696014) zoo (0.691539) 
hookah (1.149983) bacchan (1.062053) fondu (0.838381) buffet (0.690538) macaron (0.651759) snow (0.586305) spoon (0.574932) macaroon (0.563065) skate (0.559971) cone (0.555160) 
und (3.714409) der (3.411432) das (3.331800) ich (3.328267) ist (3.283290) ein (3.236542) nicht (3.152506) auch (3.117674) es (3.018507) zu (2.964151) 
Error (train/valid/test) = 1.312717/1.424264/1.425003 (0.004895)
..................................................
energy after gradient step = 2002414660.770027
............
Top words for each topic:
wick (1.720879) sont (1.189281) avec (1.138794) marrow (1.132322) mon (1.101857) une (1.086737) qui (1.082985) bacchan (1.045929) pas (1.044750) vous (1.044082) 
tan (0.958685) eyebrow (0.958244) spray (0.899804) file (0.886953) manicur (0.831833) stylist (0.817830) insur (0.794262) je (0.790220) bien (0.779154) appt (0.767097) 
gabi (1.236892) ami (1.065630) palazzo (0.949270) acrobat (0.927200) locker (0.857730) zoo (0.836558) jacuzzi (0.819674) cirqu (0.815528) pasti (0.759841) frite (0.719819) 
hookah (1.235893) bacchan (1.119027) fondu (0.912016) buffet (0.800526) macaron (0.666698) spoon (0.645387) bellagio (0.642589) crawfish (0.640926) snow (0.635945) brule (0.625804) 
und (3.841136) der (3.541778) das (3.460196) ich (3.449437) ist (3.406465) ein (3.354817) nicht (3.270366) auch (3.233575) es (3.153178) zu (3.075771) 
Error (train/valid/test) = 1.305675/1.421063/1.421968 (0.004930)
..................................................
energy after gradient step = 1999815626.335465
............
Top words for each topic:
wick (1.800082) une (1.354760) avec (1.350583) sont (1.338892) qui (1.319833) mon (1.299028) pas (1.262971) marrow (1.257512) je (1.248474) est (1.246281) 
tan (1.179780) eyebrow (1.127671) manicur (1.034782) file (1.021297) insur (0.994848) dr (0.984550) stylist (0.979437) spray (0.966290) pedi (0.955051) dentist (0.941330) 
gabi (1.273429) acrobat (1.126566) palazzo (1.108439) ami (1.076647) cirqu (1.055503) zoo (0.997842) locker (0.948669) jacuzzi (0.934837) pasti (0.896300) exhibit (0.827574) 
hookah (1.370251) bacchan (1.148981) fondu (0.991306) buffet (0.965102) snow (0.808996) crawfish (0.805629) bellagio (0.725457) boba (0.704898) crab (0.702047) spoon (0.700443) 
und (3.957435) der (3.663848) das (3.587015) ich (3.566275) ist (3.529857) ein (3.473979) nicht (3.387468) auch (3.347398) es (3.271746) zu (3.177974) 
Error (train/valid/test) = 1.298857/1.418145/1.419204 (0.004959)
..................................................
energy after gradient step = 1995817386.259203
............
Top words for each topic:
wick (1.880006) et (1.607345) une (1.606841) qui (1.558549) sont (1.554234) avec (1.546637) pas (1.517271) les (1.512287) je (1.499502) est (1.497767) 
tan (1.390233) eyebrow (1.307368) manicur (1.239317) dr (1.224634) insur (1.190990) file (1.170368) pedi (1.156259) pedicur (1.140272) stylist (1.136771) spray (1.132135) 
gabi (1.368558) acrobat (1.288874) cirqu (1.277109) palazzo (1.199679) zoo (1.125022) locker (1.076625) jacuzzi (1.062981) ami (1.049664) pasti (0.985333) exhibit (0.969676) 
hookah (1.470436) buffet (1.182182) bacchan (1.154971) fondu (1.102882) crawfish (0.928285) crab (0.901803) snow (0.883109) boba (0.827278) oyster (0.807849) bellagio (0.796865) 
und (4.055939) der (3.763496) das (3.681995) ich (3.662675) ist (3.632480) ein (3.574566) nicht (3.484881) auch (3.439996) es (3.375787) zu (3.271180) 
Error (train/valid/test) = 1.293545/1.415970/1.416906 (0.004904)
..................................................
energy after gradient step = 1989888958.709722
............
Top words for each topic:
et (1.975344) wick (1.975214) une (1.858346) le (1.837280) est (1.773866) les (1.772596) pas (1.761511) avec (1.746882) je (1.745430) qui (1.745180) 
tan (1.621811) nail (1.493106) eyebrow (1.470152) manicur (1.454195) dr (1.438279) pedicur (1.433043) pedi (1.382601) gel (1.368435) stylist (1.361400) insur (1.349075) 
cirqu (1.520446) acrobat (1.429814) palazzo (1.406316) gabi (1.379397) jacuzzi (1.259505) zoo (1.245222) tub (1.181370) locker (1.171407) exhibit (1.126008) venetian (1.113056) 
hookah (1.555378) buffet (1.438617) crab (1.149237) fondu (1.137737) bacchan (1.115955) crawfish (1.046835) oyster (0.999186) snow (0.991505) boba (0.986615) sum (0.897994) 
und (4.152534) der (3.862716) das (3.779631) ich (3.760086) ist (3.733488) ein (3.669075) nicht (3.577470) auch (3.532942) es (3.464316) zu (3.361181) 
Error (train/valid/test) = 1.289050/1.414051/1.415145 (0.004941)
..................................................
energy after gradient step = 1981254443.485241
............
Top words for each topic:
et (2.299461) le (2.135709) une (2.116556) les (2.062604) est (2.029678) wick (2.025947) pas (1.996980) je (1.972644) qui (1.960783) que (1.936528) 
nail (1.907965) tan (1.854715) pedicur (1.767899) gel (1.721450) manicur (1.697390) eyebrow (1.670729) dr (1.645083) pedi (1.641092) stylist (1.589078) insur (1.542725) 
cirqu (1.818749) acrobat (1.617687) palazzo (1.571658) tub (1.492975) jacuzzi (1.489962) zoo (1.415392) gabi (1.409607) tower (1.374745) venetian (1.332045) soleil (1.312113) 
buffet (1.711842) hookah (1.616031) crab (1.423796) crawfish (1.189802) fondu (1.178657) boba (1.176286) oyster (1.127049) snow (1.109095) bacchan (1.085613) sum (1.034543) 
und (4.254126) der (3.973509) das (3.890849) ich (3.861211) ist (3.834226) ein (3.766224) nicht (3.675799) auch (3.633448) es (3.569137) zu (3.455729) 
Error (train/valid/test) = 1.285339/1.412547/1.413672 (0.004941)
..................................................
energy after gradient step = 1968970118.692052
............
Top words for each topic:
et (2.533708) le (2.382605) les (2.282146) une (2.258025) est (2.219657) pas (2.159791) que (2.136422) je (2.125634) qui (2.077980) wick (2.053852) 
nail (2.310937) pedicur (2.061819) tan (2.043683) gel (1.990408) manicur (1.939382) pedi (1.870897) eyebrow (1.862260) dr (1.844201) stylist (1.830512) salon (1.761406) 
cirqu (2.066210) acrobat (1.784446) tub (1.763507) palazzo (1.742355) tower (1.699451) jacuzzi (1.684757) pool (1.662367) hotel (1.619955) bed (1.597343) shower (1.588983) 
buffet (1.892289) hookah (1.681190) crab (1.593400) boba (1.311169) crawfish (1.285948) oyster (1.256487) thai (1.252427) fondu (1.231281) rib (1.200425) seafood (1.177698) 
und (4.354993) der (4.066196) das (3.978359) ich (3.949780) ist (3.925129) ein (3.853086) nicht (3.760457) auch (3.714866) es (3.650466) zu (3.536463) 
Error (train/valid/test) = 1.282533/1.411417/1.412569 (0.004940)
..................................................
energy after gradient step = 1953418311.978246
............
Top words for each topic:
et (2.721785) le (2.578824) les (2.455034) une (2.367558) est (2.356379) pas (2.279200) que (2.249118) je (2.228685) en (2.172224) qui (2.166711) 
nail (2.650045) pedicur (2.389084) gel (2.251292) tan (2.207955) manicur (2.206575) dr (2.108279) salon (2.096037) stylist (2.082591) pedi (2.076846) eyebrow (2.021011) 
cirqu (2.302881) pool (2.232026) hotel (2.133500) tub (2.036932) bed (2.005676) tower (1.991459) shower (1.979031) acrobat (1.957338) palazzo (1.938858) jacuzzi (1.855436) 
buffet (2.036481) hookah (1.742092) crab (1.731566) thai (1.535924) boba (1.504943) rib (1.382574) crawfish (1.378290) shrimp (1.364288) dessert (1.350131) oyster (1.331188) 
und (4.470516) der (4.176778) das (4.084549) ich (4.056317) ist (4.031599) ein (3.959157) nicht (3.860019) auch (3.813853) es (3.756304) zu (3.629009) 
Error (train/valid/test) = 1.280148/1.410462/1.411638 (0.004940)
..................................................
energy after gradient step = 1935224406.424471
............
Top words for each topic:
et (2.853265) le (2.717995) les (2.566214) une (2.443893) est (2.439278) que (2.361091) pas (2.358839) je (2.309123) la (2.259601) en (2.243862) 
nail (2.957060) pedicur (2.637528) gel (2.487825) manicur (2.438864) salon (2.428796) tan (2.352841) dr (2.352286) stylist (2.311340) pedi (2.267606) eyebrow (2.218493) 
hotel (2.758448) pool (2.743114) cirqu (2.523876) bed (2.413800) shower (2.312783) tub (2.283386) tower (2.263686) acrobat (2.135316) elev (2.114972) casino (2.069798) 
buffet (2.116394) crab (1.829593) hookah (1.793111) thai (1.761397) boba (1.645704) shrimp (1.561338) dish (1.559383) dessert (1.520606) rib (1.519356) crawfish (1.466102) 
und (4.572731) der (4.273941) das (4.184048) ich (4.154497) ist (4.127561) ein (4.058283) nicht (3.959721) auch (3.911017) es (3.851842) zu (3.724822) 
Error (train/valid/test) = 1.278043/1.409625/1.410825 (0.004940)
..................................................
energy after gradient step = 1916766667.055947
............
Top words for each topic:
et (2.937151) le (2.812477) les (2.621800) est (2.495168) une (2.491907) pas (2.406389) que (2.405540) je (2.366089) la (2.361360) en (2.320733) 
nail (3.208509) pedicur (2.850992) salon (2.737939) gel (2.671307) manicur (2.608621) dr (2.597033) stylist (2.525067) tan (2.474210) pedi (2.417744) wax (2.389601) 
hotel (3.230663) pool (3.132675) bed (2.709716) cirqu (2.681661) room (2.625159) shower (2.588675) tower (2.473879) tub (2.473690) casino (2.450789) stay (2.433609) 
buffet (2.191355) thai (1.928638) crab (1.903052) hookah (1.829835) boba (1.778084) dish (1.729956) shrimp (1.692109) burger (1.654289) sauc (1.624275) dessert (1.620391) 
und (4.679095) der (4.376325) das (4.279312) ich (4.248381) ist (4.225331) ein (4.152250) nicht (4.054016) auch (4.001071) es (3.945993) zu (3.812107) 
Error (train/valid/test) = 1.276330/1.408949/1.410163 (0.004940)
..................................................
energy after gradient step = 1899583559.444146
............
Top words for each topic:
et (2.995625) le (2.874879) les (2.674110) est (2.539544) une (2.532221) que (2.461612) pas (2.459607) la (2.431644) dish (2.415283) je (2.397355) 
nail (3.427348) salon (3.029289) pedicur (3.012047) gel (2.816149) dr (2.802006) manicur (2.757588) stylist (2.680672) appoint (2.633276) tan (2.583046) massag (2.580000) 
hotel (3.566924) pool (3.410733) room (3.296312) bed (2.948899) cirqu (2.830510) shower (2.805458) stay (2.804788) casino (2.733939) tower (2.644783) tub (2.641151) 
buffet (2.255264) thai (2.074499) burger (1.981853) crab (1.957625) boba (1.877225) fri (1.869094) hookah (1.861273) dish (1.830749) shrimp (1.799338) food (1.779628) 
und (4.775450) der (4.473648) das (4.375089) ich (4.343099) ist (4.319945) ein (4.244568) nicht (4.146865) auch (4.095345) es (4.033438) zu (3.902620) 
Error (train/valid/test) = 1.274752/1.408328/1.409557 (0.004940)
..................................................
energy after gradient step = 1884293439.398226
............
Top words for each topic:
et (3.041211) le (2.919293) les (2.718457) est (2.583418) une (2.574688) dish (2.570137) que (2.501509) taco (2.498879) pas (2.492738) la (2.479336) 
nail (3.602641) salon (3.248055) pedicur (3.134771) dr (2.998087) gel (2.929984) appoint (2.873775) manicur (2.855433) massag (2.831448) stylist (2.817363) hair (2.790211) 
hotel (3.845764) room (3.691392) pool (3.600700) bed (3.128704) stay (3.123520) shower (2.960021) cirqu (2.935413) casino (2.930511) suit (2.781966) tower (2.773339) 
buffet (2.298720) burger (2.222292) thai (2.200889) food (2.153267) fri (2.043809) crab (2.000792) boba (1.947269) dish (1.916621) chicken (1.908925) order (1.893575) 
und (4.863869) der (4.556043) das (4.459166) ich (4.425580) ist (4.403854) ein (4.328185) nicht (4.226959) auch (4.176374) es (4.112163) zu (3.981961) 
Error (train/valid/test) = 1.273400/1.407798/1.409044 (0.004940)
..................................................
energy after gradient step = 1871602653.332462
............
Top words for each topic:
et (3.083851) le (2.952821) les (2.759630) food (2.689702) taco (2.688795) dish (2.685433) est (2.624137) menu (2.620643) une (2.604028) sauc (2.585367) 
nail (3.741989) salon (3.396215) pedicur (3.219585) dr (3.148659) appoint (3.055602) massag (3.020184) gel (3.005044) hair (2.995947) manicur (2.937336) stylist (2.902153) 
hotel (4.046952) room (3.927506) pool (3.754171) stay (3.366151) bed (3.277276) casino (3.083063) shower (3.077310) cirqu (3.032416) suit (2.920020) tower (2.875645) 
burger (2.390022) food (2.376558) buffet (2.340012) thai (2.319541) fri (2.170151) order (2.084511) crab (2.035860) boba (2.018601) chicken (1.996434) dish (1.957567) 
und (4.939842) der (4.633986) das (4.532615) ich (4.500202) ist (4.475030) ein (4.400545) nicht (4.297385) auch (4.251166) es (4.185192) zu (4.053451) 
Error (train/valid/test) = 1.272242/1.407346/1.408604 (0.004939)
..................................................
energy after gradient step = 1860767695.726328
............
Top words for each topic:
et (3.133285) le (2.994490) food (2.850920) taco (2.849634) les (2.799132) dish (2.779088) menu (2.743833) sushi (2.733540) sauc (2.690590) salad (2.678244) 
nail (3.837588) salon (3.500455) pedicur (3.285689) dr (3.275034) appoint (3.191750) hair (3.177134) massag (3.173751) gel (3.061743) manicur (2.998979) stylist (2.975563) 
hotel (4.171716) room (4.085332) pool (3.874311) stay (3.500999) bed (3.396545) casino (3.197718) shower (3.169478) cirqu (3.097468) suit (3.031098) resort (2.966270) 
burger (2.528701) food (2.513902) thai (2.439106) buffet (2.379052) fri (2.281209) order (2.216740) crab (2.078152) boba (2.067400) chicken (2.065268) menu (1.994798) 
und (5.012425) der (4.704908) das (4.606268) ich (4.572415) ist (4.548597) ein (4.474368) nicht (4.371192) auch (4.321533) es (4.250265) zu (4.123802) 
Error (train/valid/test) = 1.271160/1.406926/1.408192 (0.004939)
..................................................
energy after gradient step = 1851148957.073575
............
Top words for each topic:
et (3.184191) le (3.039196) taco (2.974701) food (2.959455) sushi (2.870651) dish (2.862465) les (2.847312) menu (2.841142) sauc (2.780942) delici (2.769481) 
nail (3.901534) salon (3.575310) dr (3.374979) pedicur (3.330041) hair (3.314370) appoint (3.291084) massag (3.260186) gel (3.106825) manicur (3.043916) stylist (3.030389) 
hotel (4.277961) room (4.183399) pool (3.962798) stay (3.577363) bed (3.480425) casino (3.289326) shower (3.235139) cirqu (3.160105) suit (3.100310) resort (3.044805) 
burger (2.634133) food (2.607605) thai (2.553208) buffet (2.417336) fri (2.367815) order (2.303705) chicken (2.119542) boba (2.101730) crab (2.095126) server (2.044268) 
und (5.083926) der (4.772415) das (4.672468) ich (4.638564) ist (4.616843) ein (4.537523) nicht (4.438046) auch (4.388588) es (4.316274) zu (4.188994) 
Error (train/valid/test) = 1.270221/1.406562/1.407834 (0.004939)
..................................................
energy after gradient step = 1842607347.640559
............
Top words for each topic:
et (3.227083) taco (3.082102) le (3.080467) food (3.036155) sushi (3.005671) dish (2.956435) menu (2.918459) les (2.886728) sauc (2.863497) delici (2.855726) 
nail (3.939494) salon (3.625681) dr (3.430596) hair (3.393095) appoint (3.363190) pedicur (3.363019) massag (3.330627) gel (3.136198) stylist (3.069576) manicur (3.069300) 
hotel (4.349970) room (4.248376) pool (4.039564) stay (3.628261) bed (3.535780) casino (3.361623) shower (3.298243) cirqu (3.204314) suit (3.148519) resort (3.108096) 
burger (2.745789) food (2.677452) thai (2.642879) buffet (2.462464) fri (2.442913) order (2.366534) chicken (2.148110) crab (2.138244) boba (2.123428) server (2.092301) 
und (5.146231) der (4.834065) das (4.731740) ich (4.702095) ist (4.675483) ein (4.599281) nicht (4.497860) auch (4.445912) es (4.372946) zu (4.246896) 
Error (train/valid/test) = 1.269419/1.406248/1.407530 (0.004939)
..................................................
energy after gradient step = 1834529175.946442
............
Top words for each topic:
et (3.278520) taco (3.173380) le (3.119619) sushi (3.119510) food (3.101797) dish (3.047912) menu (2.988456) les (2.936256) sauc (2.935210) delici (2.929233) 
nail (3.966406) salon (3.661263) dr (3.485724) hair (3.437240) appoint (3.411734) pedicur (3.391378) massag (3.378717) gel (3.153025) stylist (3.096356) manicur (3.088061) 
hotel (4.409449) room (4.294657) pool (4.107413) stay (3.632377) bed (3.577514) casino (3.424158) shower (3.338546) cirqu (3.254468) suit (3.194331) club (3.163107) 
burger (2.866330) food (2.732890) thai (2.716864) buffet (2.511769) fri (2.509562) order (2.418611) chicken (2.177197) crab (2.170970) server (2.135876) boba (2.132910) 
und (5.215452) der (4.897251) das (4.796641) ich (4.765881) ist (4.740072) ein (4.662001) nicht (4.559613) auch (4.506128) es (4.432827) zu (4.303906) 
Error (train/valid/test) = 1.268703/1.405968/1.407257 (0.004939)
..................................................
energy after gradient step = 1827037091.499210
............
Top words for each topic:
et (3.326878) taco (3.254487) sushi (3.209765) le (3.162494) food (3.145720) dish (3.135561) menu (3.048567) sauc (3.002068) delici (2.989730) les (2.976849) 
nail (3.980454) salon (3.686155) dr (3.511025) hair (3.465486) appoint (3.443712) massag (3.408399) pedicur (3.401982) gel (3.163847) stylist (3.113709) doctor (3.112835) 
hotel (4.452603) room (4.315867) pool (4.157712) stay (3.623534) bed (3.611847) casino (3.463580) shower (3.380369) cirqu (3.286224) danc (3.228277) club (3.217045) 
burger (2.992328) food (2.773133) thai (2.771951) buffet (2.575182) fri (2.561911) order (2.454975) chicken (2.194331) crab (2.192712) server (2.184706) pizza (2.147518) 
und (5.270590) der (4.954679) das (4.850519) ich (4.819368) ist (4.795264) ein (4.715487) nicht (4.612283) auch (4.558780) es (4.485100) zu (4.354613) 
Error (train/valid/test) = 1.268130/1.405745/1.407036 (0.004939)
..................................................
energy after gradient step = 1819893462.156359
............
Top words for each topic:
et (3.382245) taco (3.341687) sushi (3.315879) dish (3.234652) le (3.205144) food (3.185475) menu (3.108915) sauc (3.075507) delici (3.057622) pork (3.052993) 
nail (3.996454) salon (3.706358) dr (3.544539) hair (3.487160) appoint (3.472339) massag (3.438187) pedicur (3.416447) gel (3.171836) doctor (3.136635) stylist (3.130590) 
hotel (4.497496) room (4.316183) pool (4.207193) bed (3.636571) stay (3.598564) casino (3.502584) shower (3.410898) cirqu (3.326582) danc (3.292870) club (3.264684) 
burger (3.125604) food (2.819400) thai (2.800590) buffet (2.642918) fri (2.621794) order (2.487743) server (2.224670) chicken (2.213955) pizza (2.211944) crab (2.210603) 
und (5.341572) der (5.021347) das (4.915174) ich (4.883277) ist (4.858499) ein (4.778975) nicht (4.674177) auch (4.621621) es (4.545972) zu (4.412340) 
Error (train/valid/test) = 1.267523/1.405512/1.406805 (0.004939)
..................................................
energy after gradient step = 1812865296.612558
............
Top words for each topic:
et (3.429979) taco (3.417845) sushi (3.398593) dish (3.311523) le (3.244352) food (3.210946) menu (3.153665) pork (3.142699) sauc (3.125762) dessert (3.111559) 
nail (4.002874) salon (3.719184) dr (3.557232) hair (3.501589) appoint (3.493024) massag (3.462470) pedicur (3.422250) gel (3.176370) doctor (3.152875) stylist (3.136591) 
hotel (4.528885) room (4.311877) pool (4.246609) bed (3.663698) stay (3.573205) casino (3.535094) shower (3.440932) cirqu (3.354977) danc (3.349979) club (3.290412) 
burger (3.210013) food (2.856012) thai (2.822950) buffet (2.707551) fri (2.668644) order (2.509789) pizza (2.262617) server (2.260690) ice (2.244445) chicken (2.232340) 
und (5.394388) der (5.075650) das (4.966802) ich (4.936175) ist (4.911258) ein (4.831201) nicht (4.725277) auch (4.672906) es (4.597263) zu (4.460136) 
Error (train/valid/test) = 1.267044/1.405327/1.406623 (0.004939)
..................................................
energy after gradient step = 1806223294.293754
............
Top words for each topic:
taco (3.500117) sushi (3.494448) et (3.480544) dish (3.395868) le (3.290947) food (3.232113) pork (3.224883) menu (3.199568) dessert (3.185227) sauc (3.179731) 
nail (4.011849) salon (3.730646) dr (3.575071) appoint (3.509125) hair (3.508939) massag (3.478502) pedicur (3.428796) gel (3.179254) doctor (3.169904) stylist (3.144434) 
hotel (4.560240) room (4.292252) pool (4.286408) bed (3.676890) casino (3.570162) stay (3.539056) shower (3.468593) danc (3.390866) cirqu (3.382548) club (3.317984) 
burger (3.267621) food (2.889009) thai (2.832096) buffet (2.766136) fri (2.716210) order (2.533236) pizza (2.322022) server (2.300019) ice (2.280575) wing (2.260961) 
und (5.446399) der (5.126201) das (5.016377) ich (4.987305) ist (4.962483) ein (4.881572) nicht (4.772809) auch (4.721765) es (4.642682) zu (4.507632) 
Error (train/valid/test) = 1.266616/1.405162/1.406459 (0.004939)
..................................................
energy after gradient step = 1799879451.226813
............
Top words for each topic:
sushi (3.575641) taco (3.568393) et (3.529155) dish (3.466059) le (3.328444) pork (3.292901) food (3.250387) dessert (3.247848) menu (3.234084) sauc (3.223109) 
nail (4.012481) salon (3.737489) dr (3.579876) appoint (3.520115) hair (3.513324) massag (3.491696) pedicur (3.432304) gel (3.182128) doctor (3.181019) stylist (3.149336) 
hotel (4.582670) pool (4.313884) room (4.262363) bed (3.693291) casino (3.588300) stay (3.504425) shower (3.488849) danc (3.433434) cirqu (3.411203) club (3.334211) 
burger (3.310131) food (2.916881) thai (2.833686) buffet (2.808811) fri (2.761776) order (2.551499) pizza (2.383379) beer (2.336086) server (2.334502) ice (2.291586) 
und (5.495700) der (5.174758) das (5.063055) ich (5.033067) ist (5.007960) ein (4.928048) nicht (4.818125) auch (4.767464) es (4.686439) zu (4.550964) 
Error (train/valid/test) = 1.266239/1.405016/1.406317 (0.004939)
..................................................
energy after gradient step = 1793948252.541936
............
Top words for each topic:
sushi (3.653719) taco (3.639502) et (3.586640) dish (3.530665) le (3.371748) pork (3.366145) dessert (3.310251) rice (3.308595) mexican (3.265583) sauc (3.265003) 
nail (4.020444) salon (3.743752) dr (3.592601) appoint (3.535056) hair (3.520358) massag (3.508176) pedicur (3.434557) doctor (3.189244) gel (3.182608) stylist (3.152348) 
hotel (4.604975) pool (4.348367) room (4.215552) bed (3.708867) casino (3.613708) shower (3.509621) danc (3.469755) stay (3.469754) cirqu (3.439819) resort (3.357067) 
burger (3.347879) food (2.947895) buffet (2.844025) thai (2.837639) fri (2.810688) order (2.564346) pizza (2.452227) beer (2.428413) server (2.379383) wing (2.316631) 
und (5.549617) der (5.227806) das (5.114936) ich (5.085442) ist (5.059333) ein (4.977829) nicht (4.868955) auch (4.817453) es (4.732839) zu (4.599244) 
Error (train/valid/test) = 1.265833/1.404858/1.406163 (0.004939)
..................................................
energy after gradient step = 1788158069.965079
............
Top words for each topic:
sushi (3.736931) taco (3.704971) et (3.634291) dish (3.603881) pork (3.431951) le (3.415415) rice (3.392669) dessert (3.360645) mexican (3.329032) sauc (3.305299) 
nail (4.021505) salon (3.752011) dr (3.600585) appoint (3.543793) hair (3.520867) massag (3.515992) pedicur (3.438389) doctor (3.193856) gel (3.182610) stylist (3.154970) 
hotel (4.630421) pool (4.378540) room (4.159110) bed (3.714207) casino (3.636547) shower (3.535236) danc (3.505036) cirqu (3.468214) stay (3.438769) resort (3.380861) 
burger (3.371821) food (2.975695) buffet (2.871513) fri (2.860794) thai (2.835322) order (2.569950) pizza (2.532732) beer (2.497590) server (2.423836) wing (2.331953) 
und (5.596428) der (5.275968) das (5.161902) ich (5.132524) ist (5.107057) ein (5.023840) nicht (4.916112) auch (4.864974) es (4.776597) zu (4.643815) 
Error (train/valid/test) = 1.265454/1.404712/1.406018 (0.004939)
..................................................
energy after gradient step = 1782800873.496011
............
Top words for each topic:
sushi (3.813808) taco (3.769343) et (3.682141) dish (3.675311) pork (3.491625) rice (3.479713) le (3.452259) dessert (3.410124) mexican (3.386064) sauc (3.348892) 
nail (4.025383) salon (3.756107) dr (3.603996) appoint (3.554529) massag (3.528545) hair (3.520104) pedicur (3.439699) doctor (3.200507) gel (3.185549) stylist (3.158705) 
hotel (4.654281) pool (4.404774) room (4.094659) bed (3.724050) casino (3.659191) shower (3.550823) danc (3.536935) cirqu (3.492815) stay (3.420095) resort (3.407088) 
burger (3.386304) food (3.001207) fri (2.909782) buffet (2.891187) thai (2.838208) pizza (2.618770) order (2.576265) beer (2.551281) server (2.453841) wing (2.355680) 
und (5.639201) der (5.318125) das (5.205639) ich (5.175409) ist (5.149955) ein (5.067099) nicht (4.959200) auch (4.907397) es (4.815533) zu (4.685331) 
Error (train/valid/test) = 1.265095/1.404576/1.405884 (0.004939)
..................................................
energy after gradient step = 1777399654.318677
............
Top words for each topic:
sushi (3.880807) taco (3.820210) dish (3.738787) et (3.730657) rice (3.550543) pork (3.544194) le (3.493460) dessert (3.455678) mexican (3.441502) salsa (3.401027) 
nail (4.023561) salon (3.760858) dr (3.611537) appoint (3.560666) massag (3.535765) hair (3.525176) pedicur (3.442889) doctor (3.203979) gel (3.185108) stylist (3.160809) 
hotel (4.673106) pool (4.429288) room (4.033092) bed (3.733691) casino (3.674043) shower (3.567884) danc (3.558070) cirqu (3.515234) resort (3.423288) stay (3.405412) 
burger (3.395273) food (3.023815) fri (2.945718) buffet (2.901214) thai (2.832736) pizza (2.695713) beer (2.583410) order (2.574313) server (2.477251) waitress (2.376151) 
und (5.675934) der (5.355035) das (5.241560) ich (5.212965) ist (5.186917) ein (5.104199) nicht (4.995767) auch (4.945340) es (4.850803) zu (4.721978) 
Error (train/valid/test) = 1.264782/1.404456/1.405765 (0.004939)
..................................................
energy after gradient step = 1772539269.012401
............
Top words for each topic:
sushi (3.948667) taco (3.877770) dish (3.809206) et (3.775560) rice (3.617506) pork (3.599256) le (3.528994) dessert (3.498138) mexican (3.486349) salsa (3.452429) 
nail (4.028674) salon (3.765445) dr (3.613663) appoint (3.566680) massag (3.544557) hair (3.519470) pedicur (3.443043) doctor (3.208790) gel (3.184888) stylist (3.162769) 
hotel (4.691327) pool (4.450148) room (3.983135) bed (3.733493) casino (3.684861) shower (3.580937) danc (3.577577) cirqu (3.536074) resort (3.439904) stay (3.395189) 
burger (3.399069) food (3.043815) fri (2.981359) buffet (2.906262) thai (2.830813) pizza (2.768265) beer (2.604450) order (2.568929) server (2.503755) waitress (2.386046) 
und (5.707487) der (5.387620) das (5.273372) ich (5.245910) ist (5.219249) ein (5.136821) nicht (5.027811) auch (4.978033) es (4.878603) zu (4.753458) 
Error (train/valid/test) = 1.264509/1.404351/1.405663 (0.004939)
..................................................
energy after gradient step = 1768051406.211345
............
Top words for each topic:
sushi (4.007342) taco (3.925102) dish (3.864121) et (3.826465) rice (3.679351) pork (3.651739) le (3.569194) mexican (3.543696) dessert (3.526031) salsa (3.509614) 
nail (4.025961) salon (3.768646) dr (3.617943) appoint (3.572242) massag (3.550834) hair (3.519370) pedicur (3.444136) doctor (3.209912) gel (3.185668) stylist (3.163747) 
hotel (4.702283) pool (4.471930) room (3.930857) bed (3.738339) casino (3.702140) danc (3.606074) shower (3.600062) cirqu (3.559328) resort (3.461489) club (3.394801) 
burger (3.407098) food (3.063427) fri (3.013922) buffet (2.909028) pizza (2.834330) thai (2.821957) beer (2.628205) order (2.562080) server (2.525237) chees (2.424281) 
und (5.742717) der (5.424972) das (5.308155) ich (5.283377) ist (5.255355) ein (5.174219) nicht (5.064484) auch (5.014893) es (4.913245) zu (4.788965) 
Error (train/valid/test) = 1.264188/1.404233/1.405543 (0.004939)
..................................................
energy after gradient step = 1763915864.021510
............
Top words for each topic:
sushi (4.074106) taco (3.981694) dish (3.925152) et (3.873533) rice (3.757715) pork (3.703681) le (3.603785) mexican (3.592719) dessert (3.568988) salsa (3.561497) 
nail (4.033222) salon (3.774754) dr (3.623130) appoint (3.581556) massag (3.561352) hair (3.515182) pedicur (3.446238) doctor (3.213540) gel (3.185783) stylist (3.167708) 
hotel (4.711197) pool (4.489683) room (3.888666) bed (3.729832) casino (3.707031) danc (3.616673) shower (3.610113) cirqu (3.579444) resort (3.475999) club (3.392918) 
burger (3.415147) food (3.080206) fri (3.049244) buffet (2.916932) pizza (2.891599) thai (2.827960) beer (2.649825) order (2.554758) server (2.548813) chees (2.469498) 
und (5.772500) der (5.456677) das (5.340983) ich (5.317361) ist (5.288027) ein (5.208550) nicht (5.098302) auch (5.049008) es (4.943492) zu (4.824091) 
Error (train/valid/test) = 1.263864/1.404110/1.405424 (0.004939)
..................................................
energy after gradient step = 1760089838.206832
............
Top words for each topic:
sushi (4.134976) taco (4.020985) dish (3.976033) et (3.922026) rice (3.816876) pork (3.743669) mexican (3.639930) le (3.639840) salsa (3.614715) dessert (3.594667) 
nail (4.030353) salon (3.779614) dr (3.625341) appoint (3.589927) massag (3.567560) hair (3.519716) pedicur (3.449984) doctor (3.218007) gel (3.185626) stylist (3.169557) 
hotel (4.719339) pool (4.505858) room (3.852242) bed (3.725291) casino (3.716216) danc (3.639924) shower (3.620084) cirqu (3.602072) resort (3.487608) elev (3.404569) 
burger (3.423096) food (3.096165) fri (3.081214) pizza (2.943919) buffet (2.921839) thai (2.816538) beer (2.670262) server (2.565568) order (2.540748) chees (2.522725) 
und (5.800444) der (5.486253) das (5.370006) ich (5.347963) ist (5.317455) ein (5.241814) nicht (5.131240) auch (5.082649) es (4.972439) zu (4.858469) 
Error (train/valid/test) = 1.263523/1.403982/1.405300 (0.004939)
..................................................
energy after gradient step = 1756322261.568273
............
Top words for each topic:
sushi (4.192002) taco (4.067870) dish (4.026454) et (3.963847) rice (3.881967) pork (3.779390) mexican (3.682941) le (3.674020) salsa (3.661327) dessert (3.614985) 
nail (4.035316) salon (3.783805) dr (3.632187) appoint (3.596470) massag (3.579092) hair (3.514593) pedicur (3.453698) doctor (3.221014) gel (3.187607) stylist (3.171414) 
hotel (4.724797) pool (4.520523) room (3.819921) casino (3.721818) bed (3.718734) danc (3.650326) shower (3.623963) cirqu (3.619080) resort (3.500782) elev (3.414625) 
burger (3.427803) food (3.109863) fri (3.107998) pizza (2.983336) buffet (2.923666) thai (2.822517) beer (2.688368) server (2.583138) chees (2.567424) sandwich (2.544088) 
und (5.823396) der (5.509397) das (5.393574) ich (5.373900) ist (5.342572) ein (5.267289) nicht (5.158003) auch (5.110742) es (4.997818) zu (4.885904) 
Error (train/valid/test) = 1.263220/1.403869/1.405188 (0.004939)
..................................................
energy after gradient step = 1753089043.067005
............
Top words for each topic:
sushi (4.246215) taco (4.106817) dish (4.065190) et (4.008424) rice (3.938660) pork (3.808781) mexican (3.724966) le (3.705399) salsa (3.704265) les (3.639898) 
nail (4.036960) salon (3.790833) dr (3.633862) appoint (3.601862) massag (3.584169) hair (3.513065) pedicur (3.455846) doctor (3.222227) gel (3.188997) stylist (3.174569) 
hotel (4.726612) pool (4.535753) room (3.792175) casino (3.732875) bed (3.709930) danc (3.666159) cirqu (3.635186) shower (3.630723) resort (3.510715) elev (3.422548) 
burger (3.436531) fri (3.135445) food (3.121355) pizza (3.017101) buffet (2.927361) thai (2.815819) beer (2.707398) chees (2.605370) server (2.600986) sandwich (2.597472) 
und (5.841927) der (5.531004) das (5.417105) ich (5.397846) ist (5.365600) ein (5.290683) nicht (5.183515) auch (5.137312) es (5.018552) zu (4.913821) 
Error (train/valid/test) = 1.262902/1.403750/1.405072 (0.004939)
..................................................
energy after gradient step = 1750225896.944098
............
Top words for each topic:
sushi (4.295723) taco (4.143677) dish (4.098980) et (4.046223) rice (3.995588) pork (3.830788) mexican (3.760890) salsa (3.748566) le (3.732645) les (3.678382) 
nail (4.039696) salon (3.793614) dr (3.640711) appoint (3.609905) massag (3.593474) hair (3.512000) pedicur (3.459082) doctor (3.227217) gel (3.191198) stylist (3.177737) 
hotel (4.724884) pool (4.539986) room (3.762211) casino (3.735878) bed (3.696455) danc (3.674242) cirqu (3.648758) shower (3.636585) resort (3.516235) elev (3.432787) 
burger (3.445153) fri (3.155528) food (3.136403) pizza (3.047399) buffet (2.931163) thai (2.819570) beer (2.721424) chees (2.646679) sandwich (2.643960) server (2.611790) 
und (5.858562) der (5.549992) das (5.434550) ich (5.418215) ist (5.385859) ein (5.310583) nicht (5.204345) auch (5.158691) es (5.036057) zu (4.937229) 
Error (train/valid/test) = 1.262606/1.403640/1.404964 (0.004939)
..................................................
energy after gradient step = 1747462093.987209
............
Top words for each topic:
sushi (4.342293) taco (4.176714) dish (4.134365) et (4.083751) rice (4.046613) pork (3.857801) mexican (3.798475) salsa (3.783649) le (3.761544) les (3.716279) 
nail (4.041748) salon (3.799760) dr (3.641561) appoint (3.617312) massag (3.602639) hair (3.509907) pedicur (3.461716) doctor (3.228971) gel (3.192073) stylist (3.181514) 
hotel (4.722308) pool (4.553247) casino (3.744388) room (3.729986) danc (3.687799) bed (3.683578) cirqu (3.663724) shower (3.637834) resort (3.524336) elev (3.447492) 
burger (3.453230) fri (3.173174) food (3.149449) pizza (3.072129) buffet (2.931638) thai (2.819257) beer (2.735587) chees (2.684182) sandwich (2.683984) server (2.622450) 
und (5.873697) der (5.566328) das (5.449202) ich (5.435706) ist (5.402806) ein (5.327786) nicht (5.224204) auch (5.177806) es (5.052957) zu (4.958060) 
Error (train/valid/test) = 1.262312/1.403531/1.404858 (0.004939)
..................................................
energy after gradient step = 1744989341.260348
............
Top words for each topic:
sushi (4.390940) taco (4.209160) dish (4.163811) et (4.120292) rice (4.091943) pork (3.872751) mexican (3.828711) salsa (3.820072) le (3.783613) les (3.753166) 
nail (4.043445) salon (3.802790) dr (3.644525) appoint (3.621206) massag (3.609565) hair (3.509096) pedicur (3.464838) doctor (3.231804) gel (3.193672) stylist (3.183677) 
hotel (4.716726) pool (4.557825) casino (3.743051) room (3.701458) danc (3.689929) cirqu (3.676976) bed (3.668932) shower (3.639790) resort (3.532129) elev (3.451660) 
burger (3.458031) fri (3.187448) food (3.159238) pizza (3.090997) buffet (2.930199) thai (2.819187) beer (2.744180) sandwich (2.722413) chees (2.719392) server (2.631577) 
und (5.886515) der (5.579886) das (5.462178) ich (5.450536) ist (5.417122) ein (5.343461) nicht (5.240118) auch (5.194674) es (5.066096) zu (4.977085) 
Error (train/valid/test) = 1.262034/1.403430/1.404757 (0.004938)
..................................................
energy after gradient step = 1742630410.078051
............
Top words for each topic:
sushi (4.433446) taco (4.237236) dish (4.193692) et (4.152378) rice (4.129730) pork (3.885541) mexican (3.861541) salsa (3.852933) le (3.809867) les (3.785532) 
nail (4.043885) salon (3.806464) dr (3.650295) appoint (3.627268) massag (3.615245) hair (3.506395) pedicur (3.467475) doctor (3.233810) gel (3.194913) stylist (3.186248) 
hotel (4.710342) pool (4.565502) casino (3.754999) danc (3.698865) cirqu (3.686680) room (3.675047) bed (3.656492) shower (3.639964) resort (3.538408) elev (3.457112) 
burger (3.461435) fri (3.206234) food (3.167160) pizza (3.106848) buffet (2.929508) thai (2.819241) sandwich (2.755459) beer (2.754650) chees (2.750724) server (2.638684) 
und (5.895802) der (5.592373) das (5.473648) ich (5.463702) ist (5.429825) ein (5.356691) nicht (5.253302) auch (5.209566) es (5.076606) zu (4.991977) 
Error (train/valid/test) = 1.261774/1.403336/1.404662 (0.004938)
