corpus = data_char.gz
latentReg = 0.000000
lambda = 1.500000
K = 10

nUsers = 24649, nItems = 5149, nRatings = 98034

Error w/ offset term only (train/valid/test) = 1.538870/1.512279/1.538328 (0.019992)
Error w/ offset and bias (train/valid/test) = 0.763218/1.284585/1.295652 (0.019978)

..................................................
energy after gradient step = 80468357.495834

Top words for each topic:
enter (0.401792) except (0.351100) tv (0.346372) needless (0.330282) milkshak (0.329770) turkey (0.324443) juic (0.315195) bed (0.313689) nail (0.301432) cucumb (0.300407) 
thorough (0.365353) twist (0.357091) origin (0.324577) replac (0.303631) tuck (0.292079) 50 (0.290328) search (0.290190) tini (0.283927) paper (0.282594) terribl (0.273699) 
cocktail (0.428293) band (0.403256) theyv (0.337192) attend (0.334046) werent (0.324054) allow (0.317603) court (0.296639) grit (0.293441) mediocr (0.292437) replac (0.286503) 
fix (0.387232) waffl (0.379011) direct (0.355028) interior (0.338745) indoor (0.337497) site (0.333573) cost (0.329151) proper (0.318238) par (0.316376) train (0.314684) 
four (0.363462) appear (0.359925) begin (0.357379) wide (0.354204) birthday (0.344229) ride (0.327339) extens (0.317437) hill (0.304787) compani (0.303918) soul (0.303105) 
salmon (0.354021) freak (0.353171) young (0.332750) hibachi (0.320121) belli (0.308030) screen (0.304419) southern (0.285236) closest (0.280831) student (0.279772) member (0.278293) 
window (0.404124) chat (0.390200) ny (0.339309) upgrad (0.335744) wander (0.333658) shouldnt (0.331517) suppos (0.328333) farmer (0.324356) relax (0.319089) skin (0.316055) 
brew (0.431150) credit (0.333942) venu (0.329124) fix (0.323695) either (0.311972) school (0.291663) hesit (0.289417) confus (0.283177) win (0.271318) nom (0.261532) 
gem (0.416532) american (0.388511) craft (0.374647) laugh (0.356796) app (0.322464) stick (0.317699) san (0.288356) travel (0.287401) 7 (0.284853) monday (0.281081) 
refresh (0.356975) apart (0.348934) relat (0.336097) crisp (0.318449) children (0.308226) member (0.280734) appl (0.268097) inexpens (0.266902) mimosa (0.265998) chop (0.263113) 
Error (train/valid/test) = 1.207802/1.301347/1.323459 (0.018044)
..................................................
energy after gradient step = 80253163.398658

Top words for each topic:
skill (0.667668) flag (0.591485) pan (0.582866) texa (0.577698) hype (0.577203) numer (0.556391) winter (0.535765) bud (0.531541) john (0.526155) rub (0.524688) 
mayo (0.596271) grandmoth (0.567739) potenti (0.527889) polici (0.492860) biggest (0.484983) worthi (0.481456) unpleas (0.478257) pitcher (0.473293) 50 (0.468542) courteous (0.464813) 
dive (0.764481) recogn (0.589797) grape (0.579204) info (0.564717) sourc (0.562997) fountain (0.558205) bobcat (0.546360) hint (0.538885) cheeseburg (0.522787) greenway (0.497877) 
noisi (0.608131) reach (0.548816) spare (0.532200) research (0.526828) yard (0.519610) 23 (0.518229) lunchtim (0.513536) philli (0.512064) settl (0.502745) spacious (0.487160) 
non (0.687247) press (0.678329) spin (0.576991) 1st (0.566228) jersey (0.538978) histori (0.526950) nurs (0.519127) quarter (0.510628) hook (0.501920) parm (0.499679) 
ador (0.688833) termin (0.681004) instruct (0.605357) scrambl (0.584095) truth (0.567558) proceed (0.560998) cabo (0.558759) acknowledg (0.539990) couch (0.534544) golden (0.533041) 
shouldnt (0.838395) dough (0.762120) communic (0.655931) chat (0.613280) rotisseri (0.605968) m (0.557885) sick (0.554742) dozen (0.549573) sangria (0.518129) arrang (0.501643) 
driver (0.653768) accent (0.632950) encount (0.609212) foot (0.600226) encourag (0.598858) warrant (0.597810) trash (0.592451) speed (0.574254) boar (0.562531) brush (0.555587) 
bench (0.725944) zone (0.526949) gather (0.520243) row (0.513279) lap (0.512275) tail (0.506231) gorgeous (0.504994) gem (0.475777) candi (0.461985) necessarili (0.461386) 
cobbler (0.820232) purpos (0.614387) omg (0.591783) tapa (0.575319) univers (0.570185) mimosa (0.569729) edg (0.568032) tray (0.561843) bore (0.538287) uncl (0.535112) 
Error (train/valid/test) = 0.999088/1.241689/1.259638 (0.018160)
..................................................
energy after gradient step = 80181662.791799

Top words for each topic:
texa (0.894911) flow (0.788475) pan (0.735442) jack (0.729017) winter (0.719032) length (0.712114) flag (0.711028) claim (0.704164) nope (0.702674) report (0.699149) 
polici (0.857423) ac (0.804966) hurt (0.757590) stage (0.745641) carn (0.722424) recal (0.716598) weekday (0.688949) initi (0.687463) mr (0.681725) pitcher (0.672235) 
info (1.169332) fountain (0.967603) recogn (0.965192) sourc (0.874270) mug (0.758287) lean (0.743129) grape (0.734255) 247 (0.733533) alright (0.727590) self (0.722601) 
festiv (0.930564) 60 (0.816008) pf (0.787684) outback (0.785783) allergi (0.783735) research (0.766768) noisi (0.761330) whim (0.749098) elizabeth (0.725421) thin (0.715079) 
nurs (0.991429) aint (0.952370) jalapeo (0.855637) press (0.848422) ador (0.847436) familiar (0.771121) substitut (0.751867) ame (0.730522) nois (0.721610) sticker (0.721078) 
golden (0.825861) jewelri (0.814667) ounc (0.814493) fireplac (0.812414) holi (0.783404) lighter (0.779639) term (0.762602) cabo (0.754494) sun (0.741875) scrambl (0.733835) 
shouldnt (1.016829) 150 (0.846207) lousi (0.833285) freak (0.825069) bomb (0.821091) child (0.814682) dough (0.790313) communic (0.748835) grow (0.736311) termin (0.711551) 
speed (0.915406) passion (0.785338) 4th (0.785215) bloodi (0.749446) equip (0.738630) savori (0.732548) trash (0.727235) yep (0.715921) accent (0.705128) recip (0.693973) 
smokey (1.016150) guid (0.915475) bench (0.904814) exit (0.853813) towel (0.757398) whiskey (0.731604) golf (0.719006) amigo (0.718202) copper (0.702840) nightmar (0.694865) 
edg (1.110158) print (0.948539) ten (0.948303) mimosa (0.865291) blame (0.828117) d (0.819026) overlook (0.776687) purpos (0.770098) s (0.769768) interact (0.758703) 
Error (train/valid/test) = 0.893720/1.235837/1.249179 (0.018275)
..................................................
energy after gradient step = 80115647.892977

Top words for each topic:
mama (1.065615) ranch (0.944337) flag (0.901226) equal (0.852372) butcher (0.848027) nope (0.833307) numer (0.819418) somewher (0.806745) oliv (0.784745) smoothi (0.771340) 
recal (0.958829) potenti (0.927649) weekday (0.900772) shift (0.899969) initi (0.882679) mediterranean (0.880680) raspberri (0.817564) hurt (0.788381) mayo (0.779281) polici (0.776414) 
recogn (1.131894) info (1.069152) pig (0.956127) grant (0.915232) hint (0.905421) grape (0.839442) valentin (0.814728) jewelri (0.814420) fountain (0.803472) sooo (0.789112) 
festiv (1.100079) pf (1.036088) outback (0.957207) vendor (0.949692) noisi (0.949538) thin (0.920495) whim (0.915293) gnocchi (0.890131) artist (0.885091) dollop (0.879868) 
aint (1.255817) familiar (1.137092) inspect (1.052309) nurs (1.041047) rotat (1.005810) press (0.974128) substitut (0.920435) ht (0.906050) suppli (0.878351) handmad (0.846124) 
cabo (1.060024) pio (1.025153) advis (0.973519) term (0.956968) court (0.870865) trader (0.836166) scrambl (0.819058) exhibit (0.815538) gorgeous (0.783133) straight (0.776917) 
bomb (1.064072) shouldnt (1.039745) amen (1.034366) emerg (0.997534) termin (0.939557) onto (0.868262) sum (0.836765) mein (0.825529) lousi (0.813424) hub (0.807291) 
justifi (0.962254) joke (0.917363) speed (0.886932) recip (0.849037) foot (0.831390) graham (0.830458) accent (0.809507) adventur (0.793216) toward (0.783632) setup (0.765117) 
attract (1.139323) towel (1.136687) smokey (1.037391) exit (1.030553) tripl (1.006282) edamam (0.887805) whiskey (0.868450) bench (0.863339) guid (0.835743) mozzarella (0.824116) 
edg (1.179636) print (0.971147) pace (0.942088) mimosa (0.926657) d (0.919298) period (0.918151) qdoba (0.909081) overlook (0.905764) trendi (0.870918) uncl (0.844423) 
Error (train/valid/test) = 0.827125/1.240423/1.253971 (0.018479)
..................................................
energy after gradient step = 80053141.252680

Top words for each topic:
mama (1.185821) claim (1.157281) winter (1.140843) skill (0.993606) oliv (0.974214) ranch (0.957644) flag (0.938480) creek (0.932933) butcher (0.925076) report (0.910286) 
mediterranean (1.085667) shift (0.960179) recal (0.959816) ac (0.951997) project (0.918236) carn (0.907966) weekday (0.904940) chicago (0.904131) target (0.897421) initi (0.896393) 
recogn (1.122107) pig (1.068251) info (1.049920) jewelri (1.046342) subway (1.039574) penguin (1.022730) lion (0.966817) bobcat (0.943270) classi (0.938297) sourc (0.916321) 
pf (1.302350) outback (1.196368) festiv (1.100867) 55 (1.084891) premium (1.065645) noisi (1.033857) lunchtim (1.021082) pit (1.014515) etc (1.005144) thin (1.000202) 
aint (1.439621) familiar (1.314499) substitut (1.279882) inspect (1.196222) ht (1.156650) rotat (1.142355) nurs (1.065788) won (1.054103) fridg (0.992240) press (0.964737) 
cabo (1.518952) pio (1.267801) trader (1.118383) swim (1.077213) mcdonald (1.028164) exhibit (1.001978) gas (0.969546) leftov (0.920970) layov (0.879566) pesto (0.877707) 
emerg (1.225553) shouldnt (1.036785) japanes (1.014939) sum (1.014211) breath (0.940505) lousi (0.930221) mein (0.928341) embarrass (0.894418) amen (0.875285) onto (0.866502) 
justifi (1.001323) yep (0.999533) joke (0.953586) non (0.945472) alcohol (0.940117) graham (0.928510) speed (0.914816) foot (0.907992) whip (0.889279) setup (0.878337) 
smokey (1.382460) exit (1.198470) towel (1.173078) bench (1.051996) attract (1.040857) regret (1.028351) tripl (1.007914) assort (0.983392) microwav (0.977659) guid (0.972325) 
edg (1.213547) print (1.127377) overlook (1.053878) sucker (1.049502) blame (1.028705) period (1.007070) daddi (0.996152) sesam (0.993788) field (0.976197) sing (0.965401) 
Error (train/valid/test) = 0.773205/1.246013/1.261041 (0.018651)
..................................................
energy after gradient step = 80009217.973678

Top words for each topic:
winter (1.238173) third (1.231900) mama (1.099445) smoothi (1.089024) wild (1.048942) model (1.022748) ginger (0.982175) activ (0.981464) flower (0.978985) valid (0.958334) 
museum (1.121624) ac (1.091331) pastri (1.070002) courteous (1.068476) chai (1.046147) pedicur (1.041176) skin (1.016751) savor (0.996768) muscl (0.986486) news (0.984037) 
recogn (1.352676) pig (1.305090) penguin (1.249467) bobcat (1.247608) lion (1.119804) jewelri (1.113376) info (1.074259) bus (1.050793) dilworth (1.047515) browni (1.020233) 
outback (1.520805) pit (1.275869) noisi (1.227771) lunchtim (1.156105) individu (1.143458) research (1.136379) pf (1.131164) premium (1.124158) festiv (1.099568) dead (1.088935) 
aint (1.421701) familiar (1.412359) substitut (1.291882) ht (1.220207) fridg (1.182030) won (1.135752) press (1.117956) inspect (1.091781) histori (1.084639) ame (1.063458) 
cabo (1.874171) pio (1.260760) swim (1.126103) gorgeous (1.125394) exhibit (1.105976) dislik (1.065130) layov (1.054131) shuttl (1.053862) bojangl (1.043709) rotat (1.009468) 
sum (1.244591) shouldnt (1.128863) cell (1.089893) emerg (1.080936) japanes (1.071105) mein (1.067006) lousi (1.020156) m (0.992333) draw (0.984667) onto (0.969394) 
ceil (1.256802) yep (1.120888) justifi (1.032446) toward (1.007693) driver (0.993596) remain (0.973943) equip (0.969876) desert (0.956331) supermarket (0.952837) recip (0.946486) 
exit (1.602732) smokey (1.441417) cigar (1.196880) tripl (1.184238) attract (1.173874) mari (1.134007) towel (1.095460) regret (1.086050) bench (1.035777) whiskey (1.032302) 
print (1.299917) edg (1.285623) blame (1.199649) field (1.193248) sesam (1.183291) overlook (1.182093) energi (1.154185) sucker (1.138511) period (1.072340) balanc (1.055244) 
Error (train/valid/test) = 0.724766/1.256533/1.268924 (0.019053)
..................................................
energy after gradient step = 79952070.729844

Top words for each topic:
report (1.326355) mama (1.255364) valid (1.176151) biker (1.161365) juic (1.139959) smoothi (1.129028) jack (1.110484) winter (1.091701) tattoo (1.062073) ranch (1.058468) 
ac (1.341863) pedicur (1.278402) muffin (1.210875) target (1.151307) pastri (1.127930) savor (1.114535) confid (1.100346) muscl (1.096996) shave (1.056470) recal (1.050362) 
recogn (1.426031) bobcat (1.379516) info (1.209828) penguin (1.152276) pig (1.146794) jewelri (1.142411) subway (1.135347) pant (1.085402) bus (1.083320) dilworth (1.079540) 
outback (1.686483) pit (1.224608) festiv (1.208963) lunchtim (1.172562) etc (1.152542) brother (1.098647) individu (1.095771) ha (1.089259) donut (1.077261) noisi (1.053528) 
aint (1.444676) ame (1.401789) familiar (1.346626) ht (1.341862) fridg (1.276336) histori (1.251847) 1st (1.201276) press (1.190708) substitut (1.180755) inspect (1.083819) 
cabo (1.946270) mcdonald (1.311430) gorgeous (1.282380) cowfish (1.270068) pio (1.255665) exhibit (1.206255) cart (1.122725) swim (1.115155) bojangl (1.095374) spa (1.084482) 
cell (1.243592) shouldnt (1.216944) sick (1.210495) sum (1.168341) mein (1.150321) emerg (1.095311) mistak (1.023410) crepe (0.992625) honor (0.992438) japanes (0.990806) 
ceil (1.286813) yep (1.222478) non (1.202767) vinegar (1.141807) con (1.106914) recip (1.102279) sashimi (1.086242) equip (1.084328) picnic (1.064095) passion (1.059527) 
smokey (1.537945) attract (1.413211) exit (1.371054) regret (1.289539) mari (1.237947) assort (1.217638) towel (1.208655) cigar (1.205814) tripl (1.194422) bench (1.189304) 
overlook (1.374358) print (1.340286) constant (1.283310) doughnut (1.282674) balanc (1.280005) york (1.276208) costco (1.239435) blame (1.221272) broth (1.218884) edg (1.207098) 
Error (train/valid/test) = 0.680141/1.269370/1.279284 (0.019135)
..................................................
energy after gradient step = 79886569.390271

Top words for each topic:
ranch (1.396303) report (1.378758) akahana (1.211466) proud (1.178041) between (1.168954) pretzel (1.142177) winter (1.137732) valid (1.127080) wit (1.113725) mama (1.111753) 
pedicur (1.630427) muffin (1.421264) museum (1.412407) muscl (1.323612) lane (1.297317) savor (1.278161) mediterranean (1.260577) grew (1.252842) ac (1.196427) recal (1.194748) 
penguin (1.609512) bobcat (1.604247) jewelri (1.479246) info (1.409862) pig (1.285389) pant (1.208953) mission (1.165712) cross (1.148908) stare (1.135941) recogn (1.094444) 
outback (1.557647) festiv (1.421738) pit (1.337655) fave (1.255808) thin (1.223666) lunchtim (1.198381) noisi (1.159296) vendor (1.156775) donut (1.128654) network (1.109277) 
ame (1.665917) aint (1.385141) histori (1.339765) familiar (1.313013) ht (1.290356) 1st (1.290150) substitut (1.273733) nordstrom (1.262730) smokehous (1.221680) fridg (1.203880) 
cabo (2.224873) cowfish (1.529588) pio (1.401017) gorgeous (1.331463) exhibit (1.300573) court (1.294482) chick (1.279447) mcdonald (1.191420) cart (1.171309) staf (1.137312) 
shouldnt (1.508802) cell (1.418874) sum (1.383279) film (1.323681) mein (1.217140) rose (1.203479) japanes (1.174701) wich (1.166083) sick (1.157113) cmon (1.111843) 
ceil (1.335611) yep (1.333821) con (1.306832) picnic (1.242510) yuck (1.235968) recip (1.217826) toward (1.180697) cater (1.161902) band (1.159452) equip (1.151514) 
attract (1.563431) cigar (1.518337) regret (1.491606) assort (1.437738) nova (1.383263) exit (1.376457) smokey (1.335411) tripl (1.306306) bench (1.229714) deep (1.166224) 
500 (1.585585) costco (1.524306) overlook (1.445193) balanc (1.423087) edg (1.385763) print (1.383642) constant (1.334609) york (1.301926) sucker (1.263758) doughnut (1.244622) 
Error (train/valid/test) = 0.630013/1.283521/1.293813 (0.020065)
..................................................
energy after gradient step = 79809365.620173

Top words for each topic:
ranch (1.500699) biker (1.454060) mama (1.433990) akahana (1.350480) report (1.331749) jack (1.259596) wooden (1.255153) winter (1.250154) smoothi (1.234322) dive (1.154407) 
pedicur (1.776900) muffin (1.512322) museum (1.481693) savor (1.408661) mediterranean (1.406316) raspberri (1.394098) muscl (1.383541) skin (1.355908) recal (1.291120) project (1.272816) 
penguin (1.744179) jewelri (1.508691) bobcat (1.404463) pig (1.357406) info (1.318067) falafel (1.264009) pant (1.258364) upper (1.255079) mission (1.250292) rub (1.246526) 
outback (1.511042) festiv (1.469718) fave (1.412904) vendor (1.343010) donut (1.254970) pit (1.253479) premium (1.230481) tryon (1.228272) network (1.217344) lunchtim (1.179083) 
ame (1.961538) nordstrom (1.631972) histori (1.571357) pastri (1.540625) ht (1.409040) lip (1.401281) substitut (1.337769) 200 (1.301595) familiar (1.295755) aint (1.291699) 
cabo (2.257850) cowfish (1.528419) cart (1.517088) pio (1.516165) gorgeous (1.310876) concours (1.308411) swim (1.302424) trader (1.260202) mcdonald (1.256342) court (1.225238) 
shouldnt (1.633058) cell (1.484575) film (1.473679) sum (1.411549) crepe (1.319127) pet (1.302521) stylist (1.230602) mein (1.203120) surgeri (1.196999) japanes (1.184614) 
con (1.402868) yuck (1.367504) ceil (1.362973) pierc (1.286679) recip (1.273436) driver (1.238608) yep (1.222141) haircut (1.208189) china (1.187886) fight (1.160385) 
cigar (1.766458) attract (1.571212) regret (1.487053) exit (1.483762) smokey (1.440334) comment (1.381774) nova (1.353294) coconut (1.330432) towel (1.229158) deep (1.229120) 
costco (1.672495) print (1.566894) overlook (1.557015) 500 (1.466370) balanc (1.407167) york (1.399020) smoothi (1.366911) constant (1.355958) doughnut (1.342109) capit (1.334111) 
Error (train/valid/test) = 0.588532/1.293687/1.305511 (0.020017)
..................................................
energy after gradient step = 79740258.191557

Top words for each topic:
smoothi (1.555898) dive (1.513245) ranch (1.482183) report (1.472132) akahana (1.373114) wooden (1.361422) mama (1.341390) hookah (1.333357) jack (1.322858) wild (1.313234) 
pedicur (1.932216) savor (1.588746) mediterranean (1.539322) skin (1.536925) museum (1.526152) lane (1.488041) raspberri (1.464644) chipotl (1.405206) muscl (1.375023) video (1.361661) 
penguin (1.776468) jewelri (1.655872) bobcat (1.519413) walmart (1.482974) info (1.378763) pig (1.375146) subway (1.366331) upper (1.347327) workout (1.279546) cross (1.275084) 
outback (1.602157) festiv (1.503526) bike (1.412524) pit (1.383040) vendor (1.368869) fave (1.292666) donut (1.290129) etc (1.268393) gnocchi (1.249915) belk (1.249681) 
ame (2.200164) pastri (1.549985) histori (1.541860) nordstrom (1.540405) ht (1.527109) lip (1.438789) aint (1.423226) understaf (1.389896) eclect (1.335333) balanc (1.308512) 
cabo (2.530452) pio (1.644419) cowfish (1.637441) trader (1.414694) cart (1.393394) wasabi (1.379403) swim (1.355850) yoga (1.309019) yellow (1.297935) fault (1.285907) 
shouldnt (1.874785) film (1.423478) crepe (1.422657) sum (1.393283) cell (1.392966) pet (1.365869) cat (1.313708) stylist (1.292898) todd (1.281484) wich (1.264328) 
ceil (1.533344) pierc (1.495786) con (1.481345) cab (1.412436) setup (1.350402) china (1.348727) driver (1.343331) becom (1.322804) yep (1.319891) fight (1.304820) 
cigar (2.190358) attract (1.650678) smokey (1.564285) regret (1.513947) exit (1.507165) nova (1.476829) coconut (1.445209) comment (1.388987) banh (1.359472) deep (1.355639) 
costco (1.844619) print (1.695498) overlook (1.652972) capit (1.533099) york (1.519061) 500 (1.502662) smoothi (1.450210) constant (1.416991) oz (1.276575) blame (1.267143) 
Error (train/valid/test) = 0.557242/1.305088/1.315172 (0.020172)
..................................................
energy after gradient step = 79680837.448136

Top words for each topic:
smoothi (1.678255) ranch (1.528405) biker (1.527580) dive (1.513214) winter (1.433296) report (1.413230) hookah (1.394781) wild (1.382437) oliv (1.374572) wooden (1.337260) 
pedicur (2.114522) museum (1.771351) skin (1.728375) lane (1.633640) savor (1.577030) chipotl (1.571820) target (1.542068) exhibit (1.480586) video (1.469685) pastri (1.452464) 
jewelri (1.839619) penguin (1.823583) walmart (1.636775) bobcat (1.506737) subway (1.472329) workout (1.408487) pig (1.394771) info (1.373775) upper (1.364614) dilworth (1.315780) 
outback (1.695623) festiv (1.664649) bike (1.629032) vendor (1.499017) pit (1.491012) individu (1.373226) gas (1.341581) fave (1.314851) instanc (1.313250) donut (1.308580) 
ame (2.350458) pastri (1.629018) aint (1.618749) histori (1.522323) nordstrom (1.500831) eclect (1.470627) lip (1.400108) ht (1.389767) understaf (1.378761) joke (1.315644) 
cabo (2.479276) cowfish (1.794059) pio (1.629023) trader (1.599237) wasabi (1.529106) swim (1.511669) jalapeno (1.391969) yoga (1.358230) cart (1.334507) concours (1.324606) 
shouldnt (1.636906) film (1.559673) crepe (1.528257) sum (1.500450) bath (1.485737) cell (1.478411) pet (1.477133) cat (1.380823) sick (1.348412) cupcak (1.342493) 
pierc (1.840692) ceil (1.554002) cab (1.522306) china (1.491883) haircut (1.342276) yuck (1.342265) con (1.331909) picnic (1.330307) vinegar (1.328641) bojangl (1.321180) 
cigar (2.180562) attract (1.698098) nova (1.571706) smokey (1.560408) regret (1.499920) exit (1.479594) coconut (1.452112) banh (1.400614) barbecu (1.399348) comment (1.368034) 
costco (2.008078) print (1.699816) overlook (1.545815) york (1.513154) capit (1.479013) constant (1.474831) pho (1.443455) blend (1.431947) balanc (1.422480) 500 (1.361016) 
Error (train/valid/test) = 0.535424/1.314694/1.324236 (0.020244)
..................................................
energy after gradient step = 79592963.231749

Top words for each topic:
smoothi (1.926662) biker (1.724276) mama (1.620373) equip (1.595619) ranch (1.561165) dive (1.559795) oliv (1.510743) wild (1.507996) report (1.496743) winter (1.428131) 
pedicur (2.422792) museum (2.025519) chipotl (1.859365) exhibit (1.797041) lane (1.688527) target (1.662403) skin (1.641183) mediterranean (1.557104) muscl (1.554324) video (1.544862) 
penguin (1.956537) walmart (1.859223) bobcat (1.797815) jewelri (1.596527) subway (1.472347) workout (1.437083) skirt (1.427514) info (1.418579) upper (1.393199) pig (1.361894) 
bike (1.894127) festiv (1.689823) donut (1.642790) vendor (1.633042) outback (1.610236) pit (1.453271) gas (1.425590) belk (1.425148) raft (1.407870) gnocchi (1.403329) 
ame (2.598593) eclect (1.754863) pastri (1.731535) nordstrom (1.715492) histori (1.672656) croissant (1.515456) aint (1.500453) vintag (1.457859) jerki (1.445247) tart (1.430809) 
cabo (2.673730) cowfish (2.004629) trader (1.914903) swim (1.664452) pio (1.637038) mahi (1.614577) wasabi (1.587986) cart (1.469333) layov (1.458894) yoga (1.438082) 
crepe (1.771088) shouldnt (1.753955) cat (1.695858) pet (1.607037) sum (1.579388) cell (1.557343) cupcak (1.513562) film (1.512182) surgeri (1.449510) mein (1.427639) 
pierc (1.764483) cab (1.638552) picnic (1.553061) ceil (1.547857) haircut (1.518598) china (1.496163) feed (1.434283) skewer (1.421767) vinegar (1.418742) vet (1.398175) 
cigar (2.450524) yoga (1.696018) nova (1.644142) smokey (1.584144) attract (1.513501) hibachi (1.513436) barbecu (1.494063) regret (1.418927) coconut (1.402893) banh (1.385256) 
costco (2.012768) print (1.792558) york (1.764833) pho (1.752776) oz (1.647354) capit (1.545956) overlook (1.534987) constant (1.492712) 500 (1.462336) bagel (1.456626) 
Error (train/valid/test) = 0.505893/1.324742/1.340171 (0.020773)
..................................................
energy after gradient step = 79496112.977924

Top words for each topic:
smoothi (2.084520) biker (1.956305) equip (1.785856) mama (1.638003) oliv (1.607286) dive (1.575352) ranch (1.569105) report (1.502321) winter (1.497808) ikea (1.468984) 
pedicur (2.623283) museum (2.153832) chipotl (2.053811) exhibit (1.970658) lane (1.912070) target (1.866634) dr (1.849688) salon (1.742649) manicur (1.741483) vet (1.724546) 
walmart (2.099681) penguin (1.987871) bobcat (1.732327) jewelri (1.701319) subway (1.675769) info (1.624349) workout (1.619525) mike (1.483158) account (1.472364) sub (1.471939) 
bike (2.125920) donut (1.810366) outback (1.787726) vendor (1.762378) festiv (1.754116) belk (1.698422) pit (1.574321) crepe (1.500455) enchilada (1.494613) judg (1.431369) 
ame (2.811464) croissant (1.843837) nordstrom (1.817028) eclect (1.804769) tart (1.741024) pastri (1.720505) jerki (1.695655) mert (1.669078) arepa (1.660587) vintag (1.647560) 
cabo (2.655391) cowfish (2.422493) trader (2.116086) mahi (1.814965) pio (1.776787) termin (1.628530) cart (1.616627) swim (1.601313) mcdonald (1.594561) wasabi (1.582954) 
crepe (1.898224) cat (1.855873) pet (1.853340) shouldnt (1.804710) sum (1.774772) cupcak (1.650227) cell (1.614764) film (1.565513) stylist (1.555220) rose (1.508597) 
pierc (1.998564) cab (1.676679) haircut (1.482571) driver (1.455020) setup (1.454053) picnic (1.431754) arena (1.431054) con (1.423302) vet (1.415536) ceil (1.412536) 
cigar (2.387613) yoga (2.038365) nova (1.904119) hibachi (1.832796) theatr (1.723889) attract (1.659134) theater (1.597704) barbecu (1.573463) ticket (1.572667) exit (1.567042) 
costco (2.133019) pho (1.960676) print (1.929777) oz (1.900344) york (1.886808) capit (1.748930) bagel (1.701021) overlook (1.686868) blame (1.547672) filet (1.534762) 
Error (train/valid/test) = 0.478618/1.335711/1.354298 (0.021007)
..................................................
energy after gradient step = 79374977.562249

Top words for each topic:
smoothi (2.337433) biker (2.179292) hookah (1.765285) equip (1.711196) ikea (1.631228) oliv (1.626414) mama (1.621057) bagel (1.607453) winter (1.568047) pinki (1.530888) 
pedicur (2.895400) museum (2.435393) exhibit (2.363617) chipotl (2.217074) target (2.169890) manicur (2.130023) dr (2.079713) lane (2.004871) salon (1.950276) vet (1.906479) 
walmart (2.227878) penguin (2.144030) jewelri (2.063767) subway (1.892162) bobcat (1.827186) workout (1.819107) mike (1.587271) sub (1.578718) info (1.557302) trail (1.519207) 
bike (2.333917) vendor (1.952035) outback (1.910002) enchilada (1.886017) donut (1.806398) festiv (1.734258) crepe (1.707975) brisket (1.645158) belk (1.580190) gnocchi (1.577107) 
ame (2.942257) croissant (2.070991) eclect (1.978202) mert (1.941328) pastri (1.885933) nordstrom (1.865432) jerki (1.840948) arepa (1.767358) pf (1.748838) vintag (1.741828) 
cabo (2.834219) cowfish (2.358338) trader (2.243043) pio (2.021579) mahi (2.004472) mcdonald (1.789977) cart (1.737677) layov (1.731186) rotisseri (1.713390) termin (1.703875) 
crepe (2.055529) cat (1.996115) pet (1.969678) shouldnt (1.908661) sum (1.853375) cupcak (1.823476) film (1.771961) stylist (1.630215) cell (1.566241) wich (1.538170) 
pierc (2.145065) cab (1.761054) haircut (1.736523) puppi (1.552638) anim (1.540328) speed (1.495549) bojangl (1.493677) picnic (1.485550) thin (1.484064) toward (1.456044) 
cigar (2.618277) yoga (2.245717) nova (2.007728) hibachi (1.983782) theatr (1.979846) theater (1.821528) studio (1.792524) barbecu (1.738086) ticket (1.643837) attract (1.607506) 
pho (2.189874) costco (2.171469) york (1.984219) oz (1.959206) bagel (1.953975) print (1.752856) capit (1.709353) overlook (1.546381) filet (1.532679) batteri (1.503011) 
Error (train/valid/test) = 0.458022/1.344912/1.363351 (0.021057)
..................................................
energy after gradient step = 79230066.030093

Top words for each topic:
smoothi (2.417832) biker (2.118043) hookah (1.944029) bagel (1.855224) equip (1.799082) oliv (1.734518) report (1.642999) ikea (1.633279) juic (1.629737) ranch (1.619079) 
pedicur (3.064148) exhibit (2.592425) museum (2.537179) target (2.500767) manicur (2.419054) dr (2.294686) salon (2.289578) chipotl (2.268448) massag (2.235558) lane (2.215188) 
penguin (2.383950) walmart (2.352565) jewelri (2.062216) subway (1.935249) workout (1.928319) bobcat (1.870369) sub (1.778809) greenway (1.701390) trail (1.597614) mike (1.567830) 
bike (2.502719) crepe (2.033725) donut (1.996212) outback (1.960745) vendor (1.960072) festiv (1.960069) enchilada (1.947799) brisket (1.817972) belk (1.744148) waffl (1.705106) 
ame (3.085905) croissant (2.176692) mert (2.087927) pastri (1.958509) eclect (1.953052) nordstrom (1.952551) jerki (1.925223) arepa (1.880267) vintag (1.847508) pf (1.811390) 
cabo (2.977887) cowfish (2.549709) trader (2.443549) mahi (2.172643) pio (2.141595) termin (1.954476) mcdonald (1.879745) layov (1.857950) plantain (1.852018) cart (1.801805) 
crepe (2.253063) sum (2.141895) cat (2.114394) pet (2.086487) cupcak (2.016903) shouldnt (1.831142) stylist (1.705441) film (1.694842) frost (1.617836) sip (1.610458) 
pierc (2.232514) cab (1.956984) haircut (1.762672) puppi (1.567564) pita (1.565527) thin (1.537946) anim (1.536096) picnic (1.523467) arena (1.494210) hummus (1.482186) 
cigar (2.649915) yoga (2.385410) hibachi (2.129745) studio (2.118737) theater (2.111753) nova (1.983191) theatr (1.948578) ticket (1.787639) instructor (1.780726) japanes (1.758075) 
pho (2.298676) costco (2.226761) bagel (2.140990) york (2.071293) oz (2.041729) capit (1.846404) filet (1.738943) print (1.713460) azteca (1.664161) batteri (1.639280) 
Error (train/valid/test) = 0.445934/1.352549/1.375438 (0.021466)
..................................................
energy after gradient step = 79031864.687715

Top words for each topic:
smoothi (2.447906) biker (2.180423) hookah (2.023017) bagel (2.019022) oliv (1.886324) tan (1.845324) ikea (1.826222) equip (1.804721) jack (1.761350) pinki (1.732808) 
pedicur (3.311870) museum (2.955473) exhibit (2.813572) target (2.776399) manicur (2.744734) salon (2.710600) nail (2.659063) vet (2.644827) massag (2.620975) dr (2.603895) 
penguin (2.618577) walmart (2.560472) subway (2.227338) workout (2.146238) jewelri (2.122369) bobcat (1.939807) sub (1.901829) furnitur (1.780204) trail (1.774391) greenway (1.735629) 
bike (2.701683) donut (2.259040) festiv (2.135193) crepe (2.104407) enchilada (2.073495) vendor (2.048508) outback (2.039038) brisket (2.010196) waffl (1.963337) amigo (1.898285) 
ame (3.236982) mert (2.338609) croissant (2.315539) tart (2.228197) pastri (2.218905) jerki (2.188633) eclect (2.145745) nordstrom (2.065288) arepa (1.940754) pf (1.932980) 
cabo (3.064876) cowfish (2.637357) trader (2.593094) mahi (2.368411) pio (2.212552) plantain (2.135517) termin (2.064338) court (2.001814) layov (1.986369) burrito (1.985710) 
cupcak (2.502323) crepe (2.409427) cat (2.265546) sum (2.247536) pet (2.198468) film (1.894440) stylist (1.887995) frost (1.875002) shouldnt (1.848225) flight (1.711611) 
pierc (2.216692) cab (2.003755) pita (1.855760) hummus (1.790416) haircut (1.771444) speed (1.707537) puppi (1.682352) gyro (1.646847) burnt (1.625163) skewer (1.622269) 
cigar (2.681408) yoga (2.539484) theater (2.449301) hibachi (2.381357) studio (2.199102) theatr (2.176926) nova (2.109205) ticket (1.956657) japanes (1.911238) movi (1.816129) 
pho (2.450371) bagel (2.442851) costco (2.398855) oz (2.019645) york (1.989112) filet (1.836850) azteca (1.835113) capit (1.807426) batteri (1.670433) overlook (1.637191) 
Error (train/valid/test) = 0.430078/1.364219/1.385413 (0.021337)
..................................................
energy after gradient step = 78777518.312339

Top words for each topic:
smoothi (2.565662) biker (2.219914) hookah (2.212193) bagel (2.190710) ikea (2.069766) tan (2.020791) oliv (1.966204) jack (1.948786) pinki (1.916692) fuel (1.865250) 
pedicur (3.547158) museum (3.135910) salon (3.130510) massag (3.060562) manicur (3.048540) nail (3.039006) target (3.031967) dr (2.975182) exhibit (2.959074) appoint (2.938923) 
penguin (2.725680) walmart (2.565682) jewelri (2.389776) subway (2.267478) workout (2.183299) sub (2.181148) bobcat (2.162991) trail (2.033027) furnitur (1.910590) footbal (1.862781) 
bike (2.782160) enchilada (2.385899) crepe (2.302661) festiv (2.264977) donut (2.222315) waffl (2.216856) brisket (2.179656) vendor (2.161871) amigo (2.077340) outback (2.023958) 
ame (3.431968) croissant (2.641264) mert (2.552241) pastri (2.526138) jerki (2.282441) tart (2.242928) nordstrom (2.201902) eclect (2.182756) vintag (2.045357) arepa (2.027304) 
cabo (3.172231) cowfish (2.730547) trader (2.685974) mahi (2.531178) pio (2.376431) plantain (2.322980) layov (2.254541) burrito (2.220461) termin (2.147458) class (2.064588) 
cupcak (2.736191) crepe (2.545262) cat (2.356217) pet (2.307941) sum (2.263791) frost (2.040582) flight (1.910373) shouldnt (1.899060) milkshak (1.786879) wich (1.775815) 
pierc (2.208858) cab (2.153567) pita (2.065374) hummus (1.961577) puppi (1.856329) gyro (1.830384) indian (1.754814) rib (1.730590) haircut (1.727437) arena (1.712214) 
cigar (2.725555) theater (2.715932) yoga (2.680247) hibachi (2.622296) studio (2.347752) theatr (2.216606) nova (2.174149) japanes (2.138838) ticket (2.101048) movi (2.065159) 
bagel (2.692014) pho (2.591402) costco (2.383466) york (2.097104) filet (1.960177) azteca (1.927041) oz (1.920934) batteri (1.798852) chines (1.780861) jamba (1.770034) 
Error (train/valid/test) = 0.422741/1.368968/1.393959 (0.021576)
..................................................
energy after gradient step = 78480140.997253

Top words for each topic:
smoothi (2.705869) hookah (2.345689) bagel (2.236716) biker (2.216995) ikea (2.212888) tan (2.085523) oliv (2.067261) fuel (2.046637) pinki (1.994971) jack (1.967590) 
pedicur (3.679329) salon (3.493379) nail (3.430868) massag (3.372155) appoint (3.229385) museum (3.223295) dr (3.166220) target (3.140925) manicur (3.133217) exhibit (3.122725) 
walmart (2.831221) penguin (2.778268) jewelri (2.452200) subway (2.368291) workout (2.357614) sub (2.342854) bobcat (2.196389) gym (2.147957) trail (2.094991) furnitur (2.028088) 
bike (2.997874) waffl (2.455465) enchilada (2.419997) brisket (2.356869) crepe (2.351131) donut (2.342788) festiv (2.309954) vendor (2.246499) amigo (2.182158) outback (2.102765) 
ame (3.515051) pastri (2.730119) croissant (2.658743) mert (2.655952) jerki (2.391887) eclect (2.372919) tart (2.326801) nordstrom (2.311179) cuban (2.170338) pf (2.152345) 
cabo (3.260952) cowfish (2.893702) trader (2.757883) mahi (2.724122) burrito (2.540449) pio (2.502333) plantain (2.436457) termin (2.368921) layov (2.360834) wasabi (2.140200) 
cupcak (3.068140) crepe (2.671739) cat (2.490750) pet (2.478668) sum (2.359228) frost (2.297968) flight (2.104575) shouldnt (1.936791) milkshak (1.888693) cooki (1.881259) 
pierc (2.207915) pita (2.161520) cab (2.056588) hummus (2.004326) gyro (1.974965) puppi (1.964366) indian (1.898337) rib (1.894226) greek (1.848348) truck (1.770695) 
theater (2.980899) cigar (2.765452) yoga (2.750841) hibachi (2.678525) sushi (2.601409) movi (2.417057) studio (2.389063) roll (2.331495) theatr (2.307641) japanes (2.302411) 
bagel (2.881255) pho (2.857332) costco (2.421451) filet (2.094182) azteca (2.086158) york (2.075958) oz (2.034233) chines (1.954544) mexican (1.929641) broth (1.889937) 
Error (train/valid/test) = 0.418517/1.374319/1.397380 (0.021755)
..................................................
energy after gradient step = 78111291.835293

Top words for each topic:
smoothi (2.779550) hookah (2.414699) ikea (2.322743) biker (2.293310) bagel (2.272021) pinki (2.226437) tan (2.223442) oliv (2.184096) fuel (2.096413) jack (2.054106) 
pedicur (3.824832) salon (3.785153) nail (3.705657) massag (3.629229) appoint (3.475700) museum (3.454489) dr (3.414329) manicur (3.350470) vet (3.347224) target (3.342572) 
walmart (2.962454) penguin (2.888335) workout (2.621124) jewelri (2.616155) sub (2.499718) subway (2.452681) gym (2.418187) bobcat (2.372969) trail (2.309380) greenway (2.202685) 
bike (2.972969) waffl (2.557249) enchilada (2.552829) brisket (2.550085) donut (2.522074) festiv (2.401968) crepe (2.369312) margarita (2.321587) amigo (2.249765) vendor (2.239679) 
ame (3.610357) pastri (2.997671) croissant (2.895097) mert (2.739965) nordstrom (2.542811) eclect (2.510407) tart (2.506412) jerki (2.470553) cuban (2.340325) vintag (2.313911) 
cabo (3.350070) cowfish (3.054426) trader (2.994017) mahi (2.829370) pio (2.768300) burrito (2.766763) plantain (2.669932) termin (2.616769) layov (2.455290) airport (2.390207) 
cupcak (3.298177) crepe (2.752225) pet (2.618651) cat (2.529750) sum (2.488195) frost (2.398666) flight (2.313798) cooki (2.166241) latt (2.006095) dim (1.994769) 
pita (2.293124) pierc (2.273763) hummus (2.164922) greek (2.093120) gyro (2.089459) rib (2.084811) indian (2.046833) puppi (2.035228) cab (1.975833) tender (1.932650) 
theater (3.164675) sushi (3.099844) yoga (2.900088) cigar (2.852440) hibachi (2.776415) movi (2.687812) roll (2.678465) studio (2.470291) theatr (2.443988) ticket (2.399140) 
pho (3.020845) bagel (3.005707) costco (2.469103) filet (2.230249) york (2.157470) azteca (2.145088) mexican (2.093332) chines (2.061372) broth (2.045115) oz (1.997347) 
Error (train/valid/test) = 0.413754/1.378213/1.404016 (0.021812)
..................................................
energy after gradient step = 77668453.587065

Top words for each topic:
smoothi (2.938734) pizza (2.504332) hookah (2.496548) ikea (2.462114) pinki (2.396666) biker (2.384135) jack (2.314510) oliv (2.308168) tan (2.239253) bagel (2.181663) 
salon (4.055947) nail (3.985636) pedicur (3.939989) massag (3.867522) appoint (3.762985) dr (3.587376) museum (3.560109) target (3.472729) vet (3.468774) manicur (3.462394) 
walmart (3.128427) penguin (3.073173) workout (2.799012) jewelri (2.692538) gym (2.683334) sub (2.677907) subway (2.622710) trail (2.517558) furnitur (2.399719) cloth (2.392959) 
bike (3.185175) waffl (2.786251) brisket (2.776658) enchilada (2.692751) crepe (2.620691) donut (2.586856) margarita (2.547276) festiv (2.494689) queso (2.405854) amigo (2.405274) 
ame (3.804896) pastri (3.187668) croissant (3.071233) mert (2.770932) tart (2.769783) nordstrom (2.687249) jerki (2.615805) biscuit (2.544499) browni (2.530366) cuban (2.493247) 
cabo (3.442238) cowfish (3.157306) trader (3.022764) burrito (3.014094) mahi (2.949099) pio (2.864862) plantain (2.819451) airport (2.678817) termin (2.667746) layov (2.557557) 
cupcak (3.593485) crepe (2.832406) pet (2.718975) frost (2.667770) cat (2.659119) sum (2.653700) flight (2.517098) latt (2.373897) cooki (2.292213) dim (2.194363) 
pita (2.455957) pierc (2.320944) indian (2.283027) rib (2.270716) gyro (2.256866) greek (2.244535) hummus (2.228490) tender (2.026854) mediterranean (2.010637) puppi (1.993350) 
sushi (3.499747) theater (3.351983) movi (3.015953) roll (2.977604) hibachi (2.943058) yoga (2.842785) cigar (2.777969) japanes (2.565725) ticket (2.505101) studio (2.479657) 
pho (3.229064) bagel (3.204277) costco (2.414888) broth (2.366731) filet (2.323579) mexican (2.321716) azteca (2.296053) chines (2.221000) batteri (2.059206) jamba (2.028718) 
Error (train/valid/test) = 0.410757/1.381897/1.407612 (0.022105)
..................................................
energy after gradient step = 77158305.944976

Top words for each topic:
smoothi (3.034495) pizza (2.838033) hookah (2.619397) pinki (2.604787) ikea (2.486361) tan (2.470819) biker (2.402593) oliv (2.396274) fuel (2.355765) burger (2.307399) 
salon (4.231143) nail (4.166876) massag (4.028915) pedicur (4.011078) appoint (3.927118) dr (3.710434) hair (3.640665) museum (3.633015) manicur (3.604660) target (3.584570) 
walmart (3.351011) penguin (3.211660) jewelri (2.871844) workout (2.867228) gym (2.856094) subway (2.786445) sub (2.746073) trail (2.690751) greenway (2.675726) bobcat (2.578211) 
bike (3.248313) waffl (2.923480) brisket (2.909622) crepe (2.781593) margarita (2.771303) enchilada (2.758218) queso (2.662998) donut (2.617311) amigo (2.523990) festiv (2.510655) 
ame (3.925562) croissant (3.392207) pastri (3.339203) mert (3.095244) tart (2.993416) nordstrom (2.827891) biscuit (2.797277) jerki (2.747143) browni (2.722076) caramel (2.660048) 
cabo (3.492640) cowfish (3.268186) burrito (3.246068) trader (3.056915) mahi (3.006848) airport (2.978155) pio (2.949660) plantain (2.939048) termin (2.913284) layov (2.765192) 
cupcak (3.860939) pet (2.904428) crepe (2.866350) frost (2.812748) sum (2.713938) flight (2.652101) cat (2.581224) cooki (2.512820) airport (2.440744) latt (2.376651) 
pita (2.596539) rib (2.439658) indian (2.402369) greek (2.378384) hummus (2.365570) gyro (2.364581) pierc (2.263325) bbq (2.261147) tender (2.166435) lamb (2.123373) 
sushi (3.868243) theater (3.498573) roll (3.344026) movi (3.257395) hibachi (3.047474) yoga (2.992463) cigar (2.859061) theatr (2.637228) noodl (2.619708) thai (2.616379) 
pho (3.393146) bagel (3.322218) mexican (2.559251) filet (2.546385) broth (2.502852) costco (2.465704) chines (2.368512) azteca (2.360207) lobster (2.159265) tofu (2.130367) 
Error (train/valid/test) = 0.406625/1.385476/1.410879 (0.022232)
..................................................
energy after gradient step = 76589515.032914

Top words for each topic:
smoothi (3.132854) pizza (3.127518) hookah (2.738165) pinki (2.660693) tan (2.571259) oliv (2.546124) burger (2.491219) fuel (2.451082) ikea (2.450632) knot (2.393095) 
salon (4.360625) nail (4.291686) massag (4.125943) appoint (4.040481) pedicur (4.021220) hair (3.829627) store (3.792550) dr (3.749818) vet (3.624276) target (3.622853) 
walmart (3.436210) penguin (3.288844) gym (3.150816) workout (3.123034) sub (2.983477) trail (2.976129) jewelri (2.936618) subway (2.886696) greenway (2.885904) furnitur (2.743378) 
bike (3.404781) waffl (3.101350) brisket (3.073787) crepe (3.040479) enchilada (3.033938) margarita (2.990100) queso (2.795729) donut (2.781014) amigo (2.604763) bbq (2.563136) 
ame (4.168910) pastri (3.633550) croissant (3.581626) mert (3.233677) tart (3.089522) biscuit (3.041892) nordstrom (3.023375) browni (2.972288) vintag (2.930920) jerki (2.860700) 
cabo (3.601596) burrito (3.482692) cowfish (3.403046) trader (3.305380) airport (3.197403) mahi (3.128991) pio (3.062560) termin (3.053411) plantain (3.023341) layov (2.963532) 
cupcak (4.051788) pet (2.963550) frost (2.944763) sum (2.857370) flight (2.852121) crepe (2.837461) cooki (2.731149) latt (2.661276) airport (2.631901) cat (2.560166) 
pita (2.727994) rib (2.576906) indian (2.532123) greek (2.527980) gyro (2.518038) bbq (2.495506) hummus (2.415260) tender (2.292452) lamb (2.289634) pierc (2.203159) 
sushi (4.080450) theater (3.605827) roll (3.590626) movi (3.390567) hibachi (3.143371) yoga (2.946028) cigar (2.871767) thai (2.867122) japanes (2.769916) noodl (2.756620) 
pho (3.550899) bagel (3.429939) mexican (2.775474) filet (2.684905) broth (2.655937) chines (2.563748) azteca (2.451987) costco (2.420233) lobster (2.327734) authent (2.205766) 
Error (train/valid/test) = 0.405356/1.390845/1.412600 (0.021909)
..................................................
energy after gradient step = 75998615.339915

Top words for each topic:
pizza (3.481318) smoothi (3.287030) burger (2.783460) pinki (2.779507) hookah (2.773920) crust (2.599634) tan (2.595981) fuel (2.585310) oliv (2.526525) jack (2.524796) 
salon (4.393997) nail (4.334319) massag (4.152865) appoint (4.071742) pedicur (4.056384) hair (3.947007) store (3.912362) dr (3.790790) museum (3.678363) vet (3.646877) 
walmart (3.556368) penguin (3.456001) gym (3.274900) workout (3.199643) sub (3.127826) jewelri (3.122632) trail (3.076840) subway (2.995425) greenway (2.993531) breweri (2.902291) 
bike (3.451628) waffl (3.236474) brisket (3.231466) crepe (3.171200) margarita (3.148830) enchilada (3.140502) queso (2.916476) donut (2.824233) amigo (2.699801) festiv (2.688407) 
ame (4.238514) pastri (3.765995) croissant (3.710249) mert (3.394712) biscuit (3.331604) tart (3.261845) browni (3.201961) nordstrom (3.145619) caramel (3.098374) vintag (2.956980) 
burrito (3.686525) cabo (3.682466) cowfish (3.451569) airport (3.376360) trader (3.329124) mahi (3.283350) termin (3.161280) pio (3.151830) plantain (3.096331) layov (2.981861) 
cupcak (4.193821) frost (3.102371) pet (3.072902) flight (3.037621) sum (2.915160) cooki (2.864511) crepe (2.855348) airport (2.808519) latt (2.761919) cat (2.611534) 
pita (2.755521) rib (2.680193) bbq (2.618657) greek (2.606896) indian (2.551327) gyro (2.538375) hummus (2.472518) lamb (2.410821) tender (2.383210) pizza (2.257773) 
sushi (4.231737) roll (3.754872) theater (3.675888) movi (3.477772) hibachi (3.245523) yoga (3.039533) thai (3.035525) noodl (2.899131) cigar (2.886979) japanes (2.836475) 
pho (3.646483) bagel (3.492956) mexican (2.860648) filet (2.798070) broth (2.773218) chines (2.662243) azteca (2.518902) lobster (2.427976) costco (2.355184) authent (2.339001) 
Error (train/valid/test) = 0.404692/1.391252/1.412752 (0.021977)
..................................................
energy after gradient step = 75431969.538153

Top words for each topic:
pizza (3.801244) smoothi (3.265275) burger (3.089804) hookah (2.915887) pinki (2.840817) crust (2.839046) tan (2.662715) ring (2.636969) oliv (2.626201) fuel (2.624741) 
salon (4.399046) nail (4.308945) massag (4.173380) appoint (4.072525) pedicur (4.059270) store (4.018867) hair (4.015682) dr (3.795911) vet (3.660544) museum (3.657164) 
walmart (3.692162) penguin (3.508357) gym (3.491416) workout (3.337197) trail (3.235911) jewelri (3.230672) sub (3.222573) greenway (3.145240) subway (3.139512) sport (3.121636) 
bike (3.500560) waffl (3.357279) crepe (3.346801) margarita (3.323931) brisket (3.312088) enchilada (3.121453) queso (3.068148) donut (2.904949) salsa (2.818669) taco (2.814722) 
ame (4.383679) pastri (3.965977) croissant (3.890228) biscuit (3.533269) mert (3.532050) tart (3.388490) browni (3.278872) nordstrom (3.244644) caramel (3.177894) mall (3.157606) 
burrito (3.880730) cabo (3.736944) cowfish (3.575445) airport (3.551369) trader (3.449244) mahi (3.328150) termin (3.272359) plantain (3.262378) pio (3.257897) layov (3.153804) 
cupcak (4.330845) flight (3.194955) pet (3.145323) frost (3.126783) sum (3.011317) cooki (2.949215) airport (2.924531) latt (2.831365) crepe (2.801516) cat (2.772275) 
pita (2.741854) rib (2.741830) bbq (2.729214) greek (2.669915) indian (2.578786) gyro (2.553121) lamb (2.438827) tender (2.435333) hummus (2.404323) pizza (2.386755) 
sushi (4.362074) roll (3.885287) theater (3.735135) movi (3.538294) hibachi (3.275990) thai (3.201169) yoga (3.014316) noodl (2.982536) japanes (2.900848) pad (2.886909) 
pho (3.641925) bagel (3.581148) mexican (2.925180) filet (2.808572) broth (2.798714) chines (2.794758) azteca (2.499463) lobster (2.488957) authent (2.419471) rice (2.410462) 
Error (train/valid/test) = 0.404585/1.391961/1.412330 (0.022162)
..................................................
energy after gradient step = 74845137.443178

Top words for each topic:
pizza (4.184007) burger (3.474234) smoothi (3.380859) crust (3.011482) hookah (2.981241) pinki (2.928925) ny (2.742527) fuel (2.738314) tan (2.725973) ring (2.723009) 
salon (4.434164) nail (4.336713) massag (4.204254) appoint (4.110008) pedicur (4.057594) hair (4.038524) store (4.024591) dr (3.825554) vet (3.651700) manicur (3.648488) 
walmart (3.806700) penguin (3.636787) gym (3.505193) workout (3.419431) sub (3.322571) trail (3.319280) jewelri (3.284220) subway (3.274137) sport (3.262586) greenway (3.232664) 
bike (3.605617) crepe (3.534355) waffl (3.506630) margarita (3.447235) brisket (3.394668) enchilada (3.251242) queso (3.168169) donut (3.046859) taco (2.977877) salsa (2.973157) 
ame (4.511093) pastri (4.078639) croissant (3.989963) biscuit (3.680337) mert (3.659878) tart (3.538579) browni (3.519786) bakeri (3.409260) nordstrom (3.360543) mall (3.324375) 
burrito (4.037547) cabo (3.841083) airport (3.702623) cowfish (3.647663) trader (3.539731) mahi (3.407550) pio (3.374657) termin (3.347220) plantain (3.320394) layov (3.206298) 
cupcak (4.442655) flight (3.394306) frost (3.278991) pet (3.149276) sum (3.033016) cooki (3.023598) latt (3.012782) airport (2.986320) connect (2.841104) cat (2.746002) 
rib (2.834520) bbq (2.814097) pita (2.800087) greek (2.682684) indian (2.554213) lamb (2.545622) gyro (2.545327) hummus (2.479856) tender (2.462328) pizza (2.433202) 
sushi (4.480036) roll (3.996225) theater (3.775848) movi (3.593041) thai (3.374126) hibachi (3.342609) yoga (3.112712) noodl (3.059883) pad (2.990874) japanes (2.945573) 
pho (3.715176) bagel (3.618173) mexican (2.962511) chines (2.870162) broth (2.862402) filet (2.828529) lobster (2.576763) rice (2.557119) azteca (2.515517) authent (2.485543) 
Error (train/valid/test) = 0.404570/1.394800/1.413943 (0.022095)
..................................................
energy after gradient step = 74294009.591617

Top words for each topic:
pizza (4.376431) burger (3.752006) smoothi (3.515523) crust (3.216178) pinki (3.073868) hookah (3.055666) knot (2.910246) tan (2.900818) ny (2.889955) ring (2.889136) 
salon (4.463359) nail (4.361284) massag (4.239046) appoint (4.129968) pedicur (4.077414) store (4.076663) hair (4.060389) dr (3.851045) vet (3.697094) stylist (3.656663) 
walmart (3.881511) gym (3.755085) penguin (3.674749) workout (3.571469) trail (3.481929) sport (3.423608) greenway (3.385068) subway (3.376408) breweri (3.322249) jewelri (3.319203) 
crepe (3.770117) bike (3.671956) waffl (3.630500) margarita (3.610732) brisket (3.569009) enchilada (3.376224) queso (3.193983) taco (3.168821) donut (3.076801) mexican (3.068521) 
ame (4.650879) pastri (4.257032) croissant (4.139618) biscuit (3.888334) mert (3.759532) browni (3.719378) tart (3.696696) bakeri (3.605420) mall (3.496166) nordstrom (3.473760) 
burrito (4.195277) cabo (3.936665) airport (3.837459) cowfish (3.734135) trader (3.603744) pio (3.484818) mahi (3.463627) plantain (3.447501) termin (3.438102) chipotl (3.352169) 
cupcak (4.559121) flight (3.532918) frost (3.379775) pet (3.143779) airport (3.129836) cooki (3.129343) latt (3.054711) sum (3.035062) vanilla (2.859031) connect (2.853567) 
bbq (2.930300) rib (2.921222) pita (2.825767) greek (2.743814) lamb (2.625865) gyro (2.620196) indian (2.581925) tender (2.517693) pizza (2.474892) hummus (2.430094) 
sushi (4.631201) roll (4.129874) theater (3.855175) movi (3.655318) thai (3.556294) hibachi (3.425622) yoga (3.169535) noodl (3.164769) pad (3.077579) japanes (3.015333) 
pho (3.761486) bagel (3.662569) mexican (3.013635) chines (2.938696) broth (2.917597) filet (2.833002) rice (2.738076) dish (2.634724) lobster (2.602319) authent (2.566780) 
Error (train/valid/test) = 0.402977/1.398835/1.416751 (0.022122)
..................................................
energy after gradient step = 73723327.608354

Top words for each topic:
pizza (4.538920) burger (3.940176) smoothi (3.515228) crust (3.425350) pinki (3.154125) hookah (3.091696) ny (3.078563) slice (3.040935) fuel (3.025602) knot (2.982517) 
salon (4.510398) nail (4.382815) massag (4.283205) appoint (4.184285) store (4.106019) pedicur (4.090413) hair (4.067511) dr (3.862210) stylist (3.709584) vet (3.685627) 
walmart (3.973369) gym (3.815906) penguin (3.758316) workout (3.599348) trail (3.540867) jewelri (3.528204) sport (3.511575) greenway (3.501590) breweri (3.494294) subway (3.439115) 
crepe (3.986177) margarita (3.770394) waffl (3.756183) bike (3.734060) brisket (3.707413) enchilada (3.509401) queso (3.415218) taco (3.353347) mexican (3.243076) salsa (3.177434) 
ame (4.804358) pastri (4.421310) croissant (4.362406) biscuit (4.049205) mert (3.977460) tart (3.863904) bakeri (3.858932) browni (3.852448) caramel (3.640949) mall (3.618692) 
burrito (4.368457) airport (4.012029) cabo (4.007526) cowfish (3.821670) trader (3.747136) mahi (3.675869) termin (3.594333) plantain (3.586407) pio (3.572238) chipotl (3.519154) 
cupcak (4.681845) flight (3.670313) frost (3.462629) cooki (3.241284) airport (3.208777) latt (3.173587) sum (3.141150) coffe (3.108809) connect (3.063028) pet (3.041330) 
bbq (3.022623) rib (3.008282) pita (2.814622) greek (2.781504) lamb (2.672763) gyro (2.646182) indian (2.618580) tender (2.589001) sauc (2.524731) hummus (2.500279) 
sushi (4.761502) roll (4.290339) theater (3.933588) thai (3.765292) movi (3.719800) hibachi (3.515034) noodl (3.254662) yoga (3.181464) pad (3.178068) japanes (3.141903) 
pho (3.802369) bagel (3.690919) mexican (3.061739) chines (3.017504) broth (2.972236) filet (2.947037) rice (2.901948) dish (2.839259) lobster (2.712361) chicken (2.657399) 
Error (train/valid/test) = 0.399044/1.400423/1.418897 (0.022440)
..................................................
energy after gradient step = 73278781.663647

Top words for each topic:
pizza (4.786585) burger (4.231319) smoothi (3.654445) crust (3.603756) pinki (3.202959) slice (3.177196) ny (3.133486) knot (3.114065) fuel (3.074870) hookah (3.059557) 
salon (4.542260) nail (4.390447) massag (4.316357) appoint (4.208723) pedicur (4.110604) hair (4.083585) store (4.051023) dr (3.912417) stylist (3.788028) vet (3.757667) 
walmart (3.982606) gym (3.954764) penguin (3.792018) workout (3.726716) sport (3.626463) breweri (3.602309) trail (3.590391) jewelri (3.571898) greenway (3.534322) subway (3.463105) 
crepe (4.105011) waffl (3.927570) margarita (3.902777) bike (3.803705) brisket (3.784431) enchilada (3.512642) taco (3.504205) queso (3.482152) mexican (3.353700) salsa (3.293923) 
ame (4.846121) pastri (4.507584) croissant (4.373838) biscuit (4.233911) mert (4.091305) bakeri (4.054816) tart (3.923283) browni (3.902145) mall (3.749708) nordstrom (3.719314) 
burrito (4.506006) airport (4.139496) cabo (4.127101) cowfish (3.887663) trader (3.784943) termin (3.689579) plantain (3.666165) pio (3.614861) chipotl (3.611502) mahi (3.609717) 
cupcak (4.804321) flight (3.824925) frost (3.560180) airport (3.381133) latt (3.356036) coffe (3.353220) cooki (3.302688) sum (3.202680) connect (3.098406) wifi (3.047623) 
bbq (3.083040) rib (3.079905) pita (2.918279) greek (2.814556) lamb (2.709257) gyro (2.666531) tender (2.634464) indian (2.607335) sauc (2.594898) pork (2.550109) 
sushi (4.910002) roll (4.439980) theater (4.014715) thai (3.884678) movi (3.787074) hibachi (3.610960) noodl (3.332436) pad (3.291664) yoga (3.272411) japanes (3.186151) 
pho (3.826512) bagel (3.704119) mexican (3.108787) rice (3.077704) chines (3.077595) dish (2.963102) broth (2.946100) filet (2.944360) chicken (2.808896) shrimp (2.798909) 
Error (train/valid/test) = 0.397177/1.403647/1.422752 (0.022634)
..................................................
energy after gradient step = 72780187.114020

Top words for each topic:
pizza (4.950526) burger (4.397303) crust (3.756310) smoothi (3.652041) slice (3.323222) pinki (3.288357) ny (3.259905) hookah (3.174317) knot (3.145955) ring (3.144366) 
salon (4.574566) nail (4.391566) massag (4.349680) appoint (4.247874) pedicur (4.133083) hair (4.072251) store (3.986329) dr (3.919616) stylist (3.788906) vet (3.740684) 
walmart (4.063750) gym (3.997902) penguin (3.817040) workout (3.793146) trail (3.714567) sport (3.694088) breweri (3.646985) jewelri (3.637767) greenway (3.584598) subway (3.518055) 
crepe (4.301981) margarita (4.039709) waffl (4.021467) bike (3.815747) brisket (3.810264) enchilada (3.724279) taco (3.707695) queso (3.630157) mexican (3.499273) salsa (3.459219) 
ame (4.958507) pastri (4.641894) croissant (4.521527) biscuit (4.405640) bakeri (4.217789) browni (4.135355) mert (4.101629) tart (3.972691) mall (3.906403) nordstrom (3.777406) 
burrito (4.636713) airport (4.274692) cabo (4.196442) cowfish (4.014601) trader (3.851998) chipotl (3.768038) pio (3.742649) plantain (3.732625) mahi (3.720444) taco (3.703386) 
cupcak (4.918394) flight (3.914087) frost (3.649838) coffe (3.550967) airport (3.495601) latt (3.365115) cooki (3.336721) sum (3.254454) connect (3.235226) airway (3.112655) 
bbq (3.165374) rib (3.123827) pita (2.862821) greek (2.841267) lamb (2.760565) gyro (2.707714) tender (2.675199) sauc (2.672780) wing (2.664468) pork (2.615006) 
sushi (5.010470) roll (4.500809) theater (4.087118) thai (4.026483) movi (3.884051) hibachi (3.663033) noodl (3.392277) pad (3.366995) yoga (3.342500) japanes (3.263803) 
pho (3.830467) bagel (3.719628) rice (3.199071) chines (3.150341) dish (3.114528) mexican (3.082654) filet (3.040404) shrimp (3.028484) broth (3.008692) chicken (2.930939) 
Error (train/valid/test) = 0.396280/1.411005/1.428836 (0.022912)
..................................................
energy after gradient step = 72355554.107404

Top words for each topic:
pizza (5.257434) burger (4.723899) crust (3.880672) smoothi (3.733579) slice (3.427003) ny (3.374352) pinki (3.352683) hookah (3.280437) ring (3.271877) knot (3.256844) 
salon (4.658909) massag (4.434118) nail (4.430863) appoint (4.320732) pedicur (4.195989) hair (4.046392) dr (3.981618) stylist (3.918313) store (3.915089) vet (3.786208) 
gym (4.116111) walmart (4.108697) workout (3.859827) penguin (3.853900) breweri (3.794677) sport (3.759774) trail (3.723824) greenway (3.708945) jewelri (3.705371) game (3.620999) 
crepe (4.411156) margarita (4.145146) waffl (4.111632) taco (3.990881) brisket (3.976294) enchilada (3.841014) bike (3.840552) queso (3.762499) mexican (3.615312) salsa (3.593514) 
ame (5.060262) pastri (4.685167) croissant (4.631513) biscuit (4.585558) bakeri (4.309263) mert (4.230927) browni (4.097438) tart (4.093207) mall (3.961956) macaroon (3.911891) 
burrito (4.765589) airport (4.405863) cabo (4.266275) cowfish (4.072085) trader (4.017930) chipotl (3.883485) pio (3.867984) taco (3.867433) layov (3.798699) plantain (3.788883) 
cupcak (5.043831) flight (4.026314) frost (3.758057) coffe (3.721785) airport (3.631544) latt (3.511630) cooki (3.398278) connect (3.297210) wifi (3.285011) airway (3.226804) 
bbq (3.267649) rib (3.230933) pita (2.955825) greek (2.926929) wing (2.847151) lamb (2.842403) sauc (2.796619) gyro (2.789312) pork (2.761029) tender (2.706523) 
sushi (5.177169) roll (4.643175) thai (4.223203) theater (4.184705) movi (4.009540) hibachi (3.770843) pad (3.469783) noodl (3.466174) yoga (3.410852) japanes (3.374535) 
pho (3.920211) bagel (3.758035) rice (3.377456) dish (3.327420) chines (3.258090) shrimp (3.217104) mexican (3.153293) steak (3.124299) filet (3.113908) chicken (3.061602) 
Error (train/valid/test) = 0.385760/1.417969/1.432936 (0.022586)
..................................................
energy after gradient step = 71904915.786585

Top words for each topic:
pizza (5.502262) burger (4.952724) crust (4.003620) smoothi (3.804987) slice (3.535337) pinki (3.413032) ny (3.392243) knot (3.354516) hookah (3.341249) ring (3.327785) 
salon (4.717773) massag (4.492263) nail (4.437616) appoint (4.361324) pedicur (4.230431) hair (4.048957) dr (4.023261) stylist (3.961025) store (3.886347) vet (3.852381) 
gym (4.257747) walmart (4.129621) workout (3.945366) trail (3.881431) breweri (3.878107) penguin (3.807378) sport (3.803945) game (3.771988) jewelri (3.759524) greenway (3.725165) 
crepe (4.629215) margarita (4.301495) taco (4.276926) waffl (4.254745) brisket (4.152282) queso (3.999201) enchilada (3.969514) mexican (3.829703) bike (3.826882) salsa (3.784973) 
ame (5.162815) pastri (4.791812) biscuit (4.788735) croissant (4.758643) bakeri (4.486194) mert (4.381136) browni (4.163132) tart (4.111547) macaroon (4.049570) mall (4.032969) 
burrito (4.908640) airport (4.563282) cabo (4.392772) cowfish (4.235075) trader (4.106043) chipotl (4.061892) taco (4.005899) pio (3.900462) termin (3.897125) mahi (3.888564) 
cupcak (5.181053) flight (4.159365) coffe (3.889967) frost (3.812076) airport (3.733787) latt (3.586841) cooki (3.496728) connect (3.445364) airway (3.443864) wifi (3.417770) 
bbq (3.369864) rib (3.308878) pita (3.010223) wing (3.001233) greek (2.985465) lamb (2.935549) sauc (2.880765) pork (2.834704) gyro (2.831309) mac (2.762600) 
sushi (5.286595) roll (4.767547) thai (4.359431) theater (4.303876) movi (4.118365) hibachi (3.900919) pad (3.602324) noodl (3.540932) yoga (3.453438) japanes (3.433845) 
pho (3.966120) bagel (3.735936) rice (3.487126) dish (3.452345) shrimp (3.389365) chines (3.335583) steak (3.282407) restaur (3.224299) chicken (3.200073) filet (3.149003) 
Error (train/valid/test) = 0.379694/1.425484/1.438986 (0.022854)
..................................................
energy after gradient step = 71488001.204919

Top words for each topic:
pizza (5.640946) burger (5.061045) crust (4.070335) smoothi (3.804717) slice (3.626718) ny (3.485637) pinki (3.428994) ring (3.408273) knot (3.397700) hookah (3.351014) 
salon (4.753906) massag (4.516664) nail (4.450680) appoint (4.378415) pedicur (4.263055) hair (4.057468) stylist (4.037423) dr (4.030508) vet (3.864744) manicur (3.849636) 
gym (4.290609) walmart (4.133007) breweri (3.950758) workout (3.949457) trail (3.891543) sport (3.835817) game (3.814943) penguin (3.792295) jewelri (3.781694) beer (3.774771) 
crepe (4.736922) taco (4.415263) margarita (4.409969) waffl (4.349770) brisket (4.254961) queso (4.055788) enchilada (4.016492) mexican (4.001492) salsa (3.919392) bike (3.803837) 
ame (5.180938) biscuit (4.901346) pastri (4.842315) croissant (4.761342) bakeri (4.573367) mert (4.372700) browni (4.224171) tart (4.153671) cafe (4.131550) mall (4.074171) 
burrito (4.989887) airport (4.647123) cabo (4.344309) trader (4.152981) cowfish (4.127750) chipotl (4.099364) taco (4.070139) layov (3.966071) plantain (3.956245) pio (3.931390) 
cupcak (5.239480) flight (4.262520) coffe (3.961001) frost (3.893572) airport (3.772622) latt (3.579328) starbuck (3.529473) wifi (3.517004) connect (3.496919) cooki (3.496192) 
bbq (3.422963) rib (3.362880) wing (3.078436) pita (3.062768) greek (3.045607) lamb (2.985310) sauc (2.925560) pork (2.920368) gyro (2.886244) mac (2.832718) 
sushi (5.378464) roll (4.830373) thai (4.422118) theater (4.372066) movi (4.175110) hibachi (3.963889) pad (3.659271) noodl (3.596947) japanes (3.559180) yoga (3.529701) 
pho (3.974340) bagel (3.691535) dish (3.580700) rice (3.572799) shrimp (3.489062) chines (3.389436) steak (3.388122) chicken (3.322815) restaur (3.285350) filet (3.162133) 
Error (train/valid/test) = 0.376253/1.429268/1.442897 (0.022937)
..................................................
energy after gradient step = 71174696.407749

Top words for each topic:
pizza (5.737597) burger (5.150452) crust (4.137434) smoothi (3.867456) slice (3.668500) pinki (3.489954) ny (3.485934) knot (3.448069) ring (3.404128) tot (3.391112) 
salon (4.784115) massag (4.554280) nail (4.453210) appoint (4.394147) pedicur (4.292286) dr (4.060976) hair (4.058827) stylist (4.057022) vet (3.905753) manicur (3.883374) 
gym (4.316513) walmart (4.176158) workout (3.989862) breweri (3.932954) trail (3.892959) game (3.869112) sport (3.846118) beer (3.829101) greenway (3.813964) jewelri (3.761991) 
crepe (4.830614) taco (4.596937) margarita (4.514480) waffl (4.441498) brisket (4.351037) mexican (4.193432) enchilada (4.167904) queso (4.160317) salsa (4.052998) bike (3.877044) 
ame (5.217085) biscuit (4.985980) pastri (4.860341) croissant (4.817533) bakeri (4.704205) mert (4.395081) browni (4.190351) tart (4.182359) cafe (4.169935) mall (4.101828) 
burrito (5.061949) airport (4.724850) cabo (4.402675) cowfish (4.188427) trader (4.171227) taco (4.141635) chipotl (4.129797) pio (3.995900) layov (3.982956) termin (3.947401) 
cupcak (5.303606) flight (4.306010) coffe (4.036548) frost (3.965083) airport (3.833275) starbuck (3.731730) latt (3.654227) wifi (3.617370) yogurt (3.573384) cooki (3.566736) 
bbq (3.501885) rib (3.426071) wing (3.136384) pita (3.094535) greek (3.081275) lamb (3.045453) pork (3.002998) sauc (2.979408) gyro (2.914790) mac (2.891161) 
sushi (5.452048) roll (4.892078) thai (4.496731) theater (4.432846) movi (4.223235) hibachi (4.026144) pad (3.729962) noodl (3.618264) japanes (3.602413) yoga (3.552554) 
pho (3.993388) dish (3.673811) bagel (3.660728) rice (3.634778) shrimp (3.568110) steak (3.448426) chicken (3.419352) chines (3.415037) restaur (3.353348) filet (3.194778) 
Error (train/valid/test) = 0.372330/1.434050/1.445961 (0.022986)
..................................................
energy after gradient step = 70879275.547726

Top words for each topic:
pizza (5.860069) burger (5.265578) crust (4.241930) smoothi (3.816327) slice (3.695607) pinki (3.524122) ny (3.510471) knot (3.490967) ring (3.449516) tot (3.443185) 
salon (4.844096) massag (4.611080) nail (4.474000) appoint (4.438307) pedicur (4.326763) stylist (4.130053) dr (4.087554) hair (4.061716) vet (3.956435) manicur (3.924368) 
gym (4.348738) walmart (4.203997) breweri (4.046786) workout (4.034655) trail (3.951855) game (3.936137) beer (3.916261) sport (3.886837) jewelri (3.880538) greenway (3.853398) 
crepe (4.931710) taco (4.849898) margarita (4.625918) waffl (4.501388) brisket (4.426128) enchilada (4.346689) mexican (4.282368) queso (4.226594) salsa (4.181517) guacamol (3.982727) 
ame (5.246768) biscuit (5.088215) pastri (4.929951) croissant (4.820685) bakeri (4.763479) mert (4.458962) browni (4.257582) cafe (4.243097) macaroon (4.163516) mall (4.155951) 
burrito (5.125432) airport (4.824667) cabo (4.447211) trader (4.238261) taco (4.226866) cowfish (4.219396) chipotl (4.168240) pio (3.994151) layov (3.991703) plantain (3.976870) 
cupcak (5.410975) flight (4.352466) coffe (4.149153) frost (4.051667) airport (3.896435) starbuck (3.864912) airway (3.770085) latt (3.730994) yogurt (3.728168) wifi (3.653493) 
bbq (3.604847) rib (3.520352) wing (3.243874) pita (3.163445) greek (3.146888) lamb (3.118020) mac (3.080153) pork (3.070155) sauc (3.044777) gyro (2.990872) 
sushi (5.562957) roll (5.003499) thai (4.633668) theater (4.494938) movi (4.302767) hibachi (4.099502) pad (3.799553) japanes (3.679870) noodl (3.666482) yoga (3.640282) 
pho (4.042896) dish (3.778616) rice (3.719686) shrimp (3.704764) bagel (3.640355) steak (3.551155) chicken (3.548977) chines (3.490118) restaur (3.410657) filet (3.224130) 
Error (train/valid/test) = 0.364526/1.442203/1.451579 (0.023114)
..................................................
energy after gradient step = 70540707.791215

Top words for each topic:
pizza (5.923883) burger (5.322572) crust (4.279701) smoothi (3.845838) slice (3.696879) ny (3.575564) pinki (3.521723) tot (3.511591) knot (3.509205) ring (3.491337) 
salon (4.877304) massag (4.640983) nail (4.485633) appoint (4.454608) pedicur (4.351227) stylist (4.156622) dr (4.116831) hair (4.063976) vet (3.963392) manicur (3.928881) 
gym (4.412706) walmart (4.206242) workout (4.064812) breweri (4.035243) trail (3.989084) game (3.967004) jewelri (3.941961) beer (3.931565) greenway (3.900896) sport (3.879571) 
crepe (5.041894) taco (4.978709) margarita (4.749471) waffl (4.595064) brisket (4.517283) enchilada (4.486775) mexican (4.417317) queso (4.376140) salsa (4.337734) guacamol (4.116220) 
ame (5.275122) biscuit (5.123616) pastri (4.930325) croissant (4.859869) bakeri (4.770987) mert (4.455343) cafe (4.266908) browni (4.204142) coffe (4.197177) tart (4.192723) 
burrito (5.180674) airport (4.880737) cabo (4.443127) trader (4.284844) cowfish (4.229612) taco (4.221650) chipotl (4.211536) layov (4.083086) pio (4.056402) groceri (4.012545) 
cupcak (5.474885) flight (4.428662) coffe (4.217888) frost (4.138326) starbuck (4.021324) airport (3.985181) yogurt (3.826820) airway (3.809404) latt (3.794306) wifi (3.783246) 
bbq (3.655339) rib (3.572790) wing (3.332862) pita (3.212654) greek (3.194775) lamb (3.172826) mac (3.142257) pork (3.111424) sauc (3.065178) gyro (3.024105) 
sushi (5.635621) roll (5.052022) thai (4.696343) theater (4.565590) movi (4.365563) hibachi (4.173737) pad (3.872934) japanes (3.771551) yoga (3.679189) noodl (3.669278) 
pho (4.041726) dish (3.862545) rice (3.781762) shrimp (3.780789) chicken (3.620695) steak (3.611569) bagel (3.569385) chines (3.562302) restaur (3.469632) entre (3.273802) 
Error (train/valid/test) = 0.360474/1.447228/1.457622 (0.023140)
..................................................
energy after gradient step = 70265526.507859

Top words for each topic:
pizza (5.997841) burger (5.386874) crust (4.294834) smoothi (3.862251) slice (3.725304) ny (3.600373) knot (3.586930) tot (3.578450) pinki (3.565399) pepperoni (3.516937) 
salon (4.914204) massag (4.680583) appoint (4.483368) nail (4.478156) pedicur (4.377765) stylist (4.205186) dr (4.134731) hair (4.078208) vet (3.990193) manicur (3.972382) 
gym (4.442544) walmart (4.253512) breweri (4.105571) workout (4.088780) game (4.002174) trail (3.991590) beer (3.968894) jewelri (3.947716) sport (3.909168) greenway (3.885233) 
taco (5.124590) crepe (5.123424) margarita (4.842899) waffl (4.661762) mexican (4.587780) brisket (4.533646) enchilada (4.526912) salsa (4.510957) queso (4.435599) guacamol (4.177759) 
ame (5.277659) biscuit (5.170129) pastri (4.949459) croissant (4.880969) bakeri (4.839381) mert (4.434651) cafe (4.310137) coffe (4.277021) macaroon (4.218112) browni (4.192646) 
burrito (5.220833) airport (4.933007) cabo (4.498526) trader (4.325140) cowfish (4.276593) chipotl (4.267706) taco (4.229354) pio (4.115068) groceri (4.094059) layov (4.079072) 
cupcak (5.585988) flight (4.463081) coffe (4.275869) frost (4.163052) starbuck (4.106355) airport (4.091495) airway (3.936544) yogurt (3.914919) latt (3.885208) wifi (3.842067) 
bbq (3.734225) rib (3.634629) wing (3.414879) mac (3.305853) pita (3.240148) lamb (3.238595) greek (3.234299) pork (3.169131) sauc (3.122787) gyro (3.091350) 
sushi (5.721219) roll (5.104543) thai (4.781657) theater (4.636202) movi (4.427416) hibachi (4.232151) pad (3.945127) japanes (3.814502) yoga (3.728484) noodl (3.694961) 
pho (4.076933) dish (3.925145) rice (3.861347) shrimp (3.854561) chicken (3.677117) steak (3.655070) chines (3.635079) restaur (3.511114) bagel (3.479574) entre (3.341660) 
Error (train/valid/test) = 0.353985/1.450053/1.462783 (0.023296)
..................................................
energy after gradient step = 70014747.642908

Top words for each topic:
pizza (6.038247) burger (5.430395) crust (4.326867) smoothi (3.888389) slice (3.714878) tot (3.651686) pepperoni (3.628814) knot (3.599613) ny (3.591579) pinki (3.586955) 
salon (4.955271) massag (4.717006) appoint (4.501999) nail (4.466897) pedicur (4.416024) stylist (4.242995) dr (4.155952) hair (4.073866) vet (4.021934) manicur (3.990967) 
gym (4.484739) walmart (4.228796) workout (4.161783) breweri (4.123622) game (4.056004) trail (4.028760) beer (4.020851) jewelri (3.993302) greenway (3.944106) sport (3.915159) 
taco (5.299758) crepe (5.218679) margarita (4.950096) mexican (4.744369) waffl (4.717694) salsa (4.706517) enchilada (4.664490) brisket (4.564833) queso (4.481960) guacamol (4.311205) 
ame (5.302598) biscuit (5.227124) pastri (4.989782) croissant (4.922413) bakeri (4.902714) mert (4.444417) coffe (4.348729) cafe (4.327223) breakfast (4.233926) macaroon (4.221435) 
burrito (5.246123) airport (4.945478) cabo (4.488325) trader (4.336917) chipotl (4.287987) cowfish (4.255216) taco (4.237961) layov (4.162207) groceri (4.153957) pio (4.071871) 
cupcak (5.680102) flight (4.529816) coffe (4.340130) frost (4.323098) airport (4.216817) starbuck (4.210795) yogurt (3.989822) latt (3.971313) wifi (3.962352) airway (3.961904) 
bbq (3.787577) rib (3.733352) wing (3.484779) mac (3.437177) lamb (3.306933) greek (3.296711) pita (3.291883) pork (3.236386) sauc (3.156313) gyro (3.147016) 
sushi (5.795167) roll (5.135855) thai (4.830064) theater (4.706778) movi (4.504243) hibachi (4.309480) pad (3.983734) japanes (3.889520) yoga (3.796174) asian (3.729601) 
pho (4.108454) dish (4.000796) shrimp (3.978231) rice (3.934955) chicken (3.721335) chines (3.718846) steak (3.676883) restaur (3.530359) entre (3.403085) bagel (3.368265) 
Error (train/valid/test) = 0.348224/1.457721/1.469062 (0.023311)
..................................................
energy after gradient step = 69740420.065042

Top words for each topic:
pizza (6.104322) burger (5.482625) crust (4.336707) smoothi (3.851353) slice (3.711409) penguin (3.710808) tot (3.685142) sub (3.636185) ny (3.623891) knot (3.616840) 
salon (4.980578) massag (4.748548) appoint (4.508117) nail (4.453113) pedicur (4.441309) stylist (4.282904) dr (4.154544) hair (4.059447) vet (4.038241) manicur (4.032734) 
gym (4.493983) walmart (4.270955) workout (4.205840) breweri (4.150490) beer (4.081316) game (4.076817) trail (4.044169) greenway (4.009405) jewelri (3.946555) ikea (3.939618) 
taco (5.432664) crepe (5.303548) margarita (5.046043) mexican (5.041267) salsa (5.020756) waffl (4.793555) enchilada (4.741020) brisket (4.609112) queso (4.586596) guacamol (4.457045) 
ame (5.310911) biscuit (5.248546) pastri (4.978351) croissant (4.946207) bakeri (4.916988) mert (4.450826) coffe (4.421625) cafe (4.359230) breakfast (4.290423) macaroon (4.233355) 
burrito (5.278217) airport (4.989824) cabo (4.538076) trader (4.426290) chipotl (4.256427) groceri (4.212562) taco (4.187270) cowfish (4.148946) layov (4.112470) pio (4.080706) 
cupcak (5.817108) flight (4.597394) coffe (4.417413) frost (4.381187) starbuck (4.350121) airport (4.289771) airway (4.186994) yogurt (4.113087) latt (4.087177) wifi (4.036625) 
bbq (3.867744) rib (3.783932) wing (3.552803) mac (3.537506) greek (3.382762) lamb (3.380768) pita (3.348592) pork (3.297864) gyro (3.205136) sauc (3.170307) 
sushi (5.899850) roll (5.221741) thai (4.916628) theater (4.778926) movi (4.570804) hibachi (4.354289) pad (4.031798) japanes (3.967131) yoga (3.806800) asian (3.754799) 
pho (4.145228) dish (4.068848) shrimp (4.064537) rice (4.020869) chines (3.794654) chicken (3.781645) steak (3.778125) restaur (3.557274) entre (3.463881) meal (3.442446) 
Error (train/valid/test) = 0.341213/1.466143/1.476394 (0.023490)
..................................................
energy after gradient step = 69501781.854882

Top words for each topic:
pizza (6.130327) burger (5.520882) crust (4.361028) bagel (3.890656) smoothi (3.860445) slice (3.714630) tot (3.707943) pepperoni (3.698638) penguin (3.677226) sub (3.670895) 
salon (5.005521) massag (4.771096) appoint (4.503338) pedicur (4.463924) nail (4.447142) stylist (4.315881) dr (4.163674) hair (4.080687) vet (4.055885) manicur (4.038808) 
gym (4.558980) workout (4.280400) breweri (4.202296) walmart (4.194469) trail (4.109892) game (4.097733) beer (4.092696) greenway (4.024070) jewelri (3.996186) ikea (3.991513) 
taco (5.621933) crepe (5.391149) mexican (5.211721) salsa (5.136040) margarita (5.133316) waffl (4.867603) enchilada (4.859369) queso (4.667537) brisket (4.608198) guacamol (4.531999) 
ame (5.358852) biscuit (5.278206) pastri (4.994549) croissant (4.952693) bakeri (4.925458) coffe (4.443038) mert (4.429339) cafe (4.378208) breakfast (4.357146) macaroon (4.248308) 
burrito (5.315004) airport (5.004717) cabo (4.480838) trader (4.373304) groceri (4.261827) chipotl (4.253795) layov (4.172163) pio (4.110945) cowfish (4.071850) taco (4.035262) 
cupcak (5.887623) flight (4.686955) starbuck (4.517439) coffe (4.509628) airport (4.422159) frost (4.412994) yogurt (4.224316) airway (4.221306) wifi (4.152564) latt (4.124464) 
bbq (3.947434) rib (3.867269) mac (3.638391) wing (3.580847) lamb (3.448967) greek (3.419334) pita (3.403194) pork (3.385255) gyro (3.269634) sauc (3.183097) 
sushi (5.969304) roll (5.268250) thai (4.971248) theater (4.841292) movi (4.645731) hibachi (4.440747) pad (4.089607) japanes (4.017552) yoga (3.876759) asian (3.785105) 
pho (4.163775) dish (4.119387) shrimp (4.083458) rice (4.021824) chines (3.854542) steak (3.820476) chicken (3.798852) restaur (3.587286) indian (3.516060) entre (3.502426) 
Error (train/valid/test) = 0.336250/1.471896/1.480767 (0.023580)
..................................................
energy after gradient step = 69274022.552952

Top words for each topic:
pizza (6.178571) burger (5.572705) crust (4.355612) bagel (4.019404) smoothi (3.914638) tot (3.809203) penguin (3.743134) sub (3.729113) slice (3.718306) pepperoni (3.691217) 
salon (5.027328) massag (4.797403) appoint (4.516070) pedicur (4.483740) nail (4.420663) stylist (4.335361) dr (4.162040) vet (4.074199) hair (4.068731) manicur (4.056081) 
gym (4.567226) walmart (4.255686) workout (4.230436) breweri (4.211340) trail (4.141571) beer (4.116084) game (4.088924) ikea (4.068855) greenway (4.048153) jewelri (4.005221) 
taco (5.745996) mexican (5.444328) crepe (5.438989) salsa (5.323244) margarita (5.205665) enchilada (4.939232) waffl (4.884932) queso (4.745041) fajita (4.629599) brisket (4.626608) 
ame (5.342955) biscuit (5.294126) pastri (5.018356) croissant (4.983838) bakeri (4.935672) mert (4.479690) coffe (4.476741) breakfast (4.450720) cafe (4.406673) macaroon (4.262726) 
burrito (5.308786) airport (5.009198) cabo (4.555862) trader (4.419926) groceri (4.295470) chipotl (4.183591) layov (4.163173) pio (4.094725) produc (4.035128) qdoba (3.934889) 
cupcak (5.997336) flight (4.744485) coffe (4.573966) starbuck (4.568873) airport (4.504010) frost (4.481625) airway (4.295756) yogurt (4.277202) latt (4.197919) airlin (4.177538) 
bbq (4.004753) rib (3.972552) mac (3.768657) wing (3.678131) lamb (3.506869) greek (3.494193) pita (3.449124) pork (3.419787) gyro (3.313694) fri (3.207350) 
sushi (6.033861) roll (5.264596) thai (5.006857) theater (4.897516) movi (4.709976) hibachi (4.479282) pad (4.115965) japanes (4.046571) yoga (3.927528) asian (3.816498) 
dish (4.196802) pho (4.190277) shrimp (4.148004) rice (4.085736) chines (3.918939) steak (3.878582) chicken (3.844053) indian (3.595571) restaur (3.593392) entre (3.545184) 
Error (train/valid/test) = 0.330763/1.476556/1.487519 (0.023699)
..................................................
energy after gradient step = 69058935.039228

Top words for each topic:
pizza (6.218566) burger (5.598203) crust (4.357670) bagel (4.173262) smoothi (3.905811) tot (3.845090) penguin (3.808541) sub (3.784020) pepperoni (3.721084) slice (3.714855) 
salon (5.058733) massag (4.840232) appoint (4.536837) pedicur (4.500630) nail (4.403993) stylist (4.382949) dr (4.188144) vet (4.091625) manicur (4.090126) hair (4.062667) 
gym (4.609457) workout (4.313118) walmart (4.248891) breweri (4.246814) trail (4.179407) beer (4.162744) game (4.148973) greenway (4.147936) jewelri (4.127080) ikea (4.091292) 
taco (5.867354) mexican (5.551364) salsa (5.495600) crepe (5.492594) margarita (5.284095) enchilada (5.007600) waffl (4.944792) queso (4.829098) fajita (4.727415) guacamol (4.715637) 
ame (5.376313) biscuit (5.356474) pastri (5.007950) bakeri (4.992377) croissant (4.966277) breakfast (4.525217) mert (4.516562) coffe (4.486984) cafe (4.434094) macaroon (4.336678) 
burrito (5.291539) airport (5.019928) cabo (4.525584) trader (4.361008) groceri (4.318357) chipotl (4.226600) layov (4.179550) pio (4.162364) produc (4.048004) qdoba (3.982239) 
cupcak (6.107187) flight (4.790483) starbuck (4.654762) coffe (4.645349) airport (4.588738) frost (4.580094) airway (4.429772) yogurt (4.359781) latt (4.347888) barista (4.314100) 
bbq (4.080383) rib (4.028880) mac (3.884275) wing (3.759272) lamb (3.580796) greek (3.548082) pita (3.493455) pork (3.469289) gyro (3.360696) fri (3.268485) 
sushi (6.106034) roll (5.255684) thai (5.062157) theater (4.964799) movi (4.763076) hibachi (4.538229) pad (4.162908) japanes (4.091245) yoga (3.965611) asian (3.829236) 
dish (4.267167) pho (4.220237) shrimp (4.217283) rice (4.174225) chines (4.016192) steak (3.915384) chicken (3.880903) indian (3.691514) entre (3.605363) restaur (3.584901) 
Error (train/valid/test) = 0.323801/1.483706/1.493588 (0.023845)
..................................................
energy after gradient step = 68861541.908342

Top words for each topic:
pizza (6.249082) burger (5.639987) bagel (4.359177) crust (4.357337) smoothi (3.900795) tot (3.898680) penguin (3.821483) sub (3.802738) pepperoni (3.795337) knot (3.736920) 
salon (5.079783) massag (4.861608) appoint (4.537194) pedicur (4.532452) stylist (4.400384) nail (4.399588) dr (4.180263) vet (4.103034) manicur (4.091927) hair (4.090312) 
gym (4.660619) workout (4.302944) breweri (4.288698) ikea (4.197000) beer (4.195561) trail (4.180726) walmart (4.176025) game (4.156495) greenway (4.144897) jewelri (4.107910) 
taco (5.979951) mexican (5.661506) salsa (5.589042) crepe (5.535168) margarita (5.360071) enchilada (5.083507) waffl (4.971604) queso (4.913549) guacamol (4.827560) fajita (4.767884) 
ame (5.395707) biscuit (5.374906) croissant (5.076048) pastri (5.020482) bakeri (4.997882) breakfast (4.578055) coffe (4.545502) mert (4.482940) cafe (4.414223) macaroon (4.340290) 
burrito (5.306647) airport (5.051208) cabo (4.554959) trader (4.510265) groceri (4.354825) layov (4.228637) chipotl (4.187639) pio (4.169794) produc (4.047949) qdoba (4.001142) 
cupcak (6.177956) flight (4.845735) coffe (4.751005) starbuck (4.748196) airport (4.724395) frost (4.620624) airway (4.508180) yogurt (4.424093) airlin (4.379446) barista (4.370158) 
bbq (4.147070) rib (4.111000) mac (3.956833) wing (3.831488) lamb (3.642375) greek (3.590614) pita (3.546950) pork (3.538188) gyro (3.395089) sauc (3.295833) 
sushi (6.149253) roll (5.266968) thai (5.103558) theater (5.006215) movi (4.786886) hibachi (4.569849) pad (4.204840) japanes (4.124581) yoga (4.015798) theatr (3.851166) 
dish (4.323049) shrimp (4.256566) rice (4.247781) pho (4.236533) chines (4.057149) steak (3.925326) chicken (3.916051) indian (3.754369) entre (3.662695) restaur (3.624064) 
Error (train/valid/test) = 0.318021/1.491380/1.498709 (0.023993)
..................................................
energy after gradient step = 68660581.113964

Top words for each topic:
pizza (6.293439) burger (5.669843) bagel (4.491225) crust (4.384305) tot (3.961491) smoothi (3.903388) penguin (3.885255) sub (3.818388) pepperoni (3.796770) knot (3.772447) 
salon (5.098092) massag (4.890480) pedicur (4.546059) appoint (4.540809) stylist (4.439802) nail (4.384143) dr (4.190527) manicur (4.129277) vet (4.103729) hair (4.080751) 
gym (4.678068) workout (4.364596) breweri (4.338824) trail (4.254709) jewelri (4.246232) greenway (4.230526) ikea (4.213103) beer (4.203401) game (4.168733) walmart (4.131824) 
taco (6.092271) mexican (5.760979) salsa (5.668811) crepe (5.582906) margarita (5.429797) enchilada (5.119491) waffl (5.013034) queso (4.951749) guacamol (4.930004) fajita (4.841340) 
ame (5.436279) biscuit (5.416659) croissant (5.049189) pastri (5.041601) bakeri (5.025583) breakfast (4.634020) coffe (4.569641) mert (4.549343) cafe (4.427676) les (4.368164) 
burrito (5.324404) airport (5.085702) cabo (4.554493) trader (4.504958) groceri (4.401764) layov (4.266852) pio (4.253364) chipotl (4.192652) produc (4.070605) qdoba (4.046451) 
cupcak (6.281278) flight (4.895128) starbuck (4.829471) coffe (4.821263) airport (4.815457) frost (4.713379) airway (4.617260) barista (4.522896) yogurt (4.511884) froyo (4.489137) 
bbq (4.202320) rib (4.194065) mac (4.032471) wing (3.909832) lamb (3.703957) greek (3.645782) pita (3.615983) pork (3.594490) gyro (3.461610) fri (3.321047) 
sushi (6.205730) roll (5.298193) thai (5.121558) theater (5.057529) movi (4.825106) hibachi (4.609843) pad (4.234389) japanes (4.185355) yoga (4.039336) theatr (3.891634) 
dish (4.364247) rice (4.316899) shrimp (4.282328) pho (4.261660) chines (4.102650) steak (3.976496) chicken (3.938013) indian (3.816694) entre (3.710200) curri (3.662628) 
Error (train/valid/test) = 0.311339/1.498027/1.506195 (0.024122)
..................................................
energy after gradient step = 68489131.149906

Top words for each topic:
pizza (6.315821) burger (5.696380) bagel (4.566919) crust (4.396958) tot (3.997123) penguin (3.925035) smoothi (3.899208) pepperoni (3.874867) sub (3.835350) pinki (3.773304) 
salon (5.116187) massag (4.916964) pedicur (4.566586) appoint (4.545992) stylist (4.463763) nail (4.376473) dr (4.202677) vet (4.144293) manicur (4.133933) haircut (4.091371) 
gym (4.684899) workout (4.399607) breweri (4.365405) ikea (4.268127) trail (4.250978) greenway (4.246327) beer (4.236924) jewelri (4.212229) game (4.158100) lane (4.134271) 
taco (6.194421) mexican (5.820626) salsa (5.790340) crepe (5.618170) margarita (5.478371) enchilada (5.160276) waffl (5.051239) queso (5.013789) guacamol (4.968929) fajita (4.890486) 
biscuit (5.460612) ame (5.433740) croissant (5.089378) bakeri (5.055985) pastri (5.055733) breakfast (4.651969) coffe (4.628585) mert (4.517757) cafe (4.456859) macaroon (4.349481) 
burrito (5.283397) airport (5.112498) cabo (4.618905) trader (4.524530) groceri (4.448393) layov (4.212516) pio (4.211506) chipotl (4.175147) produc (4.102860) moe (4.070132) 
cupcak (6.335046) flight (4.940357) coffe (4.911892) starbuck (4.882602) airport (4.878723) frost (4.741174) airway (4.704496) latt (4.563483) barista (4.558534) airlin (4.545780) 
bbq (4.291334) rib (4.250547) mac (4.117042) wing (3.974769) lamb (3.760135) greek (3.693913) pork (3.662912) pita (3.654360) gyro (3.525697) fri (3.360087) 
sushi (6.254957) roll (5.302545) thai (5.160103) theater (5.093590) movi (4.873553) hibachi (4.645591) pad (4.268432) japanes (4.226130) yoga (4.039049) theatr (3.948708) 
dish (4.419915) rice (4.361029) shrimp (4.325135) pho (4.284153) chines (4.111072) steak (3.978855) chicken (3.959806) indian (3.861264) curri (3.726468) entre (3.703332) 
Error (train/valid/test) = 0.305511/1.503492/1.512124 (0.024356)
..................................................
energy after gradient step = 68329341.468242

Top words for each topic:
pizza (6.339658) burger (5.721284) bagel (4.621652) crust (4.400323) tot (4.040369) penguin (3.963587) smoothi (3.922450) pepperoni (3.883258) sub (3.852252) knot (3.832165) 
salon (5.128164) massag (4.925532) pedicur (4.584772) appoint (4.529662) stylist (4.482343) nail (4.385482) dr (4.198312) manicur (4.143714) vet (4.143070) hair (4.113077) 
gym (4.703356) workout (4.411421) breweri (4.383343) trail (4.339987) jewelri (4.324361) ikea (4.320558) greenway (4.306905) beer (4.259304) game (4.155494) lane (4.108037) 
taco (6.291015) mexican (5.895359) salsa (5.891555) crepe (5.658173) margarita (5.524658) enchilada (5.203854) waffl (5.062105) queso (5.057156) guacamol (5.017820) fajita (4.931193) 
ame (5.492309) biscuit (5.491966) croissant (5.109133) bakeri (5.099932) pastri (5.044989) breakfast (4.741815) coffe (4.667960) mert (4.555774) cafe (4.479195) macaroon (4.410650) 
burrito (5.244184) airport (5.087580) cabo (4.577748) trader (4.575385) groceri (4.470028) pio (4.322355) layov (4.291832) chipotl (4.137626) qdoba (4.122871) deli (4.078545) 
cupcak (6.411867) flight (5.026155) airport (5.021719) starbuck (5.001230) coffe (4.952946) frost (4.810843) airway (4.748794) latt (4.683146) barista (4.676264) froyo (4.647013) 
bbq (4.359033) rib (4.313320) mac (4.173126) wing (4.026966) lamb (3.841877) greek (3.753736) pita (3.723523) pork (3.683819) gyro (3.562108) brisket (3.434704) 
sushi (6.311998) roll (5.284396) thai (5.197143) theater (5.147815) movi (4.909977) hibachi (4.699878) japanes (4.282673) pad (4.280169) yoga (4.105230) sashimi (3.976394) 
dish (4.453428) rice (4.400987) shrimp (4.368318) pho (4.295311) chines (4.151665) steak (3.999343) chicken (3.967473) indian (3.896663) entre (3.763066) curri (3.749153) 
Error (train/valid/test) = 0.300272/1.509111/1.519332 (0.024467)
..................................................
energy after gradient step = 68159583.884559

Top words for each topic:
pizza (6.370683) burger (5.738671) bagel (4.668080) crust (4.391794) tot (4.081123) penguin (3.997580) pepperoni (3.949307) smoothi (3.913528) sub (3.849424) italian (3.834526) 
salon (5.144381) massag (4.941082) pedicur (4.586755) appoint (4.535136) stylist (4.506518) nail (4.369077) dr (4.202696) manicur (4.170880) vet (4.163689) haircut (4.134307) 
gym (4.696530) workout (4.465918) ikea (4.392901) breweri (4.387365) jewelri (4.346520) trail (4.342398) greenway (4.336609) beer (4.307828) lane (4.229269) game (4.169932) 
taco (6.388432) salsa (5.970831) mexican (5.906549) crepe (5.694093) margarita (5.558149) enchilada (5.232354) queso (5.106002) waffl (5.082879) guacamol (5.078523) fajita (4.973278) 
biscuit (5.488191) ame (5.475254) bakeri (5.114155) croissant (5.110032) pastri (5.066382) breakfast (4.753762) coffe (4.667832) mert (4.519647) cafe (4.478792) les (4.394915) 
burrito (5.171342) airport (5.049253) trader (4.595476) cabo (4.589253) groceri (4.484770) layov (4.285306) pio (4.283279) deli (4.147624) qdoba (4.146729) moe (4.121704) 
cupcak (6.480124) airport (5.184280) flight (5.098081) starbuck (5.058368) coffe (5.035020) airway (4.894786) frost (4.839556) latt (4.759151) barista (4.743330) airlin (4.709676) 
bbq (4.388289) rib (4.377761) mac (4.232842) wing (4.087343) lamb (3.898527) greek (3.821008) pita (3.775583) pork (3.732669) gyro (3.635790) brisket (3.555988) 
sushi (6.358319) roll (5.246717) theater (5.192903) thai (5.191516) movi (4.951073) hibachi (4.739284) pad (4.323827) japanes (4.313512) yoga (4.125596) theatr (4.017778) 
dish (4.481185) rice (4.439112) shrimp (4.400468) pho (4.301489) chines (4.178266) steak (4.028998) chicken (3.979058) indian (3.914955) entre (3.784298) curri (3.761019) 
Error (train/valid/test) = 0.295360/1.516973/1.527085 (0.024523)
..................................................
energy after gradient step = 68018773.276756

Top words for each topic:
pizza (6.406922) burger (5.773288) bagel (4.687864) crust (4.401132) tot (4.122944) penguin (4.049147) pepperoni (3.980371) smoothi (3.878924) italian (3.869433) pinki (3.861062) 
salon (5.166936) massag (4.965003) pedicur (4.620223) appoint (4.537709) stylist (4.529927) nail (4.354066) dr (4.212691) vet (4.183966) manicur (4.175037) haircut (4.139842) 
gym (4.724608) workout (4.494923) ikea (4.399504) breweri (4.369110) greenway (4.364094) jewelri (4.362437) trail (4.337595) beer (4.309219) bike (4.245634) lane (4.205698) 
taco (6.444750) salsa (5.998848) mexican (5.940464) crepe (5.712432) margarita (5.594664) enchilada (5.268201) queso (5.133096) guacamol (5.118553) waffl (5.086271) fajita (5.016403) 
ame (5.511872) biscuit (5.493239) croissant (5.160916) bakeri (5.125702) pastri (5.084448) breakfast (4.790090) coffe (4.688834) mert (4.564401) cafe (4.501374) macaroon (4.441387) 
burrito (5.135227) airport (5.035486) trader (4.632952) cabo (4.551135) groceri (4.491381) pio (4.381472) layov (4.223350) deli (4.185257) moe (4.161138) qdoba (4.135194) 
cupcak (6.544948) airport (5.262999) flight (5.130565) starbuck (5.113558) coffe (5.101478) airway (4.929965) frost (4.928766) barista (4.821885) froyo (4.777191) latt (4.768196) 
rib (4.443426) bbq (4.401831) mac (4.301279) wing (4.119731) lamb (3.929638) greek (3.884552) pita (3.790810) pork (3.778626) gyro (3.674408) brisket (3.635567) 
sushi (6.400994) theater (5.223156) roll (5.213717) thai (5.202308) movi (4.954409) hibachi (4.771788) japanes (4.362058) pad (4.361558) yoga (4.129182) theatr (4.043213) 
dish (4.514075) rice (4.467048) shrimp (4.433550) pho (4.323790) chines (4.203299) steak (4.057191) chicken (3.993641) indian (3.934190) entre (3.841536) curri (3.806322) 
Error (train/valid/test) = 0.289827/1.524932/1.535144 (0.024701)
..................................................
energy after gradient step = 67873149.452748

Top words for each topic:
pizza (6.430024) burger (5.772074) bagel (4.690005) crust (4.384651) tot (4.153959) penguin (4.067979) pepperoni (4.020960) smoothi (3.912771) fri (3.905310) italian (3.896273) 
salon (5.181455) massag (4.968077) pedicur (4.614070) appoint (4.540047) stylist (4.536274) nail (4.355894) manicur (4.204573) dr (4.196917) vet (4.184504) haircut (4.172922) 
gym (4.760418) workout (4.513856) breweri (4.449093) ikea (4.445035) jewelri (4.438142) greenway (4.436333) trail (4.407302) beer (4.332374) bike (4.296280) raft (4.238836) 
taco (6.463579) salsa (6.050285) mexican (5.974973) crepe (5.713994) margarita (5.624303) enchilada (5.288626) queso (5.184682) guacamol (5.162012) waffl (5.113440) fajita (5.029062) 
ame (5.519298) biscuit (5.511984) croissant (5.148041) bakeri (5.095948) pastri (5.085376) breakfast (4.849942) coffe (4.721249) mert (4.572546) cafe (4.478643) les (4.432951) 
burrito (5.066854) airport (5.046660) trader (4.634918) groceri (4.522988) cabo (4.520320) pio (4.351976) layov (4.280230) deli (4.249367) qdoba (4.199591) moe (4.169463) 
cupcak (6.594187) airport (5.371403) coffe (5.164373) flight (5.155316) starbuck (5.145603) airway (4.981168) frost (4.906248) barista (4.891983) latt (4.884514) froyo (4.842896) 
rib (4.506446) bbq (4.443259) mac (4.354429) wing (4.145792) lamb (3.972974) greek (3.922229) pita (3.834459) pork (3.804401) gyro (3.723998) brisket (3.716293) 
sushi (6.447570) theater (5.260571) roll (5.199922) thai (5.195668) movi (5.003720) hibachi (4.821792) japanes (4.395218) pad (4.382733) yoga (4.181375) sashimi (4.120617) 
dish (4.532370) rice (4.490145) shrimp (4.448971) pho (4.336057) chines (4.231549) steak (4.063724) chicken (3.978386) indian (3.952414) entre (3.869566) curri (3.822149) 
Error (train/valid/test) = 0.285676/1.532971/1.540172 (0.024772)
..................................................
energy after gradient step = 67731079.598975

Top words for each topic:
pizza (6.458670) burger (5.790998) bagel (4.710160) crust (4.387827) tot (4.193428) penguin (4.086959) pepperoni (4.032727) fri (3.946569) italian (3.924809) pinki (3.896689) 
salon (5.191996) massag (4.993423) pedicur (4.644007) stylist (4.564443) appoint (4.542528) nail (4.355887) dr (4.208796) vet (4.207222) manicur (4.192392) haircut (4.175936) 
gym (4.782086) workout (4.572314) ikea (4.461612) greenway (4.442384) bike (4.439185) breweri (4.404444) trail (4.401093) beer (4.345434) jewelri (4.321287) lane (4.278824) 
taco (6.519596) salsa (6.088102) mexican (6.016932) crepe (5.727419) margarita (5.638879) enchilada (5.317985) queso (5.208814) guacamol (5.193609) waffl (5.093213) fajita (5.068039) 
ame (5.572289) biscuit (5.532703) croissant (5.211262) bakeri (5.134264) pastri (5.113969) breakfast (4.877289) coffe (4.783570) mert (4.602340) macaroon (4.485224) cafe (4.475350) 
airport (5.018305) burrito (4.972572) trader (4.683952) groceri (4.561178) cabo (4.529942) pio (4.350565) deli (4.282945) layov (4.226370) qdoba (4.207931) moe (4.167911) 
cupcak (6.638296) airport (5.462242) coffe (5.222634) starbuck (5.208752) flight (5.180384) airway (5.078481) frost (4.959621) barista (4.954823) froyo (4.912653) latt (4.906539) 
rib (4.548848) bbq (4.458136) mac (4.411181) wing (4.165989) lamb (4.014828) greek (3.952623) pork (3.861753) pita (3.853228) brisket (3.800657) gyro (3.745242) 
sushi (6.493018) theater (5.301725) thai (5.195867) roll (5.178504) movi (5.022147) hibachi (4.856956) japanes (4.438781) pad (4.416592) yoga (4.204489) sashimi (4.140549) 
dish (4.563470) rice (4.519315) shrimp (4.475746) pho (4.349308) chines (4.238604) steak (4.075516) indian (3.973433) chicken (3.959709) entre (3.889357) curri (3.857455) 
Error (train/valid/test) = 0.281266/1.538580/1.549614 (0.024943)
..................................................
energy after gradient step = 67609879.714246

Top words for each topic:
pizza (6.477312) burger (5.821621) bagel (4.730623) crust (4.363603) tot (4.237565) penguin (4.117304) pepperoni (4.069482) fri (3.979117) italian (3.940865) knot (3.920514) 
salon (5.196574) massag (5.006469) pedicur (4.644191) stylist (4.576523) appoint (4.545028) nail (4.358484) manicur (4.219955) vet (4.206183) dr (4.199797) haircut (4.192243) 
gym (4.779172) workout (4.583018) bike (4.542237) ikea (4.511945) greenway (4.481776) breweri (4.467202) trail (4.460396) beer (4.365155) jewelri (4.329181) lane (4.323055) 
taco (6.557161) salsa (6.143059) mexican (6.053255) crepe (5.743671) margarita (5.662829) enchilada (5.343405) queso (5.224987) guacamol (5.212781) fajita (5.127186) waffl (5.081307) 
ame (5.584099) biscuit (5.547032) croissant (5.210025) bakeri (5.146984) pastri (5.100968) breakfast (4.880344) coffe (4.841345) mert (4.559606) les (4.521974) macaroon (4.494845) 
airport (4.981130) burrito (4.910823) trader (4.682863) groceri (4.566356) cabo (4.498328) pio (4.416980) deli (4.286206) layov (4.259693) moe (4.215243) qdoba (4.208649) 
cupcak (6.683894) airport (5.555031) coffe (5.268022) flight (5.217979) starbuck (5.214355) airway (5.087767) frost (5.022730) barista (4.982881) froyo (4.941153) latt (4.904592) 
rib (4.621455) bbq (4.489865) mac (4.481949) wing (4.222913) lamb (4.036634) greek (4.014959) pork (3.891612) pita (3.877411) brisket (3.862266) gyro (3.793728) 
sushi (6.531737) theater (5.321682) thai (5.192365) roll (5.190995) movi (5.051662) hibachi (4.881053) japanes (4.465908) pad (4.424713) yoga (4.219990) sashimi (4.142720) 
dish (4.595927) rice (4.533252) shrimp (4.491456) pho (4.366362) chines (4.271306) steak (4.096287) indian (3.982568) chicken (3.945561) entre (3.937813) curri (3.893719) 
Error (train/valid/test) = 0.277398/1.545169/1.556031 (0.025050)
