corpus = data_char.gz
latentReg = 0.000000
lambda = 4.000000
K = 5

nUsers = 24649, nItems = 5149, nRatings = 98034

Error w/ offset term only (train/valid/test) = 1.538870/1.512279/1.538328 (0.019992)
Error w/ offset and bias (train/valid/test) = 0.763218/1.284585/1.295652 (0.019978)

..................................................
energy after gradient step = 198062858.372428

Top words for each topic:
twist (0.335878) trivia (0.331211) needless (0.329094) coat (0.328029) eh (0.308839) race (0.293481) winner (0.276483) butteri (0.274533) picnic (0.273402) label (0.269583) 
hesit (0.346884) panther (0.335172) attend (0.308256) beet (0.273557) teriyaki (0.267583) indoor (0.266338) nearbi (0.264047) caramel (0.262586) join (0.257173) christma (0.252852) 
freak (0.397482) complex (0.324500) ador (0.299290) older (0.283509) begin (0.280715) extens (0.279454) yet (0.274814) gorgeous (0.263755) refund (0.261500) fyi (0.258206) 
chat (0.330829) pleasur (0.287142) brew (0.272026) skin (0.270570) target (0.263625) environ (0.256619) fire (0.254989) decis (0.240339) unlik (0.240201) joke (0.239542) 
laugh (0.362917) polic (0.280701) san (0.266744) mimosa (0.266605) settl (0.259959) footbal (0.254110) crisp (0.245104) ideal (0.244811) load (0.242676) bud (0.242151) 
Error (train/valid/test) = 1.345435/1.373396/1.399409 (0.018598)
..................................................
energy after gradient step = 197837158.452081

Top words for each topic:
ac (0.502554) 23 (0.493270) mama (0.489299) doggi (0.475833) confid (0.469332) mellow (0.466880) linger (0.461031) commit (0.453509) checkout (0.441808) tablesid (0.441494) 
info (0.639331) pit (0.636206) hundr (0.564663) liberti (0.542060) concret (0.498598) stain (0.497999) cobb (0.482969) recogn (0.480257) fake (0.465855) hat (0.460950) 
exercis (0.638667) trio (0.602012) ador (0.594277) trout (0.525320) jersey (0.516476) sticker (0.510644) qualifi (0.498739) sink (0.495838) nurs (0.495086) uniform (0.468431) 
accent (0.689232) wilt (0.631511) communic (0.614011) vida (0.569850) bento (0.551952) film (0.536891) booz (0.519268) soooo (0.517003) batteri (0.512305) encount (0.506812) 
cobbler (0.804438) bookstor (0.563515) squeez (0.535341) tail (0.533559) vip (0.498513) zoe (0.475773) lighter (0.466620) hustl (0.461494) snap (0.457358) tavern (0.446885) 
Error (train/valid/test) = 1.180884/1.289646/1.311791 (0.018161)
..................................................
energy after gradient step = 197748983.578287

Top words for each topic:
mama (0.648360) length (0.605243) itll (0.594502) macaroon (0.589562) tzatziki (0.587759) recal (0.584183) mechan (0.583708) report (0.573798) vacuum (0.572969) flag (0.563341) 
info (1.155965) 247 (0.837570) growler (0.725378) liberti (0.694390) bouncer (0.672320) hundr (0.659615) river (0.643571) valentin (0.637215) outback (0.634315) moder (0.634200) 
contrast (0.705379) tremend (0.703058) exercis (0.687381) spa (0.677669) ador (0.676675) ounc (0.639601) vodka (0.634988) tenderloin (0.632984) swim (0.603191) sticker (0.600963) 
accent (0.916339) 750 (0.725513) p (0.710662) communic (0.650263) visual (0.635766) krazi (0.621620) barrel (0.616697) speed (0.594822) film (0.594595) sangria (0.591134) 
duti (0.770318) golf (0.683009) purpos (0.681499) 0 (0.648279) tail (0.621158) exit (0.620102) bookstor (0.612247) sucker (0.607584) cobbler (0.594201) metal (0.591257) 
Error (train/valid/test) = 1.106464/1.262420/1.284095 (0.017858)
..................................................
energy after gradient step = 197672314.320714

Top words for each topic:
mama (0.921731) pat (0.822160) ms (0.767790) tzatziki (0.764351) besid (0.744217) cvs (0.739319) confid (0.728006) wit (0.722597) yard (0.716245) report (0.707849) 
info (1.110180) guid (0.966417) liberti (0.931331) bouncer (0.923943) pit (0.901438) outback (0.860454) transact (0.828263) lion (0.761488) drivein (0.756121) dollop (0.737626) 
sticker (0.820568) hood (0.819974) swim (0.811441) qc (0.802211) norm (0.754917) tremend (0.754623) 5church (0.750181) protect (0.749537) puff (0.731997) raleigh (0.729340) 
accent (0.954525) p (0.942268) 5pm (0.806685) visual (0.789205) cowfish (0.782397) graham (0.755073) unhealthi (0.733508) mein (0.730318) eddi (0.722167) libretto (0.716704) 
metal (0.862317) cobbler (0.810594) duti (0.797935) sucker (0.797280) plug (0.769724) uncl (0.751255) exit (0.750905) grace (0.738776) duckworth (0.724268) rad (0.716651) 
Error (train/valid/test) = 1.049531/1.248959/1.269260 (0.018083)
..................................................
energy after gradient step = 197578797.981688

Top words for each topic:
pat (0.965915) skillet (0.940267) mama (0.885177) hookah (0.847645) report (0.842362) letter (0.820782) flag (0.820380) intersect (0.811468) commit (0.802062) mex (0.791345) 
info (1.229974) pit (1.035410) guid (1.031523) outback (1.022054) 22 (0.937684) liberti (0.869358) subway (0.862244) lion (0.860232) domino (0.845170) sooo (0.841936) 
swim (1.019037) smokehous (0.906732) lip (0.887373) intend (0.882190) paella (0.875445) sticker (0.870022) inspect (0.864401) qc (0.864055) kicker (0.861707) primari (0.821909) 
cowfish (1.016031) accent (0.985829) morton (0.932636) stall (0.891160) p (0.880437) graham (0.871149) map (0.861164) 5pm (0.850378) eddi (0.832204) unhealthi (0.829212) 
sucker (1.040491) cobbler (1.000481) smokey (0.968638) exit (0.932366) plug (0.923729) grace (0.913345) uncl (0.884738) duti (0.870977) metal (0.855836) breez (0.848431) 
Error (train/valid/test) = 1.007289/1.241294/1.260874 (0.017954)
..................................................
energy after gradient step = 197489953.788490

Top words for each topic:
mex (1.014339) equival (0.970908) commit (0.962616) pat (0.945913) genuin (0.900274) mama (0.889027) letter (0.882946) skillet (0.866292) intersect (0.855685) thrift (0.854949) 
info (1.202664) pit (1.160629) outback (1.045331) 22 (1.040990) guid (1.027540) subway (0.985757) auto (0.957326) lion (0.954182) success (0.914945) hundr (0.913783) 
lip (1.157729) swim (1.088230) qc (0.993518) cabo (0.978824) smokehous (0.972586) cuban (0.949024) intend (0.947371) paella (0.945357) burgushi (0.939112) newbi (0.929952) 
stall (1.207958) cowfish (1.035690) accent (1.017215) map (0.952886) graham (0.937644) p (0.935613) enorm (0.924972) ceil (0.916846) morton (0.889915) mongolian (0.884917) 
exit (1.257891) sucker (1.234189) cobbler (1.094078) batteri (0.974467) duti (0.970492) smokey (0.968187) uncl (0.966617) grace (0.949692) vip (0.902295) poach (0.898231) 
Error (train/valid/test) = 0.978341/1.238228/1.256576 (0.017855)
..................................................
energy after gradient step = 197399915.233642

Top words for each topic:
equival (1.128637) mex (1.084411) commit (1.082184) mama (1.029026) pollo (1.001607) report (0.985101) pat (0.976212) hookah (0.967059) valid (0.931908) fern (0.906996) 
info (1.237876) outback (1.176355) pit (1.146737) guid (1.123451) subway (1.099598) auto (1.083095) t (1.051857) 22 (1.016100) brother (0.989761) uh (0.986203) 
swim (1.215027) toni (1.171004) lip (1.104387) cuban (1.085215) burgushi (1.074385) plazamidwood (1.025792) cabo (1.024371) strict (1.001259) tremend (0.997094) cowfish (0.980619) 
stall (1.275181) p (1.119376) cowfish (1.115716) map (1.094173) mongolian (1.086521) signatur (1.063654) accent (1.016624) eddi (1.001032) communic (0.995975) morton (0.990434) 
sucker (1.330483) industri (1.119402) exit (1.110971) smokey (1.101845) oz (1.088862) cobbler (1.064981) batteri (1.058331) plug (1.054853) uncl (1.003898) duti (0.971685) 
Error (train/valid/test) = 0.950886/1.236191/1.253410 (0.018220)
..................................................
energy after gradient step = 197315671.392144

Top words for each topic:
mex (1.167586) maci (1.083889) mama (1.037083) hookah (1.019048) pedicur (1.011829) gorgonzola (0.995086) 1511 (0.981221) nfl (0.973488) rental (0.967319) selfserv (0.951857) 
info (1.329048) pit (1.274144) subway (1.220214) 22 (1.146069) t (1.132466) outback (1.118565) guid (1.090313) within (1.075995) adopt (1.070467) hat (1.061400) 
swim (1.399135) lip (1.386319) toni (1.257886) relish (1.198136) brixx (1.184310) cabo (1.172477) cuban (1.171443) intend (1.153974) cowfish (1.128257) tan (1.117073) 
map (1.317134) cowfish (1.269722) stall (1.228059) graham (1.169110) mongolian (1.120587) eddi (1.118720) yuck (1.109876) hangov (1.100261) signatur (1.099699) exot (1.059137) 
sucker (1.365460) oz (1.186803) nova (1.173470) exit (1.172165) industri (1.167133) 500 (1.118539) nutrit (1.100592) smokey (1.080451) plug (1.067325) costco (1.065885) 
Error (train/valid/test) = 0.924169/1.235320/1.251398 (0.018228)
..................................................
energy after gradient step = 197220805.250635

Top words for each topic:
hookah (1.287800) mama (1.233567) nfl (1.160730) 1511 (1.146720) fern (1.127805) mex (1.104333) rental (1.100458) genuin (1.094859) pedicur (1.072115) silver (1.071550) 
pit (1.366139) info (1.358361) guid (1.292889) subway (1.275354) adopt (1.268563) 22 (1.239815) consign (1.228621) outback (1.187840) julia (1.132460) fave (1.119809) 
swim (1.572953) tan (1.487043) lip (1.432011) cowfish (1.402249) 5church (1.372640) toni (1.352687) cuban (1.347291) relish (1.310303) newbi (1.252840) cabo (1.202910) 
map (1.395026) eddi (1.385256) cowfish (1.216523) yuck (1.185597) stall (1.159693) signatur (1.159537) ginorm (1.157404) hangov (1.138249) mongolian (1.114917) coop (1.104112) 
exit (1.327113) batteri (1.309832) sucker (1.270787) nova (1.250155) media (1.201947) costco (1.180492) 3d (1.166032) vip (1.155589) nutrit (1.144580) smokey (1.104871) 
Error (train/valid/test) = 0.899255/1.236434/1.251519 (0.018020)
..................................................
energy after gradient step = 197115217.911699

Top words for each topic:
hookah (1.535955) mex (1.407373) e2 (1.384310) 1511 (1.280162) mama (1.253215) rental (1.215190) guac (1.206773) pedicur (1.195075) nfl (1.180981) fuel (1.155210) 
subway (1.465080) pit (1.463799) info (1.436992) consign (1.432585) outback (1.406319) hundr (1.341470) 22 (1.231513) guid (1.186329) dressler (1.176481) hat (1.171213) 
swim (1.669083) tan (1.553066) cowfish (1.542126) lip (1.519071) 5church (1.511155) heel (1.436986) burgushi (1.421845) cuban (1.407333) cabo (1.406202) toni (1.366606) 
eddi (1.408583) map (1.404738) stall (1.329810) jjs (1.291627) hangov (1.225366) bead (1.197691) ginorm (1.186273) pocket (1.184072) china (1.175504) libretto (1.153043) 
nova (1.344816) costco (1.275322) tamal (1.271395) exit (1.267584) media (1.242191) omni (1.211336) vip (1.204581) smokey (1.192480) batteri (1.183163) grace (1.174623) 
Error (train/valid/test) = 0.876305/1.235849/1.250656 (0.018357)
..................................................
energy after gradient step = 197006335.454833

Top words for each topic:
hookah (1.550614) mex (1.441968) guac (1.403958) 1511 (1.396263) e2 (1.367741) comic (1.355498) pedicur (1.332518) rental (1.332296) length (1.219411) cardio (1.206985) 
subway (1.589115) outback (1.517267) info (1.511793) consign (1.499420) pit (1.486860) adopt (1.343704) hat (1.300512) 22 (1.281140) walmart (1.241876) hundr (1.193665) 
cowfish (1.715946) swim (1.633040) cuban (1.624033) 5church (1.592854) burgushi (1.586656) tan (1.580252) cigar (1.515354) lip (1.462571) cabo (1.460545) jet (1.429805) 
map (1.485693) china (1.361991) eddi (1.339624) bead (1.322766) libretto (1.271843) barber (1.266493) cell (1.250978) jjs (1.250542) baklava (1.239304) pocket (1.227899) 
nova (1.486485) costco (1.475017) tamal (1.376358) batteri (1.375882) abc (1.346325) omni (1.317031) exit (1.314698) vip (1.307533) smokey (1.253390) tongu (1.217320) 
Error (train/valid/test) = 0.858141/1.236972/1.251547 (0.018407)
..................................................
energy after gradient step = 196870628.600253

Top words for each topic:
hookah (1.626366) mex (1.568214) pedicur (1.541221) wax (1.460153) guac (1.432076) mama (1.416729) e2 (1.407830) instal (1.380136) 1511 (1.378616) dealership (1.374515) 
subway (1.639203) pit (1.609412) outback (1.568609) consign (1.546834) info (1.532912) hat (1.450677) adopt (1.375365) guin (1.373794) walmart (1.351097) 22 (1.339307) 
cowfish (1.948673) tan (1.899121) cuban (1.756019) burgushi (1.724474) swim (1.704886) cigar (1.687650) nascar (1.681525) 5church (1.608125) bento (1.605088) jet (1.507942) 
eddi (1.559355) map (1.532777) libretto (1.445519) groom (1.387060) krazi (1.370393) china (1.357251) cell (1.333204) mattress (1.318259) enorm (1.303671) baklava (1.299016) 
vip (1.638314) nova (1.558913) abc (1.446880) tamal (1.420526) costco (1.410716) batteri (1.382830) oz (1.373737) aria (1.298486) hangout (1.278215) omni (1.271812) 
Error (train/valid/test) = 0.840633/1.238586/1.253071 (0.018526)
..................................................
energy after gradient step = 196720522.798672

Top words for each topic:
wax (1.767487) hookah (1.725236) pedicur (1.668521) 1511 (1.546471) rental (1.532700) guac (1.530706) mex (1.517472) comic (1.494316) length (1.452747) mama (1.438372) 
subway (1.804996) outback (1.683997) consign (1.670686) pit (1.666232) info (1.555502) walmart (1.547216) moe (1.470162) adopt (1.466794) hat (1.464891) hundr (1.409827) 
cowfish (2.161188) tan (1.990671) cuban (1.944300) cigar (1.841656) burgushi (1.784398) nascar (1.784062) bento (1.774086) swim (1.638998) 5church (1.638651) jet (1.612100) 
krazi (1.568395) eddi (1.565172) map (1.564375) groom (1.463130) bead (1.388930) libretto (1.379835) china (1.379381) vet (1.372698) mattress (1.363420) baklava (1.362505) 
vip (1.752951) nova (1.732819) oz (1.482492) costco (1.435500) abc (1.433509) omni (1.423584) tamal (1.420583) exit (1.396720) capit (1.389305) stir (1.365888) 
Error (train/valid/test) = 0.827216/1.240135/1.253661 (0.018578)
..................................................
energy after gradient step = 196539607.489279

Top words for each topic:
hookah (1.974681) wax (1.857197) pedicur (1.836926) cardio (1.675324) guac (1.652967) rental (1.642011) e2 (1.637301) 1511 (1.630343) mex (1.620441) comic (1.598659) 
subway (1.929638) consign (1.806960) outback (1.805394) pit (1.711766) info (1.668566) walmart (1.663490) adopt (1.636240) moe (1.618190) liberti (1.534899) hat (1.513368) 
cowfish (2.348328) cuban (2.132884) tan (2.004374) burgushi (1.931965) nascar (1.902986) bento (1.886675) cigar (1.792769) 5church (1.745941) jet (1.723611) swim (1.666716) 
map (1.739921) vet (1.621795) eddi (1.614502) baklava (1.612861) mattress (1.606657) groom (1.584462) barber (1.519542) libretto (1.465196) bead (1.448163) rita (1.436135) 
nova (1.857054) vip (1.851052) oz (1.556750) pho (1.529844) exit (1.504319) tamal (1.467877) costco (1.435874) omni (1.407338) abc (1.400117) stir (1.398443) 
Error (train/valid/test) = 0.813428/1.241757/1.254618 (0.018641)
..................................................
energy after gradient step = 196336945.220847

Top words for each topic:
wax (2.087847) hookah (2.053655) pedicur (2.042181) guac (1.873102) cardio (1.828162) rental (1.781363) comic (1.749044) smoothi (1.695441) gym (1.693988) 1511 (1.693572) 
subway (2.078994) consign (1.885701) outback (1.809732) walmart (1.784940) liberti (1.727415) pit (1.721631) hat (1.693027) info (1.660311) moe (1.652598) adopt (1.572088) 
cowfish (2.538089) cuban (2.131694) cigar (2.127801) tan (2.114115) burgushi (1.994839) bento (1.966862) nascar (1.934257) jet (1.810882) trader (1.794472) swim (1.765518) 
vet (1.789265) eddi (1.731249) libretto (1.637999) baklava (1.627979) anim (1.562551) map (1.557625) barber (1.547989) mattress (1.545764) groom (1.542210) krazi (1.541194) 
vip (1.872597) nova (1.822040) pho (1.688223) oz (1.642623) capit (1.558671) ru (1.523699) tin (1.479141) boba (1.459468) tamal (1.448222) media (1.433940) 
Error (train/valid/test) = 0.801752/1.242054/1.256721 (0.018721)
..................................................
energy after gradient step = 196064649.548975

Top words for each topic:
wax (2.300960) pedicur (2.274629) hookah (2.118078) cardio (2.018640) guac (1.974199) rental (1.956108) 1511 (1.952351) gym (1.923576) equip (1.889357) mex (1.860664) 
subway (2.185439) consign (2.012794) walmart (1.993083) outback (1.857011) moe (1.806650) liberti (1.759534) pit (1.758834) 22 (1.634790) hat (1.624011) dressler (1.620798) 
cowfish (2.678842) cuban (2.250058) tan (2.154133) cigar (2.121929) bento (2.048720) burgushi (2.008799) nascar (2.000209) trader (1.930473) mert (1.898069) swim (1.837594) 
vet (2.011129) eddi (1.784892) groom (1.774209) barber (1.737671) anim (1.734242) map (1.717223) mattress (1.636683) libretto (1.617379) stylist (1.574020) baklava (1.567696) 
vip (1.911521) nova (1.894828) pho (1.890800) ru (1.805609) capit (1.692686) stir (1.608207) oz (1.566332) tin (1.546674) boba (1.513783) costco (1.467686) 
Error (train/valid/test) = 0.790762/1.243724/1.257741 (0.018773)
..................................................
energy after gradient step = 195685282.564744

Top words for each topic:
pedicur (2.512764) wax (2.475791) hookah (2.297236) gym (2.208857) equip (2.142926) cardio (2.132472) workout (2.104471) rental (2.080212) guac (1.999534) comic (1.986598) 
subway (2.221787) consign (2.156558) walmart (2.123585) liberti (1.859485) moe (1.805219) hat (1.769614) outback (1.757226) pit (1.747227) irish (1.724860) 22 (1.688104) 
cowfish (2.749671) cuban (2.315562) cigar (2.226443) tan (2.198527) mert (2.079317) burgushi (2.078703) bento (2.033296) trader (2.015408) nascar (2.003313) swim (1.926736) 
vet (2.003282) groom (1.854767) anim (1.827345) barber (1.774900) eddi (1.768976) libretto (1.724462) map (1.672007) jjs (1.668882) bojangl (1.655179) baklava (1.639016) 
pho (2.031142) nova (1.965365) vip (1.948866) ru (1.844068) stir (1.679289) vietnames (1.618053) capit (1.599187) tin (1.555628) batteri (1.496276) industri (1.494570) 
Error (train/valid/test) = 0.782907/1.245246/1.258936 (0.018789)
..................................................
energy after gradient step = 195187819.526060

Top words for each topic:
pedicur (2.720767) wax (2.633856) gym (2.522246) hookah (2.406534) equip (2.366890) rental (2.323953) cardio (2.303465) workout (2.258575) manicur (2.250999) yoga (2.236260) 
subway (2.354340) walmart (2.303917) consign (2.217985) outback (1.920948) moe (1.896482) pit (1.839665) liberti (1.814745) donut (1.801831) hat (1.794153) auto (1.751091) 
cowfish (2.856868) cuban (2.483965) tan (2.366110) cigar (2.291700) bento (2.175044) burgushi (2.152687) nascar (2.148074) mert (2.125785) trader (2.091233) 5church (1.983855) 
vet (2.147190) barber (1.953845) groom (1.902771) anim (1.892433) bojangl (1.831643) eddi (1.784398) libretto (1.761650) krazi (1.727492) map (1.720105) baklava (1.678633) 
pho (2.314313) vip (2.026663) nova (2.009312) ru (1.990639) vietnames (1.874416) capit (1.758893) tin (1.693067) hibachi (1.679830) stir (1.627365) oz (1.539893) 
Error (train/valid/test) = 0.775185/1.246881/1.260815 (0.018884)
..................................................
energy after gradient step = 194504543.460903

Top words for each topic:
pedicur (2.961176) wax (2.836468) gym (2.829739) nail (2.712819) massag (2.630952) yoga (2.607643) equip (2.581711) workout (2.563682) studio (2.555665) manicur (2.552863) 
walmart (2.499055) subway (2.385900) consign (2.302769) outback (2.027713) donut (2.003253) moe (1.993791) irish (1.957182) auto (1.915297) jewelri (1.911373) liberti (1.885980) 
cowfish (2.978260) cigar (2.453762) cuban (2.434917) tan (2.380289) bento (2.285127) trader (2.256148) mert (2.235685) burgushi (2.207897) nascar (2.180809) raw (2.000542) 
vet (2.291042) groom (2.077389) anim (2.062542) barber (1.913488) bojangl (1.867299) chickfila (1.860288) dog (1.818901) eddi (1.797691) libretto (1.791213) cat (1.770778) 
pho (2.587615) vietnames (2.060567) ru (2.037435) vip (2.005083) nova (1.906451) hibachi (1.837027) capit (1.689594) tin (1.656386) stir (1.640146) fondu (1.583219) 
Error (train/valid/test) = 0.767111/1.248528/1.262582 (0.018960)
..................................................
energy after gradient step = 193597460.847039

Top words for each topic:
pedicur (3.131810) gym (3.033582) nail (3.004043) wax (2.998484) massag (2.949319) yoga (2.898842) studio (2.760471) manicur (2.753915) workout (2.744344) equip (2.742788) 
walmart (2.641886) subway (2.482922) consign (2.371639) donut (2.101115) moe (2.057993) ikea (2.051988) 300 (2.020017) pit (2.013506) jewelri (2.004816) outback (1.956745) 
cowfish (3.020722) cuban (2.443675) tan (2.429417) cigar (2.429099) trader (2.310688) bento (2.296810) nascar (2.263161) burgushi (2.260695) mert (2.208082) naan (2.100503) 
vet (2.303334) dog (2.122043) groom (2.090792) anim (2.071205) bojangl (2.005444) barber (1.979164) cat (1.880184) pet (1.869369) chickfila (1.834630) eddi (1.796390) 
pho (2.731404) vietnames (2.165932) ru (2.095190) vip (2.046557) hibachi (1.947072) nova (1.904982) capit (1.752493) broth (1.748913) stir (1.725218) pancak (1.685894) 
Error (train/valid/test) = 0.762869/1.250848/1.263764 (0.019001)
..................................................
energy after gradient step = 192532305.612634

Top words for each topic:
pedicur (3.325580) nail (3.318710) gym (3.236297) massag (3.211027) wax (3.178052) yoga (3.170652) salon (2.973987) studio (2.968148) manicur (2.961962) equip (2.943550) 
walmart (2.780276) subway (2.557394) consign (2.503059) donut (2.200090) ikea (2.199638) moe (2.154048) jewelri (2.142931) accessori (2.116566) outback (2.100974) 300 (2.091032) 
cowfish (3.067429) cuban (2.501954) cigar (2.466882) tan (2.442472) bento (2.428555) burgushi (2.326770) mert (2.326204) nascar (2.312945) trader (2.281456) naan (2.260682) 
vet (2.449185) dog (2.421076) groom (2.142874) anim (2.132786) bojangl (2.009567) pet (1.996519) barber (1.978468) cat (1.936738) libretto (1.885932) chickfila (1.881883) 
pho (2.862947) vietnames (2.325690) ru (2.100084) vip (2.084853) hibachi (2.034398) nova (2.011576) pancak (1.872172) broth (1.871106) capit (1.789775) tin (1.778406) 
Error (train/valid/test) = 0.757902/1.251591/1.265310 (0.019067)
..................................................
energy after gradient step = 191304040.920746

Top words for each topic:
nail (3.551962) massag (3.468208) pedicur (3.463437) gym (3.414127) yoga (3.374360) salon (3.316392) wax (3.310750) class (3.271991) studio (3.148610) manicur (3.107377) 
walmart (2.905658) subway (2.664296) consign (2.621851) ikea (2.436578) donut (2.351381) accessori (2.287859) shoe (2.280521) 300 (2.275600) jewelri (2.274673) irish (2.269447) 
cowfish (3.130708) cuban (2.561029) cigar (2.513251) bento (2.493934) indian (2.442238) tan (2.413372) naan (2.396019) trader (2.394953) nascar (2.372532) mert (2.351060) 
dog (2.634370) vet (2.482254) anim (2.213951) groom (2.207892) barber (2.095401) pet (2.072226) bojangl (2.035756) cat (1.985938) chickfila (1.966363) eddi (1.944792) 
pho (2.936609) vietnames (2.409398) ru (2.096752) hibachi (2.082881) vip (2.053587) nova (2.044871) pancak (2.041180) broth (1.960291) capit (1.895625) buffet (1.894132) 
Error (train/valid/test) = 0.753559/1.253062/1.266746 (0.019138)
..................................................
energy after gradient step = 189988515.160955

Top words for each topic:
nail (3.797476) massag (3.699430) salon (3.618038) pedicur (3.616902) yoga (3.537543) class (3.528449) gym (3.520888) wax (3.441573) studio (3.320429) manicur (3.296015) 
walmart (3.071342) subway (2.780849) consign (2.745781) ikea (2.611052) donut (2.540774) jewelri (2.528841) accessori (2.505461) shoe (2.454189) moe (2.385751) irish (2.378012) 
cowfish (3.177213) indian (2.675748) cuban (2.618814) cigar (2.548172) bento (2.529215) naan (2.521110) tapa (2.467115) mert (2.447544) thai (2.439858) trader (2.428369) 
dog (2.872760) vet (2.545693) salsa (2.284341) groom (2.267156) anim (2.234230) mexican (2.220823) pet (2.198019) taco (2.170617) bojangl (2.161339) barber (2.150543) 
pho (3.042839) vietnames (2.401253) hibachi (2.210197) bbq (2.208963) pancak (2.201141) ru (2.126682) broth (2.069183) vip (2.065206) pork (1.951820) nova (1.938130) 
Error (train/valid/test) = 0.748436/1.254206/1.268561 (0.019187)
..................................................
energy after gradient step = 188618507.401339

Top words for each topic:
nail (3.946718) massag (3.881951) salon (3.845178) pedicur (3.736100) class (3.709231) yoga (3.673338) gym (3.660315) wax (3.536801) hair (3.524126) appoint (3.466023) 
walmart (3.262105) subway (2.914081) consign (2.877743) ikea (2.864296) shoe (2.755888) jewelri (2.742972) donut (2.729092) accessori (2.656545) shirt (2.540255) moe (2.536503) 
cowfish (3.211393) indian (2.896889) thai (2.625141) cuban (2.604970) bento (2.563927) naan (2.550131) sushi (2.546421) cigar (2.523890) tapa (2.513871) trader (2.481796) 
dog (3.063469) vet (2.648096) mexican (2.538835) salsa (2.520279) taco (2.448267) groom (2.346731) bagel (2.342009) anim (2.330589) pet (2.312510) cat (2.264429) 
pho (3.065894) bbq (2.527875) vietnames (2.467911) hibachi (2.292775) pancak (2.264355) ru (2.173910) broth (2.135961) brisket (2.115181) pork (2.106847) vip (2.090212) 
Error (train/valid/test) = 0.744351/1.255797/1.270284 (0.019261)
..................................................
energy after gradient step = 187268155.962511

Top words for each topic:
nail (4.057408) salon (3.994380) massag (3.992552) class (3.833358) pedicur (3.807609) yoga (3.761352) gym (3.734723) hair (3.674302) appoint (3.629454) wax (3.619701) 
walmart (3.400794) subway (3.047622) consign (2.991440) shoe (2.963688) ikea (2.937752) donut (2.894570) jewelri (2.853591) accessori (2.823245) bike (2.782363) cloth (2.707300) 
cowfish (3.267908) indian (2.999489) thai (2.783492) sushi (2.743020) cuban (2.698850) naan (2.694858) bento (2.613530) tapa (2.573320) curri (2.540267) trader (2.517668) 
dog (3.208238) mexican (2.823655) salsa (2.730285) vet (2.716762) taco (2.699173) bagel (2.545509) anim (2.424033) groom (2.410833) pet (2.365689) cat (2.351047) 
pho (3.133023) bbq (2.707167) vietnames (2.486547) pancak (2.370181) hibachi (2.339488) pork (2.278275) brisket (2.268331) broth (2.177656) ru (2.144684) roll (2.098563) 
Error (train/valid/test) = 0.740505/1.256481/1.271580 (0.019289)
..................................................
energy after gradient step = 186074954.675410

Top words for each topic:
nail (4.171587) salon (4.131731) massag (4.111031) class (3.939490) pedicur (3.896163) yoga (3.831387) gym (3.824093) hair (3.814284) appoint (3.769339) wax (3.670132) 
walmart (3.556003) subway (3.189195) shoe (3.167321) consign (3.142769) ikea (3.133409) donut (3.032093) accessori (3.027354) jewelri (3.009666) bike (2.979090) cloth (2.951299) 
cowfish (3.303610) indian (3.161874) thai (2.961799) sushi (2.902398) naan (2.764500) bento (2.705496) curri (2.695587) cuban (2.667616) tapa (2.664187) dish (2.619577) 
dog (3.367148) mexican (3.115980) salsa (2.990225) taco (2.942266) bagel (2.843665) vet (2.825905) burrito (2.604195) anim (2.525191) groom (2.474845) airport (2.460020) 
pho (3.203629) bbq (2.934048) vietnames (2.601500) pancak (2.505127) pork (2.448572) brisket (2.406390) hibachi (2.405004) mac (2.279314) fri (2.278475) potato (2.273034) 
Error (train/valid/test) = 0.734139/1.258875/1.273567 (0.019348)
..................................................
energy after gradient step = 184907485.983529

Top words for each topic:
nail (4.257422) salon (4.246052) massag (4.208596) class (3.982893) pedicur (3.950288) yoga (3.905950) hair (3.904222) appoint (3.892590) gym (3.882194) stylist (3.763852) 
walmart (3.679539) shoe (3.416104) ikea (3.296029) subway (3.282697) consign (3.254572) jewelri (3.253957) bike (3.164225) cloth (3.146830) accessori (3.146517) starbuck (3.146122) 
cowfish (3.347005) indian (3.258308) thai (3.164892) sushi (3.040182) curri (2.879527) naan (2.828380) cuban (2.767316) dish (2.756833) tapa (2.746801) bento (2.722568) 
dog (3.565772) mexican (3.334747) salsa (3.222245) taco (3.128256) bagel (2.999756) vet (2.903196) burrito (2.841930) margarita (2.616118) enchilada (2.609565) airport (2.601038) 
pho (3.254768) bbq (3.082921) pork (2.616551) vietnames (2.612510) pancak (2.569579) brisket (2.533278) fri (2.504202) hibachi (2.477863) mac (2.469969) rib (2.423650) 
Error (train/valid/test) = 0.728213/1.260272/1.274994 (0.019402)
..................................................
energy after gradient step = 183841988.779067

Top words for each topic:
salon (4.332688) nail (4.310998) massag (4.288646) pedicur (4.020331) class (4.015580) appoint (3.977459) yoga (3.974346) hair (3.958226) gym (3.950214) stylist (3.852481) 
walmart (3.807345) shoe (3.597689) ikea (3.402600) jewelri (3.368569) subway (3.360589) consign (3.360202) cloth (3.341898) starbuck (3.335858) donut (3.304681) bike (3.248471) 
cowfish (3.378296) indian (3.366591) thai (3.348353) sushi (3.160429) curri (3.060305) naan (2.910165) dish (2.885573) tapa (2.824724) bento (2.824013) dessert (2.814293) 
dog (3.713049) mexican (3.514379) salsa (3.421424) taco (3.338581) bagel (3.198377) burrito (3.078872) vet (2.945991) margarita (2.764740) airport (2.721785) enchilada (2.711599) 
pho (3.273551) bbq (3.186480) pork (2.745422) fri (2.728880) mac (2.689557) brisket (2.648863) pancak (2.634837) vietnames (2.626540) rib (2.592446) hibachi (2.541099) 
Error (train/valid/test) = 0.723184/1.262073/1.276689 (0.019459)
..................................................
energy after gradient step = 182858390.263382

Top words for each topic:
salon (4.423377) massag (4.371450) nail (4.361462) appoint (4.094173) pedicur (4.077912) hair (4.033328) yoga (4.025580) class (4.004475) gym (3.959542) stylist (3.931241) 
walmart (3.890637) shoe (3.738528) starbuck (3.564878) cupcak (3.542749) jewelri (3.525263) cloth (3.501852) consign (3.492570) ikea (3.489407) store (3.465266) bike (3.458615) 
thai (3.586949) cowfish (3.470968) indian (3.470760) sushi (3.306159) curri (3.197358) dish (3.054375) naan (2.975796) dessert (2.972876) tapa (2.964227) pad (2.906557) 
dog (3.821666) mexican (3.727474) salsa (3.593911) taco (3.560665) bagel (3.398112) burrito (3.289007) vet (3.065126) margarita (2.956248) enchilada (2.895365) airport (2.847813) 
bbq (3.348275) pho (3.308933) fri (2.972443) pork (2.868965) mac (2.835306) brisket (2.752421) sauc (2.719938) rib (2.707578) pancak (2.704378) vietnames (2.674093) 
Error (train/valid/test) = 0.715850/1.264434/1.278823 (0.019530)
..................................................
energy after gradient step = 181925336.905803

Top words for each topic:
salon (4.501074) massag (4.443222) nail (4.402040) appoint (4.159049) pedicur (4.145381) yoga (4.058325) gym (4.030835) stylist (4.011709) hair (3.989267) class (3.935283) 
walmart (4.000373) shoe (3.864942) cupcak (3.748178) starbuck (3.716685) jewelri (3.665731) store (3.608414) ikea (3.600438) cloth (3.569211) consign (3.547850) bike (3.532024) 
thai (3.798956) indian (3.571903) cowfish (3.530945) sushi (3.415349) curri (3.286845) dish (3.142606) dessert (3.101558) naan (3.069416) tapa (3.004374) pad (2.988153) 
dog (3.957592) mexican (3.881444) salsa (3.783154) taco (3.695310) bagel (3.541224) burrito (3.450957) vet (3.110140) margarita (3.065829) enchilada (3.034604) airport (2.957007) 
bbq (3.463037) pho (3.350928) fri (3.110275) pork (3.003648) mac (2.936905) rib (2.873562) brisket (2.848824) burger (2.847594) sauc (2.846295) pancak (2.784361) 
Error (train/valid/test) = 0.709138/1.266115/1.280644 (0.019590)
..................................................
energy after gradient step = 181065138.851127

Top words for each topic:
salon (4.573089) massag (4.499204) nail (4.425834) appoint (4.217269) pedicur (4.183094) yoga (4.114061) gym (4.073397) stylist (4.061317) hair (3.959635) class (3.931370) 
walmart (4.042987) shoe (3.987077) cupcak (3.939958) store (3.879052) starbuck (3.862419) cloth (3.775688) jewelri (3.723495) ikea (3.647510) bike (3.605833) consign (3.593888) 
thai (3.906896) indian (3.652554) cowfish (3.596704) sushi (3.526743) curri (3.413986) dish (3.257621) dessert (3.248056) naan (3.163123) tapa (3.104510) tuna (3.078797) 
dog (4.082419) mexican (4.022870) salsa (3.928296) taco (3.870527) bagel (3.717736) burrito (3.612664) margarita (3.183505) vet (3.162752) enchilada (3.107323) airport (3.062190) 
bbq (3.562092) pho (3.374253) fri (3.271721) pork (3.134173) mac (3.041529) burger (3.021258) rib (2.981991) sauc (2.947545) chicken (2.933812) brisket (2.890038) 
Error (train/valid/test) = 0.702989/1.267832/1.282672 (0.019642)
..................................................
energy after gradient step = 180167733.732946

Top words for each topic:
salon (4.634163) massag (4.566769) nail (4.470294) appoint (4.264117) pedicur (4.239709) yoga (4.158747) stylist (4.139266) gym (4.124620) studio (3.965792) hair (3.955180) 
shoe (4.103345) store (4.100674) walmart (4.092156) cupcak (4.058931) starbuck (3.977373) cloth (3.834277) jewelri (3.770961) ikea (3.711496) vendor (3.675805) bike (3.668220) 
thai (4.024734) indian (3.733794) sushi (3.636892) cowfish (3.635565) curri (3.563414) dessert (3.349884) dish (3.333275) naan (3.250789) tuna (3.183857) tapa (3.174581) 
dog (4.210880) mexican (4.155359) salsa (4.035729) taco (3.971306) bagel (3.853207) burrito (3.759417) margarita (3.267863) vet (3.260405) enchilada (3.212919) guacamol (3.148952) 
bbq (3.656342) fri (3.405551) pho (3.399354) pork (3.245036) burger (3.139728) mac (3.138807) chicken (3.093258) rib (3.085383) sauc (3.066647) brisket (2.951614) 
Error (train/valid/test) = 0.696404/1.269530/1.285684 (0.019721)
..................................................
energy after gradient step = 179392936.087486

Top words for each topic:
salon (4.671626) massag (4.595610) nail (4.465779) appoint (4.275510) pedicur (4.263211) stylist (4.173874) yoga (4.155318) gym (4.129456) studio (3.982158) wax (3.951354) 
store (4.209996) shoe (4.163624) cupcak (4.150788) walmart (4.119203) starbuck (4.045136) cloth (3.926366) jewelri (3.819620) ikea (3.743372) bike (3.726742) vendor (3.687899) 
thai (4.153322) indian (3.799897) sushi (3.731080) cowfish (3.706661) curri (3.645942) dessert (3.457431) dish (3.414591) naan (3.338280) tuna (3.273539) tapa (3.259087) 
dog (4.311802) mexican (4.257954) salsa (4.124235) taco (4.064587) bagel (3.945521) burrito (3.845465) margarita (3.372922) enchilada (3.320149) vet (3.282930) guacamol (3.279011) 
bbq (3.694756) fri (3.514034) pho (3.421256) pork (3.324803) burger (3.245444) chicken (3.200065) mac (3.194592) rib (3.145634) sauc (3.119602) brisket (2.998832) 
Error (train/valid/test) = 0.691697/1.271224/1.287108 (0.019771)
..................................................
energy after gradient step = 178709486.488941

Top words for each topic:
salon (4.714533) massag (4.632255) nail (4.466011) appoint (4.318407) pedicur (4.306667) stylist (4.217051) yoga (4.177628) gym (4.162079) studio (3.990398) manicur (3.967997) 
store (4.335413) shoe (4.218940) cupcak (4.207113) walmart (4.136024) starbuck (4.100032) cloth (3.975140) jewelri (3.846842) bike (3.787435) ikea (3.769383) vendor (3.767880) 
thai (4.262475) indian (3.912423) sushi (3.844559) cowfish (3.763129) curri (3.730626) dessert (3.570396) dish (3.518509) naan (3.414544) tuna (3.377477) tapa (3.359504) 
dog (4.413326) mexican (4.381885) salsa (4.237862) taco (4.190068) bagel (4.047473) burrito (3.963888) margarita (3.468393) enchilada (3.414650) guacamol (3.329150) vet (3.328047) 
bbq (3.762331) fri (3.667783) pho (3.436834) pork (3.396562) burger (3.354336) chicken (3.310793) mac (3.256704) sauc (3.210298) rib (3.182995) wing (3.072546) 
Error (train/valid/test) = 0.685291/1.273424/1.289271 (0.019843)
..................................................
energy after gradient step = 177954326.341181

Top words for each topic:
salon (4.755313) massag (4.666938) nail (4.475436) appoint (4.334241) pedicur (4.333472) stylist (4.254093) yoga (4.195374) gym (4.166358) studio (4.023608) manicur (3.994743) 
store (4.421871) cupcak (4.255712) shoe (4.237418) starbuck (4.147606) walmart (4.142722) cloth (3.992187) jewelri (3.884702) vendor (3.789447) ikea (3.788795) bike (3.787799) 
thai (4.401848) indian (4.004712) sushi (3.953118) cowfish (3.834655) curri (3.828498) dessert (3.659991) dish (3.612375) naan (3.517578) tuna (3.490186) lamb (3.445435) 
mexican (4.494019) dog (4.493182) salsa (4.339384) taco (4.272950) bagel (4.153428) burrito (4.087372) margarita (3.594559) enchilada (3.509949) guacamol (3.425089) vet (3.375111) 
fri (3.809992) bbq (3.806387) pork (3.465747) pho (3.452229) burger (3.451456) chicken (3.386537) mac (3.290102) sauc (3.261153) rib (3.229568) wing (3.154974) 
Error (train/valid/test) = 0.679890/1.275502/1.291306 (0.019900)
..................................................
energy after gradient step = 177296912.980758

Top words for each topic:
salon (4.792892) massag (4.698375) nail (4.484228) appoint (4.370758) pedicur (4.362236) stylist (4.289581) yoga (4.210103) gym (4.165717) studio (4.057459) manicur (4.026723) 
store (4.468771) cupcak (4.294774) shoe (4.263742) starbuck (4.188565) walmart (4.158072) cloth (3.987459) jewelri (3.923228) vendor (3.818185) accessori (3.811046) bike (3.796490) 
thai (4.508878) indian (4.072558) sushi (4.044427) curri (3.909996) cowfish (3.876829) dessert (3.766038) dish (3.704818) tuna (3.589155) naan (3.579937) lamb (3.534112) 
mexican (4.567350) dog (4.538047) salsa (4.392030) taco (4.340742) bagel (4.213028) burrito (4.163951) margarita (3.688223) enchilada (3.589533) pizza (3.523865) guacamol (3.492744) 
fri (3.921806) bbq (3.855464) burger (3.585211) pork (3.530537) pho (3.475377) chicken (3.470014) mac (3.359451) sauc (3.329825) rib (3.262726) wing (3.233986) 
Error (train/valid/test) = 0.675034/1.277465/1.293837 (0.019963)
..................................................
energy after gradient step = 176637217.888547

Top words for each topic:
salon (4.828464) massag (4.730235) nail (4.479237) pedicur (4.388344) appoint (4.384928) stylist (4.315144) yoga (4.217696) gym (4.147228) studio (4.085817) manicur (4.034043) 
store (4.540005) cupcak (4.336278) shoe (4.298722) starbuck (4.210642) walmart (4.154962) cloth (3.987880) jewelri (3.972284) vendor (3.841315) accessori (3.815341) bike (3.780095) 
thai (4.602645) indian (4.163934) sushi (4.136920) curri (3.978351) cowfish (3.962153) dessert (3.845411) dish (3.794018) tuna (3.677776) lamb (3.671594) naan (3.656809) 
mexican (4.654748) dog (4.613166) salsa (4.505386) taco (4.427337) bagel (4.290119) burrito (4.272097) margarita (3.768319) pizza (3.687908) enchilada (3.680949) guacamol (3.560847) 
fri (4.064856) bbq (3.875850) burger (3.776635) pork (3.565234) chicken (3.562121) pho (3.491895) mac (3.415817) sauc (3.397374) rib (3.327271) wing (3.304837) 
Error (train/valid/test) = 0.669522/1.278893/1.295232 (0.020007)
..................................................
energy after gradient step = 176021619.400100

Top words for each topic:
salon (4.860601) massag (4.747839) nail (4.465593) pedicur (4.407298) appoint (4.403514) stylist (4.340325) yoga (4.237062) gym (4.129263) studio (4.104886) manicur (4.064114) 
store (4.553780) cupcak (4.344995) shoe (4.315375) starbuck (4.247354) walmart (4.158155) cloth (4.003319) jewelri (3.957025) accessori (3.852082) vendor (3.824398) ikea (3.772633) 
thai (4.696312) sushi (4.225781) indian (4.225084) curri (4.043262) cowfish (4.016409) dessert (3.953643) dish (3.863305) tuna (3.809298) lamb (3.749364) naan (3.738775) 
mexican (4.733927) dog (4.669715) salsa (4.586615) taco (4.469140) bagel (4.366276) burrito (4.355518) pizza (3.829356) margarita (3.805373) enchilada (3.733769) airport (3.659747) 
fri (4.182987) bbq (3.920315) burger (3.900628) chicken (3.615242) pork (3.589456) pho (3.515553) mac (3.459928) sauc (3.442534) wing (3.377251) rib (3.363210) 
Error (train/valid/test) = 0.664323/1.280473/1.297500 (0.020061)
..................................................
energy after gradient step = 175474221.234714

Top words for each topic:
salon (4.879487) massag (4.769816) nail (4.452584) pedicur (4.430686) appoint (4.396686) stylist (4.366363) yoga (4.226302) gym (4.150776) studio (4.119047) manicur (4.080478) 
store (4.580192) cupcak (4.360811) shoe (4.311847) starbuck (4.305000) walmart (4.144735) jewelri (4.010416) cloth (3.988342) accessori (3.879964) vendor (3.873013) ikea (3.801284) 
thai (4.793040) sushi (4.333190) indian (4.305189) curri (4.131481) cowfish (4.069876) dessert (4.022521) dish (3.927906) tuna (3.893645) lamb (3.861037) naan (3.808074) 
mexican (4.832129) dog (4.735964) salsa (4.662833) taco (4.546944) burrito (4.452626) bagel (4.452472) pizza (3.984987) margarita (3.867494) enchilada (3.833508) airport (3.773869) 
fri (4.285581) burger (4.020584) bbq (3.953217) chicken (3.667919) pork (3.665965) pho (3.533955) mac (3.499505) sauc (3.477368) wing (3.412394) waitress (3.390041) 
Error (train/valid/test) = 0.658263/1.282759/1.299542 (0.020120)
..................................................
energy after gradient step = 174947251.303036

Top words for each topic:
salon (4.903667) massag (4.785922) pedicur (4.446605) appoint (4.415522) nail (4.412963) stylist (4.384797) yoga (4.213097) studio (4.127870) gym (4.127589) manicur (4.087022) 
store (4.619578) cupcak (4.388066) starbuck (4.325779) shoe (4.315340) walmart (4.119622) jewelri (4.024334) cloth (3.963565) accessori (3.900942) vendor (3.869815) ikea (3.830952) 
thai (4.870170) sushi (4.412386) indian (4.363440) curri (4.197519) cowfish (4.119218) dessert (4.115270) dish (3.994132) tuna (3.935177) lamb (3.933643) naan (3.882289) 
mexican (4.894702) dog (4.809852) salsa (4.730747) taco (4.630025) burrito (4.518400) bagel (4.509518) pizza (4.143166) margarita (3.925531) enchilada (3.918581) airport (3.886877) 
fri (4.363712) burger (4.137909) bbq (3.973445) chicken (3.728253) pork (3.684951) pho (3.540276) mac (3.535130) sauc (3.523094) wing (3.458616) waitress (3.444414) 
Error (train/valid/test) = 0.653637/1.285150/1.301590 (0.020172)
..................................................
energy after gradient step = 174464172.387234

Top words for each topic:
salon (4.917025) massag (4.805705) pedicur (4.450606) appoint (4.418426) stylist (4.406834) nail (4.384282) yoga (4.189240) gym (4.133831) studio (4.129395) manicur (4.099789) 
store (4.601443) cupcak (4.376153) starbuck (4.328481) shoe (4.319614) walmart (4.099922) jewelri (4.055199) cloth (3.946968) accessori (3.923254) vendor (3.886197) consign (3.825182) 
thai (4.942347) sushi (4.484873) indian (4.419227) curri (4.258936) cowfish (4.170206) dessert (4.168942) dish (4.041082) tuna (4.024008) lamb (4.008703) naan (3.926519) 
mexican (4.975132) dog (4.844694) salsa (4.808056) taco (4.676328) bagel (4.574305) burrito (4.563961) pizza (4.261024) airport (3.996116) enchilada (3.985098) margarita (3.982913) 
fri (4.435838) burger (4.205827) bbq (3.990230) chicken (3.776861) pork (3.713814) mac (3.552329) pho (3.544193) sauc (3.537662) waitress (3.504885) wing (3.493846) 
Error (train/valid/test) = 0.648823/1.286829/1.303221 (0.020221)
..................................................
energy after gradient step = 174021531.448701

Top words for each topic:
salon (4.930857) massag (4.821232) pedicur (4.471205) appoint (4.422927) stylist (4.419055) nail (4.347594) yoga (4.180660) studio (4.142122) gym (4.130713) manicur (4.115953) 
store (4.629902) cupcak (4.367135) starbuck (4.343651) shoe (4.309658) walmart (4.080647) jewelri (4.061148) accessori (3.937674) cloth (3.903119) vendor (3.872444) ikea (3.840934) 
thai (5.006600) sushi (4.562476) indian (4.464085) curri (4.313003) dessert (4.212338) cowfish (4.202877) dish (4.090542) lamb (4.073429) tuna (4.050520) naan (3.986423) 
mexican (5.023459) dog (4.896028) salsa (4.865556) taco (4.690749) burrito (4.628166) bagel (4.626531) pizza (4.326311) airport (4.084309) enchilada (4.054679) margarita (4.037786) 
fri (4.459747) burger (4.264929) bbq (4.016689) chicken (3.852173) pork (3.728930) mac (3.571213) pho (3.556790) sauc (3.556718) waitress (3.549286) wing (3.508115) 
Error (train/valid/test) = 0.644287/1.288769/1.304693 (0.020268)
..................................................
energy after gradient step = 173586150.252003

Top words for each topic:
salon (4.939929) massag (4.830571) pedicur (4.477498) stylist (4.434719) appoint (4.417789) nail (4.318206) yoga (4.174068) studio (4.139942) manicur (4.124533) gym (4.109075) 
store (4.617139) cupcak (4.384779) starbuck (4.379212) shoe (4.319660) jewelri (4.133254) walmart (4.049253) accessori (3.949674) barista (3.857078) vendor (3.854380) cloth (3.847238) 
thai (5.076033) sushi (4.630450) indian (4.521427) curri (4.386674) dessert (4.275144) cowfish (4.250899) lamb (4.166662) dish (4.135571) tuna (4.114661) naan (4.038891) 
mexican (5.089211) dog (4.909925) salsa (4.902062) taco (4.719736) burrito (4.719046) bagel (4.687823) pizza (4.419315) airport (4.216810) enchilada (4.127691) margarita (4.106599) 
fri (4.496775) burger (4.333778) bbq (4.047619) chicken (3.935257) pork (3.783533) waitress (3.622289) mac (3.610114) sauc (3.581888) pho (3.578956) wing (3.541832) 
Error (train/valid/test) = 0.638439/1.290898/1.306587 (0.020335)
..................................................
energy after gradient step = 173225655.390519

Top words for each topic:
salon (4.948356) massag (4.846119) pedicur (4.497226) stylist (4.450457) appoint (4.412225) nail (4.288019) yoga (4.175845) studio (4.154647) manicur (4.140958) instructor (4.100034) 
store (4.626581) cupcak (4.397963) starbuck (4.384811) shoe (4.311936) jewelri (4.141858) walmart (4.035206) accessori (3.990622) vendor (3.882010) consign (3.866646) barista (3.862398) 
thai (5.134782) sushi (4.710538) indian (4.569047) curri (4.453899) dessert (4.339743) cowfish (4.293091) lamb (4.215194) dish (4.192198) tuna (4.157917) crepe (4.104389) 
mexican (5.130233) salsa (4.978934) dog (4.949068) burrito (4.775379) taco (4.764848) bagel (4.753358) pizza (4.521905) airport (4.337205) enchilada (4.178511) margarita (4.128577) 
fri (4.558475) burger (4.379954) bbq (4.073766) chicken (4.004735) pork (3.801616) waitress (3.667747) mac (3.615263) sauc (3.609184) pho (3.592588) wing (3.566915) 
Error (train/valid/test) = 0.633921/1.293045/1.308405 (0.020372)
..................................................
energy after gradient step = 172876991.030759

Top words for each topic:
salon (4.962693) massag (4.861471) pedicur (4.508914) stylist (4.466081) appoint (4.388840) nail (4.288371) yoga (4.184229) studio (4.162357) manicur (4.155886) instructor (4.113161) 
store (4.623207) starbuck (4.396119) cupcak (4.379779) shoe (4.311460) jewelri (4.173864) walmart (4.038344) accessori (3.993113) barista (3.940299) consign (3.884559) vendor (3.871037) 
thai (5.173419) sushi (4.830676) indian (4.615008) curri (4.493064) dessert (4.377315) cowfish (4.330932) lamb (4.275133) tuna (4.235582) dish (4.230098) crepe (4.197319) 
mexican (5.194727) salsa (5.035917) dog (4.969544) burrito (4.843458) bagel (4.804965) taco (4.784285) pizza (4.603925) airport (4.406260) enchilada (4.223343) margarita (4.176664) 
fri (4.625809) burger (4.430988) chicken (4.105615) bbq (4.083995) pork (3.831363) waitress (3.737149) sauc (3.652071) mac (3.633153) pho (3.611417) wing (3.611106) 
Error (train/valid/test) = 0.628631/1.295276/1.309790 (0.020415)
..................................................
energy after gradient step = 172585803.524471

Top words for each topic:
salon (4.983493) massag (4.878640) pedicur (4.521592) stylist (4.486781) appoint (4.380127) nail (4.262751) yoga (4.184576) studio (4.169055) manicur (4.166308) instructor (4.122724) 
store (4.564870) starbuck (4.401315) cupcak (4.357933) shoe (4.277557) jewelri (4.206719) walmart (4.007441) accessori (3.963834) barista (3.945551) latt (3.911668) consign (3.880006) 
thai (5.213039) sushi (4.920189) indian (4.655442) curri (4.535557) dessert (4.403967) cowfish (4.339364) lamb (4.326114) dish (4.277158) crepe (4.260739) tuna (4.249030) 
mexican (5.224792) salsa (5.081786) dog (4.979972) burrito (4.896657) bagel (4.850703) taco (4.811569) pizza (4.657396) airport (4.469886) enchilada (4.287295) margarita (4.222652) 
fri (4.672559) burger (4.482863) chicken (4.193814) bbq (4.117447) pork (3.858367) waitress (3.769408) sauc (3.710242) mac (3.647490) pho (3.621335) wing (3.620945) 
Error (train/valid/test) = 0.623998/1.297619/1.311593 (0.020481)
..................................................
energy after gradient step = 172286823.407732

Top words for each topic:
salon (4.997519) massag (4.888336) pedicur (4.531937) stylist (4.501203) appoint (4.366697) nail (4.262922) manicur (4.182996) yoga (4.175105) studio (4.174825) instructor (4.132961) 
store (4.540782) starbuck (4.423520) cupcak (4.389484) shoe (4.271153) jewelri (4.210889) accessori (3.991288) walmart (3.978282) barista (3.961248) latt (3.946124) consign (3.902105) 
thai (5.255612) sushi (5.043956) indian (4.681618) curri (4.559931) dessert (4.441552) cowfish (4.391410) lamb (4.387191) crepe (4.307251) dish (4.293124) scallop (4.275028) 
mexican (5.263503) salsa (5.110550) dog (4.961893) burrito (4.951862) bagel (4.889251) taco (4.876073) pizza (4.716408) airport (4.505048) enchilada (4.326978) margarita (4.268289) 
fri (4.716919) burger (4.522660) chicken (4.249206) bbq (4.115756) pork (3.884130) waitress (3.801306) sauc (3.735764) mac (3.685581) rib (3.636112) pho (3.633315) 
Error (train/valid/test) = 0.619484/1.300237/1.313566 (0.020534)
..................................................
energy after gradient step = 172007422.220385

Top words for each topic:
salon (5.011171) massag (4.906398) pedicur (4.548921) stylist (4.514903) appoint (4.362358) nail (4.251379) studio (4.191477) manicur (4.189621) yoga (4.175815) instructor (4.149348) 
store (4.511563) starbuck (4.423215) cupcak (4.375339) jewelri (4.251414) shoe (4.239626) walmart (3.981723) accessori (3.976952) barista (3.952300) latt (3.926725) consign (3.924023) 
thai (5.301566) sushi (5.185281) indian (4.724415) curri (4.604449) dessert (4.472238) lamb (4.442786) cowfish (4.418530) crepe (4.365347) dish (4.328826) scallop (4.322003) 
mexican (5.293245) salsa (5.142309) burrito (5.010642) dog (4.956870) bagel (4.923997) taco (4.865414) pizza (4.783448) airport (4.590995) enchilada (4.378056) margarita (4.302847) 
fri (4.748554) burger (4.576871) chicken (4.317355) bbq (4.139658) pork (3.936873) waitress (3.861729) sauc (3.776236) mac (3.691575) wing (3.679141) rib (3.669934) 
Error (train/valid/test) = 0.613976/1.302739/1.315770 (0.020593)
..................................................
energy after gradient step = 171800105.152982

Top words for each topic:
salon (5.014140) massag (4.917708) pedicur (4.554468) stylist (4.530044) appoint (4.354349) nail (4.242281) manicur (4.206331) studio (4.187897) yoga (4.175275) instructor (4.157333) 
store (4.455747) starbuck (4.419864) cupcak (4.353922) jewelri (4.247587) shoe (4.206254) barista (4.008867) accessori (4.006099) latt (3.957093) walmart (3.920904) consign (3.920633) 
thai (5.328945) sushi (5.280461) indian (4.755523) curri (4.638382) dessert (4.497872) lamb (4.482764) cowfish (4.425863) crepe (4.411539) dish (4.361503) scallop (4.335708) 
mexican (5.321923) salsa (5.167786) burrito (5.041776) dog (4.970249) bagel (4.944662) taco (4.903619) pizza (4.853945) airport (4.588787) enchilada (4.414964) margarita (4.321967) 
fri (4.785033) burger (4.611610) chicken (4.387523) bbq (4.162450) pork (3.963300) waitress (3.870951) sauc (3.821899) mac (3.713106) wing (3.708043) rib (3.693783) 
Error (train/valid/test) = 0.609831/1.305176/1.318089 (0.020656)
..................................................
energy after gradient step = 171586155.712357

Top words for each topic:
salon (5.027714) massag (4.937071) pedicur (4.566153) stylist (4.544641) appoint (4.331085) nail (4.233309) manicur (4.210207) studio (4.191792) yoga (4.171506) instructor (4.169269) 
store (4.454108) starbuck (4.428445) cupcak (4.352229) jewelri (4.260570) shoe (4.178603) barista (4.033621) accessori (4.003120) latt (3.949579) consign (3.936780) walmart (3.928235) 
sushi (5.377162) thai (5.370616) indian (4.769362) curri (4.667596) dessert (4.537243) lamb (4.516329) cowfish (4.459097) crepe (4.451672) scallop (4.385969) dish (4.375497) 
mexican (5.354566) salsa (5.180587) burrito (5.085389) bagel (4.969946) taco (4.960556) dog (4.948395) pizza (4.938284) airport (4.615068) enchilada (4.451613) margarita (4.314508) 
fri (4.812724) burger (4.644588) chicken (4.438295) bbq (4.183056) pork (3.979722) waitress (3.894462) sauc (3.850578) mac (3.742315) wing (3.731540) rib (3.726662) 
Error (train/valid/test) = 0.604910/1.307498/1.319670 (0.020702)
