corpus = data_madi.gz
latentReg = 0.000000
lambda = 3.000000
K = 10

nUsers = 11698, nItems = 2308, nRatings = 43698

Error w/ offset term only (train/valid/test) = 1.555711/1.561098/1.548624 (0.030236)
Error w/ offset and bias (train/valid/test) = 0.773809/1.344517/1.338658 (0.030265)

..................................................
energy after gradient step = 69420763.604266

Top words for each topic:
blend (0.629124) cater (0.619663) board (0.573610) access (0.557947) perhap (0.534652) spectacular (0.531680) negat (0.515981) fool (0.509204) remind (0.500045) deter (0.496903) 
monro (0.742413) cater (0.664540) perform (0.580136) laid (0.571289) player (0.560762) thick (0.546019) correct (0.541364) origin (0.531604) homey (0.530727) send (0.521044) 
genuin (0.647291) milwauke (0.596871) spring (0.584562) boil (0.579038) hipster (0.571439) plantain (0.558730) union (0.557611) either (0.556776) quantiti (0.536900) multipl (0.517894) 
quesadilla (0.607811) fail (0.573571) mushi (0.567837) uw (0.544728) sometim (0.541633) shoe (0.519625) earlier (0.512072) reliabl (0.506925) whip (0.502172) sourc (0.500747) 
soggi (0.633405) gorgeous (0.530721) smile (0.514437) mcdonald (0.511162) youd (0.506229) countri (0.502520) whi (0.496599) cultur (0.481508) prime (0.481499) damn (0.479473) 
extens (0.627504) ahead (0.617194) repair (0.593892) manner (0.563727) creme (0.540351) blueberri (0.537324) salon (0.529186) cure (0.527460) lost (0.517900) win (0.516959) 
kinda (0.605779) offic (0.600608) enough (0.592547) nacho (0.583965) guacamol (0.583962) featur (0.572459) ahead (0.525987) industri (0.516413) howev (0.510727) execut (0.504926) 
improv (0.550326) badger (0.550115) fee (0.543386) equal (0.537342) flat (0.529408) nois (0.506170) pad (0.500748) comput (0.499957) lost (0.481534) rough (0.469001) 
lucki (0.795064) hint (0.731574) cab (0.686537) center (0.680460) although (0.654606) report (0.630825) flavorless (0.621000) facil (0.609125) opportun (0.571658) coat (0.565189) 
belli (0.689853) expans (0.603049) english (0.562019) discov (0.547226) lobster (0.540882) pad (0.531725) mi (0.522041) worri (0.512815) basketbal (0.511630) hummus (0.504733) 
Error (train/valid/test) = 1.175148/1.345868/1.325218 (0.029856)
..................................................
energy after gradient step = 69250553.341009

Top words for each topic:
brussel (1.431277) saigon (1.309246) milkshak (1.128258) herb (1.041163) calm (1.010618) beyond (0.987853) sip (0.985761) fool (0.930735) inventori (0.878326) happili (0.848619) 
flank (1.101896) heritag (1.027283) doctor (1.006456) thick (0.931300) togo (0.921653) perhap (0.914077) shes (0.913255) contribut (0.894194) delect (0.886334) micki (0.878368) 
bump (1.412782) culver (1.079974) verona (1.038567) texa (1.001958) sangria (0.986727) path (0.961463) soy (0.952608) ya (0.944101) scotch (0.935390) patient (0.905139) 
contrast (1.145671) plant (1.071695) whip (1.050084) madtown (1.035143) 16 (1.035000) neat (1.006908) carpet (0.922045) refund (0.917845) success (0.899385) strict (0.842552) 
cultur (1.170617) anywher (0.976719) funki (0.966421) shape (0.947662) atwood (0.938715) killer (0.937704) famous (0.900200) shuttl (0.878882) indulg (0.875306) shame (0.865541) 
oili (1.133285) child (1.071812) checkout (1.069881) generat (1.059574) crappi (1.006214) sunni (0.937233) broccoli (0.922252) couch (0.910708) squeez (0.886784) tropic (0.848014) 
background (1.079175) fianc (1.079004) bunki (1.071758) itll (0.983722) delic (0.956009) vinegar (0.939871) rustic (0.927146) gear (0.909220) pride (0.880600) 18 (0.879438) 
gnocchi (1.067790) togeth (1.031689) dislik (1.015702) stir (0.925502) california (0.923828) jukebox (0.915948) cider (0.905467) comput (0.904929) con (0.895125) loos (0.884525) 
histori (1.038837) awar (1.011937) tripl (0.974775) gritti (0.922531) opportun (0.912854) promis (0.899144) track (0.885822) copp (0.885005) picki (0.884437) tenderloin (0.877027) 
al (1.105417) hype (1.103994) none (1.051602) kimchi (1.042923) fountain (1.041158) film (0.993685) tag (0.979299) takara (0.941167) dig (0.917052) weeknight (0.899141) 
Error (train/valid/test) = 0.950319/1.309867/1.282232 (0.027093)
..................................................
energy after gradient step = 69158916.146933

Top words for each topic:
brussel (1.487121) milkshak (1.428810) saigon (1.325974) prosciutto (1.279196) gnocchi (1.225928) sip (1.204715) maintain (1.134560) alter (1.066056) hide (1.046610) grow (1.040949) 
micki (1.201412) luck (1.157142) sriracha (1.153905) anywher (1.139696) appropri (1.137267) flank (1.127624) initi (1.125500) shes (1.101268) titl (1.068692) redeem (1.067616) 
introduc (1.497173) ya (1.419351) path (1.325355) dentist (1.291999) patient (1.280477) sangria (1.204656) bump (1.183400) shoulder (1.118629) partner (1.111770) dead (1.096904) 
mushi (1.313057) zoo (1.264241) neat (1.258949) masala (1.189731) breast (1.142923) nom (1.135245) 16 (1.121818) uw (1.121569) drinker (1.079636) further (1.078268) 
shuttl (1.449803) cultur (1.333304) browni (1.292439) inch (1.212179) tex (1.129105) creepi (1.116100) eno (1.089074) premium (1.073499) model (1.060177) rosati (1.054158) 
daisi (1.401061) sunni (1.322486) inch (1.299157) sprinkl (1.205787) broccoli (1.141651) cure (1.107429) compon (1.094190) steer (1.076286) clinic (1.070853) clientel (1.055426) 
bunki (1.691432) bookstor (1.228274) chile (1.225502) frite (1.217574) itll (1.141767) facebook (1.108664) shoot (1.091212) execut (1.070256) prove (1.061759) delic (1.058667) 
owl (1.496823) cabbag (1.339495) privat (1.176426) miso (1.159139) habanero (1.152840) stir (1.147057) under (1.137927) instal (1.130723) south (1.117221) togeth (1.112135) 
track (1.368312) histori (1.265296) bay (1.264862) s (1.203030) aspect (1.192175) remark (1.180987) gritti (1.142727) bead (1.121979) oblig (1.112290) favor (1.105373) 
fountain (1.410489) gigant (1.407175) film (1.363316) greatest (1.285501) hype (1.192002) tag (1.186605) cinema (1.178250) english (1.174679) avenu (1.135333) dig (1.108320) 
Error (train/valid/test) = 0.855929/1.314074/1.283788 (0.027269)
..................................................
energy after gradient step = 69081081.626492

Top words for each topic:
brussel (1.858809) saigon (1.537049) milkshak (1.481142) 1520 (1.365231) prosciutto (1.361025) setup (1.356945) hide (1.332538) din (1.327920) hospit (1.311780) primarili (1.276359) 
titl (1.518745) appropri (1.362756) luck (1.319042) san (1.304743) flank (1.276156) whether (1.244674) homey (1.242240) hook (1.236211) jean (1.217583) shes (1.195995) 
ya (1.700176) path (1.627348) bump (1.353887) introduc (1.350542) shoulder (1.315214) tornado (1.313563) tapa (1.269439) tom (1.257953) sophist (1.252680) pet (1.238190) 
dead (1.531326) arugula (1.490542) mushi (1.480222) neat (1.442020) nom (1.417205) confid (1.415034) breast (1.360394) further (1.332863) uw (1.316075) known (1.246927) 
cultur (1.685992) shuttl (1.649099) creepi (1.442469) massiv (1.433927) tex (1.388267) terrac (1.360576) naan (1.306779) spirit (1.280764) channel (1.201107) courteous (1.180076) 
inch (1.466704) togeth (1.452123) clientel (1.428264) steer (1.421599) clinic (1.406895) sunni (1.374777) air (1.358364) checkout (1.338601) indic (1.298141) flow (1.183822) 
bunki (1.751511) control (1.542763) chile (1.490068) non (1.440140) frite (1.406732) bookstor (1.340896) alcohol (1.313588) jambalaya (1.299625) itll (1.289439) 500 (1.280331) 
sake (1.585149) comparison (1.396684) instal (1.349522) barber (1.304175) owl (1.274820) convinc (1.267085) monona (1.254982) habanero (1.247018) degre (1.246569) cabbag (1.239712) 
track (1.441645) histori (1.421065) s (1.358058) obnoxi (1.335736) laugh (1.328789) stare (1.299866) passabl (1.285725) aspect (1.256794) gritti (1.251463) complement (1.247556) 
fountain (1.795660) film (1.601863) plantain (1.360455) spell (1.312222) overload (1.305222) greatest (1.284198) weeknight (1.253526) none (1.251911) genuin (1.249189) zucchini (1.248814) 
Error (train/valid/test) = 0.775897/1.316418/1.290961 (0.029299)
..................................................
energy after gradient step = 69002906.428159

Top words for each topic:
brussel (1.612969) hide (1.560580) setup (1.492273) harvest (1.432149) primarili (1.418794) mint (1.392252) milkshak (1.368878) calm (1.339593) saigon (1.326850) alter (1.306931) 
steve (1.506619) appropri (1.488370) san (1.466713) fresco (1.446967) titl (1.423590) homey (1.371819) nutella (1.347864) shes (1.334508) kebab (1.319727) jean (1.318836) 
ya (1.583373) introduc (1.509371) monro (1.506617) tornado (1.485641) bump (1.424119) path (1.402956) august (1.364650) partner (1.349038) tom (1.343049) sophist (1.335581) 
dead (1.820245) nom (1.647412) breast (1.634689) confid (1.557697) mushi (1.521768) pesto (1.435620) teacher (1.415695) zoo (1.415620) neat (1.350753) uw (1.311681) 
shuttl (1.865078) creepi (1.617073) cultur (1.559580) barista (1.557398) naan (1.482754) empanada (1.474795) inch (1.410469) courteous (1.347231) marigold (1.344767) massiv (1.333413) 
clinic (1.515564) steer (1.486514) cure (1.412183) clientel (1.410228) couch (1.393297) sunni (1.382195) omg (1.322071) daisi (1.304770) vote (1.281943) inhal (1.278298) 
bunki (1.873672) bookstor (1.620552) seven (1.594022) non (1.557288) pud (1.467890) chile (1.434251) tsos (1.427754) jambalaya (1.415787) alcohol (1.391535) control (1.386997) 
sake (1.836402) comparison (1.513886) 5star (1.425929) owl (1.402393) lao (1.379201) attitud (1.378881) stout (1.363790) degre (1.356570) privat (1.347350) habanero (1.347176) 
track (1.741861) theater (1.616069) merchant (1.613046) histori (1.523939) stare (1.508610) spanish (1.479509) explan (1.357492) sub (1.352303) distract (1.339726) oblig (1.322765) 
fountain (1.801316) film (1.673517) hype (1.619318) cinema (1.576106) greatest (1.476827) written (1.451365) narrow (1.359245) thousand (1.351508) spell (1.338324) island (1.306814) 
Error (train/valid/test) = 0.716842/1.329138/1.299870 (0.029303)
..................................................
energy after gradient step = 68920290.826943

Top words for each topic:
hide (1.793958) adjust (1.604668) encourag (1.590905) mint (1.553048) milkshak (1.494494) freshest (1.477034) 1520 (1.471053) text (1.454106) humbl (1.431463) brussel (1.428967) 
appropri (1.768085) gracious (1.607196) steve (1.581828) homey (1.535097) freez (1.530048) walmart (1.474191) micki (1.463759) regardless (1.429808) nutella (1.389527) devil (1.382713) 
tornado (1.685437) august (1.671230) bump (1.588973) yarn (1.514681) dentist (1.472088) ya (1.439528) sophist (1.427446) pet (1.424830) blow (1.414638) path (1.412046) 
breast (1.705172) dead (1.702685) mushi (1.665564) whip (1.640187) alley (1.543018) address (1.463469) obsess (1.461551) zoo (1.438000) nightmar (1.430941) confid (1.418437) 
shuttl (1.911024) barista (1.843434) creepi (1.739907) empanada (1.715055) naan (1.638755) terrac (1.572297) scoop (1.568547) inch (1.510286) paul (1.485120) marigold (1.484070) 
steer (1.721727) clinic (1.715489) soap (1.644940) express (1.558856) checkout (1.557950) distinct (1.533492) sunni (1.499670) spit (1.470879) belgian (1.460764) couch (1.441226) 
bunki (2.109832) bookstor (1.874034) non (1.746734) control (1.623347) seven (1.617591) tsos (1.568078) wasabi (1.550619) lazi (1.529762) ravioli (1.526438) expand (1.526291) 
sake (1.695867) habanero (1.637433) comparison (1.628421) attitud (1.573476) bibimbap (1.536692) doctor (1.503642) south (1.498189) degre (1.472723) shouldnt (1.456763) lao (1.455744) 
track (1.728483) laugh (1.722541) theater (1.703903) stare (1.691951) merchant (1.628971) cab (1.628847) histori (1.545956) sub (1.531143) explan (1.524280) distract (1.438030) 
island (1.763320) written (1.651156) feet (1.540815) fountain (1.533542) dust (1.528028) alfredo (1.474547) film (1.461258) common (1.441439) spell (1.432575) packer (1.430417) 
Error (train/valid/test) = 0.650139/1.349351/1.330945 (0.029364)
..................................................
energy after gradient step = 68858461.934849

Top words for each topic:
adjust (1.780815) hide (1.760329) milkshak (1.726775) humbl (1.683491) key (1.620712) prosciutto (1.576741) brussel (1.568264) 1520 (1.535313) butteri (1.528640) mint (1.494498) 
appropri (1.965376) steve (1.784269) walmart (1.760413) devil (1.706875) homey (1.625462) regardless (1.612038) cooper (1.610227) freez (1.609843) plantain (1.595073) nutella (1.568794) 
dentist (1.827955) yarn (1.813685) tornado (1.804674) introduc (1.684622) path (1.623761) nut (1.583829) sangria (1.564279) sophist (1.563846) pet (1.542987) august (1.510889) 
dead (1.989293) breast (1.946907) zoo (1.823886) whip (1.767775) confid (1.758066) gym (1.634845) stool (1.602596) pesto (1.594599) mushi (1.581163) alley (1.579180) 
barista (1.958311) shuttl (1.924559) paul (1.907942) naan (1.780831) empanada (1.718176) creepi (1.691402) terrac (1.683681) tag (1.651453) massiv (1.617769) disast (1.609195) 
pedicur (1.878493) clinic (1.794295) soap (1.793991) boot (1.763665) steer (1.698577) sunni (1.597782) advis (1.591504) cinnamon (1.548214) equip (1.543216) express (1.542358) 
bunki (2.182227) bookstor (2.010001) tsos (1.936236) non (1.812791) seven (1.722768) ravioli (1.689222) desert (1.670215) expand (1.666964) control (1.610594) lazi (1.603433) 
habanero (1.726330) comparison (1.712438) lao (1.667909) luci (1.638281) fudg (1.589688) owl (1.568039) groupon (1.563489) paint (1.560426) attitud (1.546436) beyond (1.545416) 
theater (2.014702) merchant (1.988302) cab (1.956896) track (1.764279) laugh (1.741186) stare (1.718284) liquor (1.638910) distract (1.614322) bead (1.606516) sub (1.565526) 
written (1.998231) film (1.725942) feet (1.693006) island (1.652297) fountain (1.646887) record (1.642473) packer (1.639622) spell (1.630093) gigant (1.611379) region (1.541020) 
Error (train/valid/test) = 0.603609/1.362817/1.344713 (0.030350)
..................................................
energy after gradient step = 68784196.441017

Top words for each topic:
humbl (1.868440) milkshak (1.845584) prosciutto (1.794703) everybodi (1.758617) butteri (1.758060) mint (1.667022) dragon (1.620013) text (1.575313) gnocchi (1.571393) until (1.566671) 
steve (1.880278) appropri (1.861186) cooper (1.859435) regardless (1.695211) homey (1.692670) micki (1.631081) plantain (1.630003) devil (1.625451) walmart (1.602741) initi (1.601854) 
dentist (1.949682) tornado (1.902093) yarn (1.855537) path (1.841633) ya (1.774173) introduc (1.742744) arugula (1.735746) lie (1.710257) sophist (1.675703) august (1.660726) 
zoo (2.109132) dead (2.042051) confid (2.014233) pesto (1.993965) stool (1.821293) breast (1.780241) alley (1.771853) venu (1.752533) whip (1.742421) mushi (1.677705) 
barista (2.022120) naan (1.986769) paul (1.928098) shuttl (1.865533) empanada (1.802399) target (1.796497) disast (1.735591) creepi (1.711507) tag (1.705413) children (1.649601) 
pedicur (2.127402) vet (2.108675) boot (1.990210) soap (1.773845) express (1.686461) daisi (1.682138) broccoli (1.680416) clinic (1.637744) advis (1.620668) nail (1.615510) 
bunki (2.183419) non (1.943487) bookstor (1.792478) ravioli (1.786131) gay (1.779265) tsos (1.710698) lazi (1.699462) chile (1.695072) seven (1.684953) cevich (1.677360) 
habanero (1.853223) comparison (1.839044) paint (1.827421) court (1.723946) fudg (1.722064) privat (1.626060) jerk (1.614518) luci (1.562872) doctor (1.557251) theyll (1.497859) 
cab (2.312559) theater (2.106455) merchant (1.988620) sub (1.759848) tikka (1.732382) laugh (1.726745) stare (1.709077) sassi (1.670483) distract (1.640117) greek (1.636056) 
ring (1.870846) written (1.830830) fountain (1.828012) creat (1.783008) record (1.660123) alfredo (1.639898) inconsist (1.594200) zucchini (1.580084) perform (1.578266) load (1.544676) 
Error (train/valid/test) = 0.565211/1.382808/1.363393 (0.031048)
..................................................
energy after gradient step = 68706096.854017

Top words for each topic:
milkshak (1.958129) everybodi (1.956748) beet (1.806105) iphon (1.752526) butteri (1.732821) humbl (1.624612) dragon (1.603602) massag (1.600062) key (1.587727) banzo (1.587480) 
cooper (2.063076) steve (1.958494) regardless (1.879764) appropri (1.843073) walmart (1.814554) heritag (1.799116) ala (1.718486) nutella (1.713547) devil (1.676728) homey (1.665073) 
yarn (2.155774) ya (2.085976) dentist (2.031619) tornado (1.942396) lie (1.843868) path (1.840426) august (1.732326) dr (1.687805) sophist (1.678320) nut (1.666747) 
zoo (2.337861) pesto (1.987169) alley (1.964580) dead (1.944908) breast (1.897323) confid (1.868469) venu (1.860515) whip (1.855980) inn (1.839323) mushi (1.807948) 
naan (2.181302) barista (2.096155) target (2.072214) shuttl (1.957083) empanada (1.913075) chowder (1.845130) paul (1.809277) creepi (1.760194) massiv (1.743758) disast (1.717772) 
pedicur (2.398348) vet (2.153745) boot (2.138617) express (2.090131) soap (2.023294) salon (1.866131) broccoli (1.835762) cure (1.773305) clinic (1.741192) nail (1.732072) 
bunki (2.185196) bookstor (1.892074) gay (1.862295) ravioli (1.833979) jambalaya (1.822093) chile (1.812134) exercis (1.788638) non (1.763426) fennel (1.748481) cevich (1.706184) 
paint (1.862902) kill (1.774669) habanero (1.723099) jerk (1.702142) luci (1.672843) sent (1.611554) court (1.576794) celebr (1.541084) fudg (1.532371) owl (1.529845) 
cab (2.496755) theater (2.180851) merchant (2.174783) sub (1.925968) movi (1.806603) greek (1.796151) tikka (1.737247) distract (1.725725) woodman (1.698393) liquor (1.688699) 
written (1.913110) fountain (1.819343) ring (1.809902) greatest (1.713851) perform (1.684914) creat (1.682994) awar (1.672189) common (1.647133) dig (1.645608) cinema (1.629429) 
Error (train/valid/test) = 0.535057/1.396748/1.377593 (0.031265)
..................................................
energy after gradient step = 68625733.771191

Top words for each topic:
milkshak (2.122977) everybodi (2.020333) massag (1.875472) humbl (1.850350) beet (1.776140) falafel (1.732637) adjust (1.680105) receptionist (1.677340) butteri (1.655503) banzo (1.655377) 
cooper (2.103072) steve (1.999050) walmart (1.940973) heritag (1.877764) appropri (1.853607) devil (1.828185) nutella (1.798981) homey (1.792151) regardless (1.784613) ala (1.738008) 
yarn (2.414863) dentist (2.126451) tornado (1.939835) pet (1.930815) path (1.927901) ya (1.919672) haircut (1.876313) dr (1.869162) ha (1.819542) lie (1.787701) 
zoo (2.543709) dead (2.193853) inn (2.046497) alley (1.930707) pesto (1.909829) whip (1.864021) confid (1.836556) venu (1.833441) anim (1.800881) spacious (1.781397) 
target (2.369439) naan (2.214516) paul (2.109423) barista (2.034881) shuttl (1.996133) empanada (1.952693) weari (1.951666) chowder (1.862261) wifi (1.859703) zero (1.803303) 
pedicur (2.608224) boot (2.215712) express (2.175434) vet (2.165349) nail (2.131076) salon (2.100433) soap (2.041729) broccoli (1.913933) thrill (1.878817) clinic (1.816916) 
bunki (2.324482) ravioli (2.082005) bookstor (2.020148) jambalaya (1.965333) gay (1.881620) desert (1.821353) cevich (1.783415) chile (1.772841) alright (1.753510) fennel (1.731017) 
paint (1.939008) kill (1.803626) jerk (1.781795) cod (1.755028) habanero (1.749106) luci (1.746822) comparison (1.721891) fudg (1.662916) cha (1.548681) owl (1.529491) 
cab (2.659327) theater (2.496397) merchant (2.200945) sub (2.055208) movi (1.938887) woodman (1.883686) liquor (1.750699) frite (1.728294) distract (1.722563) greek (1.717660) 
fountain (2.098508) written (2.077641) common (1.943133) ring (1.877292) perform (1.831690) record (1.803313) zucchini (1.721435) inconsist (1.712777) greatest (1.676184) load (1.675851) 
Error (train/valid/test) = 0.519449/1.415026/1.396733 (0.030869)
..................................................
energy after gradient step = 68488362.899010

Top words for each topic:
milkshak (2.198550) banzo (2.138412) everybodi (2.042440) beet (2.004360) massag (1.994301) librari (1.981963) humbl (1.964934) butteri (1.964137) falafel (1.836487) adjust (1.822321) 
walmart (2.255710) cooper (2.183748) regardless (1.951940) heritag (1.927835) underground (1.901393) appropri (1.848990) ala (1.837821) yoga (1.823041) steve (1.817081) goat (1.792952) 
dentist (2.617017) yarn (2.368870) tornado (2.293778) haircut (2.154220) ramen (2.087830) pet (1.941380) dr (1.917686) knit (1.916045) path (1.900626) nut (1.884032) 
zoo (2.899248) dead (2.249750) alley (2.175930) pesto (2.170374) inn (2.130798) venu (2.051772) brows (2.033514) gym (1.980141) whip (1.964676) anim (1.910818) 
naan (2.569433) target (2.415834) paul (2.273848) barista (2.171323) shuttl (2.127251) empanada (2.066460) wifi (2.052407) terrac (2.045565) tag (2.022725) weari (2.004988) 
pedicur (2.867906) nail (2.395356) salon (2.389385) vet (2.379826) boot (2.377134) soap (2.276812) manicur (2.192523) express (2.167644) bagel (2.132008) thrill (2.096296) 
bunki (2.499996) ravioli (2.239822) pud (2.140049) bookstor (2.135783) frite (1.998276) jambalaya (1.964095) gay (1.932401) chile (1.907105) brioch (1.821673) prairi (1.777924) 
jerk (2.019592) children (2.012569) luci (2.006064) kill (1.887796) habanero (1.861892) comparison (1.819693) cod (1.816492) paint (1.814222) fudg (1.788755) owl (1.732156) 
cab (2.898113) theater (2.720428) merchant (2.595350) sub (2.203691) movi (2.178234) woodman (2.002926) greek (1.973597) driver (1.961657) lasagna (1.942448) liquor (1.926868) 
fountain (2.275974) ring (2.058842) irish (2.033893) gyro (2.012915) written (1.977549) common (1.976231) union (1.957922) popcorn (1.916603) repair (1.899415) perform (1.873419) 
Error (train/valid/test) = 0.494607/1.439400/1.427545 (0.031305)
..................................................
energy after gradient step = 68360906.841402

Top words for each topic:
banzo (2.398201) massag (2.384066) falafel (2.301910) milkshak (2.229034) librari (2.212417) beet (2.089736) bradburi (2.038612) butteri (2.020523) crepe (2.010343) polka (1.992340) 
walmart (2.363532) cooper (2.240042) heritag (2.055021) homey (1.941187) plantain (1.935255) ala (1.862013) goat (1.861585) underground (1.843001) steve (1.822521) dumpl (1.818961) 
dentist (2.717049) yarn (2.696816) ramen (2.473636) haircut (2.324775) tornado (2.229744) dr (2.227084) knit (2.209454) cupcak (2.095751) pet (2.047836) lie (2.035418) 
zoo (2.901907) gym (2.332358) dead (2.298838) whip (2.206792) anim (2.188676) alley (2.178409) pesto (2.177586) inn (2.123704) brows (2.039979) toy (2.005207) 
naan (2.678647) target (2.635133) paul (2.459269) barista (2.370384) indian (2.360726) shuttl (2.288603) wifi (2.253486) terrac (2.214497) empanada (2.149080) weari (2.148530) 
pedicur (3.085394) boot (2.689064) manicur (2.659243) salon (2.647601) nail (2.632405) vet (2.511124) bagel (2.420414) polish (2.295186) express (2.132300) soap (2.126002) 
bunki (2.550803) ravioli (2.471338) frite (2.106624) jambalaya (2.096464) bookstor (2.028284) chipotl (2.021925) brioch (2.012054) chile (1.956923) ale (1.923118) gay (1.871115) 
jerk (2.207827) cod (2.190618) luci (2.095508) owl (1.940240) kill (1.923703) paint (1.923247) sent (1.881184) children (1.869018) lao (1.837405) fudg (1.811449) 
cab (3.075875) theater (2.814245) merchant (2.681392) sub (2.437450) movi (2.417836) lasagna (2.272992) driver (2.133149) liquor (2.105378) sundanc (2.067908) greek (2.055569) 
fountain (2.507176) ring (2.355502) gyro (2.269976) perform (2.060780) repair (2.015835) irish (1.988993) union (1.984652) written (1.928499) common (1.912408) popcorn (1.908322) 
Error (train/valid/test) = 0.456799/1.434330/1.419670 (0.032944)
..................................................
energy after gradient step = 68189672.453036

Top words for each topic:
massag (2.675096) banzo (2.532995) milkshak (2.471820) bradburi (2.456261) falafel (2.432708) librari (2.397872) crepe (2.250304) humbl (2.244845) beet (2.163654) everybodi (2.138000) 
walmart (2.666935) cooper (2.411753) steve (2.128482) plantain (2.073972) heritag (2.021667) homey (1.978773) devil (1.919413) yoga (1.909371) ala (1.903629) initi (1.898643) 
yarn (2.985414) dentist (2.807441) ramen (2.755196) haircut (2.719196) knit (2.419725) tornado (2.406747) dr (2.245462) cupcak (2.235746) ha (2.164710) espresso (2.047941) 
zoo (3.213527) gym (2.582965) anim (2.413112) whip (2.345230) alley (2.293789) inn (2.249951) pesto (2.228461) dead (2.215342) instructor (2.197937) toy (2.179106) 
naan (2.970563) target (2.782448) shuttl (2.720862) indian (2.557302) paul (2.523458) wifi (2.421129) barista (2.385632) terrac (2.335774) tag (2.194324) weari (2.175867) 
pedicur (3.184642) nail (2.875563) boot (2.807535) salon (2.781951) manicur (2.778343) vet (2.671265) bagel (2.653360) soap (2.557868) express (2.352808) polish (2.351538) 
bunki (2.632835) ravioli (2.503098) chipotl (2.338771) bookstor (2.230965) frite (2.222523) ale (2.112073) cheesesteak (2.074591) chile (2.069162) gay (2.052230) brioch (1.997243) 
cod (2.285125) jerk (2.203464) luci (2.181799) paint (2.002138) owl (1.999912) children (1.961652) fudg (1.957958) south (1.900601) lao (1.851943) kill (1.842318) 
cab (3.256713) theater (3.024988) movi (2.709735) merchant (2.636733) sub (2.550842) driver (2.363880) lasagna (2.286161) liquor (2.239815) bead (2.224519) woodman (2.196746) 
gyro (2.479048) fountain (2.470268) ring (2.397379) union (2.270694) irish (2.249001) china (2.097742) korean (2.025540) repair (2.014233) plaza (1.999524) aioli (1.957894) 
Error (train/valid/test) = 0.430935/1.454638/1.446852 (0.033902)
..................................................
energy after gradient step = 68057382.484154

Top words for each topic:
massag (2.894662) banzo (2.608445) falafel (2.590480) crepe (2.569347) bradburi (2.508733) milkshak (2.351793) beet (2.297796) humbl (2.259545) librari (2.259119) everybodi (2.212081) 
walmart (2.558942) cooper (2.432693) steve (2.194238) dumpl (2.155646) goat (2.044978) belli (1.995091) plantain (1.988012) ala (1.987498) devil (1.937078) tjs (1.934012) 
yarn (3.059747) ramen (2.956475) dentist (2.881230) haircut (2.857958) dr (2.559354) knit (2.503593) cupcak (2.466946) tornado (2.443156) ha (2.324660) furnitur (2.212746) 
zoo (3.186314) gym (2.889896) anim (2.638796) whip (2.384688) instructor (2.358038) alley (2.352234) class (2.349248) mustard (2.326776) flower (2.296394) vendor (2.249277) 
naan (3.055609) target (2.953479) indian (2.909397) shuttl (2.701326) wifi (2.608733) paul (2.564522) terrac (2.499612) barista (2.483133) consult (2.235082) empanada (2.234377) 
pedicur (3.248761) nail (3.185880) boot (2.971305) manicur (2.941862) salon (2.940629) bagel (2.887204) vet (2.759876) soap (2.590670) polish (2.521828) wax (2.480552) 
bunki (2.488837) ravioli (2.457055) frite (2.314088) chipotl (2.294655) bookstor (2.264065) pud (2.187151) chile (2.180554) desert (2.128321) ale (2.095277) gay (2.072754) 
cod (2.320742) jerk (2.248821) luci (2.173127) pho (2.048098) owl (2.019331) children (1.996565) chowder (1.966856) lao (1.959547) paint (1.956119) fudg (1.915466) 
cab (3.354136) theater (3.153458) movi (2.863595) sub (2.822550) merchant (2.728281) driver (2.461855) liquor (2.290968) bead (2.287385) lasagna (2.275608) woodman (2.269327) 
gyro (2.589048) ring (2.525048) fountain (2.396229) union (2.283919) irish (2.234107) china (2.127280) aioli (2.050300) plaza (2.049842) korean (2.016211) repair (1.978834) 
Error (train/valid/test) = 0.421683/1.461331/1.451843 (0.033994)
..................................................
energy after gradient step = 67822246.080691

Top words for each topic:
massag (3.100909) banzo (2.791111) falafel (2.786939) crepe (2.784391) bradburi (2.602657) milkshak (2.524575) stylist (2.501528) hair (2.413045) humbl (2.399960) librari (2.293437) 
walmart (2.496980) cooper (2.460474) dumpl (2.319700) belli (2.206432) plantain (2.145967) steve (2.109762) tjs (2.106433) goat (2.068541) ala (2.023544) fat (2.020630) 
yarn (3.166659) ramen (3.054213) haircut (2.988134) dentist (2.928230) cupcak (2.700916) knit (2.617713) dr (2.533859) tornado (2.499555) ha (2.426054) frost (2.334253) 
zoo (3.270115) gym (2.857284) mustard (2.614826) class (2.574743) anim (2.572219) flower (2.522835) bed (2.457362) airport (2.452025) shower (2.445266) vendor (2.365841) 
naan (3.179132) indian (3.118839) target (2.961621) shuttl (2.874904) wifi (2.716187) paul (2.710141) terrac (2.695424) barista (2.638183) empanada (2.384921) buffet (2.347237) 
pedicur (3.352399) nail (3.343964) bagel (3.057514) salon (3.011157) manicur (2.967170) boot (2.955609) vet (2.920537) wax (2.606480) polish (2.480585) monti (2.447796) 
bunki (2.546261) ravioli (2.522238) chipotl (2.400871) frite (2.399186) chile (2.281630) pud (2.170715) duck (2.163204) ale (2.159086) bookstor (2.084553) gay (2.053727) 
cod (2.432816) jerk (2.304427) pho (2.268610) luci (2.193420) fudg (2.040602) children (1.997859) center (1.995742) wing (1.967753) wright (1.966368) owl (1.959760) 
cab (3.462818) theater (3.254970) movi (3.073345) sub (2.903629) merchant (2.870018) driver (2.605835) woodman (2.534095) liquor (2.382967) bead (2.343134) sundanc (2.335220) 
gyro (2.802276) ring (2.531675) irish (2.491173) union (2.439446) fountain (2.402878) korean (2.322889) plaza (2.237366) asian (2.142335) repair (2.090393) china (2.083014) 
Error (train/valid/test) = 0.415926/1.475349/1.462883 (0.033659)
..................................................
energy after gradient step = 67549515.069772

Top words for each topic:
massag (3.210950) crepe (2.978155) falafel (2.931520) banzo (2.865923) hair (2.675505) bradburi (2.639362) stylist (2.560568) librari (2.439370) humbl (2.402403) milkshak (2.393846) 
dumpl (2.535904) cooper (2.500422) walmart (2.497895) belli (2.232069) tjs (2.134404) plantain (2.125034) steve (2.101529) goat (2.058536) fat (2.053956) gail (2.044832) 
yarn (3.228693) ramen (3.136920) haircut (3.112079) dentist (3.032964) cupcak (2.949477) dr (2.801190) knit (2.732776) tornado (2.569659) ha (2.470185) furnitur (2.466805) 
zoo (3.393227) gym (3.169370) class (2.861068) anim (2.778387) mustard (2.776194) bed (2.690427) airport (2.597879) instructor (2.545918) toy (2.511026) flower (2.462754) 
indian (3.336476) naan (3.220323) target (3.129609) wifi (2.924393) shuttl (2.897210) barista (2.826782) terrac (2.767502) paul (2.758202) buffet (2.481895) tikka (2.412080) 
nail (3.455600) pedicur (3.349086) bagel (3.306120) salon (3.202404) manicur (3.106693) boot (3.000605) vet (2.864752) wax (2.690681) polish (2.626051) monti (2.602909) 
ravioli (2.582707) bunki (2.524362) chipotl (2.461044) frite (2.338549) ale (2.296754) chile (2.182770) duck (2.155275) jambalaya (2.119496) pud (2.117496) mari (2.072210) 
cod (2.461860) pho (2.457168) jerk (2.371796) wing (2.296393) luci (2.193869) children (2.116795) owl (2.062962) wright (2.038136) habanero (2.034456) fudg (2.034223) 
cab (3.512545) theater (3.369138) movi (3.136618) sub (2.914527) merchant (2.797219) driver (2.707653) woodman (2.584057) bike (2.527166) liquor (2.509939) sundanc (2.399508) 
gyro (2.838976) ring (2.665502) irish (2.520099) union (2.446708) korean (2.444401) fountain (2.440260) asian (2.249730) plaza (2.194452) repair (2.185160) perform (2.110383) 
Error (train/valid/test) = 0.410211/1.484038/1.466087 (0.034613)
..................................................
energy after gradient step = 67227532.169631

Top words for each topic:
massag (3.318579) crepe (3.129998) falafel (2.990961) hair (2.951036) banzo (2.880432) stylist (2.855849) bradburi (2.767164) milkshak (2.592672) humbl (2.528705) librari (2.495947) 
dumpl (2.709907) cooper (2.606009) walmart (2.587465) belli (2.347177) goat (2.209431) heritag (2.200698) fat (2.187968) plantain (2.166658) steve (2.126258) tjs (2.100628) 
ramen (3.356654) yarn (3.319214) cupcak (3.313848) haircut (3.179766) dentist (3.165789) dr (3.081193) frost (2.822423) knit (2.810829) tornado (2.641223) ha (2.615747) 
zoo (3.487928) gym (3.274275) class (3.146788) bed (2.920118) mustard (2.910595) anim (2.824234) instructor (2.759584) airport (2.752013) dog (2.625063) flower (2.615309) 
indian (3.555865) naan (3.370119) target (3.245838) shuttl (3.108668) wifi (3.047503) barista (2.948114) terrac (2.919657) paul (2.877770) buffet (2.711085) tikka (2.603850) 
nail (3.590014) pedicur (3.470150) bagel (3.462274) salon (3.228132) boot (3.169527) manicur (3.108864) vet (2.989263) wax (2.812487) polish (2.811215) monti (2.746102) 
bunki (2.512307) ravioli (2.488939) frite (2.362723) duck (2.342695) chipotl (2.325689) ale (2.213507) salsa (2.193390) pud (2.181415) mexican (2.167873) chile (2.165969) 
pho (2.744434) cod (2.552379) jerk (2.515825) wing (2.501118) owl (2.227654) vietnames (2.216282) children (2.194963) luci (2.187563) puppi (2.100283) chowder (2.096021) 
cab (3.676048) theater (3.441405) movi (3.289779) sub (3.023931) merchant (3.004060) driver (2.805474) woodman (2.766538) bike (2.745598) ticket (2.584848) liquor (2.549673) 
gyro (3.015247) korean (2.700917) fountain (2.519976) ring (2.519053) irish (2.469013) asian (2.411810) union (2.333421) plaza (2.238591) tofu (2.204618) repair (2.196948) 
Error (train/valid/test) = 0.406253/1.495433/1.472136 (0.034463)
..................................................
energy after gradient step = 66804199.673382

Top words for each topic:
massag (3.439829) crepe (3.346406) hair (3.237911) falafel (3.165370) banzo (3.010062) stylist (2.935810) bradburi (2.857030) librari (2.646314) milkshak (2.615585) humbl (2.574195) 
dumpl (2.881293) cooper (2.641483) walmart (2.558286) belli (2.514997) goat (2.331689) heritag (2.258207) foie (2.211500) steve (2.199918) fat (2.192226) tjs (2.174494) 
cupcak (3.617849) ramen (3.501188) yarn (3.421665) haircut (3.317642) dentist (3.290943) dr (3.140715) frost (3.105761) knit (2.900803) latt (2.747026) furnitur (2.655505) 
zoo (3.552498) gym (3.414557) class (3.389525) mustard (3.196314) bed (3.019529) airport (3.011381) anim (2.985479) yoga (2.976216) dog (2.864652) instructor (2.834328) 
indian (3.783381) naan (3.465902) target (3.301153) shuttl (3.180001) wifi (3.120472) barista (3.055456) terrac (3.014652) buffet (2.970215) paul (2.940995) masala (2.815169) 
nail (3.666486) bagel (3.648010) pedicur (3.533612) salon (3.318767) boot (3.245422) manicur (3.175715) vet (3.079832) tire (2.886241) wax (2.864140) polish (2.788154) 
bunki (2.501678) ravioli (2.419351) chipotl (2.406724) salsa (2.343835) mexican (2.332918) frite (2.329230) duck (2.320221) ale (2.265576) jambalaya (2.121379) pud (2.111808) 
pho (2.993537) wing (2.649697) cod (2.635687) jerk (2.545993) vietnames (2.323353) owl (2.219153) luci (2.206792) fudg (2.169173) paint (2.147225) puppi (2.135648) 
cab (3.710068) theater (3.548593) movi (3.439978) sub (3.186327) merchant (3.062228) bike (2.935700) woodman (2.932974) driver (2.879514) sundanc (2.724637) liquor (2.716547) 
gyro (2.995844) korean (2.657318) fountain (2.582924) ring (2.580326) irish (2.494259) asian (2.481400) union (2.396076) china (2.351302) sushi (2.291615) plaza (2.283587) 
Error (train/valid/test) = 0.408334/1.504204/1.480079 (0.034309)
..................................................
energy after gradient step = 66295123.156938

Top words for each topic:
massag (3.554804) hair (3.460471) crepe (3.445252) falafel (3.261424) stylist (3.200871) banzo (3.129521) bradburi (2.972882) librari (2.649102) milkshak (2.631760) donut (2.607216) 
dumpl (3.013380) cooper (2.623609) belli (2.599609) walmart (2.532858) fat (2.332891) goat (2.280237) chines (2.274845) heritag (2.265020) foie (2.232376) tjs (2.221662) 
cupcak (3.809200) ramen (3.637091) yarn (3.544409) haircut (3.450994) dentist (3.430066) dr (3.355054) frost (3.216144) knit (3.002362) latt (2.894448) ha (2.893417) 
zoo (3.707315) gym (3.525520) class (3.493216) airport (3.241099) mustard (3.222010) yoga (3.168797) bed (3.120332) anim (3.098345) instructor (3.082375) dog (3.023191) 
indian (3.917374) naan (3.588879) target (3.467706) wifi (3.431217) shuttl (3.311375) buffet (3.182347) barista (3.169321) paul (3.075402) terrac (3.026359) hotel (3.006288) 
nail (3.776571) bagel (3.732291) pedicur (3.621091) salon (3.359870) manicur (3.273819) boot (3.216615) vet (3.182395) wax (3.018742) tire (2.981674) polish (2.905559) 
mexican (2.526864) bunki (2.468788) duck (2.397206) salsa (2.396805) frite (2.377247) chipotl (2.372850) ravioli (2.357157) ale (2.310130) dish (2.204766) burrito (2.202493) 
pho (3.070631) wing (2.832171) cod (2.676914) jerk (2.591414) vietnames (2.364973) owl (2.269824) fudg (2.265247) buffalo (2.240899) mickey (2.219865) paint (2.216362) 
cab (3.811467) theater (3.579724) movi (3.518845) sub (3.220753) merchant (3.058679) bike (2.972030) driver (2.915358) woodman (2.872227) ticket (2.845274) sundanc (2.835732) 
gyro (3.143020) korean (2.909154) asian (2.628578) ring (2.627318) fountain (2.605958) irish (2.567789) sushi (2.558069) union (2.505970) tofu (2.362994) plaza (2.285101) 
Error (train/valid/test) = 0.404800/1.505323/1.488167 (0.034940)
..................................................
energy after gradient step = 65745661.648000

Top words for each topic:
hair (3.675318) massag (3.616410) crepe (3.600101) falafel (3.396348) stylist (3.269995) banzo (3.266394) bradburi (3.064663) librari (2.794565) donut (2.789430) milkshak (2.713255) 
dumpl (3.179581) belli (2.664691) cooper (2.621787) walmart (2.490698) goat (2.439619) chines (2.384732) fat (2.299003) tjs (2.275165) heritag (2.263235) foie (2.243043) 
cupcak (4.069261) ramen (3.801157) yarn (3.639149) frost (3.526407) haircut (3.522595) dentist (3.518152) dr (3.484958) knit (3.109203) espresso (3.024048) latt (3.004578) 
zoo (3.735126) class (3.728149) gym (3.693217) mustard (3.384159) yoga (3.289135) airport (3.285656) bed (3.282401) dog (3.245354) anim (3.189974) instructor (3.145499) 
indian (3.977748) naan (3.620597) target (3.480881) wifi (3.457814) shuttl (3.395458) buffet (3.385925) barista (3.313916) hotel (3.293914) terrac (3.276222) paul (3.094281) 
bagel (3.889960) nail (3.826461) pedicur (3.664117) salon (3.448484) boot (3.389593) manicur (3.343594) vet (3.278275) wax (3.075064) tire (2.994936) polish (2.993563) 
mexican (2.642871) salsa (2.445618) chipotl (2.434884) bunki (2.431500) ravioli (2.374058) dish (2.364163) frite (2.312720) burrito (2.296436) duck (2.279679) ale (2.205874) 
pho (3.283359) wing (3.001711) cod (2.718776) jerk (2.633007) vietnames (2.569180) fudg (2.382176) owl (2.367706) buffalo (2.329505) mickey (2.320698) chowder (2.238077) 
cab (3.889576) theater (3.703375) movi (3.646542) sub (3.326877) bike (3.185056) driver (3.136791) woodman (3.099158) merchant (3.077459) ticket (2.885712) sundanc (2.871089) 
gyro (3.146630) korean (2.828502) sushi (2.793585) asian (2.708916) fountain (2.614381) ring (2.590199) irish (2.589905) tofu (2.449651) union (2.380616) china (2.334945) 
Error (train/valid/test) = 0.411496/1.511251/1.496363 (0.035760)
..................................................
energy after gradient step = 65151563.351647

Top words for each topic:
hair (3.856934) massag (3.795738) crepe (3.751576) falafel (3.596290) stylist (3.552598) banzo (3.443451) bradburi (3.261211) donut (3.119314) doughnut (2.985861) librari (2.941066) 
dumpl (3.335970) cooper (2.763212) belli (2.693936) walmart (2.603960) goat (2.525797) fat (2.502358) chines (2.480238) pelmeni (2.459312) tjs (2.353282) heritag (2.336602) 
cupcak (4.307724) ramen (3.931210) yarn (3.855196) frost (3.784295) dr (3.745701) dentist (3.732725) haircut (3.582975) espresso (3.275664) latt (3.258247) knit (3.218811) 
zoo (3.878516) class (3.836795) gym (3.778530) yoga (3.510757) airport (3.480303) mustard (3.450024) dog (3.364720) bed (3.341670) anim (3.323405) instructor (3.298820) 
indian (4.166014) naan (3.808124) wifi (3.623960) buffet (3.593700) target (3.571080) hotel (3.548244) shuttl (3.502929) terrac (3.393987) masala (3.376321) barista (3.297181) 
bagel (3.996561) nail (3.973772) pedicur (3.729175) salon (3.538420) manicur (3.433861) boot (3.412916) vet (3.301980) tire (3.278076) wax (3.162650) polish (3.040304) 
mexican (2.765808) salsa (2.607368) dish (2.559565) frite (2.432967) burrito (2.395624) steak (2.395506) taco (2.385187) chicken (2.382219) duck (2.349215) bunki (2.337978) 
pho (3.395533) wing (3.143598) jerk (2.742782) cod (2.735975) vietnames (2.720795) mickey (2.503176) fudg (2.481750) chowder (2.464506) saigon (2.459526) owl (2.447681) 
cab (4.050325) theater (3.826022) movi (3.730997) sub (3.448006) bike (3.391259) merchant (3.330082) driver (3.142237) ticket (3.100299) sundanc (3.042541) woodman (3.041561) 
gyro (3.205105) sushi (3.152982) korean (3.031872) asian (2.825280) irish (2.681338) ring (2.660502) japanes (2.605345) tofu (2.599614) fountain (2.560102) takara (2.541436) 
Error (train/valid/test) = 0.405574/1.518082/1.502132 (0.034708)
..................................................
energy after gradient step = 64541830.045573

Top words for each topic:
hair (3.987542) massag (3.814393) crepe (3.810750) falafel (3.632075) stylist (3.593852) banzo (3.499195) bradburi (3.285841) donut (3.244059) doughnut (3.030414) librari (2.996844) 
dumpl (3.425282) belli (2.804177) cooper (2.746074) chines (2.625938) walmart (2.622153) fat (2.505136) goat (2.488945) pelmeni (2.429031) heritag (2.356874) fromagin (2.356433) 
cupcak (4.495885) ramen (4.006695) yarn (3.902536) dr (3.784668) frost (3.772081) dentist (3.769045) haircut (3.593447) espresso (3.341502) latt (3.332541) tea (3.307232) 
class (3.973796) zoo (3.906149) gym (3.858651) yoga (3.580565) mustard (3.532805) dog (3.532218) airport (3.508638) anim (3.382181) instructor (3.336021) bed (3.290986) 
indian (4.235582) naan (3.833161) hotel (3.760813) buffet (3.737164) wifi (3.700342) target (3.596906) shuttl (3.537886) terrac (3.421493) masala (3.374011) barista (3.365333) 
bagel (4.058790) nail (4.024051) pedicur (3.759124) salon (3.566642) boot (3.481732) manicur (3.451697) vet (3.384368) tire (3.362817) wax (3.207559) polish (3.091332) 
mexican (2.765489) salsa (2.615509) dish (2.605016) steak (2.462123) taco (2.450352) chicken (2.409047) burrito (2.370657) entre (2.367925) frite (2.335522) chipotl (2.315402) 
pho (3.539408) wing (3.336601) vietnames (2.793558) cod (2.726451) jerk (2.671621) mickey (2.540581) buffalo (2.515500) saigon (2.513710) fudg (2.505375) owl (2.466114) 
cab (4.092356) theater (3.880494) movi (3.816716) sub (3.500825) bike (3.492209) merchant (3.338457) woodman (3.218615) driver (3.189217) ticket (3.151513) sundanc (3.072226) 
sushi (3.310450) gyro (3.282625) korean (3.076956) asian (2.877363) irish (2.733494) tofu (2.672675) ring (2.638337) japanes (2.592271) takara (2.581206) fountain (2.555423) 
Error (train/valid/test) = 0.406679/1.514918/1.500836 (0.035857)
..................................................
energy after gradient step = 63997341.115559

Top words for each topic:
hair (4.105959) massag (3.996181) crepe (3.987017) falafel (3.747036) stylist (3.746276) banzo (3.555843) donut (3.448192) bradburi (3.372173) doughnut (3.195727) librari (3.180561) 
dumpl (3.510083) belli (2.826589) cooper (2.799898) walmart (2.654091) goat (2.651110) chines (2.642985) pelmeni (2.566484) fat (2.544917) truffl (2.541696) heritag (2.533404) 
cupcak (4.653065) ramen (4.200657) frost (4.035864) yarn (4.010896) dentist (3.896386) dr (3.859043) tea (3.540002) espresso (3.526037) haircut (3.499408) latt (3.487514) 
class (4.045726) zoo (3.976323) gym (3.954296) yoga (3.670630) dog (3.638794) mustard (3.596715) airport (3.573917) instructor (3.450636) anim (3.399453) farmer (3.374085) 
indian (4.332282) naan (3.924699) hotel (3.922520) buffet (3.803462) wifi (3.746924) target (3.716974) shuttl (3.609772) barista (3.542009) terrac (3.499852) masala (3.387720) 
bagel (4.140084) nail (4.076295) pedicur (3.844019) salon (3.631190) manicur (3.517909) boot (3.490143) vet (3.466428) tire (3.431931) wax (3.321765) polish (3.203161) 
mexican (2.825661) dish (2.717969) salsa (2.629291) steak (2.570652) taco (2.511407) chicken (2.504258) entre (2.465292) restaur (2.388896) frite (2.369720) beer (2.369106) 
pho (3.668706) wing (3.487469) vietnames (2.874727) cod (2.847778) jerk (2.722162) mickey (2.672920) buffalo (2.667783) saigon (2.641622) ian (2.599278) fudg (2.572690) 
cab (4.203843) theater (3.969745) movi (3.933761) sub (3.610483) bike (3.589495) merchant (3.362784) woodman (3.302400) driver (3.270249) ticket (3.264552) sundanc (3.170325) 
sushi (3.485886) gyro (3.300981) korean (3.192702) asian (3.002735) thai (2.758089) roll (2.742713) tofu (2.723885) irish (2.677487) ring (2.672052) takara (2.619790) 
Error (train/valid/test) = 0.406521/1.522148/1.508554 (0.034661)
..................................................
energy after gradient step = 63462884.860861

Top words for each topic:
hair (4.281989) massag (4.133707) crepe (3.985730) falafel (3.851493) stylist (3.841280) banzo (3.612452) donut (3.570210) bradburi (3.485587) doughnut (3.282857) cut (3.201891) 
dumpl (3.584894) belli (2.933765) cooper (2.810804) chines (2.748462) walmart (2.700697) goat (2.651537) fat (2.570861) pelmeni (2.570703) chees (2.553864) heritag (2.493993) 
cupcak (4.818945) ramen (4.220492) yarn (4.120202) dr (4.110290) frost (4.105204) dentist (4.011266) tea (3.769580) espresso (3.694937) latt (3.638451) barriqu (3.530370) 
class (4.113507) gym (4.062611) zoo (4.043228) yoga (3.793430) dog (3.698417) airport (3.680608) mustard (3.670001) instructor (3.539972) anim (3.517879) farmer (3.419547) 
indian (4.446155) hotel (4.150565) naan (3.966664) buffet (3.930361) wifi (3.838902) target (3.763059) shuttl (3.705138) barista (3.636934) terrac (3.596488) desk (3.493109) 
bagel (4.171846) nail (4.124805) pedicur (3.870791) salon (3.630891) manicur (3.580028) boot (3.576207) vet (3.520450) tire (3.454141) wax (3.357635) polish (3.188311) 
mexican (2.826504) dish (2.755470) steak (2.656442) salsa (2.607594) chicken (2.583379) taco (2.567522) restaur (2.527573) entre (2.524590) beer (2.483441) fri (2.479490) 
pho (3.858093) wing (3.602151) vietnames (3.173272) cod (2.898245) mickey (2.800049) saigon (2.770063) jerk (2.758687) muramoto (2.745139) ian (2.725297) buffalo (2.712724) 
cab (4.287465) theater (4.102416) movi (4.032100) bike (3.743854) sub (3.692656) woodman (3.481277) merchant (3.478909) ticket (3.376727) driver (3.305151) sundanc (3.226707) 
sushi (3.712631) gyro (3.390634) korean (3.213052) thai (3.071675) asian (3.040441) roll (2.982454) tofu (2.912220) ring (2.761183) irish (2.750558) noodl (2.687180) 
Error (train/valid/test) = 0.401498/1.517652/1.506816 (0.035895)
..................................................
energy after gradient step = 62944367.246026

Top words for each topic:
hair (4.370525) crepe (4.190371) massag (4.094103) stylist (3.964151) falafel (3.852365) banzo (3.782933) donut (3.741597) bradburi (3.592437) haircut (3.534990) doughnut (3.404230) 
dumpl (3.683937) belli (2.997556) chees (2.809033) goat (2.807258) chines (2.805018) walmart (2.768396) cooper (2.732996) fat (2.692584) pelmeni (2.637425) willi (2.561627) 
cupcak (4.923880) ramen (4.442842) frost (4.274651) yarn (4.237920) dr (4.168229) dentist (4.099653) tea (3.877110) latt (3.868928) espresso (3.771305) knit (3.669540) 
class (4.194844) gym (4.125508) zoo (4.102537) yoga (3.852436) dog (3.808611) airport (3.751244) mustard (3.690722) instructor (3.574633) anim (3.542922) farmer (3.479683) 
indian (4.467354) hotel (4.249660) naan (4.052457) buffet (3.975100) wifi (3.875277) target (3.802480) shuttl (3.797307) terrac (3.666247) barista (3.619966) desk (3.578934) 
bagel (4.263650) nail (4.164609) pedicur (3.909682) salon (3.682652) tire (3.595029) manicur (3.594132) vet (3.547319) boot (3.492316) wax (3.392503) polish (3.183266) 
mexican (2.880061) dish (2.839072) steak (2.733569) taco (2.659648) restaur (2.649217) salsa (2.644934) entre (2.627251) fri (2.618063) chicken (2.601400) menu (2.538961) 
pho (3.962179) wing (3.747026) vietnames (3.176366) ian (2.982765) muramoto (2.970400) saigon (2.950599) mickey (2.934523) cod (2.932453) jerk (2.828537) fudg (2.766994) 
cab (4.329843) theater (4.175776) movi (4.127963) bike (3.809028) sub (3.757362) woodman (3.543064) merchant (3.480746) driver (3.448772) ticket (3.417992) sundanc (3.347804) 
sushi (3.817932) gyro (3.442412) korean (3.302960) thai (3.208319) asian (3.111685) roll (3.057121) tofu (3.012616) japanes (2.865764) noodl (2.856926) chines (2.798503) 
Error (train/valid/test) = 0.398162/1.521082/1.508049 (0.035157)
..................................................
energy after gradient step = 62443963.736063

Top words for each topic:
hair (4.469280) massag (4.187036) crepe (4.174724) stylist (4.098642) falafel (4.022657) haircut (3.960549) donut (3.874004) banzo (3.837731) bradburi (3.678256) doughnut (3.502019) 
dumpl (3.774715) belli (3.036441) chees (2.962350) cooper (2.853733) fat (2.816573) goat (2.801160) chines (2.795994) walmart (2.783971) pelmeni (2.731833) gravi (2.660978) 
cupcak (5.076151) ramen (4.413136) frost (4.395725) yarn (4.296791) dr (4.283785) dentist (4.220664) latt (4.033077) tea (4.010198) espresso (3.909547) barriqu (3.866575) 
class (4.246471) gym (4.189518) zoo (4.146595) dog (3.867904) yoga (3.845342) airport (3.820912) mustard (3.718338) instructor (3.704472) farmer (3.508700) anim (3.506425) 
indian (4.549275) hotel (4.378440) buffet (4.009381) naan (3.968528) wifi (3.963465) target (3.785529) shuttl (3.769217) barista (3.761141) terrac (3.687617) desk (3.624704) 
bagel (4.312550) nail (4.225313) pedicur (3.943277) salon (3.700207) manicur (3.649199) tire (3.648008) boot (3.612464) vet (3.594214) wax (3.464203) polish (3.322406) 
mexican (2.924921) dish (2.907075) steak (2.793820) fri (2.746891) taco (2.704005) restaur (2.685783) entre (2.681467) chicken (2.678046) salsa (2.675122) menu (2.669292) 
pho (4.123047) wing (3.916823) vietnames (3.362930) mickey (3.106404) ian (3.069157) saigon (3.015102) muramoto (2.995872) buffalo (2.948789) cod (2.939343) fudg (2.920352) 
cab (4.473533) theater (4.228421) movi (4.162098) bike (3.887991) sub (3.847147) woodman (3.614655) ticket (3.584817) driver (3.531859) merchant (3.480212) sundanc (3.426590) 
sushi (3.981929) gyro (3.503887) thai (3.418933) korean (3.390957) roll (3.294780) asian (3.223930) tofu (3.167927) chines (3.022557) noodl (2.996157) takara (2.890910) 
Error (train/valid/test) = 0.393543/1.522862/1.511769 (0.035609)
..................................................
energy after gradient step = 62051176.381484

Top words for each topic:
hair (4.598370) crepe (4.291160) massag (4.221784) stylist (4.100755) haircut (4.047715) falafel (4.032908) donut (3.982050) banzo (3.921233) bradburi (3.726850) doughnut (3.643754) 
dumpl (3.858606) chees (3.154095) belli (3.048571) cooper (2.886332) fat (2.792893) walmart (2.773197) truffl (2.764193) goat (2.756889) pelmeni (2.748505) chines (2.743617) 
cupcak (5.152231) ramen (4.576857) frost (4.476420) dr (4.384219) yarn (4.376279) dentist (4.307855) tea (4.170061) latt (4.094844) espresso (4.037324) barriqu (3.912488) 
class (4.366510) gym (4.252888) zoo (4.183703) dog (3.976241) yoga (3.976217) airport (3.848560) instructor (3.754348) mustard (3.752713) farmer (3.592926) anim (3.548185) 
indian (4.554114) hotel (4.527159) naan (4.069768) buffet (4.019618) wifi (3.980164) target (3.843684) shuttl (3.829618) terrac (3.706830) stay (3.686297) barista (3.681556) 
bagel (4.309430) nail (4.209039) pedicur (3.956864) salon (3.754381) manicur (3.661502) tire (3.601259) boot (3.576955) vet (3.575867) wax (3.433316) polish (3.259016) 
mexican (2.881484) steak (2.862985) dish (2.846296) fri (2.807782) restaur (2.753722) taco (2.725607) entre (2.705793) menu (2.701443) meal (2.690228) salsa (2.665330) 
pho (4.320268) wing (4.102928) vietnames (3.482493) ian (3.192835) mickey (3.192075) muramoto (3.112263) saigon (3.094296) fudg (3.020576) buffalo (3.002028) jerk (2.960409) 
cab (4.437449) theater (4.314847) movi (4.247588) bike (3.942932) sub (3.848266) woodman (3.706969) merchant (3.638945) ticket (3.556236) driver (3.541237) pizza (3.508512) 
sushi (4.092292) thai (3.528675) gyro (3.497603) korean (3.442585) roll (3.409749) asian (3.232813) noodl (3.195630) chines (3.184437) tofu (3.159985) spici (2.993044) 
Error (train/valid/test) = 0.395035/1.525386/1.521709 (0.035407)
..................................................
energy after gradient step = 61672525.482345

Top words for each topic:
hair (4.669952) massag (4.405188) crepe (4.345392) stylist (4.297311) haircut (4.246322) donut (4.133784) falafel (4.116920) banzo (3.963239) bradburi (3.826981) doughnut (3.769882) 
dumpl (3.896588) chees (3.308949) belli (3.227869) cooper (2.964390) gravi (2.898804) fat (2.881705) pelmeni (2.831537) willi (2.820108) walmart (2.802862) bun (2.789638) 
cupcak (5.279745) ramen (4.604661) frost (4.572140) yarn (4.448269) dr (4.395206) dentist (4.386291) latt (4.282067) tea (4.250960) espresso (4.129923) barriqu (4.068457) 
class (4.361818) gym (4.344096) zoo (4.278548) yoga (4.067436) dog (3.990766) airport (3.953170) instructor (3.802944) mustard (3.793040) anim (3.666046) farmer (3.637984) 
indian (4.653003) hotel (4.646565) naan (4.120153) buffet (4.098298) wifi (4.049953) shuttl (3.888713) target (3.842174) terrac (3.784929) bed (3.778185) barista (3.756933) 
bagel (4.353077) nail (4.269101) pedicur (3.973099) salon (3.700400) tire (3.671234) manicur (3.669764) vet (3.641524) boot (3.566893) wax (3.483677) polish (3.395397) 
fri (2.921401) steak (2.915043) mexican (2.912081) dish (2.879392) restaur (2.800972) taco (2.795679) menu (2.762098) entre (2.761631) meal (2.751848) server (2.723505) 
pho (4.406028) wing (4.184095) vietnames (3.611295) ian (3.394909) muramoto (3.362013) mickey (3.271078) saigon (3.237800) buffalo (3.098392) fudg (3.093520) jerk (3.032879) 
cab (4.655341) theater (4.384199) movi (4.268366) bike (4.054717) sub (3.946755) woodman (3.796564) pizza (3.717857) ticket (3.685335) driver (3.611763) merchant (3.576582) 
sushi (4.270313) thai (3.705243) roll (3.554418) gyro (3.551867) korean (3.407723) asian (3.364756) noodl (3.363521) chines (3.352281) tofu (3.209293) spici (3.086679) 
Error (train/valid/test) = 0.391837/1.523567/1.527403 (0.036323)
..................................................
energy after gradient step = 61361250.765616

Top words for each topic:
hair (4.739576) crepe (4.447896) massag (4.400080) stylist (4.299605) haircut (4.232911) falafel (4.196162) donut (4.138073) banzo (4.033588) bradburi (3.871445) doughnut (3.776364) 
dumpl (3.949113) chees (3.439117) belli (3.155896) truffl (2.978950) cooper (2.945602) fat (2.872149) bun (2.867138) pelmeni (2.866526) gravi (2.860851) walmart (2.793733) 
cupcak (5.334620) ramen (4.748891) frost (4.562364) yarn (4.513248) dr (4.480155) dentist (4.393567) latt (4.356557) tea (4.275934) espresso (4.150914) barriqu (4.026636) 
class (4.447727) gym (4.385447) zoo (4.280272) yoga (4.117506) dog (4.023937) airport (3.949443) instructor (3.880925) mustard (3.742238) anim (3.708596) workout (3.588230) 
hotel (4.734799) indian (4.640736) naan (4.142314) buffet (4.072885) wifi (4.020293) bed (3.934887) shuttl (3.929066) target (3.896346) terrac (3.794613) barista (3.792457) 
bagel (4.363792) nail (4.264597) pedicur (3.990553) manicur (3.692849) salon (3.670973) tire (3.666380) boot (3.626617) vet (3.625376) wax (3.452278) polish (3.367820) 
steak (2.965467) fri (2.947549) mexican (2.943618) restaur (2.864155) menu (2.858714) dish (2.845030) meal (2.831206) entre (2.829513) taco (2.823965) server (2.821510) 
pho (4.595732) wing (4.378413) vietnames (3.794681) muramoto (3.479382) mickey (3.412374) ian (3.400273) saigon (3.342865) buffalo (3.254805) fudg (3.253583) jerk (3.078863) 
cab (4.544774) theater (4.419659) movi (4.327386) bike (4.111469) sub (3.938872) woodman (3.845609) pizza (3.803555) ticket (3.704373) merchant (3.698390) driver (3.616189) 
sushi (4.358173) thai (3.819083) roll (3.652667) gyro (3.553304) korean (3.545224) chines (3.489643) noodl (3.478947) asian (3.349186) curri (3.244357) pizza (3.210319) 
Error (train/valid/test) = 0.397531/1.535793/1.542181 (0.037155)
..................................................
energy after gradient step = 61090477.064312

Top words for each topic:
hair (4.799002) massag (4.491199) crepe (4.487244) haircut (4.432002) stylist (4.397604) donut (4.235414) falafel (4.174592) banzo (4.092061) bradburi (3.989006) doughnut (3.896995) 
dumpl (3.976558) chees (3.581041) belli (3.271967) gravi (2.963261) truffl (2.942047) pelmeni (2.916423) cooper (2.879326) bun (2.874445) willi (2.838072) walmart (2.822640) 
cupcak (5.400761) ramen (4.758187) frost (4.665442) yarn (4.532756) dr (4.504580) latt (4.442850) dentist (4.439837) tea (4.310320) espresso (4.270050) coffe (4.259756) 
class (4.512038) gym (4.450982) zoo (4.382167) yoga (4.191198) dog (4.023612) airport (4.018982) instructor (3.949931) anim (3.742930) mustard (3.740041) workout (3.684469) 
hotel (4.850948) indian (4.683243) naan (4.148598) wifi (4.093204) buffet (4.075811) bed (4.022369) shuttl (3.899033) terrac (3.869423) target (3.824828) stay (3.808470) 
bagel (4.422858) nail (4.313881) pedicur (3.991514) tire (3.729176) manicur (3.681067) vet (3.634564) boot (3.603402) salon (3.557291) wax (3.515508) polish (3.332674) 
steak (3.083871) fri (3.044778) mexican (3.029138) restaur (2.932663) dish (2.930256) menu (2.910047) meal (2.901394) entre (2.889523) taco (2.887510) server (2.875334) 
pho (4.681594) wing (4.452728) vietnames (3.799669) ian (3.635593) muramoto (3.614982) mickey (3.584529) saigon (3.498670) buffalo (3.435302) fudg (3.349418) children (3.166059) 
cab (4.690711) theater (4.484624) movi (4.355124) bike (4.151916) sub (4.038869) pizza (4.011358) woodman (3.921434) driver (3.703947) ticket (3.696459) merchant (3.674056) 
sushi (4.422136) thai (3.937972) roll (3.776660) noodl (3.655687) chines (3.625827) gyro (3.615429) korean (3.544735) asian (3.436809) pizza (3.407067) curri (3.406372) 
Error (train/valid/test) = 0.383997/1.529223/1.539067 (0.036613)
..................................................
energy after gradient step = 60754956.227898

Top words for each topic:
hair (4.877770) crepe (4.572168) massag (4.547475) haircut (4.506312) stylist (4.474383) donut (4.275591) falafel (4.259173) banzo (4.175152) bradburi (4.021256) doughnut (3.950684) 
dumpl (4.006973) chees (3.667809) belli (3.296269) truffl (2.970194) sandwich (2.968980) pelmeni (2.938259) gravi (2.932032) cooper (2.905104) marigold (2.903003) bun (2.890650) 
cupcak (5.481512) ramen (4.837379) frost (4.733997) yarn (4.601952) dentist (4.508902) latt (4.501429) dr (4.486086) coffe (4.438934) tea (4.386980) espresso (4.262343) 
class (4.598390) gym (4.556234) zoo (4.436213) yoga (4.236965) airport (4.042255) instructor (4.034609) dog (4.032026) mustard (3.811368) workout (3.778290) anim (3.705048) 
hotel (4.922802) indian (4.716752) naan (4.205948) buffet (4.137935) wifi (4.088811) bed (4.022035) shuttl (3.974299) target (3.905165) terrac (3.861985) stay (3.853133) 
bagel (4.404861) nail (4.317184) pedicur (3.991721) tire (3.736137) manicur (3.710935) vet (3.690401) boot (3.590496) wax (3.533640) salon (3.480670) car (3.378422) 
fri (3.114801) steak (3.111576) mexican (3.055430) dish (2.970999) menu (2.953809) meal (2.951491) restaur (2.946252) server (2.944189) taco (2.941611) entre (2.937134) 
pho (4.903156) wing (4.637956) vietnames (4.005843) muramoto (3.747379) mickey (3.720235) ian (3.702273) saigon (3.624410) buffalo (3.621808) fudg (3.444055) luci (3.281269) 
cab (4.683830) theater (4.565880) movi (4.432179) bike (4.233655) pizza (4.107318) woodman (4.023914) sub (3.975913) ticket (3.768211) merchant (3.763072) driver (3.703293) 
sushi (4.492389) thai (4.035956) roll (3.808504) chines (3.772169) noodl (3.771917) gyro (3.597477) korean (3.596382) pizza (3.573817) curri (3.541696) asian (3.510205) 
Error (train/valid/test) = 0.379231/1.531256/1.540283 (0.036405)
..................................................
energy after gradient step = 60525426.196427

Top words for each topic:
hair (4.934205) massag (4.610312) crepe (4.602809) haircut (4.586116) stylist (4.555426) donut (4.411881) falafel (4.303967) banzo (4.210307) bradburi (4.070820) doughnut (3.981348) 
dumpl (4.024473) chees (3.726764) belli (3.366533) sandwich (3.135191) gravi (3.043984) truffl (2.994835) pelmeni (2.960787) diner (2.948943) bun (2.931407) egg (2.918179) 
cupcak (5.523975) ramen (4.840201) frost (4.787490) coffe (4.613985) yarn (4.608013) latt (4.579905) dr (4.568532) dentist (4.546357) tea (4.415127) espresso (4.323698) 
class (4.639228) gym (4.586913) zoo (4.454893) yoga (4.333074) instructor (4.091343) airport (4.088752) dog (4.014985) anim (3.821406) workout (3.809624) studio (3.736177) 
hotel (4.961661) indian (4.761714) naan (4.216553) buffet (4.153960) wifi (4.148268) bed (4.119858) shuttl (4.007825) terrac (3.890070) stay (3.871998) barista (3.859672) 
bagel (4.408265) nail (4.330398) pedicur (4.016879) manicur (3.715957) tire (3.703617) vet (3.683666) boot (3.593042) wax (3.513054) car (3.445084) salon (3.398394) 
steak (3.184353) fri (3.174251) mexican (3.095432) entre (2.990658) menu (2.989358) meal (2.987989) dish (2.980006) server (2.979366) restaur (2.978286) taco (2.974679) 
pho (4.970123) wing (4.732869) vietnames (4.057775) mickey (3.833682) saigon (3.823268) muramoto (3.811615) ian (3.659485) buffalo (3.656762) fudg (3.500488) luci (3.367613) 
cab (4.755694) theater (4.562599) movi (4.430582) bike (4.285032) pizza (4.169956) sub (4.095867) woodman (4.047342) merchant (3.843076) ticket (3.791915) driver (3.729265) 
sushi (4.557551) thai (4.096301) chines (3.875048) noodl (3.852655) roll (3.851857) pizza (3.704651) gyro (3.653895) korean (3.619129) curri (3.617592) asian (3.575981) 
Error (train/valid/test) = 0.374969/1.534260/1.544217 (0.036430)
..................................................
energy after gradient step = 60322797.151499

Top words for each topic:
hair (4.965565) massag (4.726003) haircut (4.693837) crepe (4.670664) stylist (4.618314) donut (4.468941) falafel (4.356704) banzo (4.259268) bradburi (4.136967) salon (4.102319) 
dumpl (4.056265) chees (3.827917) belli (3.384609) sandwich (3.295367) breakfast (3.105605) gravi (3.082206) truffl (3.043780) diner (3.042523) egg (3.028132) bun (2.970567) 
cupcak (5.577155) ramen (4.875818) frost (4.814094) coffe (4.751360) yarn (4.640311) latt (4.595070) dr (4.565540) dentist (4.561755) tea (4.508848) espresso (4.441340) 
class (4.695594) gym (4.660999) zoo (4.555525) yoga (4.343267) instructor (4.170051) airport (4.135363) dog (4.103070) workout (3.938210) mustard (3.897184) anim (3.875387) 
hotel (5.029378) indian (4.771048) naan (4.235874) buffet (4.178433) bed (4.177206) wifi (4.102310) shuttl (3.998138) stay (3.923241) terrac (3.916894) desk (3.900004) 
bagel (4.447653) nail (4.345883) pedicur (4.014784) tire (3.758278) vet (3.724521) manicur (3.720252) boot (3.549762) car (3.514059) wax (3.494095) polish (3.355567) 
steak (3.285541) fri (3.280901) mexican (3.165369) entre (3.072240) taco (3.044196) menu (3.039574) meal (3.039193) burger (3.030306) server (3.025289) dish (2.999819) 
pho (5.111542) wing (4.806123) vietnames (4.165549) muramoto (4.030112) mickey (3.909786) saigon (3.908984) buffalo (3.744098) fudg (3.672126) ian (3.640827) luci (3.555110) 
cab (4.787227) theater (4.637965) movi (4.477395) bike (4.326071) pizza (4.195963) woodman (4.083647) sub (4.066402) merchant (3.903772) ticket (3.895505) sundanc (3.790317) 
sushi (4.600655) thai (4.163972) chines (3.987647) noodl (3.956123) roll (3.940591) pizza (3.852138) curri (3.704661) gyro (3.618399) asian (3.613710) korean (3.604304) 
Error (train/valid/test) = 0.367966/1.545591/1.549403 (0.036416)
..................................................
energy after gradient step = 60063064.600182

Top words for each topic:
hair (5.017601) haircut (4.724941) massag (4.708755) crepe (4.686459) stylist (4.684622) donut (4.532386) falafel (4.363655) banzo (4.334792) doughnut (4.207261) bradburi (4.201812) 
dumpl (4.072977) chees (3.911709) sandwich (3.450265) belli (3.379800) breakfast (3.298213) pancak (3.200999) diner (3.159317) gravi (3.137274) egg (3.127757) truffl (3.089802) 
cupcak (5.622639) ramen (4.916087) frost (4.853816) coffe (4.849375) latt (4.710640) yarn (4.663542) dentist (4.566141) tea (4.558071) dr (4.548795) scone (4.449131) 
gym (4.780523) class (4.710663) zoo (4.572848) yoga (4.497960) instructor (4.257540) airport (4.230950) dog (4.150692) workout (3.955593) genna (3.876089) studio (3.846511) 
hotel (5.073641) indian (4.802363) naan (4.261312) buffet (4.191016) wifi (4.184540) bed (4.181505) shuttl (4.087349) target (3.990837) terrac (3.963066) stay (3.947011) 
bagel (4.444716) nail (4.347830) pedicur (4.026350) tire (3.749130) manicur (3.717522) vet (3.702859) wax (3.574890) boot (3.561503) car (3.546030) polish (3.396026) 
fri (3.345346) steak (3.335857) mexican (3.212434) entre (3.134526) taco (3.095481) server (3.093533) menu (3.084464) burger (3.082016) meal (3.057629) dish (3.030202) 
pho (5.270949) wing (4.946227) vietnames (4.283493) mickey (4.109716) muramoto (4.078926) saigon (4.042111) buffalo (3.768107) fudg (3.700099) jolli (3.685347) luci (3.680797) 
cab (4.849593) theater (4.660851) movi (4.511243) bike (4.378844) pizza (4.243716) woodman (4.176168) sub (4.142221) merchant (3.932371) union (3.874950) ticket (3.853620) 
sushi (4.633025) thai (4.207761) chines (4.083108) noodl (4.006271) roll (3.983641) pizza (3.975274) curri (3.792727) korean (3.657444) gyro (3.640391) asian (3.622867) 
Error (train/valid/test) = 0.364699/1.547663/1.554640 (0.036528)
..................................................
energy after gradient step = 59852454.523717

Top words for each topic:
hair (5.059785) haircut (4.823757) crepe (4.785380) massag (4.773705) stylist (4.753927) donut (4.576963) banzo (4.384083) falafel (4.365611) salon (4.264975) bradburi (4.185577) 
dumpl (4.099469) chees (3.966689) sandwich (3.500262) breakfast (3.411731) belli (3.399843) pancak (3.357931) egg (3.189782) gravi (3.167521) diner (3.162737) truffl (3.136554) 
cupcak (5.654965) coffe (4.986531) ramen (4.957290) frost (4.852376) yarn (4.690630) latt (4.678187) dentist (4.582326) tea (4.578877) dr (4.565435) scone (4.486799) 
gym (4.778765) class (4.759072) zoo (4.617034) yoga (4.488808) instructor (4.287392) airport (4.166660) dog (4.128737) workout (4.048379) genna (3.954638) vendor (3.905582) 
hotel (5.115843) indian (4.820776) naan (4.310489) buffet (4.212473) wifi (4.180418) bed (4.175758) shuttl (4.121891) stay (4.011365) masala (3.988786) terrac (3.960451) 
bagel (4.453328) nail (4.365923) pedicur (4.023643) tire (3.760128) vet (3.749076) manicur (3.726314) car (3.585965) wax (3.571831) boot (3.559921) polish (3.342568) 
fri (3.411449) steak (3.406821) mexican (3.253588) server (3.185198) entre (3.173648) burger (3.172380) taco (3.160407) menu (3.104237) meal (3.094720) beer (3.083366) 
pho (5.349666) wing (5.057782) vietnames (4.319207) mickey (4.195459) saigon (4.171992) muramoto (4.103531) fudg (3.870104) buffalo (3.866497) luci (3.748322) jolli (3.746596) 
cab (4.864130) theater (4.730268) movi (4.529780) bike (4.403318) pizza (4.293189) woodman (4.207696) sub (4.139315) union (3.962525) merchant (3.874396) ticket (3.863709) 
sushi (4.675825) thai (4.233200) chines (4.152675) pizza (4.090485) noodl (4.042224) roll (3.981338) curri (3.856972) korean (3.662773) gyro (3.655300) asian (3.633135) 
Error (train/valid/test) = 0.360555/1.552685/1.559259 (0.036659)
..................................................
energy after gradient step = 59640387.678320

Top words for each topic:
hair (5.103695) haircut (4.866104) massag (4.846230) crepe (4.810899) stylist (4.794978) donut (4.649156) falafel (4.440057) banzo (4.421836) salon (4.348335) bradburi (4.275130) 
dumpl (4.103195) chees (4.007735) sandwich (3.589526) breakfast (3.551789) pancak (3.489036) belli (3.409354) diner (3.281494) egg (3.266475) gravi (3.211986) truffl (3.114148) 
cupcak (5.695916) coffe (5.073716) ramen (4.935966) frost (4.913564) latt (4.834741) yarn (4.707011) tea (4.649284) dentist (4.630365) dr (4.620573) scone (4.545718) 
gym (4.859610) class (4.827348) zoo (4.639946) yoga (4.533632) instructor (4.327581) airport (4.273116) dog (4.133476) workout (4.067311) genna (3.965478) anim (3.945523) 
hotel (5.158574) indian (4.870791) naan (4.322742) buffet (4.289197) bed (4.223322) wifi (4.215743) shuttl (4.164861) masala (4.021768) terrac (4.012232) stay (4.004247) 
bagel (4.442289) nail (4.372123) pedicur (4.046135) tire (3.792151) manicur (3.747777) vet (3.725773) car (3.618949) boot (3.597978) wax (3.569571) repair (3.383758) 
steak (3.464985) fri (3.460236) mexican (3.293118) burger (3.278440) server (3.231166) taco (3.197949) entre (3.195155) beer (3.112860) meal (3.109059) menu (3.097077) 
pho (5.512249) wing (5.168566) vietnames (4.447948) mickey (4.305156) saigon (4.301127) muramoto (4.212221) fudg (3.978006) buffalo (3.967686) luci (3.865063) jolli (3.832002) 
cab (4.871904) theater (4.752394) movi (4.512480) bike (4.439911) pizza (4.322881) woodman (4.206470) sub (4.126527) union (4.018699) sundanc (3.896813) ticket (3.883900) 
sushi (4.690762) thai (4.264379) pizza (4.188098) chines (4.187884) noodl (4.066989) roll (4.001734) curri (3.897761) korean (3.682834) asian (3.674213) rice (3.674042) 
Error (train/valid/test) = 0.356401/1.559308/1.563740 (0.036776)
..................................................
energy after gradient step = 59470514.661591

Top words for each topic:
hair (5.121095) haircut (4.993145) massag (4.955646) stylist (4.878751) crepe (4.786034) donut (4.719835) salon (4.512298) banzo (4.478338) falafel (4.449306) bradburi (4.298437) 
dumpl (4.074141) chees (4.039124) breakfast (3.690587) sandwich (3.674451) pancak (3.563952) belli (3.445287) egg (3.379673) diner (3.325453) gravi (3.165605) bun (3.128720) 
cupcak (5.728614) coffe (5.140796) ramen (4.974432) frost (4.933726) latt (4.802651) yarn (4.730216) tea (4.672736) dentist (4.642513) scone (4.606076) espresso (4.500074) 
gym (4.859517) class (4.828627) zoo (4.733054) yoga (4.644493) instructor (4.354824) airport (4.246263) dog (4.173471) workout (4.160554) genna (4.024169) museum (3.993601) 
hotel (5.227132) indian (4.883750) naan (4.342331) buffet (4.333639) bed (4.228886) wifi (4.209748) shuttl (4.172188) masala (4.120609) terrac (4.048779) target (4.018090) 
bagel (4.449144) nail (4.398388) pedicur (4.036696) tire (3.805271) vet (3.764270) manicur (3.723938) car (3.668070) wax (3.604969) boot (3.535296) repair (3.434854) 
fri (3.525651) steak (3.520778) burger (3.376609) mexican (3.353340) taco (3.296410) server (3.291335) entre (3.222865) beer (3.189853) menu (3.150408) meal (3.148033) 
pho (5.601271) wing (5.247824) vietnames (4.680951) mickey (4.445836) saigon (4.373727) muramoto (4.262237) fudg (4.123698) buffalo (4.094637) jolli (3.959681) luci (3.952419) 
cab (4.932271) theater (4.755017) movi (4.535692) bike (4.443252) woodman (4.313996) pizza (4.297337) sub (4.178855) union (4.080580) sundanc (3.965282) ticket (3.930736) 
sushi (4.717042) thai (4.303258) pizza (4.289041) chines (4.248247) noodl (4.117702) roll (4.048289) curri (3.989779) rice (3.770544) korean (3.713778) gyro (3.699909) 
Error (train/valid/test) = 0.350034/1.566117/1.569430 (0.036932)
..................................................
energy after gradient step = 59271250.337029

Top words for each topic:
hair (5.131144) haircut (5.016319) massag (5.007845) stylist (4.955445) crepe (4.875595) donut (4.736192) banzo (4.571387) salon (4.497886) falafel (4.416883) bradburi (4.347371) 
chees (4.108725) dumpl (4.033225) breakfast (3.839469) sandwich (3.767638) pancak (3.653755) egg (3.422231) belli (3.420564) diner (3.383221) gravi (3.278295) meat (3.162271) 
cupcak (5.757678) coffe (5.199866) ramen (4.992602) frost (4.950475) latt (4.887063) yarn (4.730471) tea (4.702779) dentist (4.632419) scone (4.567644) espresso (4.549487) 
gym (4.963428) class (4.865756) zoo (4.755899) yoga (4.641763) instructor (4.455010) airport (4.331338) dog (4.218858) workout (4.205485) genna (4.067640) studio (4.026342) 
hotel (5.270247) indian (4.916281) naan (4.379235) buffet (4.373494) bed (4.301465) shuttl (4.249430) wifi (4.243210) masala (4.127235) inn (4.047735) stay (4.017701) 
bagel (4.477759) nail (4.409975) pedicur (4.078979) tire (3.844376) vet (3.793628) manicur (3.792024) car (3.691168) wax (3.629598) boot (3.579174) repair (3.470321) 
steak (3.592495) fri (3.582590) burger (3.451898) mexican (3.391551) taco (3.360456) server (3.307376) entre (3.286209) beer (3.231503) meal (3.174902) menu (3.155395) 
pho (5.719118) wing (5.390257) vietnames (4.636502) saigon (4.525495) mickey (4.488363) muramoto (4.181230) fudg (4.161341) jolli (4.109229) luci (4.055171) piano (4.049549) 
cab (4.945101) theater (4.824670) movi (4.546757) bike (4.454021) woodman (4.359425) pizza (4.295526) sub (4.121733) union (4.099873) sundanc (4.024029) ian (4.000450) 
sushi (4.753715) pizza (4.364120) thai (4.342699) chines (4.315457) noodl (4.183413) curri (4.045844) roll (3.998897) rice (3.809215) asian (3.703183) korean (3.701370) 
Error (train/valid/test) = 0.344381/1.573080/1.582017 (0.037260)
..................................................
energy after gradient step = 59110725.298218

Top words for each topic:
hair (5.197964) haircut (5.136170) massag (5.069898) stylist (5.029913) crepe (4.885477) donut (4.742995) salon (4.618915) banzo (4.607705) falafel (4.549349) doughnut (4.424127) 
chees (4.082115) dumpl (3.939748) breakfast (3.930988) sandwich (3.820236) pancak (3.725210) egg (3.565462) diner (3.436150) belli (3.401212) bread (3.328238) gravi (3.290449) 
cupcak (5.776122) coffe (5.280296) ramen (4.988666) frost (4.965228) latt (4.903931) yarn (4.765355) tea (4.700365) dentist (4.636357) scone (4.632669) espresso (4.590608) 
gym (4.988553) class (4.859548) zoo (4.801421) yoga (4.742312) instructor (4.512275) airport (4.322394) workout (4.248536) dog (4.217019) genna (4.160501) studio (4.021218) 
hotel (5.320882) indian (4.952273) buffet (4.456800) naan (4.448863) bed (4.311249) wifi (4.222396) shuttl (4.214900) masala (4.149707) terrac (4.123964) inn (4.103646) 
bagel (4.475831) nail (4.416734) pedicur (4.087267) tire (3.855135) vet (3.792639) manicur (3.769997) car (3.733078) wax (3.581243) repair (3.536388) boot (3.501317) 
fri (3.640401) steak (3.616058) burger (3.591444) mexican (3.453133) taco (3.435644) server (3.353845) entre (3.329962) beer (3.294067) menu (3.215756) salsa (3.214075) 
pho (5.796413) wing (5.495012) vietnames (4.767149) mickey (4.594615) saigon (4.568517) fudg (4.421750) jolli (4.195553) buffalo (4.193712) luci (4.167497) piano (4.155667) 
cab (4.953557) theater (4.823544) movi (4.553302) bike (4.452218) woodman (4.412184) pizza (4.213655) union (4.173598) ian (4.171573) sub (4.059403) sundanc (4.029158) 
sushi (4.804871) pizza (4.515791) thai (4.388024) chines (4.387417) noodl (4.211375) curri (4.088407) roll (4.004711) rice (3.899444) korean (3.779189) asian (3.735156) 
Error (train/valid/test) = 0.337087/1.583491/1.589819 (0.037485)
..................................................
energy after gradient step = 58941232.287975

Top words for each topic:
hair (5.256922) haircut (5.174722) massag (5.174292) stylist (5.038117) crepe (4.901708) donut (4.830942) salon (4.717376) banzo (4.611006) falafel (4.610711) bradburi (4.486798) 
chees (4.098442) breakfast (3.988828) sandwich (3.908814) dumpl (3.826494) pancak (3.791428) egg (3.617899) diner (3.440349) belli (3.406925) gravi (3.365190) bread (3.357513) 
cupcak (5.789038) coffe (5.306259) frost (4.955690) latt (4.946977) ramen (4.942281) yarn (4.740848) dentist (4.684948) tea (4.683748) scone (4.652543) espresso (4.601742) 
gym (5.031600) class (4.882550) zoo (4.863068) yoga (4.794618) instructor (4.567159) airport (4.342069) workout (4.275145) dog (4.215496) genna (4.181622) mustard (4.163347) 
hotel (5.377481) indian (4.979635) buffet (4.497137) naan (4.472123) bed (4.320588) shuttl (4.301049) wifi (4.268551) masala (4.262125) inn (4.136302) terrac (4.070358) 
bagel (4.484289) nail (4.422018) pedicur (4.114436) tire (3.864809) vet (3.827497) manicur (3.821082) car (3.782879) wax (3.660964) repair (3.528153) boot (3.509422) 
burger (3.722754) steak (3.694046) fri (3.676723) taco (3.497544) mexican (3.470912) server (3.445947) entre (3.358055) beer (3.333667) menu (3.264815) salsa (3.262285) 
pho (5.919553) wing (5.667216) vietnames (4.889872) mickey (4.728678) saigon (4.688640) fudg (4.420638) jolli (4.380611) luci (4.275995) stabl (4.266818) piano (4.266288) 
cab (5.002309) theater (4.866506) movi (4.552622) woodman (4.483746) bike (4.426254) union (4.252757) pizza (4.157254) ian (4.149755) theatr (4.039306) sundanc (4.039039) 
sushi (4.823284) pizza (4.612954) chines (4.420022) thai (4.401764) noodl (4.268961) curri (4.131200) roll (4.029768) rice (3.973920) dish (3.817859) korean (3.742842) 
Error (train/valid/test) = 0.331775/1.587166/1.591855 (0.037400)
..................................................
energy after gradient step = 58726047.874560

Top words for each topic:
hair (5.258300) haircut (5.254141) massag (5.242852) stylist (5.143755) crepe (4.964629) salon (4.932049) donut (4.876885) banzo (4.738443) falafel (4.569023) doughnut (4.493332) 
chees (4.097521) breakfast (4.033942) sandwich (3.975952) pancak (3.862502) dumpl (3.721542) egg (3.644532) diner (3.506894) toast (3.378230) belli (3.370453) bread (3.361686) 
cupcak (5.802483) coffe (5.341959) ramen (4.973108) frost (4.967084) latt (4.946194) yarn (4.762454) tea (4.714150) dentist (4.680710) espresso (4.636215) scone (4.622549) 
gym (5.102077) zoo (4.868214) class (4.866275) yoga (4.815106) instructor (4.649361) airport (4.437329) workout (4.367520) genna (4.263128) dog (4.225307) museum (4.200769) 
hotel (5.443399) indian (5.018134) naan (4.568521) buffet (4.518156) shuttl (4.366481) bed (4.354387) masala (4.252324) terrac (4.201766) inn (4.187003) wifi (4.117957) 
bagel (4.491709) nail (4.450857) pedicur (4.139712) tire (3.868604) vet (3.859268) car (3.831146) manicur (3.821868) wax (3.718004) repair (3.595999) boot (3.478046) 
burger (3.854321) steak (3.757042) fri (3.726519) taco (3.581948) mexican (3.533822) server (3.489218) beer (3.404055) entre (3.369635) salsa (3.304170) menu (3.254601) 
pho (6.060044) wing (5.779103) vietnames (5.051395) saigon (4.844617) mickey (4.791283) fudg (4.578417) jolli (4.488979) luci (4.414399) buffalo (4.402857) stabl (4.380633) 
cab (4.995307) theater (4.897902) movi (4.586948) bike (4.451958) woodman (4.398375) ian (4.327359) union (4.216341) pizza (4.123848) sundanc (4.086987) theatr (4.065414) 
sushi (4.835867) pizza (4.674924) chines (4.465300) thai (4.442123) noodl (4.290643) curri (4.161949) rice (3.991355) roll (3.990254) dish (3.826925) korean (3.779105) 
Error (train/valid/test) = 0.326818/1.592586/1.601792 (0.037683)
..................................................
energy after gradient step = 58583990.987387

Top words for each topic:
massag (5.322412) haircut (5.317404) hair (5.282752) stylist (5.217848) crepe (4.975236) donut (4.913460) salon (4.889873) banzo (4.749727) falafel (4.693509) bradburi (4.585654) 
chees (4.129912) breakfast (4.120598) sandwich (4.024247) pancak (3.969281) dumpl (3.664707) egg (3.659959) diner (3.564426) bread (3.421239) toast (3.413834) gravi (3.406279) 
cupcak (5.834020) coffe (5.339651) latt (5.003291) frost (5.002457) ramen (4.921081) yarn (4.764632) scone (4.710940) tea (4.709169) espresso (4.638473) dentist (4.612563) 
gym (5.126912) zoo (4.931537) yoga (4.906343) class (4.840352) instructor (4.691301) airport (4.394233) workout (4.390438) genna (4.304985) studio (4.276030) dog (4.258153) 
hotel (5.480750) indian (5.037192) naan (4.587401) buffet (4.566764) shuttl (4.389697) bed (4.363336) masala (4.340489) inn (4.315810) terrac (4.179179) stay (4.076789) 
bagel (4.511338) nail (4.471195) pedicur (4.159752) car (3.904198) vet (3.899458) manicur (3.861368) tire (3.840047) wax (3.677151) repair (3.640659) boot (3.493116) 
burger (3.939773) fri (3.813102) steak (3.793718) taco (3.647383) mexican (3.581017) server (3.531729) beer (3.417848) salsa (3.362708) entre (3.354963) waitress (3.333408) 
pho (6.123976) wing (5.854349) vietnames (4.990418) saigon (4.939341) mickey (4.848324) fudg (4.621290) jolli (4.556966) quivey (4.537557) stabl (4.512592) boneless (4.508249) 
cab (4.995327) theater (4.945929) movi (4.588468) woodman (4.520572) bike (4.448816) ian (4.356232) union (4.320004) sundanc (4.150096) pizza (4.136286) theatr (4.113715) 
sushi (4.876916) pizza (4.760494) thai (4.473513) chines (4.469257) noodl (4.315522) curri (4.197414) rice (4.065032) roll (3.989624) dish (3.846681) sauc (3.819873) 
Error (train/valid/test) = 0.319967/1.601555/1.603877 (0.037617)
..................................................
energy after gradient step = 58408297.156441

Top words for each topic:
haircut (5.387485) massag (5.332804) hair (5.300123) stylist (5.261284) salon (5.033143) crepe (4.970374) donut (4.851074) banzo (4.843696) falafel (4.693586) bradburi (4.602694) 
chees (4.163914) breakfast (4.160413) sandwich (4.032068) pancak (4.019132) egg (3.636579) diner (3.575729) dumpl (3.468990) gravi (3.450028) toast (3.444019) bread (3.399716) 
cupcak (5.841574) coffe (5.383886) latt (5.044569) frost (4.968419) ramen (4.886199) yarn (4.735927) tea (4.732183) scone (4.718509) espresso (4.661306) dentist (4.656007) 
gym (5.173511) zoo (4.976530) yoga (4.919509) class (4.816747) instructor (4.703494) workout (4.462401) airport (4.401121) museum (4.314275) genna (4.312737) mustard (4.292654) 
hotel (5.501204) indian (5.071706) naan (4.675622) buffet (4.564401) shuttl (4.458195) masala (4.405107) bed (4.383901) inn (4.288028) terrac (4.210702) tikka (4.145418) 
bagel (4.537806) nail (4.495207) pedicur (4.200378) vet (3.928180) car (3.902970) manicur (3.891451) tire (3.856492) wax (3.742946) repair (3.698143) boot (3.525714) 
burger (4.047194) fri (3.870872) steak (3.846332) taco (3.707126) mexican (3.625512) server (3.582087) beer (3.477364) salsa (3.403256) rib (3.345326) waitress (3.337126) 
pho (6.261495) wing (5.969014) saigon (5.026030) mickey (4.981162) vietnames (4.975992) jolli (4.665121) quivey (4.631387) fudg (4.610867) luci (4.593811) stabl (4.574549) 
cab (4.969236) theater (4.932137) movi (4.557678) woodman (4.547939) ian (4.454050) bike (4.435488) union (4.331978) theatr (4.160404) sundanc (4.122257) beer (4.114233) 
sushi (4.896878) pizza (4.823870) chines (4.523902) thai (4.498868) noodl (4.346077) curri (4.202281) rice (4.081985) roll (3.950515) dish (3.893084) sauc (3.840511) 
Error (train/valid/test) = 0.314332/1.607817/1.607343 (0.037554)
..................................................
energy after gradient step = 58275123.237323

Top words for each topic:
haircut (5.410425) massag (5.365872) stylist (5.290585) hair (5.285507) salon (5.037583) crepe (4.993524) donut (4.955654) banzo (4.850923) falafel (4.691059) bradburi (4.587313) 
breakfast (4.237393) chees (4.179877) pancak (4.061415) sandwich (4.050801) egg (3.665399) diner (3.634740) toast (3.501551) gravi (3.481562) monti (3.435007) bread (3.416449) 
cupcak (5.834581) coffe (5.371396) latt (5.051208) frost (5.013504) ramen (4.898572) yarn (4.782457) tea (4.726535) scone (4.710859) dentist (4.668419) barista (4.640368) 
gym (5.151560) zoo (4.974749) yoga (4.962492) class (4.810922) instructor (4.764943) workout (4.467164) genna (4.364232) museum (4.338077) airport (4.335141) studio (4.312805) 
hotel (5.488651) indian (5.086440) naan (4.604270) buffet (4.547528) shuttl (4.462601) bed (4.437619) inn (4.375773) masala (4.356648) terrac (4.221824) tikka (4.145218) 
bagel (4.556401) nail (4.494997) pedicur (4.206246) vet (3.970595) car (3.913753) manicur (3.889309) tire (3.886854) wax (3.723559) repair (3.721157) boot (3.450684) 
burger (4.118773) fri (3.929758) steak (3.885026) taco (3.760814) mexican (3.678881) server (3.603807) beer (3.506850) salsa (3.466117) rib (3.409662) waitress (3.372092) 
pho (6.341829) wing (6.042521) vietnames (5.184888) saigon (5.091069) mickey (5.075618) quivey (4.701709) fudg (4.695353) luci (4.657017) nam (4.656861) boneless (4.655062) 
cab (5.009498) theater (4.976601) woodman (4.560184) movi (4.541466) ian (4.485876) bike (4.412215) union (4.290876) beer (4.198926) theatr (4.136666) sundanc (4.134320) 
sushi (4.917844) pizza (4.909863) chines (4.563297) thai (4.520843) noodl (4.391300) curri (4.222181) rice (4.138856) roll (3.915301) sauc (3.893026) dish (3.878323) 
Error (train/valid/test) = 0.308165/1.612559/1.614163 (0.037668)
..................................................
energy after gradient step = 58170852.622263

Top words for each topic:
haircut (5.465113) massag (5.397388) stylist (5.336939) hair (5.287724) salon (5.039728) crepe (4.912575) banzo (4.904279) donut (4.857257) falafel (4.736744) doughnut (4.635404) 
breakfast (4.282363) chees (4.154744) pancak (4.091426) sandwich (4.077072) egg (3.670445) diner (3.621201) toast (3.519444) gravi (3.510300) monti (3.484048) bread (3.483427) 
cupcak (5.867334) coffe (5.393632) latt (5.083731) frost (5.007220) ramen (4.888050) espresso (4.764902) tea (4.746957) yarn (4.741031) barista (4.703329) scone (4.662611) 
gym (5.241132) zoo (5.044815) yoga (5.013345) instructor (4.838958) class (4.811868) workout (4.540083) genna (4.332833) mustard (4.325020) museum (4.310715) dog (4.285148) 
hotel (5.528535) indian (5.115030) naan (4.748435) buffet (4.560661) shuttl (4.512172) masala (4.468081) bed (4.438760) inn (4.408874) terrac (4.324843) tikka (4.227084) 
bagel (4.579620) nail (4.527083) pedicur (4.239246) vet (3.978791) car (3.960617) manicur (3.934756) tire (3.871592) repair (3.773072) wax (3.730916) boot (3.428210) 
burger (4.202011) fri (3.960644) steak (3.935335) taco (3.827199) mexican (3.713566) server (3.595583) beer (3.542780) salsa (3.491095) rib (3.445164) waitress (3.423922) 
pho (6.413958) wing (6.093250) vietnames (5.293688) saigon (5.246545) mickey (5.075146) fudg (4.806429) boneless (4.797437) quivey (4.791633) stabl (4.782899) jolli (4.767868) 
cab (4.984812) theater (4.925032) woodman (4.578660) ian (4.545118) movi (4.530578) bike (4.403114) union (4.388431) beer (4.249198) theatr (4.177127) sundanc (4.098033) 
sushi (4.956104) pizza (4.954601) chines (4.593721) thai (4.554850) noodl (4.449357) curri (4.238906) rice (4.158508) sauc (3.923981) roll (3.878787) dish (3.874605) 
Error (train/valid/test) = 0.302631/1.618267/1.619676 (0.037888)
..................................................
energy after gradient step = 58066689.755195

Top words for each topic:
haircut (5.482242) massag (5.433873) stylist (5.378404) hair (5.294520) salon (5.144347) donut (4.938439) banzo (4.895188) crepe (4.861410) falafel (4.727231) doughnut (4.647463) 
breakfast (4.355261) chees (4.179363) pancak (4.151808) sandwich (4.113214) egg (3.696832) diner (3.644446) monti (3.550267) gravi (3.548218) toast (3.539803) brunch (3.529772) 
cupcak (5.878932) coffe (5.436104) latt (5.127649) frost (4.985457) ramen (4.820989) yarn (4.803518) scone (4.773486) tea (4.745581) barista (4.730076) espresso (4.724382) 
gym (5.269903) yoga (5.097620) zoo (4.999277) instructor (4.871758) class (4.805143) workout (4.558937) genna (4.440644) jewelri (4.422439) museum (4.421096) airport (4.387265) 
hotel (5.575374) indian (5.171394) naan (4.726906) buffet (4.580897) shuttl (4.507425) bed (4.469560) inn (4.429560) masala (4.426345) terrac (4.295024) shower (4.250496) 
bagel (4.598972) nail (4.539023) pedicur (4.247048) vet (4.017675) manicur (3.971031) car (3.949527) tire (3.899522) wax (3.836567) repair (3.825168) boot (3.488544) 
burger (4.263743) fri (4.021790) steak (3.982442) taco (3.901782) mexican (3.774578) server (3.644318) beer (3.602312) salsa (3.535896) rib (3.509763) waitress (3.456906) 
pho (6.483027) wing (6.164978) vietnames (5.492028) saigon (5.212247) mickey (5.159598) quivey (4.851186) fudg (4.845372) luci (4.813548) nam (4.804644) piano (4.789696) 
theater (4.973213) cab (4.949376) woodman (4.539986) ian (4.532855) movi (4.517934) union (4.350296) beer (4.340791) bike (4.337317) theatr (4.203293) sundanc (4.122086) 
pizza (5.027755) sushi (4.988940) chines (4.631753) thai (4.572203) noodl (4.467500) curri (4.241822) rice (4.215397) sauc (3.977128) dish (3.874044) asian (3.856038) 
Error (train/valid/test) = 0.296150/1.623147/1.633097 (0.038294)
..................................................
energy after gradient step = 58019150.478473

Top words for each topic:
haircut (5.536049) massag (5.517616) stylist (5.398670) hair (5.286081) salon (5.117738) donut (4.952748) banzo (4.927773) crepe (4.841480) falafel (4.733591) doughnut (4.697985) 
breakfast (4.392928) chees (4.220121) pancak (4.204234) sandwich (4.153612) egg (3.769688) diner (3.666532) brunch (3.578333) toast (3.575919) monti (3.546313) gravi (3.524081) 
cupcak (5.896543) coffe (5.472788) latt (5.155926) frost (5.023795) ramen (4.842667) barista (4.803043) tea (4.758188) yarn (4.755082) scone (4.748793) espresso (4.720918) 
gym (5.323996) zoo (5.122542) yoga (5.087673) instructor (4.865917) class (4.810230) workout (4.627894) genna (4.452619) museum (4.407492) jewelri (4.360935) mustard (4.314183) 
hotel (5.599049) indian (5.166231) naan (4.792246) shuttl (4.600575) buffet (4.567657) masala (4.536523) inn (4.519434) bed (4.468026) terrac (4.309393) tikka (4.295714) 
bagel (4.575500) nail (4.573914) pedicur (4.269822) vet (4.016675) car (3.993436) manicur (3.972408) tire (3.928069) repair (3.835167) wax (3.718748) polish (3.407786) 
burger (4.309879) fri (4.053888) steak (3.996243) taco (3.952058) mexican (3.807018) server (3.670067) beer (3.658864) waitress (3.561464) salsa (3.560217) rib (3.547153) 
pho (6.529592) wing (6.233576) vietnames (5.494238) saigon (5.300916) mickey (5.201408) fudg (4.948716) boneless (4.919621) quivey (4.902039) luci (4.884995) nam (4.843809) 
theater (4.998314) cab (4.950889) ian (4.555320) woodman (4.547379) movi (4.531404) union (4.414303) beer (4.341287) bike (4.322316) theatr (4.209962) sundanc (4.178263) 
pizza (5.094477) sushi (5.003069) chines (4.651550) thai (4.574706) noodl (4.505795) curri (4.270970) rice (4.222693) sauc (4.017854) dish (3.901039) korean (3.879123) 
Error (train/valid/test) = 0.290121/1.630964/1.644273 (0.038540)
..................................................
energy after gradient step = 57906579.748236

Top words for each topic:
haircut (5.569645) massag (5.568299) stylist (5.455569) hair (5.287790) salon (5.126922) banzo (4.966840) donut (4.899958) crepe (4.822517) doughnut (4.733763) barber (4.683869) 
breakfast (4.450949) pancak (4.249916) chees (4.227362) sandwich (4.182818) egg (3.738076) diner (3.685569) brunch (3.648562) monti (3.638060) gravi (3.614122) toast (3.608470) 
cupcak (5.893350) coffe (5.476440) latt (5.179444) frost (4.994901) ramen (4.824441) yarn (4.788486) espresso (4.774760) barista (4.765117) tea (4.751264) scone (4.747966) 
gym (5.326218) yoga (5.164676) zoo (5.076738) instructor (4.977848) class (4.821714) workout (4.571909) genna (4.508170) jewelri (4.455113) museum (4.443368) studio (4.398917) 
hotel (5.601005) indian (5.219542) naan (4.830757) shuttl (4.590394) buffet (4.582396) masala (4.575321) inn (4.531118) bed (4.509562) terrac (4.308399) tikka (4.294098) 
nail (4.587591) bagel (4.584329) pedicur (4.301700) vet (4.089924) car (4.015049) manicur (3.999088) tire (3.903851) repair (3.886728) wax (3.851990) polish (3.456941) 
burger (4.346721) fri (4.085442) steak (4.035943) taco (4.010112) mexican (3.809611) server (3.691781) beer (3.678173) rib (3.590785) salsa (3.582872) waitress (3.575840) 
pho (6.584860) wing (6.322864) vietnames (5.674870) saigon (5.399660) mickey (5.125423) nam (4.994715) fudg (4.971626) quivey (4.956589) boneless (4.923048) stabl (4.915340) 
theater (4.989544) cab (4.942131) woodman (4.601045) ian (4.536566) movi (4.480465) beer (4.401236) union (4.389649) bike (4.212390) sundanc (4.186020) theatr (4.184661) 
pizza (5.125129) sushi (5.036595) chines (4.678459) thai (4.605904) noodl (4.504103) curri (4.312003) rice (4.218446) sauc (4.002524) dish (3.938366) korean (3.883227) 
Error (train/valid/test) = 0.284425/1.637951/1.656739 (0.038878)
..................................................
energy after gradient step = 57838121.161401

Top words for each topic:
haircut (5.607382) massag (5.586353) stylist (5.475729) salon (5.295024) hair (5.290321) donut (4.993424) banzo (4.927278) crepe (4.756811) falafel (4.735676) barber (4.714985) 
breakfast (4.486265) pancak (4.264307) chees (4.243206) sandwich (4.187051) egg (3.739488) brunch (3.722911) diner (3.696052) toast (3.652366) gravi (3.648756) monti (3.623359) 
cupcak (5.895776) coffe (5.481854) latt (5.150702) frost (4.992551) barista (4.842597) scone (4.813432) ramen (4.785911) yarn (4.766589) tea (4.737602) espresso (4.724887) 
gym (5.404636) yoga (5.185408) zoo (5.172437) instructor (4.997753) class (4.845714) workout (4.656509) genna (4.604325) jewelri (4.530713) museum (4.508053) mustard (4.350989) 
hotel (5.609729) indian (5.251931) naan (4.833433) shuttl (4.626035) inn (4.581279) masala (4.580307) buffet (4.540103) bed (4.509150) terrac (4.309061) tikka (4.293762) 
nail (4.588301) bagel (4.584891) pedicur (4.318079) vet (4.066405) car (4.047513) manicur (3.994244) tire (3.919379) repair (3.914247) wax (3.779535) appoint (3.415315) 
burger (4.423379) fri (4.125978) steak (4.045947) taco (4.035785) mexican (3.829409) server (3.728668) beer (3.688030) salsa (3.627884) waitress (3.622584) rib (3.622164) 
pho (6.668862) wing (6.362428) vietnames (5.665824) saigon (5.451691) mickey (5.213078) nam (5.069144) quivey (5.031952) boneless (5.024667) luci (4.982821) stabl (4.979073) 
theater (4.990716) cab (4.891747) woodman (4.569335) movi (4.491981) ian (4.490051) beer (4.474390) union (4.391861) theatr (4.217152) sundanc (4.177195) bike (4.121568) 
pizza (5.180497) sushi (5.064255) chines (4.725175) thai (4.645101) noodl (4.538811) curri (4.320990) rice (4.236320) sauc (4.034458) dish (3.953616) korean (3.918744) 
Error (train/valid/test) = 0.280547/1.651638/1.664146 (0.039072)
..................................................
energy after gradient step = 57785879.604353

Top words for each topic:
haircut (5.639701) massag (5.589840) stylist (5.503294) salon (5.320623) hair (5.315332) donut (5.039607) banzo (5.008518) doughnut (4.757364) crepe (4.737221) barber (4.715243) 
breakfast (4.527844) pancak (4.298841) chees (4.237759) sandwich (4.177754) brunch (3.799593) egg (3.796615) diner (3.719556) monti (3.715956) gravi (3.704243) toast (3.701342) 
cupcak (5.906483) coffe (5.500185) latt (5.199326) frost (4.986558) barista (4.835030) scone (4.826034) ramen (4.776953) yarn (4.759803) tea (4.741404) espresso (4.704875) 
gym (5.414108) yoga (5.234020) zoo (5.169069) instructor (5.065077) class (4.870549) workout (4.665244) museum (4.558817) jewelri (4.547228) genna (4.544405) studio (4.500231) 
hotel (5.641844) indian (5.264841) naan (4.877489) shuttl (4.641826) masala (4.599125) inn (4.573517) bed (4.523861) buffet (4.506433) terrac (4.399795) tikka (4.364604) 
nail (4.598148) bagel (4.595617) pedicur (4.328294) vet (4.127343) car (4.044393) manicur (4.040998) repair (3.950390) tire (3.924074) wax (3.828495) polish (3.542220) 
burger (4.458054) fri (4.160647) taco (4.085584) steak (4.072497) mexican (3.838895) server (3.770495) beer (3.724399) salsa (3.660511) rib (3.652937) waitress (3.630930) 
pho (6.698958) wing (6.384116) vietnames (5.765532) saigon (5.448922) mickey (5.251041) nam (5.099180) quivey (5.078111) boneless (5.070357) luci (5.027862) stabl (5.000028) 
theater (4.960009) cab (4.875666) woodman (4.557368) ian (4.476423) movi (4.473546) beer (4.472188) union (4.418703) theatr (4.244913) sundanc (4.212494) stadium (4.056631) 
pizza (5.192964) sushi (5.063924) chines (4.738239) thai (4.665159) noodl (4.552974) curri (4.322521) rice (4.232478) sauc (4.058970) dish (3.973038) chicken (3.931278) 
Error (train/valid/test) = 0.276549/1.655563/1.668880 (0.039233)
