corpus = data_char.gz
latentReg = 0.000000
lambda = 1.000000
K = 10

nUsers = 24649, nItems = 5149, nRatings = 98034

Error w/ offset term only (train/valid/test) = 1.538870/1.512279/1.538328 (0.019992)
Error w/ offset and bias (train/valid/test) = 0.763218/1.284585/1.295652 (0.019978)

..................................................
energy after gradient step = 53702707.014299

Top words for each topic:
enter (0.379290) except (0.338792) tv (0.324213) turkey (0.320214) nail (0.309324) needless (0.300616) milkshak (0.299276) bed (0.299032) juic (0.294763) cucumb (0.274734) 
thorough (0.334508) twist (0.322400) origin (0.315158) terribl (0.290767) replac (0.281104) garlic (0.277008) sinc (0.272641) 50 (0.269492) tini (0.268104) search (0.267698) 
cocktail (0.418663) band (0.377589) werent (0.336445) theyv (0.318459) attend (0.313909) allow (0.310357) grit (0.298384) purchas (0.291152) mediocr (0.275507) court (0.271632) 
fix (0.399131) waffl (0.384972) cost (0.352801) direct (0.338656) interior (0.325606) might (0.322346) indoor (0.305236) site (0.302481) train (0.295415) proper (0.292461) 
birthday (0.353986) appear (0.346458) four (0.339866) begin (0.331552) wide (0.328325) ride (0.305608) compani (0.302344) extens (0.290898) soul (0.280609) hill (0.276031) 
salmon (0.381410) freak (0.318822) young (0.316368) hibachi (0.296423) southern (0.286325) belli (0.283950) screen (0.281099) word (0.271750) gift (0.262077) member (0.261590) 
window (0.392232) chat (0.358693) relax (0.327273) suppos (0.320900) ny (0.318941) blue (0.308246) upgrad (0.303940) wander (0.301156) shouldnt (0.300314) strip (0.296574) 
brew (0.411456) fix (0.329089) hair (0.315349) credit (0.313889) venu (0.308852) either (0.293203) school (0.274012) must (0.261757) confus (0.261703) hesit (0.261436) 
gem (0.390941) american (0.380017) craft (0.351671) laugh (0.323900) stick (0.321092) app (0.312048) complaint (0.297602) 7 (0.279605) travel (0.277582) lack (0.272746) 
refresh (0.327530) apart (0.326316) relat (0.313345) crisp (0.297351) children (0.284825) yummi (0.281003) ago (0.269933) member (0.263335) appl (0.253864) spend (0.252741) 
Error (train/valid/test) = 1.174436/1.292771/1.314185 (0.017038)
..................................................
energy after gradient step = 53521791.506789

Top words for each topic:
pan (0.629477) skill (0.622219) john (0.615706) texa (0.609940) hype (0.607386) numer (0.606856) flag (0.585590) vinaigrett (0.557441) equal (0.557386) leg (0.550162) 
mayo (0.679147) potenti (0.568240) grandmoth (0.556177) 50 (0.554668) biggest (0.546455) courteous (0.546402) pretzel (0.533515) dr (0.516265) unusu (0.490947) skin (0.482458) 
dive (0.805838) greenway (0.642862) recogn (0.598478) grape (0.597313) info (0.591989) sourc (0.572233) hint (0.571619) bobcat (0.531732) accompani (0.529272) dilworth (0.527503) 
reach (0.623423) philli (0.587385) noisi (0.568313) depart (0.544508) pf (0.534886) individu (0.527393) yard (0.525694) spacious (0.518477) fail (0.517962) oven (0.501659) 
press (0.802338) non (0.685068) client (0.601647) histori (0.591722) spin (0.578638) jersey (0.576144) hype (0.571799) 1st (0.564251) liquor (0.553332) complimentari (0.528384) 
ador (0.733777) scrambl (0.640534) instruct (0.612389) acknowledg (0.610019) couch (0.600233) cowfish (0.589089) truth (0.568883) proceed (0.562229) holi (0.543849) exercis (0.530391) 
shouldnt (0.911316) dough (0.801730) communic (0.730237) chat (0.678300) sick (0.646506) dozen (0.590241) rotisseri (0.576826) sangria (0.557666) bank (0.547618) shred (0.535886) 
driver (0.692652) foot (0.638567) trash (0.633215) colleg (0.601456) encount (0.588284) warrant (0.581878) encourag (0.558094) accent (0.554927) trust (0.551431) boar (0.547758) 
bench (0.700174) gorgeous (0.572286) deep (0.567960) east (0.547811) row (0.532632) zone (0.524853) candi (0.524711) gather (0.524230) gem (0.518878) score (0.477049) 
cobbler (0.748136) edg (0.668905) univers (0.658324) bore (0.623270) tapa (0.615006) mimosa (0.589949) tray (0.588099) purpos (0.565502) omg (0.548515) repair (0.546485) 
Error (train/valid/test) = 0.936389/1.241089/1.255368 (0.018382)
..................................................
energy after gradient step = 53467901.897592

Top words for each topic:
texa (0.983424) pan (0.896447) gym (0.809870) flow (0.789511) jack (0.788104) oliv (0.745907) claim (0.731880) smoothi (0.726260) equal (0.726140) nope (0.723563) 
stage (0.819251) hurt (0.760297) carn (0.743152) skin (0.731865) initi (0.727984) dr (0.724018) recal (0.704588) ac (0.702685) polici (0.696358) pastri (0.686937) 
info (1.153131) recogn (0.953615) sourc (0.866030) fountain (0.842785) self (0.842424) greenway (0.788106) mug (0.786643) alright (0.773026) grape (0.741098) 247 (0.707973) 
festiv (0.969349) amount (0.803420) pf (0.803001) scratch (0.768411) comp (0.751799) spacious (0.751378) research (0.751262) brother (0.746892) recip (0.746030) noisi (0.730765) 
press (1.003863) aint (0.935372) nurs (0.934453) jalapeo (0.905226) familiar (0.767441) nois (0.766286) liquor (0.737193) fork (0.723614) ador (0.711931) histori (0.703386) 
cowfish (0.980333) scrambl (0.893327) holi (0.863553) ador (0.813093) spa (0.784506) ounc (0.779978) bento (0.762083) term (0.759611) proceed (0.745188) jewelri (0.740133) 
shouldnt (1.133229) freak (0.906495) wors (0.855186) child (0.845181) dough (0.837308) communic (0.812171) grow (0.789852) 150 (0.770009) arrang (0.763972) hub (0.758193) 
speed (0.892121) savori (0.827531) passion (0.807512) bloodi (0.765852) artichok (0.755529) trash (0.754081) yep (0.753911) equip (0.737742) 4th (0.732383) foot (0.728047) 
smokey (0.968889) bench (0.882245) guid (0.864982) exit (0.833058) towel (0.811775) 13 (0.739159) copper (0.717407) golf (0.703031) amigo (0.689063) settl (0.682994) 
edg (1.214834) print (0.962074) ten (0.903050) mimosa (0.853743) d (0.845974) blame (0.816621) overlook (0.803263) tavern (0.776200) s (0.767041) interact (0.759569) 
Error (train/valid/test) = 0.837769/1.243514/1.255128 (0.018193)
..................................................
energy after gradient step = 53429377.246360

Top words for each topic:
mama (1.123647) ranch (1.063911) equal (0.969997) numer (0.923681) oliv (0.919451) somewher (0.912270) nope (0.856992) becom (0.851966) gym (0.836429) jack (0.832900) 
potenti (0.968551) mediterranean (0.962796) recal (0.937922) mayo (0.904049) shift (0.896394) yall (0.890340) initi (0.871904) weekday (0.854764) bodi (0.794471) genuin (0.775223) 
recogn (1.182760) info (1.067024) pig (1.012141) hint (1.006337) grant (0.898064) grape (0.794682) giant (0.794569) thanksgiv (0.794501) classi (0.775720) guid (0.775122) 
festiv (1.269573) pf (1.194025) vendor (1.127752) brother (0.931222) individu (0.925006) whim (0.922866) donut (0.897890) thin (0.893129) pit (0.872579) gas (0.864736) 
aint (1.232896) familiar (1.141298) inspect (1.122791) press (0.959772) steakhous (0.943536) secret (0.918956) colleg (0.911980) nurs (0.911959) rotat (0.879399) substitut (0.850101) 
cowfish (1.493113) pio (1.009009) term (0.993054) scrambl (0.976540) advis (0.975819) fashion (0.919270) holi (0.886933) bento (0.823093) straight (0.816853) spa (0.797750) 
shouldnt (1.157262) amen (1.086420) bomb (1.016269) hub (1.007657) tequila (0.937309) emerg (0.838843) wors (0.815010) skin (0.808131) freak (0.798841) promot (0.796661) 
joke (0.977475) foot (0.874575) recip (0.871295) threw (0.859620) bloodi (0.828155) speed (0.825490) passion (0.820293) equip (0.814266) graham (0.802715) justifi (0.800706) 
towel (1.217484) attract (1.159916) tripl (1.062145) smokey (1.026622) until (1.022191) exit (0.927528) edamam (0.916334) deep (0.855691) bench (0.848546) meh (0.847379) 
edg (1.261643) print (0.973953) overlook (0.945126) d (0.940403) period (0.928269) pace (0.916583) mimosa (0.903647) destin (0.902447) qdoba (0.895766) client (0.880954) 
Error (train/valid/test) = 0.754391/1.251576/1.267146 (0.019083)
..................................................
energy after gradient step = 53387362.239252

Top words for each topic:
claim (1.207512) mama (1.206999) winter (1.175893) oliv (1.110853) ranch (1.096707) report (1.003506) inn (0.989379) wouldv (0.965845) smoothi (0.964309) between (0.939015) 
mediterranean (1.167284) carn (1.046726) shift (0.992433) stage (0.977840) chicago (0.962021) recal (0.940316) initi (0.936767) overwhelm (0.907475) chipotl (0.894123) pedicur (0.880518) 
subway (1.175361) recogn (1.165721) pig (1.091575) info (1.014785) b (0.996744) jewelri (0.989181) classi (0.966898) sourc (0.926345) heaven (0.923064) dilworth (0.906470) 
pf (1.429172) festiv (1.234034) brother (1.129624) 55 (1.099385) outback (1.061610) ensur (1.040901) etc (1.023426) thin (1.015358) pit (0.997914) liberti (0.996184) 
aint (1.451035) familiar (1.329731) inspect (1.236891) substitut (1.190804) nurs (1.036326) garag (1.017576) mert (1.017132) secret (1.010892) won (1.010126) hype (1.009131) 
cowfish (1.683403) pio (1.244414) swim (1.119647) bento (1.055225) cabo (1.003207) scrambl (0.976570) trader (0.951389) mcdonald (0.949281) exhibit (0.939446) martini (0.929480) 
emerg (1.167791) japanes (1.163801) tequila (1.088187) shouldnt (1.061518) amen (1.014766) cat (0.945981) courtyard (0.941427) hub (0.896297) embarrass (0.873739) bc (0.871646) 
driver (1.054103) joke (1.044559) equip (1.044356) yep (1.026723) artichok (0.991445) remain (0.978726) patient (0.975160) skewer (0.971842) justifi (0.954526) foot (0.925626) 
smokey (1.443736) towel (1.219644) mari (1.117289) exit (1.105502) bench (1.089406) until (1.085614) tripl (1.073475) attract (1.022182) regret (1.004041) guid (0.978664) 
edg (1.291654) print (1.214261) overlook (1.105019) blame (1.082356) period (1.050048) daddi (1.021549) sucker (1.014608) sesam (1.001279) destin (0.997343) shame (0.973261) 
Error (train/valid/test) = 0.685756/1.266217/1.287878 (0.020101)
..................................................
energy after gradient step = 53349800.695414

Top words for each topic:
winter (1.350462) third (1.287806) mama (1.169499) smoothi (1.153827) wild (1.096810) activ (1.088708) oliv (1.079695) indoor (1.059114) jack (1.025433) model (1.023164) 
mediterranean (1.071641) courteous (1.052895) carn (1.044478) pedicur (1.041175) creativ (1.035305) museum (1.017930) chipotl (1.015789) skin (0.999672) news (0.996821) ac (0.984139) 
recogn (1.451733) pig (1.327299) subway (1.181716) jewelri (1.160291) dilworth (1.043322) quaint (1.009921) lion (1.007481) growler (0.993338) info (0.991117) cross (0.973635) 
outback (1.430887) individu (1.298928) festiv (1.277488) pf (1.272319) pit (1.248759) vendor (1.224608) brother (1.205685) donut (1.182642) dead (1.152975) noisi (1.125230) 
aint (1.450967) familiar (1.412835) common (1.205996) substitut (1.177126) histori (1.127260) won (1.115441) fridg (1.113111) garag (1.092912) press (1.089361) secret (1.074700) 
cowfish (1.959762) cabo (1.343850) bento (1.312509) pio (1.205460) swim (1.178909) scrambl (1.132530) earlier (1.096735) exhibit (1.096382) dislik (1.044540) straight (1.011831) 
japanes (1.231202) shouldnt (1.074660) amen (1.053351) emerg (1.047497) sick (1.034067) tequila (1.023174) sum (0.987190) cat (0.985468) hub (0.980143) embarrass (0.978349) 
ceil (1.292079) driver (1.184705) yep (1.168548) equip (1.117066) band (1.108658) remain (1.082850) mark (1.018067) soak (1.006699) justifi (0.993071) rabbit (0.990961) 
exit (1.469477) smokey (1.440761) mari (1.328978) tripl (1.270205) towel (1.179233) until (1.141883) attract (1.128304) record (1.111751) deep (1.101274) guid (1.067249) 
print (1.399423) edg (1.344407) blame (1.262772) overlook (1.235998) sesam (1.189859) energi (1.180624) sucker (1.176527) period (1.146924) smoothi (1.071818) field (1.065934) 
Error (train/valid/test) = 0.621210/1.284180/1.302488 (0.019695)
..................................................
energy after gradient step = 53311601.561253

Top words for each topic:
report (1.308606) mama (1.283404) winter (1.236840) latt (1.220207) smoothi (1.186398) jack (1.174121) ranch (1.138470) third (1.135257) juic (1.120393) becom (1.087383) 
pedicur (1.298973) mediterranean (1.207400) target (1.141321) chipotl (1.136480) ac (1.118530) shift (1.090063) doctor (1.080811) carn (1.065231) muffin (1.045574) skin (1.030856) 
recogn (1.524547) subway (1.249091) quaint (1.200066) pig (1.171633) jewelri (1.153548) info (1.134836) dilworth (1.059949) giant (1.035999) cross (1.034802) learn (1.029264) 
outback (1.562733) vendor (1.443432) festiv (1.430036) individu (1.326055) pf (1.271691) pit (1.268811) donut (1.196934) brother (1.195901) etc (1.160370) honey (1.082643) 
aint (1.422396) familiar (1.354285) histori (1.293338) press (1.195707) garag (1.176884) fridg (1.145860) substitut (1.107533) secret (1.062836) hamburg (1.060169) colleg (1.056493) 
cowfish (2.184131) cabo (1.443712) bento (1.327173) straight (1.202831) gorgeous (1.194021) exhibit (1.167264) swim (1.156152) mcdonald (1.140259) pio (1.130959) martini (1.126434) 
shouldnt (1.147828) sick (1.141683) japanes (1.109095) tequila (1.098549) hub (1.073991) emerg (1.067335) signatur (0.995206) cinnamon (0.989491) embarrass (0.979661) crepe (0.971556) 
ceil (1.268287) yep (1.249111) band (1.246659) sashimi (1.188619) driver (1.164028) equip (1.110952) foot (1.090012) mark (1.082237) rabbit (1.081523) recip (1.075834) 
smokey (1.512489) mari (1.409191) attract (1.368208) exit (1.310308) towel (1.295422) tripl (1.292268) until (1.195668) bench (1.168635) comment (1.142556) deep (1.110872) 
print (1.486211) overlook (1.387620) edg (1.302541) blame (1.290920) constant (1.236882) broth (1.228787) costco (1.204211) smoothi (1.168066) doughnut (1.157864) tempura (1.123808) 
Error (train/valid/test) = 0.572635/1.299970/1.315925 (0.020287)
..................................................
energy after gradient step = 53276278.816462

Top words for each topic:
ranch (1.449415) report (1.342273) la (1.235550) winter (1.232619) latt (1.224360) cantina (1.182826) jack (1.168314) smoothi (1.137360) mama (1.101079) indoor (1.097317) 
pedicur (1.576710) mediterranean (1.365325) chipotl (1.317780) museum (1.245964) carn (1.240960) repair (1.188513) muffin (1.188193) chicago (1.165339) target (1.130840) doctor (1.130698) 
jewelri (1.453765) subway (1.313718) info (1.312993) pig (1.298579) recogn (1.290725) classi (1.183562) cross (1.179354) quaint (1.163347) bobcat (1.134109) stack (1.109134) 
festiv (1.634772) vendor (1.555574) outback (1.506822) pit (1.422127) pf (1.370274) individu (1.237222) donut (1.233935) fave (1.165144) honey (1.162783) thin (1.140225) 
aint (1.437498) mert (1.406391) familiar (1.368101) histori (1.325107) secret (1.182566) colleg (1.165126) garag (1.159952) lip (1.154970) jack (1.152519) venu (1.126078) 
cowfish (2.363118) cabo (1.667965) bento (1.400168) 5church (1.307234) exhibit (1.223058) gorgeous (1.217853) quot (1.194482) pio (1.179135) swim (1.165702) straight (1.158295) 
shouldnt (1.431716) japanes (1.180338) bc (1.173263) cat (1.163903) cell (1.142120) sick (1.118422) film (1.089730) promot (1.067362) signatur (1.059810) crepe (1.056092) 
band (1.369384) yep (1.345562) rabbit (1.308342) driver (1.279584) recip (1.253911) sashimi (1.246564) ceil (1.224698) equip (1.188502) bottom (1.176225) soak (1.160287) 
attract (1.531154) tripl (1.393402) nova (1.388870) until (1.373922) exit (1.354092) smokey (1.350543) mari (1.348148) deep (1.310954) comment (1.288963) assort (1.266907) 
print (1.519895) edg (1.516270) overlook (1.434105) costco (1.427227) constant (1.258421) blame (1.237714) balanc (1.234047) discount (1.217790) smoothi (1.189340) sucker (1.175817) 
Error (train/valid/test) = 0.519248/1.319374/1.337810 (0.020675)
..................................................
energy after gradient step = 53234109.668389

Top words for each topic:
ranch (1.519665) mama (1.464723) jack (1.367785) winter (1.356649) la (1.316820) smoothi (1.291156) report (1.270209) cantina (1.243380) wild (1.158112) akahana (1.152213) 
chipotl (1.640336) pedicur (1.587430) mediterranean (1.503187) repair (1.422847) doctor (1.330425) skin (1.312608) raspberri (1.273352) hookah (1.253719) carn (1.249184) muffin (1.218446) 
jewelri (1.467715) pig (1.401663) recogn (1.371725) info (1.306015) subway (1.286812) rub (1.273170) skirt (1.200047) trade (1.176469) trail (1.162453) quiet (1.146089) 
vendor (1.716837) festiv (1.646082) outback (1.528723) pit (1.446010) pf (1.397393) donut (1.374146) individu (1.299893) honey (1.296527) belk (1.261451) fave (1.251888) 
histori (1.569133) midwood (1.483804) mert (1.417767) familiar (1.347819) ikea (1.319076) secret (1.315589) garag (1.293772) aint (1.288814) colleg (1.288688) lip (1.235224) 
cowfish (2.542726) cabo (1.835734) bento (1.688202) 5church (1.613560) pio (1.327975) swim (1.265936) wasabi (1.229901) pineappl (1.206911) cart (1.177535) gorgeous (1.169099) 
shouldnt (1.584859) pet (1.403162) crepe (1.335853) cinnamon (1.323135) cat (1.264760) cell (1.234559) film (1.228957) hub (1.181613) japanes (1.178309) bc (1.163962) 
band (1.368806) driver (1.363672) skewer (1.315952) recip (1.278856) rabbit (1.263197) artichok (1.258573) yep (1.218069) yuck (1.216237) al (1.188936) ceil (1.188421) 
attract (1.524609) exit (1.514022) comment (1.500761) until (1.490265) smokey (1.422725) nova (1.368712) deep (1.326028) mari (1.300276) tripl (1.286596) regret (1.266399) 
print (1.671381) overlook (1.573349) costco (1.567640) smoothi (1.389788) edg (1.338772) constant (1.293683) balanc (1.229136) doughnut (1.223841) discount (1.203969) tempura (1.140106) 
Error (train/valid/test) = 0.468378/1.342384/1.361984 (0.021015)
..................................................
energy after gradient step = 53186761.393323

Top words for each topic:
smoothi (1.514852) ranch (1.511177) cantina (1.428877) wild (1.396441) report (1.381801) winter (1.347604) dive (1.339476) mama (1.336569) jack (1.324614) la (1.259818) 
chipotl (1.797108) pedicur (1.693055) mediterranean (1.602918) skin (1.471094) repair (1.455176) dr (1.442594) doctor (1.432732) raspberri (1.391228) target (1.372917) hookah (1.335198) 
jewelri (1.599668) subway (1.532504) pig (1.407893) info (1.345883) recogn (1.267437) cross (1.239622) rub (1.228573) quiet (1.202900) downsid (1.200725) children (1.190618) 
vendor (1.868775) festiv (1.807099) outback (1.670197) pf (1.576602) pit (1.536175) donut (1.495279) honey (1.375335) belk (1.337681) individu (1.313410) gas (1.238691) 
mert (1.781041) histori (1.505973) secret (1.466671) ikea (1.466266) aint (1.407921) midwood (1.367500) familiar (1.353326) colleg (1.296501) understaf (1.272664) hamburg (1.238413) 
cowfish (2.662679) cabo (2.218173) bento (1.807860) 5church (1.650292) wasabi (1.476141) pio (1.436296) pineappl (1.348340) swim (1.293223) filet (1.225835) common (1.187601) 
shouldnt (1.757181) cat (1.494928) crepe (1.441474) pet (1.404260) bakeri (1.369108) bc (1.276967) tequila (1.274467) sick (1.255675) hub (1.244269) cell (1.198712) 
driver (1.465265) skewer (1.380213) ceil (1.370610) band (1.370097) artichok (1.354066) cab (1.352649) becom (1.331859) rabbit (1.307591) yep (1.272526) soak (1.245687) 
attract (1.585077) exit (1.542674) nova (1.533828) smokey (1.530192) comment (1.524259) tripl (1.407577) deep (1.397753) until (1.389208) hibachi (1.377684) mari (1.359651) 
print (1.792943) costco (1.735131) overlook (1.633486) smoothi (1.519357) edg (1.393161) constant (1.349434) discount (1.267963) museum (1.221305) york (1.205123) blame (1.197344) 
Error (train/valid/test) = 0.432271/1.359328/1.378399 (0.021730)
..................................................
energy after gradient step = 53149307.513461

Top words for each topic:
smoothi (1.608732) ranch (1.603309) cantina (1.588792) winter (1.493311) wild (1.492800) report (1.393757) oliv (1.342255) jack (1.337629) kabob (1.326834) dive (1.311214) 
chipotl (1.956959) doctor (1.815157) pedicur (1.803334) skin (1.679277) target (1.634763) mediterranean (1.547615) dr (1.516949) repair (1.499299) hookah (1.428741) vet (1.369673) 
jewelri (1.846617) subway (1.623015) pig (1.442853) greenway (1.335223) walmart (1.275800) christma (1.266003) dilworth (1.256950) info (1.254873) skirt (1.245491) recogn (1.228117) 
vendor (2.043496) festiv (2.004104) pit (1.692149) pf (1.689759) outback (1.688351) donut (1.561017) individu (1.516601) honey (1.492599) belk (1.394069) bike (1.389840) 
mert (1.928282) aint (1.539886) histori (1.493012) collard (1.490324) ikea (1.477167) midwood (1.463720) familiar (1.379354) secret (1.350328) construct (1.310382) terrac (1.299109) 
cowfish (2.818228) cabo (2.166356) bento (1.890005) 5church (1.797429) wasabi (1.604583) swim (1.491291) pio (1.378885) jalapeno (1.369553) pineappl (1.301467) filet (1.294999) 
shouldnt (1.584111) cat (1.579009) pet (1.574326) bakeri (1.562527) crepe (1.560999) bath (1.442098) bc (1.384047) hub (1.377284) sick (1.361234) film (1.296070) 
pierc (1.519903) band (1.502302) skewer (1.496483) cab (1.479472) ceil (1.422717) artichok (1.400130) rabbit (1.394100) barber (1.378222) driver (1.361434) yuck (1.318189) 
attract (1.678722) nova (1.666489) exit (1.593353) comment (1.538533) yoga (1.511066) smokey (1.470226) tripl (1.446835) hibachi (1.442068) studio (1.421046) until (1.419678) 
costco (1.952176) print (1.793364) overlook (1.547201) smoothi (1.484082) cornbread (1.447678) constant (1.439388) pho (1.434329) edg (1.319665) discount (1.296529) broth (1.260464) 
Error (train/valid/test) = 0.399290/1.378878/1.398592 (0.021863)
..................................................
energy after gradient step = 53099097.168263

Top words for each topic:
smoothi (1.740625) cantina (1.707484) ranch (1.616370) wild (1.572601) winter (1.447132) mama (1.428711) kabob (1.428001) la (1.421734) oliv (1.417568) report (1.398267) 
chipotl (2.187430) pedicur (2.061858) doctor (1.756889) dr (1.711503) target (1.711254) repair (1.646869) skin (1.631379) mediterranean (1.627127) hookah (1.484337) vet (1.466780) 
jewelri (1.697386) subway (1.611684) greenway (1.484634) pig (1.419424) skirt (1.380089) trail (1.365497) walmart (1.364507) christma (1.326261) pub (1.301977) info (1.278179) 
vendor (2.117089) festiv (2.025017) donut (1.837371) pf (1.692676) outback (1.665038) pit (1.648077) honey (1.635325) bike (1.561309) penguin (1.473747) belk (1.463170) 
mert (2.089046) histori (1.610644) collard (1.593393) midwood (1.583885) ikea (1.522859) aint (1.517954) familiar (1.460902) lasagna (1.398132) terrac (1.391874) garag (1.390761) 
cowfish (2.945022) cabo (2.279271) bento (2.004824) 5church (1.839584) wasabi (1.654569) swim (1.568081) mahi (1.524521) jalapeno (1.409908) filet (1.381785) pio (1.333893) 
crepe (1.823316) cat (1.792318) shouldnt (1.680348) pet (1.630345) bakeri (1.457022) bc (1.410886) cupcak (1.374766) hub (1.365615) sick (1.319597) bath (1.295658) 
skewer (1.572254) cab (1.561661) band (1.536100) rabbit (1.523808) pierc (1.517460) barber (1.413945) ceil (1.407014) haircut (1.371692) artichok (1.359733) china (1.317504) 
yoga (1.904451) nova (1.732800) hibachi (1.673268) attract (1.574908) studio (1.573581) theater (1.558678) comment (1.522493) smokey (1.510973) exit (1.486326) tripl (1.426944) 
costco (1.951332) print (1.878227) pho (1.774682) cornbread (1.574486) overlook (1.563569) smoothi (1.468477) constant (1.430351) york (1.358331) oz (1.340490) broth (1.332521) 
Error (train/valid/test) = 0.381782/1.388349/1.414227 (0.022301)
..................................................
energy after gradient step = 53034093.578638

Top words for each topic:
smoothi (1.870329) cantina (1.852665) kabob (1.731951) ranch (1.620793) 1511 (1.593783) bagel (1.589588) wild (1.575854) mama (1.546129) oliv (1.521473) winter (1.490370) 
chipotl (2.344628) pedicur (2.093385) dr (1.980078) target (1.827723) doctor (1.789013) repair (1.784904) vet (1.709778) mediterranean (1.697924) hookah (1.685738) salon (1.644212) 
subway (1.833769) jewelri (1.802076) greenway (1.742567) trail (1.628439) walmart (1.595125) pub (1.495244) info (1.455136) account (1.399634) pig (1.368341) children (1.364843) 
vendor (2.242838) festiv (2.147311) donut (2.009905) pf (1.905680) bike (1.780209) outback (1.768370) pit (1.717258) honey (1.710087) belk (1.674095) penguin (1.611156) 
mert (2.331972) collard (1.844925) midwood (1.679003) ikea (1.648301) garag (1.640140) familiar (1.637690) histori (1.535918) aint (1.519289) nurs (1.444481) terrac (1.442784) 
cowfish (3.096845) cabo (2.357316) bento (2.114251) 5church (1.953215) mahi (1.765149) wasabi (1.633867) jalapeno (1.597176) filet (1.504471) swim (1.493739) pio (1.456937) 
crepe (1.998948) cat (1.904641) pet (1.887384) shouldnt (1.731379) bakeri (1.684345) cupcak (1.501476) bc (1.483805) cell (1.374085) burrito (1.329542) sick (1.281746) 
pierc (1.671161) band (1.653599) cab (1.631757) rabbit (1.608757) barber (1.502808) driver (1.447375) skewer (1.443053) venu (1.367094) ceil (1.347699) haircut (1.343393) 
yoga (2.267467) nova (2.050067) hibachi (1.900849) studio (1.844969) theater (1.795286) instructor (1.746039) exit (1.718960) attract (1.705071) theatr (1.651275) cigar (1.628821) 
costco (2.001794) print (2.000020) pho (1.998398) overlook (1.699422) oz (1.598523) cornbread (1.592942) smoothi (1.495593) constant (1.460188) broth (1.427902) york (1.414347) 
Error (train/valid/test) = 0.357990/1.404131/1.430077 (0.022367)
..................................................
energy after gradient step = 52976486.815675

Top words for each topic:
smoothi (1.987564) cantina (1.962887) bagel (1.936331) kabob (1.729049) 1511 (1.669810) ranch (1.604430) oliv (1.575829) mama (1.565900) winter (1.558025) vinegar (1.531834) 
chipotl (2.526030) pedicur (2.366416) dr (2.170159) doctor (2.047749) target (2.034410) repair (1.947766) hookah (1.873512) vet (1.849583) salon (1.792104) skin (1.698659) 
jewelri (2.063641) subway (1.954819) greenway (1.875293) trail (1.821553) walmart (1.735476) pub (1.551958) growler (1.506888) workout (1.502813) truck (1.498610) galleri (1.464187) 
vendor (2.450032) festiv (2.122131) donut (2.112024) bike (1.940001) outback (1.860311) pf (1.854386) penguin (1.761012) waffl (1.681760) pit (1.668453) honey (1.638798) 
mert (2.473123) collard (2.073905) midwood (1.825474) histori (1.698099) ikea (1.692885) garag (1.677898) aint (1.599553) familiar (1.521487) terrac (1.504441) lasagna (1.489003) 
cowfish (3.155607) cabo (2.524764) bento (2.295823) 5church (2.079529) mahi (1.930747) wasabi (1.727911) pio (1.640487) filet (1.605978) jalapeno (1.600504) plantain (1.496707) 
crepe (2.270407) cat (1.978824) pet (1.847792) shouldnt (1.807346) cupcak (1.790384) bakeri (1.589061) burrito (1.536426) bc (1.473700) tequila (1.425679) film (1.331700) 
pierc (1.804974) cab (1.746035) venu (1.681718) band (1.662938) rabbit (1.655842) haircut (1.570999) barber (1.489710) ceil (1.414007) skewer (1.404425) hummus (1.397750) 
yoga (2.529649) nova (2.140270) theater (2.129951) studio (2.096403) hibachi (2.094908) theatr (1.884320) instructor (1.876020) cigar (1.822146) exit (1.797493) attract (1.701398) 
pho (2.315549) costco (2.050395) print (1.871832) oz (1.700376) cornbread (1.670488) overlook (1.622187) museum (1.581960) termin (1.499660) smoothi (1.462655) broth (1.461649) 
Error (train/valid/test) = 0.344242/1.412636/1.443857 (0.022758)
..................................................
energy after gradient step = 52897763.332471

Top words for each topic:
bagel (2.277320) smoothi (2.077822) cantina (2.076968) kabob (1.829229) ranch (1.794450) 1511 (1.759088) wild (1.729133) oliv (1.704967) eastern (1.678072) vinegar (1.659837) 
chipotl (2.614671) pedicur (2.515365) dr (2.388661) target (2.330497) doctor (2.239635) salon (2.144732) repair (2.127728) vet (2.069751) hookah (1.963946) tire (1.960363) 
jewelri (2.073908) greenway (2.068784) subway (1.968749) trail (1.885396) walmart (1.865368) breweri (1.801705) pub (1.788058) sub (1.703982) workout (1.699004) growler (1.698059) 
vendor (2.456248) donut (2.233338) festiv (2.208227) bike (2.170264) penguin (2.080376) outback (1.912908) waffl (1.898845) honey (1.866591) pf (1.856207) gas (1.732219) 
mert (2.621907) collard (2.179962) ikea (1.915786) midwood (1.829824) histori (1.683453) terrac (1.672316) familiar (1.595055) garag (1.560354) lasagna (1.516187) soul (1.494096) 
cowfish (3.256644) cabo (2.687541) bento (2.351151) mahi (2.165570) 5church (2.107535) wasabi (1.849659) plantain (1.814953) pio (1.801104) jalapeno (1.725765) filet (1.722785) 
crepe (2.565631) cat (2.140036) cupcak (2.076851) pet (2.017205) burrito (1.755537) shouldnt (1.722252) bakeri (1.718178) bc (1.602852) milkshak (1.488215) brew (1.439282) 
pierc (1.905747) cab (1.899479) venu (1.781861) rabbit (1.739972) band (1.697018) haircut (1.657321) hummus (1.648858) barber (1.512535) hair (1.508407) skewer (1.483200) 
yoga (2.709544) theater (2.453856) studio (2.435982) hibachi (2.217848) instructor (2.175467) nova (2.144278) cigar (1.942638) theatr (1.922797) ticket (1.922451) attract (1.861508) 
pho (2.469676) costco (2.110951) cornbread (1.871853) museum (1.847123) print (1.805809) oz (1.762475) overlook (1.647107) york (1.622964) capit (1.602744) broth (1.588450) 
Error (train/valid/test) = 0.331992/1.424275/1.463689 (0.023168)
..................................................
energy after gradient step = 52786448.661448

Top words for each topic:
bagel (2.446670) cantina (2.251078) smoothi (2.060772) 1511 (1.997119) kabob (1.852245) vinegar (1.849908) oliv (1.818640) brisket (1.790177) jack (1.787535) ranch (1.759638) 
chipotl (2.799703) pedicur (2.729986) dr (2.617398) target (2.521867) vet (2.410007) salon (2.402338) repair (2.367052) doctor (2.341662) appoint (2.157270) tire (2.110959) 
greenway (2.208332) subway (2.189826) jewelri (2.166447) trail (2.051584) walmart (2.025651) breweri (1.928408) pub (1.882329) workout (1.873204) bus (1.826399) growler (1.786896) 
vendor (2.483320) donut (2.454032) bike (2.436750) festiv (2.407719) penguin (2.327226) waffl (2.110397) pf (2.023917) outback (1.990241) honey (1.901670) gas (1.870805) 
mert (2.777077) collard (2.286008) ikea (1.891291) midwood (1.866321) terrac (1.781444) garag (1.723268) histori (1.702014) soul (1.673376) familiar (1.627776) devil (1.577601) 
cowfish (3.345717) cabo (2.751316) bento (2.493052) mahi (2.241301) 5church (2.189540) plantain (1.931552) wasabi (1.909525) filet (1.896781) tuna (1.854278) pio (1.837901) 
crepe (2.747571) cupcak (2.386455) cat (2.225413) pet (2.004411) bakeri (1.895155) burrito (1.893378) shouldnt (1.805529) tequila (1.674054) frost (1.580931) brew (1.578517) 
pierc (1.901415) venu (1.899763) hummus (1.882022) rabbit (1.881410) band (1.843497) cab (1.836990) haircut (1.763888) pita (1.731039) stylist (1.677480) skewer (1.649837) 
yoga (2.847211) theater (2.658645) studio (2.575006) hibachi (2.444727) nova (2.274195) theatr (2.224650) instructor (2.219913) ticket (2.088643) movi (2.079609) class (2.043392) 
pho (2.613141) costco (2.216990) cornbread (1.950282) museum (1.844040) oz (1.837573) print (1.712520) jamba (1.690984) broth (1.676655) overlook (1.671792) termin (1.661579) 
Error (train/valid/test) = 0.320054/1.434638/1.474908 (0.023278)
..................................................
energy after gradient step = 52666349.242147

Top words for each topic:
bagel (2.820181) cantina (2.265381) smoothi (2.114928) brisket (2.070178) 1511 (1.945192) jack (1.902060) kabob (1.894631) vinegar (1.874362) oliv (1.867380) eastern (1.859513) 
pedicur (2.961691) chipotl (2.896979) salon (2.876438) dr (2.875742) target (2.759304) appoint (2.661169) vet (2.566446) repair (2.555020) doctor (2.545925) tire (2.453239) 
jewelri (2.418838) greenway (2.263064) trail (2.256382) subway (2.244423) breweri (2.153901) workout (2.058136) walmart (2.056344) sub (1.970161) pub (1.966716) shoe (1.959548) 
vendor (2.648001) bike (2.544758) penguin (2.510111) donut (2.496986) festiv (2.465045) waffl (2.412059) pancak (2.015626) pf (1.997628) honey (1.958136) outback (1.942213) 
mert (2.867702) collard (2.499940) ikea (2.030525) midwood (1.981280) terrac (1.899397) indian (1.866540) soul (1.800694) histori (1.721208) del (1.670864) oil (1.670309) 
cowfish (3.322292) cabo (2.826128) bento (2.511932) mahi (2.405475) 5church (2.219468) tuna (2.188753) filet (2.145218) wasabi (2.072474) plantain (2.016827) nom (1.928883) 
crepe (2.911001) cupcak (2.717246) cat (2.243127) pet (2.058728) burrito (2.017199) bakeri (2.003499) shouldnt (1.781823) brew (1.762751) mexican (1.747625) frost (1.741650) 
cab (2.009802) venu (1.963555) hummus (1.959335) pita (1.932628) band (1.926177) rabbit (1.906738) pierc (1.889804) haircut (1.791877) greek (1.775553) stylist (1.747475) 
theater (3.058865) yoga (3.045638) studio (2.651502) hibachi (2.625874) movi (2.466935) class (2.421359) instructor (2.369790) ticket (2.346411) theatr (2.306123) nova (2.290381) 
pho (2.841342) costco (2.232178) cornbread (2.069498) airport (1.897091) jamba (1.879114) print (1.873002) broth (1.836734) termin (1.804421) museum (1.786282) oz (1.785272) 
Error (train/valid/test) = 0.318717/1.444963/1.484648 (0.023164)
..................................................
energy after gradient step = 52490361.262099

Top words for each topic:
bagel (3.011903) cantina (2.294933) brisket (2.273049) smoothi (2.207009) pizza (2.027602) eastern (2.001552) vinegar (1.993594) 1511 (1.969014) kabob (1.963923) oliv (1.934465) 
pedicur (3.110992) salon (3.083552) dr (3.054514) chipotl (3.005602) target (2.901597) appoint (2.851639) vet (2.785697) doctor (2.758913) repair (2.723469) nail (2.681362) 
jewelri (2.528187) walmart (2.464598) greenway (2.396454) trail (2.356051) subway (2.319705) breweri (2.313599) workout (2.228396) shoe (2.142862) gym (2.140127) pub (2.139972) 
bike (2.838577) vendor (2.694854) waffl (2.639526) donut (2.586065) festiv (2.577270) penguin (2.557894) pancak (2.173123) honey (2.097782) pf (2.089893) belk (2.027871) 
mert (2.912865) collard (2.649444) midwood (2.215543) ikea (2.192944) indian (2.157078) soul (2.094589) terrac (2.035327) tikka (1.812380) oil (1.726660) histori (1.726390) 
cowfish (3.454496) cabo (2.886540) bento (2.646067) mahi (2.548961) tuna (2.380501) filet (2.314464) 5church (2.262629) nom (2.249914) wasabi (2.151452) plantain (2.113636) 
crepe (3.076389) cupcak (2.956991) cat (2.464019) burrito (2.281501) pet (2.182346) bakeri (2.166646) frost (2.116609) mexican (1.903431) shouldnt (1.862335) cooki (1.809299) 
hummus (2.049872) pita (2.003267) cab (2.002296) venu (2.001473) band (1.896321) greek (1.893633) haircut (1.876616) pierc (1.871890) barber (1.865632) stylist (1.796814) 
theater (3.291634) yoga (3.160759) studio (2.817733) hibachi (2.736859) movi (2.698426) class (2.639630) ticket (2.523609) theatr (2.478834) instructor (2.471010) nova (2.328183) 
pho (3.062050) costco (2.254286) cornbread (2.083140) airport (2.070787) broth (2.020042) museum (2.018835) jamba (1.996243) print (1.952429) oz (1.906878) mexican (1.906762) 
Error (train/valid/test) = 0.314616/1.447825/1.489692 (0.023556)
..................................................
energy after gradient step = 52282156.797001

Top words for each topic:
bagel (3.199173) pizza (2.481875) brisket (2.448514) cantina (2.353129) smoothi (2.253041) vinegar (2.070171) oliv (2.041836) kabob (2.028280) 1511 (2.013114) eastern (2.005370) 
salon (3.433049) pedicur (3.343442) dr (3.273793) appoint (3.157470) nail (3.104552) target (3.073569) chipotl (3.049186) vet (3.021368) hair (2.946740) doctor (2.933301) 
jewelri (2.713699) walmart (2.576578) greenway (2.564948) trail (2.551002) breweri (2.498050) workout (2.444941) shoe (2.428863) gym (2.406623) subway (2.405146) truck (2.350157) 
bike (2.871179) waffl (2.834456) vendor (2.822480) donut (2.766917) penguin (2.696162) festiv (2.667461) honey (2.286408) pancak (2.226374) pf (2.149813) farmer (2.107040) 
mert (3.026846) collard (2.734332) indian (2.356551) ikea (2.326201) soul (2.269703) midwood (2.249008) terrac (2.094704) biscuit (2.021070) tikka (1.832827) masala (1.781049) 
cowfish (3.422178) cabo (2.908072) bento (2.660337) mahi (2.580335) tuna (2.564542) thai (2.438364) filet (2.436070) nom (2.336071) wasabi (2.259586) 5church (2.236007) 
cupcak (3.188033) crepe (3.140463) burrito (2.478577) cat (2.417873) bakeri (2.360834) pet (2.284438) frost (2.193736) mexican (2.121802) cooki (2.026694) latt (2.019529) 
hummus (2.181076) pita (2.162980) greek (2.155313) venu (2.040806) cab (1.958129) pierc (1.935786) barber (1.882205) haircut (1.877117) rabbit (1.873867) band (1.860151) 
theater (3.483291) yoga (3.331112) movi (2.967672) studio (2.906900) hibachi (2.858744) class (2.846538) ticket (2.719114) theatr (2.593004) instructor (2.574334) popcorn (2.488346) 
pho (3.232076) costco (2.305936) airport (2.245862) cornbread (2.234771) broth (2.128578) jamba (2.118578) museum (1.996724) print (1.988725) mexican (1.979766) oz (1.933733) 
Error (train/valid/test) = 0.315636/1.453356/1.494510 (0.023721)
..................................................
energy after gradient step = 52029797.354442

Top words for each topic:
bagel (3.333264) pizza (2.988523) brisket (2.574323) cantina (2.391657) smoothi (2.304466) vinegar (2.180443) mac (2.134937) jack (2.098396) oliv (2.087909) 1511 (2.070333) 
salon (3.652136) appoint (3.402440) dr (3.392118) pedicur (3.380799) nail (3.377086) hair (3.231164) target (3.201642) vet (3.151468) massag (3.137246) chipotl (3.130445) 
walmart (2.756196) jewelri (2.745864) shoe (2.730157) trail (2.717548) greenway (2.689951) breweri (2.665814) gym (2.661910) workout (2.646031) cloth (2.645411) subway (2.538444) 
bike (3.058033) waffl (3.032692) vendor (2.879977) donut (2.846858) penguin (2.845309) festiv (2.729985) pancak (2.521191) honey (2.356399) farmer (2.241373) pf (2.143848) 
mert (3.053982) collard (2.953002) indian (2.677943) biscuit (2.445696) soul (2.442585) ikea (2.419620) midwood (2.384576) terrac (2.154366) masala (1.965428) tikka (1.963472) 
cowfish (3.405170) cabo (2.923810) tuna (2.739725) thai (2.678845) mahi (2.628271) bento (2.621934) filet (2.531154) nom (2.396272) crab (2.338611) plantain (2.297291) 
cupcak (3.398260) crepe (3.279446) burrito (2.664528) cat (2.553540) bakeri (2.527711) frost (2.398847) pet (2.341779) mexican (2.335706) latt (2.271837) pastri (2.057090) 
pita (2.350337) hummus (2.218685) greek (2.206143) venu (2.107545) pierc (2.019762) gyro (1.933706) barber (1.930341) cab (1.930248) rabbit (1.926961) haircut (1.922145) 
theater (3.660277) yoga (3.376436) movi (3.200763) class (3.039582) studio (3.001200) hibachi (2.982224) ticket (2.843500) instructor (2.749298) theatr (2.687444) flight (2.619494) 
pho (3.366156) airport (2.389127) broth (2.346840) costco (2.308655) jamba (2.221308) cornbread (2.180900) mexican (2.077143) vietnames (2.014284) print (2.009912) mash (1.992626) 
Error (train/valid/test) = 0.318301/1.457618/1.496794 (0.023909)
..................................................
energy after gradient step = 51714225.905094

Top words for each topic:
bagel (3.462597) pizza (3.321246) brisket (2.705322) cantina (2.455108) smoothi (2.310567) mac (2.294133) vinegar (2.243904) 1511 (2.166974) barbecu (2.137238) oliv (2.119928) 
salon (3.823409) pedicur (3.582972) nail (3.574202) appoint (3.561352) dr (3.532601) hair (3.419449) target (3.341680) vet (3.314320) massag (3.314110) repair (3.201638) 
walmart (2.964446) jewelri (2.912354) shoe (2.900555) trail (2.895523) gym (2.852320) greenway (2.851772) breweri (2.848079) cloth (2.793767) workout (2.710726) subway (2.678686) 
bike (3.207956) waffl (3.149556) vendor (3.044164) penguin (3.032209) donut (2.942944) festiv (2.791654) pancak (2.652355) honey (2.473000) farmer (2.294271) raft (2.273619) 
mert (3.210223) collard (2.999043) indian (2.853446) biscuit (2.660857) soul (2.632379) ikea (2.422242) midwood (2.405310) terrac (2.212217) naan (2.200536) tikka (2.124472) 
cowfish (3.431427) cabo (2.901775) tuna (2.888887) thai (2.868712) bento (2.671344) mahi (2.659879) filet (2.566325) crab (2.498449) pad (2.482093) nom (2.458457) 
cupcak (3.551237) crepe (3.367163) burrito (2.823475) bakeri (2.688960) frost (2.525256) mexican (2.480658) cat (2.452128) pet (2.441408) latt (2.305362) cooki (2.247828) 
pita (2.444324) hummus (2.335131) greek (2.315526) venu (2.161087) gyro (2.099737) pierc (2.068932) cab (2.010979) rabbit (1.981246) lamb (1.976612) falafel (1.965417) 
theater (3.784311) yoga (3.539240) movi (3.388809) class (3.184559) studio (3.120416) hibachi (3.046375) ticket (2.955888) instructor (2.870352) theatr (2.869629) flight (2.729680) 
pho (3.490990) airport (2.509730) broth (2.487064) vietnames (2.386736) costco (2.323083) jamba (2.305251) mexican (2.262463) cornbread (2.223897) mash (2.102753) chuy (2.077802) 
Error (train/valid/test) = 0.317637/1.458988/1.495966 (0.023465)
..................................................
energy after gradient step = 51376298.685399

Top words for each topic:
pizza (3.682775) bagel (3.634165) brisket (2.925452) mac (2.510820) cantina (2.425180) barbecu (2.377148) vinegar (2.372896) crust (2.354239) bbq (2.318955) burger (2.291258) 
salon (4.098598) nail (3.874647) appoint (3.813961) hair (3.704940) dr (3.701178) pedicur (3.681152) massag (3.612196) vet (3.533812) target (3.527718) stylist (3.402976) 
trail (3.163175) gym (3.155321) shoe (3.154238) walmart (3.133365) jewelri (3.064006) cloth (3.060676) greenway (3.037954) workout (3.026553) breweri (2.994577) starbuck (2.761768) 
bike (3.462495) waffl (3.322700) vendor (3.222657) donut (3.151219) penguin (3.124660) pancak (2.886714) festiv (2.869610) raft (2.610545) honey (2.601353) farmer (2.574572) 
mert (3.354438) collard (3.188785) indian (3.158234) soul (2.920211) biscuit (2.882253) midwood (2.691781) naan (2.630573) ikea (2.593379) masala (2.526884) terrac (2.385698) 
cowfish (3.416634) thai (3.165654) tuna (3.073211) cabo (2.902063) crab (2.737227) mahi (2.713912) filet (2.704527) bento (2.698679) pad (2.674711) sushi (2.647497) 
cupcak (3.803691) crepe (3.457870) burrito (3.071486) bakeri (2.872755) mexican (2.672111) frost (2.647579) latt (2.597398) pastri (2.546444) cat (2.477865) cooki (2.444464) 
pita (2.628616) greek (2.475303) hummus (2.413580) gyro (2.292285) venu (2.277771) lamb (2.199939) falafel (2.104555) mediterranean (2.052224) barber (2.033408) pierc (2.019156) 
theater (3.951734) movi (3.692758) yoga (3.692624) class (3.356448) studio (3.277712) hibachi (3.188473) ticket (3.165381) instructor (3.039183) theatr (3.034845) airport (3.008189) 
pho (3.653107) vietnames (2.736159) broth (2.695310) airport (2.612682) mexican (2.462275) jamba (2.405917) costco (2.348774) chuy (2.251030) cornbread (2.208125) mash (2.172699) 
Error (train/valid/test) = 0.315738/1.459403/1.497616 (0.023947)
..................................................
energy after gradient step = 50948059.856605

Top words for each topic:
pizza (4.001084) bagel (3.762688) brisket (3.093549) bbq (2.708273) mac (2.668395) crust (2.601932) burger (2.600101) cantina (2.554950) vinegar (2.486559) barbecu (2.471702) 
salon (4.315155) nail (4.114367) hair (4.033224) appoint (4.011524) dr (3.869719) massag (3.849154) pedicur (3.841283) stylist (3.640516) vet (3.599382) target (3.580256) 
shoe (3.401751) gym (3.313231) jewelri (3.311094) breweri (3.301024) cloth (3.294747) trail (3.290227) walmart (3.290203) greenway (3.172359) workout (3.031119) starbuck (2.983884) 
bike (3.620027) waffl (3.493492) penguin (3.417822) vendor (3.289977) donut (3.285608) festiv (3.181926) pancak (3.079497) farmer (2.881547) honey (2.770436) raft (2.734869) 
mert (3.514794) indian (3.391682) collard (3.365341) biscuit (3.112716) soul (3.055179) naan (2.974159) midwood (2.730280) masala (2.727801) tikka (2.612652) southern (2.588508) 
thai (3.440257) cowfish (3.420715) tuna (3.202128) sushi (3.021323) cabo (2.941177) crab (2.903914) pad (2.814028) mahi (2.811293) fish (2.796520) filet (2.758526) 
cupcak (4.044792) crepe (3.600711) burrito (3.283556) bakeri (2.988473) frost (2.911414) mexican (2.879712) pastri (2.750907) latt (2.742480) cooki (2.653546) guacamol (2.574041) 
pita (2.792782) greek (2.681509) hummus (2.591942) gyro (2.494619) lamb (2.398057) venu (2.282374) falafel (2.271188) rabbit (2.209869) mediterranean (2.171759) band (2.082499) 
theater (4.139156) movi (4.000367) yoga (3.830370) class (3.602796) studio (3.447344) hibachi (3.367407) airport (3.353961) ticket (3.313497) theatr (3.193682) instructor (3.186567) 
pho (3.830657) broth (2.954824) vietnames (2.908196) airport (2.735277) mexican (2.618726) jamba (2.514238) chuy (2.351315) mash (2.310749) costco (2.301902) cornbread (2.276364) 
Error (train/valid/test) = 0.314847/1.467014/1.499688 (0.023653)
..................................................
energy after gradient step = 50487994.493050

Top words for each topic:
pizza (4.216551) bagel (3.814152) brisket (3.210028) bbq (2.976200) burger (2.890908) crust (2.848691) mac (2.806364) cantina (2.583640) barbecu (2.566767) vinegar (2.539249) 
salon (4.436735) nail (4.227707) hair (4.181250) appoint (4.096691) massag (3.963037) pedicur (3.898883) dr (3.884980) stylist (3.719509) vet (3.694582) target (3.679720) 
shoe (3.690243) cloth (3.600722) gym (3.505615) jewelri (3.449712) walmart (3.441211) trail (3.429847) breweri (3.423575) greenway (3.280052) workout (3.213900) starbuck (3.170403) 
bike (3.814118) waffl (3.758188) penguin (3.503983) vendor (3.484017) donut (3.467614) festiv (3.315648) pancak (3.276780) farmer (2.988242) raft (2.879619) honey (2.859202) 
indian (3.763969) mert (3.569478) collard (3.561413) biscuit (3.445969) soul (3.311372) naan (3.108117) masala (2.926251) midwood (2.823716) tikka (2.807525) southern (2.788820) 
thai (3.558405) cowfish (3.345207) sushi (3.275959) tuna (3.215437) crab (2.985611) fish (2.943651) cabo (2.860651) pad (2.812030) curri (2.784631) mahi (2.723581) 
cupcak (4.180872) crepe (3.735555) burrito (3.514662) bakeri (3.187648) mexican (3.080648) pastri (2.907907) frost (2.883708) latt (2.867251) cooki (2.779717) salsa (2.734259) 
pita (2.893488) greek (2.886760) gyro (2.628946) hummus (2.620249) lamb (2.572553) venu (2.435774) falafel (2.325944) mediterranean (2.288352) rabbit (2.284569) band (2.178909) 
theater (4.351795) movi (4.148669) yoga (4.006072) class (3.764512) airport (3.615758) studio (3.566298) ticket (3.542789) hibachi (3.499781) flight (3.401388) hotel (3.328314) 
pho (3.943944) vietnames (3.098933) broth (3.016108) mexican (2.778316) airport (2.671181) jamba (2.546981) chuy (2.427451) mash (2.352239) fran (2.348411) costco (2.302293) 
Error (train/valid/test) = 0.318066/1.464086/1.499615 (0.024028)
..................................................
energy after gradient step = 50033049.418713

Top words for each topic:
pizza (4.510533) bagel (3.871557) bbq (3.308459) brisket (3.277940) burger (3.141206) crust (2.999485) mac (2.932804) ny (2.670615) wing (2.662214) rib (2.604303) 
salon (4.529176) nail (4.325878) hair (4.276311) appoint (4.191000) massag (4.059650) dr (3.997279) pedicur (3.932996) stylist (3.856191) vet (3.710326) target (3.666062) 
shoe (3.805633) cloth (3.716236) breweri (3.604405) gym (3.602670) walmart (3.601764) jewelri (3.535956) trail (3.530875) greenway (3.395150) store (3.394415) starbuck (3.333609) 
bike (4.012353) waffl (3.947606) penguin (3.717556) donut (3.650810) vendor (3.587162) pancak (3.387909) festiv (3.337850) farmer (3.230362) raft (3.013007) climb (2.980361) 
indian (3.987388) mert (3.768664) biscuit (3.619199) collard (3.615295) soul (3.513718) naan (3.403692) masala (3.269993) tikka (3.083155) cornbread (2.981889) southern (2.890984) 
thai (3.656411) sushi (3.472269) cowfish (3.306461) tuna (3.270138) crab (3.104293) fish (3.056643) roll (2.901228) pad (2.873126) curri (2.826383) shrimp (2.825713) 
cupcak (4.330147) crepe (3.854482) burrito (3.706882) bakeri (3.309083) mexican (3.254688) frost (3.104514) latt (3.053885) pastri (3.050952) salsa (2.934260) cooki (2.868447) 
pita (3.077514) greek (2.971670) hummus (2.799105) lamb (2.767016) gyro (2.689410) falafel (2.525760) venu (2.427178) mediterranean (2.412387) kabob (2.381103) rabbit (2.360203) 
theater (4.467465) movi (4.268770) yoga (4.089485) class (3.890976) airport (3.855891) studio (3.712758) ticket (3.651614) flight (3.624846) hotel (3.582613) hibachi (3.581806) 
pho (4.093976) vietnames (3.249491) broth (3.167919) mexican (2.811954) jamba (2.630358) airport (2.503851) chuy (2.481708) costco (2.403340) fran (2.385966) mash (2.372535) 
Error (train/valid/test) = 0.320280/1.467794/1.498718 (0.023889)
..................................................
energy after gradient step = 49592893.678999

Top words for each topic:
pizza (4.625379) bagel (3.886268) bbq (3.461029) brisket (3.327189) burger (3.305691) crust (3.097378) mac (3.016889) wing (2.827957) chees (2.737320) rib (2.727116) 
salon (4.544904) nail (4.361111) hair (4.333313) appoint (4.194561) massag (4.090674) dr (4.000715) pedicur (3.985385) stylist (3.858569) vet (3.775252) target (3.680605) 
shoe (3.939697) cloth (3.863723) gym (3.753294) jewelri (3.667487) breweri (3.665247) walmart (3.639750) trail (3.620748) store (3.596790) greenway (3.464135) starbuck (3.415227) 
waffl (4.137182) bike (4.109915) vendor (3.778900) penguin (3.773391) donut (3.755524) pancak (3.649875) festiv (3.415489) farmer (3.314355) raft (3.157352) market (3.122834) 
indian (4.255836) biscuit (3.834667) collard (3.808947) mert (3.798277) soul (3.599838) naan (3.555688) masala (3.361240) tikka (3.242607) cornbread (3.111873) southern (3.110004) 
thai (3.725030) sushi (3.640897) cowfish (3.268188) tuna (3.243464) fish (3.145147) crab (3.141612) roll (3.071549) shrimp (2.941766) taco (2.834135) pad (2.832734) 
cupcak (4.465998) crepe (3.941905) burrito (3.900346) mexican (3.422879) bakeri (3.412899) salsa (3.159948) frost (3.143244) pastri (3.123000) latt (3.121616) coffe (3.063689) 
greek (3.162496) pita (3.141258) gyro (2.900499) lamb (2.844923) hummus (2.796781) falafel (2.617160) kabob (2.517274) venu (2.437100) mediterranean (2.424706) rabbit (2.404276) 
theater (4.619538) movi (4.403860) yoga (4.200014) airport (4.069300) class (4.020944) ticket (3.816909) hotel (3.801210) studio (3.761061) flight (3.748574) hibachi (3.654084) 
pho (4.195453) vietnames (3.382775) broth (3.272386) mexican (2.956420) jamba (2.647122) rice (2.551437) chuy (2.529855) fran (2.457653) steak (2.428778) airport (2.420572) 
Error (train/valid/test) = 0.325184/1.473832/1.501752 (0.023627)
..................................................
energy after gradient step = 49133485.573025

Top words for each topic:
pizza (4.755119) bagel (3.911901) bbq (3.640164) burger (3.459811) brisket (3.380569) crust (3.190608) mac (3.087218) wing (3.046847) chees (2.888471) slice (2.811388) 
salon (4.612101) nail (4.412698) hair (4.377427) appoint (4.268339) massag (4.162605) dr (4.045084) pedicur (4.002315) stylist (3.938054) vet (3.778093) target (3.749890) 
shoe (4.050625) cloth (3.903208) store (3.819839) gym (3.804052) walmart (3.772773) breweri (3.721495) jewelri (3.716632) trail (3.674131) greenway (3.547033) starbuck (3.489655) 
bike (4.271773) waffl (4.258456) penguin (3.950791) vendor (3.856139) donut (3.832550) pancak (3.638508) festiv (3.536479) farmer (3.433833) raft (3.382764) market (3.305441) 
indian (4.404774) biscuit (3.990988) mert (3.987207) collard (3.876478) soul (3.802381) naan (3.763262) masala (3.553064) cornbread (3.401943) tikka (3.389770) southern (3.212241) 
sushi (3.760544) thai (3.734092) tuna (3.268723) roll (3.221314) cowfish (3.213202) crab (3.190822) fish (3.150853) shrimp (3.018024) curri (2.847334) pad (2.829339) 
cupcak (4.557218) crepe (4.055930) burrito (4.012782) mexican (3.547351) bakeri (3.492376) coffe (3.463525) salsa (3.360467) frost (3.296220) latt (3.273813) pastri (3.227867) 
greek (3.245658) pita (3.215776) gyro (2.993968) hummus (2.984480) lamb (2.949417) kabob (2.715379) falafel (2.700734) venu (2.598227) mediterranean (2.539241) rabbit (2.503507) 
theater (4.707040) movi (4.505566) yoga (4.288434) airport (4.263662) class (4.121099) hotel (4.008908) studio (3.924737) ticket (3.894245) flight (3.865243) hibachi (3.693344) 
pho (4.288617) vietnames (3.409544) broth (3.355660) mexican (2.981765) jamba (2.710443) rice (2.708253) chuy (2.602310) fran (2.554334) steak (2.537120) noodl (2.524740) 
Error (train/valid/test) = 0.322628/1.470276/1.502093 (0.024084)
..................................................
energy after gradient step = 48744410.362998

Top words for each topic:
pizza (4.831813) bagel (3.923183) bbq (3.746505) burger (3.634700) brisket (3.412365) crust (3.264591) wing (3.197046) mac (3.179903) chees (3.017815) rib (2.900394) 
salon (4.643921) nail (4.440367) hair (4.410098) appoint (4.286781) massag (4.198246) dr (4.078857) pedicur (4.019152) stylist (3.967310) vet (3.832381) target (3.683624) 
shoe (4.153512) cloth (4.046101) store (3.984272) gym (3.940267) jewelri (3.812967) breweri (3.810715) walmart (3.788486) trail (3.723009) greenway (3.607483) starbuck (3.499849) 
waffl (4.422634) bike (4.325929) penguin (4.020445) vendor (4.005413) donut (4.002460) pancak (3.886066) festiv (3.650146) farmer (3.603386) market (3.488479) raft (3.464876) 
indian (4.596089) biscuit (4.191972) mert (4.069689) collard (4.064060) soul (3.932599) naan (3.878003) masala (3.701542) tikka (3.528844) cornbread (3.493384) southern (3.441777) 
sushi (3.857366) thai (3.780644) roll (3.285298) tuna (3.271513) crab (3.212844) fish (3.198277) cowfish (3.193832) shrimp (3.119067) taco (2.851378) dish (2.840976) 
cupcak (4.659346) burrito (4.152291) crepe (4.111240) mexican (3.657277) bakeri (3.611950) coffe (3.605283) salsa (3.509323) latt (3.371069) pastri (3.333958) frost (3.312363) 
pita (3.414663) greek (3.338927) gyro (3.101392) hummus (3.080711) lamb (3.038331) kabob (2.878911) falafel (2.839066) venu (2.603164) mediterranean (2.570469) band (2.568437) 
theater (4.807870) movi (4.607402) airport (4.402917) yoga (4.354186) class (4.227112) hotel (4.152782) ticket (4.010630) flight (3.998191) studio (3.977720) hibachi (3.728230) 
pho (4.382595) vietnames (3.603890) broth (3.371970) mexican (3.110218) rice (2.905458) jamba (2.751004) chuy (2.684483) noodl (2.627983) steak (2.618397) fran (2.609665) 
Error (train/valid/test) = 0.323722/1.472845/1.506616 (0.024284)
..................................................
energy after gradient step = 48396242.677933

Top words for each topic:
pizza (4.896394) bagel (3.928618) bbq (3.796887) burger (3.720987) brisket (3.424723) crust (3.295124) wing (3.284505) mac (3.221729) chees (3.119932) rib (2.963227) 
salon (4.675877) nail (4.455425) hair (4.417238) appoint (4.344743) massag (4.247453) dr (4.100352) pedicur (4.059294) stylist (3.988609) vet (3.829993) repair (3.706750) 
shoe (4.205074) store (4.109507) cloth (4.092489) gym (3.941223) walmart (3.884932) jewelri (3.862933) breweri (3.825345) trail (3.800825) greenway (3.624845) starbuck (3.565931) 
waffl (4.490287) bike (4.455126) penguin (4.162505) donut (4.065039) vendor (4.059388) pancak (3.831777) festiv (3.707344) farmer (3.682775) market (3.631925) raft (3.529908) 
indian (4.725579) biscuit (4.357825) mert (4.107993) collard (4.094436) soul (4.029042) naan (3.987410) masala (3.805711) tikka (3.668352) cornbread (3.658077) grit (3.549298) 
sushi (3.957404) thai (3.786968) roll (3.367989) tuna (3.265621) fish (3.225157) crab (3.222882) cowfish (3.197780) shrimp (3.180097) dish (3.008053) entre (2.911380) 
cupcak (4.741673) burrito (4.254171) crepe (4.186979) mexican (3.778051) coffe (3.745098) salsa (3.655194) bakeri (3.619454) latt (3.443464) frost (3.426878) pastri (3.363589) 
greek (3.453434) pita (3.378570) gyro (3.195531) hummus (3.121077) lamb (3.076316) kabob (2.992613) falafel (2.862686) mediterranean (2.701199) band (2.682615) venu (2.576646) 
theater (4.853090) movi (4.684997) airport (4.544913) yoga (4.422219) class (4.305005) hotel (4.284005) ticket (4.071863) flight (4.042098) studio (4.034551) theatr (3.777611) 
pho (4.464328) vietnames (3.646600) broth (3.518235) mexican (3.152707) rice (3.044662) noodl (2.808495) jamba (2.804286) chines (2.777245) chuy (2.766308) fran (2.708562) 
Error (train/valid/test) = 0.321390/1.476315/1.508716 (0.024164)
..................................................
energy after gradient step = 48042670.892207

Top words for each topic:
pizza (4.970664) bagel (3.925115) bbq (3.844259) burger (3.840377) brisket (3.467911) wing (3.364927) crust (3.320335) mac (3.273804) chees (3.209861) rib (3.029692) 
salon (4.711898) nail (4.485087) hair (4.405953) appoint (4.356807) massag (4.290399) dr (4.129022) pedicur (4.079592) stylist (4.051028) vet (3.845114) target (3.744791) 
shoe (4.299184) store (4.242731) cloth (4.175778) gym (4.020012) jewelri (3.957000) breweri (3.945498) walmart (3.933496) trail (3.801580) greenway (3.688615) lane (3.592173) 
waffl (4.622136) bike (4.531400) penguin (4.282699) vendor (4.211432) donut (4.174150) pancak (4.008745) festiv (3.892543) farmer (3.798040) market (3.785646) raft (3.678675) 
indian (4.883472) biscuit (4.515116) mert (4.260540) collard (4.244065) soul (4.182789) naan (4.144797) masala (3.882956) tikka (3.822296) cornbread (3.772265) grit (3.767962) 
sushi (4.019537) thai (3.791161) roll (3.405719) tuna (3.294034) crab (3.241999) fish (3.219014) shrimp (3.201482) cowfish (3.151837) dish (3.086784) entre (2.985352) 
cupcak (4.822469) burrito (4.339399) crepe (4.234334) mexican (3.862909) coffe (3.835558) salsa (3.772061) bakeri (3.743233) latt (3.547569) frost (3.486520) pastri (3.425213) 
pita (3.576087) greek (3.524261) gyro (3.273659) hummus (3.225788) lamb (3.125151) kabob (3.048781) falafel (3.010513) band (2.832754) mediterranean (2.734727) venu (2.627164) 
theater (4.919461) movi (4.742717) airport (4.694895) yoga (4.467151) hotel (4.395060) class (4.359163) flight (4.111696) ticket (4.096715) studio (4.095268) theatr (3.838437) 
pho (4.544032) vietnames (3.802240) broth (3.563736) mexican (3.201362) rice (3.190412) noodl (3.032064) chines (3.014900) chicken (2.874605) jamba (2.854184) authent (2.851592) 
Error (train/valid/test) = 0.319155/1.480871/1.513037 (0.024203)
..................................................
energy after gradient step = 47718647.664152

Top words for each topic:
pizza (4.999598) bagel (3.961781) burger (3.948661) bbq (3.926329) brisket (3.508108) wing (3.475458) crust (3.389162) mac (3.335423) chees (3.310491) rib (3.089969) 
salon (4.773475) nail (4.514427) hair (4.417239) appoint (4.413448) massag (4.346537) dr (4.169374) pedicur (4.127370) stylist (4.082790) vet (3.903047) repair (3.742448) 
store (4.412739) shoe (4.376318) cloth (4.238076) gym (4.079335) jewelri (3.994501) walmart (3.986456) trail (3.943919) breweri (3.931074) greenway (3.745584) lane (3.623845) 
waffl (4.739048) bike (4.637744) penguin (4.381888) donut (4.305731) vendor (4.286421) pancak (4.127719) festiv (3.966437) market (3.939301) farmer (3.871832) raft (3.856612) 
indian (5.026598) biscuit (4.685374) mert (4.393266) collard (4.313414) naan (4.288657) soul (4.251614) masala (4.106222) tikka (3.966599) grit (3.951226) buffet (3.904031) 
sushi (4.128644) thai (3.837329) roll (3.493624) tuna (3.336868) crab (3.310242) shrimp (3.279495) fish (3.235834) cowfish (3.187911) dish (3.187746) entre (3.074169) 
cupcak (4.908159) burrito (4.432380) crepe (4.353121) mexican (3.977358) coffe (3.968002) salsa (3.896446) bakeri (3.848125) latt (3.611315) frost (3.554825) chipotl (3.535381) 
greek (3.617251) pita (3.568482) gyro (3.364817) hummus (3.280894) kabob (3.223195) lamb (3.138767) falafel (3.084229) band (2.845264) mediterranean (2.777058) stage (2.763286) 
theater (4.994286) airport (4.831298) movi (4.798609) yoga (4.521321) hotel (4.495662) class (4.399489) flight (4.190075) ticket (4.159531) studio (4.106427) theatr (3.869600) 
pho (4.636757) vietnames (3.803890) broth (3.648188) rice (3.354364) mexican (3.260989) chines (3.196873) noodl (3.124551) chicken (3.115394) authent (3.003525) bowl (2.938666) 
Error (train/valid/test) = 0.315807/1.487740/1.519766 (0.024433)
..................................................
energy after gradient step = 47431177.337990

Top words for each topic:
pizza (5.054580) burger (4.062777) bbq (4.009338) bagel (3.992588) wing (3.570644) brisket (3.561751) crust (3.448667) mac (3.403129) chees (3.397554) rib (3.141609) 
salon (4.828912) nail (4.557490) appoint (4.463532) hair (4.428838) massag (4.415766) dr (4.206009) stylist (4.190619) pedicur (4.181825) vet (3.935202) repair (3.791090) 
store (4.494417) shoe (4.430158) cloth (4.301984) gym (4.107966) breweri (4.065223) jewelri (4.037276) walmart (4.036432) trail (3.931119) lane (3.800502) greenway (3.797243) 
waffl (4.823014) bike (4.725090) donut (4.493067) penguin (4.454549) vendor (4.442425) pancak (4.266833) market (4.060611) festiv (4.043681) farmer (3.993491) raft (3.957517) 
indian (5.147884) biscuit (4.840766) soul (4.479448) mert (4.472044) collard (4.467033) naan (4.419204) masala (4.166022) grit (4.116643) buffet (4.084790) tikka (4.081970) 
sushi (4.211083) thai (3.872755) roll (3.519483) tuna (3.386360) crab (3.374837) shrimp (3.357527) dish (3.266895) fish (3.252571) entre (3.166815) cowfish (3.163021) 
cupcak (4.982167) burrito (4.520047) crepe (4.385645) mexican (4.073355) coffe (4.056548) salsa (3.987403) bakeri (3.892982) latt (3.717669) frost (3.645915) chipotl (3.605487) 
greek (3.728110) pita (3.709915) gyro (3.458984) hummus (3.408908) kabob (3.290753) lamb (3.196958) falafel (3.135341) band (2.978876) mediterranean (2.917899) rabbit (2.824259) 
theater (5.058116) airport (4.953192) movi (4.842792) hotel (4.593767) yoga (4.587678) class (4.429366) flight (4.263137) studio (4.218795) ticket (4.176852) theatr (3.978281) 
pho (4.700752) vietnames (4.020334) broth (3.708731) rice (3.490160) mexican (3.421064) chines (3.420354) chicken (3.308535) noodl (3.283192) authent (3.053047) bowl (3.028603) 
Error (train/valid/test) = 0.312432/1.497500/1.526601 (0.024296)
..................................................
energy after gradient step = 47175398.357698

Top words for each topic:
pizza (5.102017) burger (4.137873) bbq (4.047498) bagel (3.983521) wing (3.621877) brisket (3.544557) crust (3.458128) mac (3.445219) chees (3.442814) sandwich (3.216886) 
salon (4.854211) nail (4.562808) appoint (4.474141) massag (4.447621) hair (4.405679) dr (4.249294) pedicur (4.209756) stylist (4.181602) vet (3.973954) haircut (3.799855) 
store (4.555187) shoe (4.488356) cloth (4.331257) gym (4.149542) jewelri (4.130074) walmart (4.083086) breweri (4.015347) trail (3.999665) greenway (3.866333) lane (3.740078) 
waffl (4.918405) bike (4.847998) penguin (4.504341) donut (4.451078) vendor (4.438214) pancak (4.306933) market (4.159434) farmer (4.070441) festiv (4.043436) raft (4.013841) 
indian (5.251412) biscuit (4.990409) mert (4.536379) collard (4.535374) naan (4.518458) soul (4.487904) masala (4.293367) buffet (4.279167) grit (4.253022) cornbread (4.149907) 
sushi (4.265629) thai (3.907862) roll (3.538563) tuna (3.415116) crab (3.410421) shrimp (3.393780) dish (3.335490) fish (3.289707) cowfish (3.232375) entre (3.224093) 
cupcak (5.077114) burrito (4.618673) crepe (4.461667) mexican (4.157788) coffe (4.096586) salsa (4.088651) bakeri (4.018215) latt (3.832358) frost (3.697438) ame (3.668390) 
greek (3.750486) pita (3.732169) gyro (3.513501) hummus (3.394208) kabob (3.308660) falafel (3.275125) lamb (3.208686) band (3.051820) danc (2.956324) bartend (2.947568) 
theater (5.113158) airport (5.034043) movi (4.891860) hotel (4.659476) yoga (4.646985) class (4.468377) flight (4.300585) ticket (4.233382) studio (4.226197) theatr (4.012328) 
pho (4.767475) vietnames (3.963989) broth (3.767859) rice (3.620552) chines (3.593681) mexican (3.500282) chicken (3.415456) noodl (3.389981) bowl (3.101435) authent (3.088521) 
Error (train/valid/test) = 0.308104/1.501729/1.533894 (0.024833)
..................................................
energy after gradient step = 46945529.880680

Top words for each topic:
pizza (5.118244) burger (4.204714) bbq (4.088155) bagel (4.004671) wing (3.697281) brisket (3.595086) crust (3.517585) chees (3.490143) mac (3.445241) sandwich (3.311589) 
salon (4.900540) nail (4.590987) appoint (4.517548) massag (4.494476) hair (4.396079) stylist (4.254415) dr (4.254083) pedicur (4.234556) vet (4.001765) repair (3.838756) 
store (4.599486) shoe (4.524700) cloth (4.346558) jewelri (4.159730) breweri (4.140634) walmart (4.118286) gym (4.102825) trail (4.020362) lane (3.867376) greenway (3.857611) 
waffl (4.979748) bike (4.865360) penguin (4.638693) donut (4.618478) vendor (4.549887) pancak (4.359344) market (4.231521) farmer (4.200979) festiv (4.131364) raft (4.111844) 
indian (5.349580) biscuit (5.100123) soul (4.623023) naan (4.616415) mert (4.600519) collard (4.530429) grit (4.396403) buffet (4.396327) masala (4.372523) cornbread (4.338984) 
sushi (4.326761) thai (3.953577) roll (3.563915) tuna (3.464175) crab (3.461486) shrimp (3.439098) dish (3.371450) fish (3.331434) entre (3.286182) appet (3.219508) 
cupcak (5.138810) burrito (4.687328) crepe (4.532869) mexican (4.188966) salsa (4.147946) coffe (4.123577) bakeri (4.042698) latt (3.854890) frost (3.768307) guacamol (3.751525) 
greek (3.820494) pita (3.801936) gyro (3.559292) hummus (3.462133) kabob (3.399628) falafel (3.275331) lamb (3.271568) band (3.175269) bartend (3.036762) wine (3.026467) 
theater (5.153183) airport (5.104793) movi (4.911133) hotel (4.725334) yoga (4.690103) class (4.485143) flight (4.353903) studio (4.290612) ticket (4.221958) theatr (4.070277) 
pho (4.805021) vietnames (4.083451) broth (3.765172) chines (3.740840) rice (3.712045) mexican (3.645340) chicken (3.523939) noodl (3.488467) bowl (3.197251) authent (3.136132) 
Error (train/valid/test) = 0.303414/1.509539/1.542370 (0.025029)
..................................................
energy after gradient step = 46726935.623306

Top words for each topic:
pizza (5.163213) burger (4.277010) bbq (4.112683) bagel (4.015831) wing (3.750526) brisket (3.639050) chees (3.550120) crust (3.537378) mac (3.469193) sandwich (3.413189) 
salon (4.938029) nail (4.612675) appoint (4.542508) massag (4.535575) hair (4.366611) dr (4.293392) pedicur (4.267526) stylist (4.259685) vet (4.025772) haircut (3.886692) 
store (4.639940) shoe (4.539004) cloth (4.347842) jewelri (4.191421) walmart (4.160385) gym (4.138639) breweri (4.100257) trail (4.025382) greenway (3.938468) lane (3.832262) 
waffl (5.053681) bike (4.928038) penguin (4.652107) vendor (4.610622) donut (4.574740) pancak (4.364015) market (4.282852) farmer (4.242206) raft (4.190924) festiv (4.184795) 
indian (5.430404) biscuit (5.202584) naan (4.708772) soul (4.688988) mert (4.675886) collard (4.643950) buffet (4.525879) grit (4.509338) masala (4.434260) cornbread (4.402235) 
sushi (4.385763) thai (4.000791) roll (3.595646) crab (3.518247) tuna (3.512281) shrimp (3.491308) dish (3.431473) entre (3.352069) fish (3.340430) appet (3.255935) 
cupcak (5.216062) burrito (4.783757) crepe (4.578594) salsa (4.252090) mexican (4.236614) coffe (4.202016) bakeri (4.116374) latt (3.976970) ame (3.846512) margarita (3.819306) 
pita (3.868372) greek (3.866879) gyro (3.603909) kabob (3.452157) hummus (3.351404) falafel (3.338496) lamb (3.306559) band (3.254411) wine (3.238134) bartend (3.129223) 
theater (5.211387) airport (5.202536) movi (4.957746) hotel (4.817185) yoga (4.712437) class (4.515792) flight (4.390467) studio (4.337001) ticket (4.276038) theatr (4.118331) 
pho (4.844501) vietnames (4.111115) chines (3.886584) broth (3.852676) rice (3.828585) mexican (3.734033) chicken (3.612190) noodl (3.579593) bowl (3.213237) authent (3.184205) 
Error (train/valid/test) = 0.299288/1.518282/1.549650 (0.025195)
..................................................
energy after gradient step = 46525514.113383

Top words for each topic:
pizza (5.200817) burger (4.377512) bbq (4.168156) bagel (4.045601) wing (3.819149) brisket (3.664740) chees (3.562105) crust (3.558713) sandwich (3.531416) mac (3.472938) 
salon (4.978001) nail (4.618281) appoint (4.581652) massag (4.581110) hair (4.334101) stylist (4.328941) dr (4.313532) pedicur (4.308409) vet (4.052202) repair (3.911413) 
store (4.653062) shoe (4.583069) cloth (4.346629) jewelri (4.242760) walmart (4.160810) breweri (4.144879) trail (4.077114) gym (4.029756) lane (3.975319) greenway (3.927344) 
waffl (5.098003) bike (5.007744) penguin (4.765290) donut (4.724095) vendor (4.679711) pancak (4.460404) market (4.337131) farmer (4.275900) raft (4.222897) festiv (4.129361) 
indian (5.506124) biscuit (5.314560) naan (4.768803) mert (4.731428) collard (4.713033) soul (4.683468) buffet (4.672268) grit (4.654208) masala (4.537461) cornbread (4.508330) 
sushi (4.459023) thai (4.059022) roll (3.620982) crab (3.586987) shrimp (3.581526) tuna (3.574639) dish (3.495575) entre (3.435449) fish (3.389365) appet (3.334644) 
cupcak (5.302322) burrito (4.874468) crepe (4.617534) salsa (4.335599) mexican (4.308753) coffe (4.233061) bakeri (4.176111) latt (4.038373) guacamol (3.912238) frost (3.905398) 
greek (3.890790) pita (3.845179) gyro (3.646420) kabob (3.513754) hummus (3.457007) falafel (3.410164) wine (3.387939) lamb (3.272443) band (3.270877) venu (3.233032) 
airport (5.321301) theater (5.278816) movi (4.994341) hotel (4.909775) yoga (4.794644) class (4.534484) flight (4.423466) studio (4.422752) ticket (4.296673) theatr (4.176315) 
pho (4.886723) vietnames (4.152522) chines (4.023777) rice (3.971642) broth (3.791160) mexican (3.780201) chicken (3.680862) noodl (3.662729) bowl (3.287469) authent (3.210793) 
Error (train/valid/test) = 0.294492/1.527912/1.557163 (0.025174)
..................................................
energy after gradient step = 46401393.666443

Top words for each topic:
pizza (5.269279) burger (4.459395) bbq (4.216982) bagel (4.078843) wing (3.897406) brisket (3.707122) sandwich (3.651344) chees (3.636690) crust (3.614148) mac (3.528368) 
salon (5.025795) nail (4.634674) massag (4.622878) appoint (4.615722) stylist (4.353266) pedicur (4.350124) dr (4.350119) hair (4.320005) vet (4.095175) haircut (3.968937) 
store (4.647455) shoe (4.642240) cloth (4.370884) jewelri (4.292800) walmart (4.243531) breweri (4.170627) trail (4.030832) gym (3.985690) greenway (3.953201) lane (3.866604) 
waffl (5.151940) bike (5.035366) penguin (4.758143) vendor (4.725683) donut (4.655979) pancak (4.466387) farmer (4.435369) market (4.403010) raft (4.308648) festiv (4.246005) 
indian (5.572122) biscuit (5.391544) naan (4.807701) mert (4.787220) buffet (4.751366) soul (4.740818) grit (4.736197) collard (4.719706) cornbread (4.563781) masala (4.523025) 
sushi (4.546533) thai (4.121855) crab (3.667405) roll (3.656860) tuna (3.628878) shrimp (3.628628) dish (3.520540) entre (3.516463) fish (3.417006) appet (3.398318) 
cupcak (5.377098) burrito (4.963248) crepe (4.715581) salsa (4.421231) mexican (4.357769) coffe (4.322716) bakeri (4.261150) latt (4.147123) ame (3.997204) frost (3.980401) 
greek (3.896326) pita (3.884136) gyro (3.661704) wine (3.542159) kabob (3.539056) hummus (3.475948) falafel (3.395269) band (3.316643) venu (3.313390) bartend (3.267544) 
airport (5.404773) theater (5.336476) movi (5.017562) hotel (4.938044) yoga (4.855477) class (4.535116) flight (4.446099) studio (4.428412) ticket (4.306617) termin (4.263084) 
pho (4.917863) vietnames (4.204389) chines (4.142739) rice (4.079173) mexican (3.900134) broth (3.840948) noodl (3.778849) chicken (3.760567) bowl (3.358285) authent (3.249620) 
Error (train/valid/test) = 0.288784/1.538382/1.564089 (0.025558)
..................................................
energy after gradient step = 46224913.013877

Top words for each topic:
pizza (5.304635) burger (4.526111) bbq (4.264479) bagel (4.083599) wing (3.943864) sandwich (3.777039) brisket (3.760112) chees (3.647642) crust (3.642749) mac (3.541836) 
salon (5.068837) massag (4.668284) nail (4.647653) appoint (4.635934) stylist (4.405228) pedicur (4.384985) dr (4.360150) hair (4.274547) vet (4.116062) haircut (4.007404) 
store (4.662748) shoe (4.645727) cloth (4.370977) jewelri (4.341061) walmart (4.248773) breweri (4.176926) trail (4.116625) lane (4.040076) greenway (4.029721) accessori (3.907458) 
waffl (5.191515) bike (5.130427) donut (4.886608) penguin (4.869453) vendor (4.746960) pancak (4.480156) market (4.447471) farmer (4.360908) raft (4.351280) festiv (4.221306) 
indian (5.624470) biscuit (5.461455) naan (4.886792) buffet (4.859106) mert (4.794017) grit (4.792203) soul (4.766259) collard (4.763325) cornbread (4.622650) masala (4.622063) 
sushi (4.628030) thai (4.195549) crab (3.748377) tuna (3.717241) shrimp (3.688957) roll (3.684079) entre (3.590712) dish (3.558135) fish (3.455692) appet (3.421496) 
cupcak (5.471151) burrito (5.063687) crepe (4.783520) salsa (4.542023) mexican (4.398792) coffe (4.340192) bakeri (4.290780) latt (4.196018) ame (4.072669) frost (4.068648) 
greek (3.910322) pita (3.901313) gyro (3.710995) wine (3.664687) kabob (3.545634) falafel (3.485790) hummus (3.453359) venu (3.373558) band (3.349444) bartend (3.344325) 
airport (5.468764) theater (5.393785) movi (5.028781) hotel (5.020354) yoga (4.895469) class (4.551614) studio (4.542183) flight (4.474946) termin (4.349069) ticket (4.314045) 
pho (4.943125) chines (4.255367) rice (4.217191) vietnames (4.213781) mexican (4.011235) noodl (3.862566) broth (3.838608) chicken (3.835335) bowl (3.385971) enchilada (3.305646) 
Error (train/valid/test) = 0.284295/1.547227/1.577806 (0.025947)
..................................................
energy after gradient step = 46075266.209241

Top words for each topic:
pizza (5.364812) burger (4.609787) bbq (4.298561) bagel (4.107825) wing (3.987140) sandwich (3.831592) brisket (3.778259) crust (3.681067) chees (3.672851) mac (3.555072) 
salon (5.101867) massag (4.704168) nail (4.660601) appoint (4.644892) stylist (4.438054) pedicur (4.411846) dr (4.385618) hair (4.257589) vet (4.144081) haircut (4.028859) 
store (4.654129) shoe (4.654119) cloth (4.386093) jewelri (4.364834) walmart (4.239808) breweri (4.225205) trail (4.125386) greenway (4.063113) accessori (3.993341) lane (3.923497) 
waffl (5.240634) bike (5.180054) penguin (4.867985) donut (4.803398) vendor (4.800220) farmer (4.536439) pancak (4.522158) market (4.469849) raft (4.436630) festiv (4.274429) 
indian (5.682810) biscuit (5.544380) buffet (4.940828) naan (4.937619) mert (4.848522) grit (4.846827) collard (4.845002) soul (4.751983) masala (4.673036) cornbread (4.635761) 
sushi (4.704487) thai (4.256237) crab (3.813954) shrimp (3.762133) tuna (3.745897) roll (3.699792) entre (3.641466) dish (3.588013) fish (3.489742) appet (3.475741) 
cupcak (5.539083) burrito (5.129800) crepe (4.820786) salsa (4.590729) mexican (4.443240) coffe (4.372790) latt (4.318858) bakeri (4.312487) ame (4.168464) taco (4.124781) 
pita (3.917948) greek (3.880861) wine (3.741610) gyro (3.699323) kabob (3.656301) hummus (3.505122) falafel (3.443420) band (3.426449) venu (3.423655) bartend (3.421790) 
airport (5.523578) theater (5.429770) movi (5.046074) hotel (5.040627) yoga (4.963919) class (4.535977) studio (4.522403) flight (4.502117) termin (4.413550) theatr (4.369557) 
pho (4.957988) chines (4.354924) rice (4.315743) vietnames (4.230521) mexican (4.064881) noodl (3.906181) chicken (3.889335) broth (3.827590) bowl (3.404344) bean (3.310482) 
Error (train/valid/test) = 0.279470/1.555543/1.581904 (0.025889)
..................................................
energy after gradient step = 45914777.103664

Top words for each topic:
pizza (5.414325) burger (4.685694) bbq (4.357863) bagel (4.121208) wing (4.049642) sandwich (3.918474) brisket (3.815777) chees (3.711459) crust (3.705668) mac (3.567905) 
salon (5.138327) massag (4.743411) appoint (4.669712) nail (4.647998) stylist (4.471329) pedicur (4.448244) dr (4.397254) hair (4.251116) vet (4.165889) haircut (4.068073) 
shoe (4.668865) store (4.655603) cloth (4.407601) jewelri (4.404053) walmart (4.329722) breweri (4.193506) trail (4.105470) greenway (4.098204) lane (4.054745) accessori (3.990641) 
bike (5.287519) waffl (5.271981) penguin (4.938837) donut (4.911922) vendor (4.907559) farmer (4.554600) raft (4.492917) market (4.475351) pancak (4.471927) race (4.256439) 
indian (5.737584) biscuit (5.623387) buffet (5.051536) naan (4.991817) grit (4.954481) collard (4.923965) mert (4.908001) soul (4.799971) cornbread (4.764791) masala (4.698441) 
sushi (4.798117) thai (4.315633) crab (3.902163) shrimp (3.814979) tuna (3.803521) roll (3.737005) entre (3.707343) dish (3.651305) appet (3.563050) waiter (3.526051) 
cupcak (5.639138) burrito (5.214192) crepe (4.872970) salsa (4.675660) mexican (4.500776) bakeri (4.403184) latt (4.383282) coffe (4.366176) taco (4.295569) ame (4.224406) 
pita (3.942636) greek (3.870665) wine (3.807154) gyro (3.741277) kabob (3.669944) falafel (3.521273) bartend (3.513552) hummus (3.503310) venu (3.482420) band (3.446601) 
airport (5.589274) theater (5.479890) hotel (5.081761) movi (5.048120) yoga (5.009889) studio (4.626371) flight (4.528123) class (4.505086) termin (4.483900) theatr (4.396155) 
pho (4.986675) chines (4.430233) rice (4.395509) vietnames (4.278678) mexican (4.138428) chicken (3.993228) noodl (3.969023) broth (3.822915) bowl (3.429645) enchilada (3.387342) 
Error (train/valid/test) = 0.273732/1.565664/1.592406 (0.026154)
..................................................
energy after gradient step = 45745995.851432

Top words for each topic:
pizza (5.460468) burger (4.762268) bbq (4.416269) bagel (4.153996) wing (4.120647) sandwich (3.997469) brisket (3.861256) crust (3.745900) chees (3.713606) mac (3.604014) 
salon (5.156650) massag (4.793400) appoint (4.676447) nail (4.627968) stylist (4.523683) pedicur (4.478572) dr (4.428483) vet (4.206965) hair (4.198945) haircut (4.120128) 
shoe (4.668668) store (4.629297) jewelri (4.453328) cloth (4.406845) walmart (4.309027) breweri (4.219506) greenway (4.118231) trail (4.103388) accessori (4.085303) lane (4.046092) 
waffl (5.339315) bike (5.327310) penguin (5.005379) donut (4.960887) vendor (4.951442) farmer (4.687357) raft (4.610712) market (4.510181) pancak (4.447944) race (4.363072) 
indian (5.789517) biscuit (5.698849) buffet (5.226197) grit (5.073766) naan (5.064208) collard (4.977861) mert (4.918913) soul (4.825536) cornbread (4.776867) masala (4.771967) 
sushi (4.870068) thai (4.389757) crab (3.975770) tuna (3.900931) shrimp (3.865173) entre (3.748284) roll (3.738523) dish (3.679550) waiter (3.602146) appet (3.596254) 
cupcak (5.761003) burrito (5.325732) crepe (4.921454) salsa (4.767466) mexican (4.514447) latt (4.442911) bakeri (4.441897) taco (4.430024) ame (4.307030) coffe (4.290976) 
pita (3.955943) greek (3.882256) wine (3.846551) gyro (3.715678) kabob (3.672405) bartend (3.578374) venu (3.525472) hummus (3.511317) falafel (3.499197) bar (3.485155) 
airport (5.639606) theater (5.545650) hotel (5.120115) movi (5.082295) yoga (5.065823) studio (4.666658) termin (4.569935) flight (4.568302) class (4.519099) theatr (4.435203) 
pho (5.005184) chines (4.518623) rice (4.509094) vietnames (4.305864) mexican (4.242219) chicken (4.033808) noodl (4.013494) broth (3.736156) enchilada (3.499863) salsa (3.447920) 
Error (train/valid/test) = 0.267721/1.576021/1.603214 (0.026389)
..................................................
energy after gradient step = 45625973.082603

Top words for each topic:
pizza (5.503849) burger (4.835372) bbq (4.460041) bagel (4.179380) wing (4.168943) sandwich (4.035674) brisket (3.901326) crust (3.781518) chees (3.767355) fri (3.650622) 
salon (5.189913) massag (4.823223) appoint (4.688447) nail (4.631183) stylist (4.543196) pedicur (4.501605) dr (4.424218) hair (4.219562) vet (4.206806) haircut (4.132017) 
shoe (4.675487) store (4.653945) jewelri (4.502862) cloth (4.412705) walmart (4.339283) breweri (4.198092) greenway (4.153203) trail (4.115296) accessori (4.075054) lane (4.037801) 
bike (5.397225) waffl (5.379058) penguin (5.076377) vendor (5.031092) donut (5.030553) farmer (4.746829) raft (4.644261) market (4.520272) race (4.345553) pancak (4.309610) 
indian (5.838155) biscuit (5.755553) buffet (5.300117) grit (5.150106) naan (5.092700) collard (4.977245) mert (4.960048) cornbread (4.855328) masala (4.830752) soul (4.829771) 
sushi (4.921983) thai (4.425635) crab (4.011347) tuna (3.951306) shrimp (3.922717) entre (3.776846) roll (3.746737) dish (3.703956) appet (3.644990) waiter (3.633932) 
cupcak (5.804726) burrito (5.376904) crepe (4.974762) salsa (4.804160) mexican (4.525581) latt (4.511387) bakeri (4.496094) taco (4.494481) ame (4.393990) coffe (4.275973) 
pita (3.944641) wine (3.876555) greek (3.873673) kabob (3.727470) gyro (3.718408) bartend (3.647677) venu (3.592397) bar (3.559888) danc (3.541438) falafel (3.533153) 
airport (5.705391) theater (5.588349) yoga (5.127673) hotel (5.097910) movi (5.046229) studio (4.697684) termin (4.629477) flight (4.600288) theatr (4.550386) class (4.510557) 
pho (4.998634) chines (4.563918) rice (4.555415) mexican (4.281452) vietnames (4.281250) chicken (4.054555) noodl (4.041929) broth (3.685425) salsa (3.511362) shrimp (3.488426) 
Error (train/valid/test) = 0.263545/1.583936/1.610768 (0.026409)
..................................................
energy after gradient step = 45511932.925176

Top words for each topic:
pizza (5.554667) burger (4.915270) bbq (4.499894) wing (4.196634) bagel (4.192870) sandwich (4.109298) brisket (3.950889) crust (3.835235) chees (3.805490) fri (3.725902) 
salon (5.213136) massag (4.848906) appoint (4.705158) nail (4.610510) stylist (4.573525) pedicur (4.522252) dr (4.438096) hair (4.239342) vet (4.223272) haircut (4.156117) 
shoe (4.686557) store (4.644003) jewelri (4.564142) cloth (4.409672) walmart (4.330198) breweri (4.211255) greenway (4.195611) trail (4.122665) accessori (4.105101) merchandis (4.101145) 
bike (5.464375) waffl (5.419086) penguin (5.103569) donut (5.090439) vendor (5.031387) farmer (4.824755) raft (4.738905) market (4.539828) race (4.419626) nascar (4.391718) 
indian (5.874714) biscuit (5.811958) buffet (5.313933) grit (5.191213) naan (5.127133) mert (4.993682) collard (4.978307) cornbread (4.881684) masala (4.859531) soul (4.808372) 
sushi (4.998515) thai (4.481707) crab (4.086311) tuna (4.001213) shrimp (3.959542) entre (3.839520) roll (3.752999) dish (3.737624) appet (3.714322) salad (3.693701) 
cupcak (5.874500) burrito (5.456861) crepe (5.009860) salsa (4.831354) latt (4.574719) taco (4.542044) bakeri (4.541605) mexican (4.538370) ame (4.448614) frost (4.326458) 
pita (3.977254) wine (3.882735) greek (3.864901) kabob (3.742149) gyro (3.722802) bartend (3.683869) venu (3.640813) bar (3.622864) danc (3.570324) band (3.562207) 
airport (5.777694) theater (5.635338) yoga (5.150349) hotel (5.118484) movi (5.050881) studio (4.715406) termin (4.710908) flight (4.588917) airway (4.523506) theatr (4.521583) 
pho (5.009556) rice (4.592481) chines (4.580248) mexican (4.337529) vietnames (4.300061) noodl (4.092851) chicken (4.086403) broth (3.625861) enchilada (3.615373) salsa (3.595810) 
Error (train/valid/test) = 0.258233/1.594849/1.619429 (0.026701)
..................................................
energy after gradient step = 45413771.567136

Top words for each topic:
pizza (5.594149) burger (4.996888) bbq (4.544633) wing (4.222544) bagel (4.219903) sandwich (4.177786) brisket (3.986537) crust (3.863904) chees (3.781395) fri (3.781382) 
salon (5.225534) massag (4.869529) appoint (4.693188) nail (4.599142) stylist (4.595677) pedicur (4.540188) dr (4.440726) vet (4.254142) hair (4.216701) haircut (4.179160) 
shoe (4.720960) store (4.667209) jewelri (4.619246) cloth (4.410370) walmart (4.347785) greenway (4.229410) breweri (4.222852) trail (4.185566) accessori (4.173424) target (4.148839) 
bike (5.524166) waffl (5.477636) donut (5.178456) penguin (5.165412) vendor (5.110374) farmer (4.851709) raft (4.810718) market (4.537728) nascar (4.471456) race (4.457739) 
indian (5.901671) biscuit (5.848102) buffet (5.393406) grit (5.247346) naan (5.152432) mert (4.993443) collard (4.956635) cornbread (4.929645) masala (4.876822) soul (4.781675) 
sushi (5.062024) thai (4.531699) crab (4.124562) tuna (4.049020) shrimp (4.006188) entre (3.879664) roll (3.759457) salad (3.755627) dish (3.734902) appet (3.703120) 
cupcak (5.925277) burrito (5.507572) crepe (5.047008) salsa (4.855079) latt (4.634529) bakeri (4.590442) taco (4.587401) mexican (4.517681) ame (4.515763) frost (4.378231) 
pita (3.968258) wine (3.888438) greek (3.839379) kabob (3.762950) gyro (3.727947) bartend (3.713370) venu (3.710438) bar (3.696631) beer (3.686097) danc (3.603682) 
airport (5.824051) theater (5.667336) yoga (5.204005) hotel (5.141728) movi (5.037962) studio (4.807325) termin (4.785955) theatr (4.652195) flight (4.634419) airway (4.559397) 
pho (4.984243) rice (4.635327) chines (4.597586) mexican (4.369582) vietnames (4.296243) noodl (4.153858) chicken (4.066656) salsa (3.671652) broth (3.666285) enchilada (3.657213) 
Error (train/valid/test) = 0.254773/1.605766/1.626947 (0.026744)
..................................................
energy after gradient step = 45326099.019915

Top words for each topic:
pizza (5.642587) burger (5.073520) bbq (4.581312) wing (4.270872) bagel (4.249766) sandwich (4.200177) brisket (4.016487) crust (3.884814) fri (3.816736) chees (3.779845) 
salon (5.247435) massag (4.896303) appoint (4.692155) stylist (4.629087) nail (4.616252) pedicur (4.566461) dr (4.450293) vet (4.262828) haircut (4.216118) hair (4.201242) 
shoe (4.731763) store (4.680720) jewelri (4.651454) cloth (4.405896) walmart (4.363422) greenway (4.252361) target (4.230553) breweri (4.228924) merchandis (4.195611) accessori (4.187210) 
bike (5.579056) waffl (5.526569) penguin (5.210457) vendor (5.173241) donut (5.147356) farmer (4.956671) raft (4.860909) market (4.544024) nascar (4.514801) race (4.502746) 
indian (5.919863) biscuit (5.873130) buffet (5.394542) grit (5.278262) naan (5.170038) mert (4.985292) collard (4.952332) cornbread (4.909810) masala (4.864478) soul (4.772600) 
sushi (5.111782) thai (4.586577) crab (4.196982) tuna (4.113018) shrimp (4.048022) entre (3.934110) salad (3.830032) roll (3.778016) scallop (3.749854) dish (3.737532) 
cupcak (5.984642) burrito (5.575272) crepe (5.068739) salsa (4.881441) latt (4.699614) taco (4.655311) bakeri (4.619251) ame (4.566072) mexican (4.488442) frost (4.410157) 
pita (3.983174) wine (3.885782) beer (3.846366) greek (3.835374) kabob (3.789599) bartend (3.761117) bar (3.731274) gyro (3.724512) venu (3.723093) danc (3.640392) 
airport (5.901536) theater (5.697328) yoga (5.218648) hotel (5.138656) movi (5.037781) studio (4.825016) termin (4.822681) theatr (4.637411) flight (4.636854) airway (4.623315) 
pho (4.992926) rice (4.669728) chines (4.609577) mexican (4.425156) vietnames (4.304309) noodl (4.190967) chicken (4.083561) salsa (3.719217) enchilada (3.669352) broth (3.647331) 
Error (train/valid/test) = 0.250026/1.614037/1.635868 (0.027072)
..................................................
energy after gradient step = 45211600.042781

Top words for each topic:
pizza (5.687815) burger (5.162850) bbq (4.602714) wing (4.310391) bagel (4.279070) sandwich (4.259163) brisket (4.050244) crust (3.909572) fri (3.844420) chees (3.807599) 
salon (5.276975) massag (4.931812) appoint (4.697460) stylist (4.654151) nail (4.610296) pedicur (4.584816) dr (4.471034) vet (4.283423) haircut (4.240668) hair (4.189578) 
jewelri (4.721122) shoe (4.713986) store (4.645893) cloth (4.419545) walmart (4.398474) target (4.338479) greenway (4.281343) accessori (4.230852) merchandis (4.186626) breweri (4.166316) 
bike (5.598210) waffl (5.546428) donut (5.282693) vendor (5.213122) penguin (5.166212) farmer (4.936550) raft (4.924129) market (4.584059) race (4.583316) nascar (4.496122) 
indian (5.948724) biscuit (5.910478) buffet (5.442562) grit (5.342127) naan (5.181271) mert (5.000583) collard (4.921411) masala (4.921128) cornbread (4.912535) tikka (4.767372) 
sushi (5.158345) thai (4.622147) crab (4.236326) tuna (4.174883) shrimp (4.078033) entre (3.983209) salad (3.897126) scallop (3.827533) dish (3.770961) appet (3.767406) 
cupcak (6.054956) burrito (5.647418) crepe (5.108329) salsa (4.901726) taco (4.772409) latt (4.753637) bakeri (4.646462) ame (4.645525) frost (4.473302) croissant (4.415753) 
beer (4.018845) pita (3.992962) wine (3.896925) kabob (3.843151) greek (3.811339) bartend (3.793721) venu (3.791926) bar (3.768485) gyro (3.733562) danc (3.698742) 
airport (5.927633) theater (5.736809) yoga (5.253336) hotel (5.143575) movi (5.011786) termin (4.871045) studio (4.868030) theatr (4.723464) airway (4.680746) flight (4.634898) 
pho (4.990850) rice (4.706447) chines (4.636290) mexican (4.525955) vietnames (4.306616) noodl (4.226807) chicken (4.106177) salsa (3.787615) shrimp (3.705512) enchilada (3.682036) 
Error (train/valid/test) = 0.246081/1.624072/1.648814 (0.027394)
..................................................
energy after gradient step = 45124323.287943

Top words for each topic:
pizza (5.723445) burger (5.245419) bbq (4.642882) wing (4.335639) sandwich (4.303293) bagel (4.299994) brisket (4.080671) crust (3.930604) fri (3.886745) mac (3.849288) 
salon (5.289033) massag (4.941816) appoint (4.696238) stylist (4.670580) pedicur (4.608277) nail (4.596527) dr (4.468702) vet (4.302111) haircut (4.257523) hair (4.182288) 
shoe (4.713932) jewelri (4.709324) store (4.694925) cloth (4.406886) walmart (4.392613) target (4.316035) greenway (4.284981) merchandis (4.239336) accessori (4.238905) breweri (4.165387) 
bike (5.652064) waffl (5.594712) donut (5.253909) vendor (5.252751) penguin (5.227543) farmer (5.026335) raft (4.964809) market (4.626848) race (4.613564) nascar (4.548493) 
indian (5.914934) biscuit (5.909485) buffet (5.424861) grit (5.346206) naan (5.191833) mert (5.000786) cornbread (4.926385) masala (4.890668) collard (4.873683) tikka (4.776550) 
sushi (5.204646) thai (4.662083) crab (4.273971) tuna (4.215250) shrimp (4.110613) entre (4.004340) salad (3.900660) scallop (3.895362) appet (3.809691) salmon (3.807470) 
cupcak (6.109975) burrito (5.686509) crepe (5.153804) salsa (4.896863) taco (4.841010) latt (4.803456) ame (4.701991) bakeri (4.685746) frost (4.494933) croissant (4.469537) 
beer (4.216272) pita (3.992547) wine (3.898397) bartend (3.880085) kabob (3.858461) venu (3.840813) bar (3.807279) greek (3.769431) danc (3.722642) gyro (3.715196) 
airport (5.957619) theater (5.772270) yoga (5.276263) hotel (5.141107) movi (5.003721) termin (4.934691) studio (4.884329) airway (4.723331) theatr (4.722430) flight (4.676956) 
pho (4.965012) rice (4.756936) chines (4.662921) mexican (4.592832) vietnames (4.298856) noodl (4.232831) chicken (4.126985) salsa (3.846606) shrimp (3.760560) enchilada (3.712696) 
Error (train/valid/test) = 0.242366/1.631852/1.657236 (0.027802)
..................................................
energy after gradient step = 45025302.257079

Top words for each topic:
pizza (5.765298) burger (5.316905) bbq (4.689331) wing (4.354772) sandwich (4.338999) bagel (4.319927) brisket (4.114075) crust (3.962743) fri (3.919072) mac (3.904124) 
salon (5.311242) massag (4.974664) stylist (4.701652) appoint (4.697221) pedicur (4.627217) nail (4.593366) dr (4.462977) vet (4.319638) haircut (4.288693) hair (4.199046) 
jewelri (4.797551) store (4.736931) shoe (4.708306) walmart (4.429688) cloth (4.406983) target (4.385457) greenway (4.343030) merchandis (4.308548) accessori (4.301326) exhibit (4.170056) 
bike (5.727790) waffl (5.635799) donut (5.317861) vendor (5.313572) penguin (5.245190) farmer (5.100196) raft (5.082532) race (4.659509) nascar (4.618685) market (4.617121) 
biscuit (5.944525) indian (5.940389) buffet (5.447023) grit (5.389430) naan (5.204735) mert (5.003155) masala (4.909216) cornbread (4.892964) collard (4.874864) tikka (4.768646) 
sushi (5.275164) thai (4.711768) crab (4.338519) tuna (4.268327) shrimp (4.170689) entre (4.059531) scallop (3.958725) salad (3.951402) salmon (3.859034) appet (3.858694) 
cupcak (6.177391) burrito (5.738579) crepe (5.180642) salsa (4.926010) taco (4.879286) latt (4.849388) ame (4.763353) bakeri (4.678490) frost (4.530497) croissant (4.508976) 
beer (4.414942) pita (3.962212) bartend (3.933790) kabob (3.899669) wine (3.889529) venu (3.887322) bar (3.863903) greek (3.782270) danc (3.760987) band (3.721861) 
airport (6.010700) theater (5.792603) yoga (5.291920) hotel (5.180642) movi (5.020066) termin (4.992509) studio (4.904678) airway (4.769417) theatr (4.746131) shuttl (4.697794) 
pho (4.986007) rice (4.794912) chines (4.679701) mexican (4.643905) vietnames (4.314749) noodl (4.262918) chicken (4.132321) salsa (3.898797) shrimp (3.822813) enchilada (3.786107) 
Error (train/valid/test) = 0.237762/1.643364/1.666817 (0.028037)
..................................................
energy after gradient step = 44969906.866206

Top words for each topic:
pizza (5.809464) burger (5.404831) bbq (4.732205) wing (4.392846) sandwich (4.382627) bagel (4.339680) brisket (4.159038) crust (3.991450) fri (3.935092) mac (3.921159) 
salon (5.328786) massag (4.999375) stylist (4.725652) appoint (4.693984) pedicur (4.650804) nail (4.597871) dr (4.465271) vet (4.342509) haircut (4.299190) manicur (4.174506) 
jewelri (4.784706) store (4.725821) shoe (4.687277) cloth (4.403435) walmart (4.384875) target (4.355355) greenway (4.315882) accessori (4.306889) merchandis (4.289453) exhibit (4.214068) 
bike (5.790559) waffl (5.643605) donut (5.385253) vendor (5.369005) penguin (5.218856) farmer (5.143059) raft (5.123933) race (4.677870) nascar (4.657111) market (4.649899) 
biscuit (5.959100) indian (5.935409) buffet (5.475075) grit (5.423108) naan (5.203855) mert (5.007872) cornbread (4.953168) collard (4.925418) masala (4.908431) tikka (4.800831) 
sushi (5.319932) thai (4.716579) crab (4.334130) tuna (4.308614) shrimp (4.210869) entre (4.063210) scallop (4.004765) salad (3.965399) appet (3.895684) salmon (3.889645) 
cupcak (6.219411) burrito (5.772135) crepe (5.218803) salsa (4.944100) taco (4.931272) latt (4.905448) ame (4.802990) bakeri (4.715521) croissant (4.562107) frost (4.547474) 
beer (4.499580) venu (3.918986) pita (3.918191) bartend (3.907953) kabob (3.875384) bar (3.871416) wine (3.856624) danc (3.802632) pub (3.784787) band (3.753731) 
airport (6.009842) theater (5.813773) yoga (5.326942) hotel (5.172650) movi (5.043871) termin (5.033545) studio (4.973467) airway (4.819894) theatr (4.815878) gym (4.746948) 
pho (4.991425) rice (4.837696) chines (4.704442) mexican (4.677417) vietnames (4.326763) noodl (4.288292) chicken (4.156301) salsa (3.955159) shrimp (3.850494) enchilada (3.792482) 
Error (train/valid/test) = 0.234583/1.653402/1.676210 (0.028217)
..................................................
energy after gradient step = 44875407.958446

Top words for each topic:
pizza (5.846653) burger (5.463638) bbq (4.772848) wing (4.433690) sandwich (4.381804) bagel (4.357800) brisket (4.187768) crust (4.003568) fri (3.961974) mac (3.959912) 
salon (5.346331) massag (5.023471) stylist (4.745578) appoint (4.685442) pedicur (4.658101) nail (4.605076) dr (4.464887) vet (4.342693) haircut (4.327585) manicur (4.184877) 
jewelri (4.837147) store (4.774868) shoe (4.698546) cloth (4.428261) walmart (4.422387) greenway (4.375690) merchandis (4.353383) target (4.346398) accessori (4.318695) exhibit (4.315877) 
bike (5.838645) waffl (5.648280) vendor (5.415005) donut (5.352309) penguin (5.281708) farmer (5.180113) raft (5.160715) nascar (4.749459) race (4.703226) market (4.675225) 
biscuit (5.974974) indian (5.939646) buffet (5.470768) grit (5.455109) naan (5.212572) mert (5.013272) collard (4.952205) cornbread (4.927279) masala (4.913704) brunch (4.817274) 
sushi (5.355636) thai (4.733126) crab (4.373519) tuna (4.326230) shrimp (4.237264) entre (4.111305) scallop (4.063086) salad (4.006507) salmon (3.930136) appet (3.920263) 
cupcak (6.259655) burrito (5.788976) crepe (5.260514) salsa (4.952196) taco (4.935899) latt (4.931034) ame (4.858646) bakeri (4.692558) frost (4.613153) croissant (4.572989) 
beer (4.599300) venu (3.960450) bartend (3.951188) kabob (3.937181) pita (3.893103) bar (3.891497) wine (3.865118) pub (3.856668) danc (3.833484) band (3.792495) 
airport (6.031786) theater (5.828193) yoga (5.344167) hotel (5.184060) termin (5.086813) movi (5.076699) studio (4.964018) airway (4.863136) theatr (4.784054) gym (4.773000) 
pho (5.003672) rice (4.866207) chines (4.736246) mexican (4.732805) noodl (4.335300) vietnames (4.322422) chicken (4.164535) salsa (4.006063) shrimp (3.889225) enchilada (3.865831) 
Error (train/valid/test) = 0.231149/1.662279/1.682654 (0.028342)
