corpus = data_char.gz
latentReg = 0.000000
lambda = 7.000000
K = 5

nUsers = 24649, nItems = 5149, nRatings = 98034

Error w/ offset term only (train/valid/test) = 1.538870/1.512279/1.538328 (0.019992)
Error w/ offset and bias (train/valid/test) = 0.763218/1.284585/1.295652 (0.019978)

..................................................
energy after gradient step = 346562619.032694

Top words for each topic:
twist (0.319257) needless (0.317097) trivia (0.314176) coat (0.313561) eh (0.291335) race (0.279018) winner (0.262418) butteri (0.260201) pretzel (0.259892) picnic (0.258384) 
hesit (0.330890) attend (0.318128) panther (0.317876) nearbi (0.266026) caramel (0.262378) beet (0.258896) indoor (0.253685) teriyaki (0.253015) join (0.245697) christma (0.244668) 
freak (0.377544) complex (0.309302) ador (0.285528) begin (0.280427) extens (0.272954) older (0.272590) yet (0.270748) gorgeous (0.253091) refund (0.249735) fyi (0.242919) 
chat (0.323824) brew (0.287711) pleasur (0.275212) skin (0.261324) environ (0.257463) target (0.254625) fire (0.242371) unlik (0.231757) joke (0.230614) decis (0.230394) 
laugh (0.348269) polic (0.263281) san (0.256775) mimosa (0.253720) crisp (0.248498) settl (0.247850) footbal (0.242954) load (0.241083) relat (0.233065) bud (0.231459) 
Error (train/valid/test) = 1.409304/1.414589/1.442418 (0.018975)
..................................................
energy after gradient step = 346171607.984981

Top words for each topic:
doggi (0.476488) 23 (0.467226) mama (0.454805) mellow (0.445356) confid (0.430903) john (0.426086) ac (0.411001) flag (0.410671) tablesid (0.400448) linger (0.400101) 
pit (0.539843) info (0.536137) hundr (0.510539) concret (0.448998) recogn (0.447460) growler (0.433140) 247 (0.431468) tin (0.429194) hat (0.427722) noisi (0.427252) 
ador (0.620819) exercis (0.611198) trio (0.468485) sticker (0.460944) nurs (0.459233) qualifi (0.454576) fyi (0.448798) jersey (0.446754) trout (0.446384) island (0.445487) 
communic (0.569632) wilt (0.568371) accent (0.552208) film (0.504417) encount (0.485614) booz (0.479028) batteri (0.471096) m (0.459364) publix (0.454939) soooo (0.447443) 
cobbler (0.751457) bookstor (0.491187) squeez (0.471365) tail (0.468062) zoe (0.444244) tavern (0.434044) laugh (0.425944) vip (0.421739) snap (0.421469) purpos (0.420583) 
Error (train/valid/test) = 1.275585/1.333993/1.358009 (0.018241)
..................................................
energy after gradient step = 346027202.270391

Top words for each topic:
mama (0.639271) tzatziki (0.602189) vacuum (0.597981) macaroon (0.583150) mechan (0.580368) length (0.574056) recal (0.561385) report (0.551692) bargain (0.548538) itll (0.548021) 
info (1.092233) 247 (0.834783) growler (0.697529) river (0.694991) noisi (0.669323) valentin (0.664373) hundr (0.647055) bouncer (0.625235) lion (0.613657) minimum (0.611145) 
spa (0.740574) contrast (0.730325) ador (0.715109) exercis (0.637217) tremend (0.633540) sticker (0.611038) oili (0.598257) frost (0.586702) panera (0.579445) ounc (0.574329) 
accent (0.850854) 750 (0.698330) 150 (0.673800) communic (0.647690) p (0.616155) sangria (0.614545) film (0.612528) lay (0.606552) batteri (0.599158) speed (0.579374) 
duti (0.711956) golf (0.665356) tail (0.644935) s (0.627424) exit (0.622700) sucker (0.622368) record (0.611133) purpos (0.601727) poach (0.576672) cobbler (0.571256) 
Error (train/valid/test) = 1.206164/1.299944/1.323046 (0.018025)
..................................................
energy after gradient step = 345882360.038485

Top words for each topic:
mama (0.891551) tzatziki (0.762419) besid (0.744122) pat (0.736809) wit (0.703090) report (0.699026) recal (0.692059) flag (0.687322) cvs (0.681729) struggl (0.679973) 
info (1.051121) guid (0.927816) domino (0.828694) bouncer (0.821978) pit (0.803753) noisi (0.784907) outback (0.784818) drivein (0.745689) lion (0.743944) sooo (0.742529) 
hood (0.842818) sticker (0.825482) swim (0.801098) qc (0.735932) toni (0.735390) patienc (0.718957) hashbrown (0.705100) huh (0.694270) puff (0.692302) raleigh (0.686974) 
accent (0.908856) mein (0.774665) eddi (0.747081) visual (0.744118) happier (0.715338) p (0.714963) communic (0.692448) o (0.683369) libretto (0.677791) 5pm (0.673634) 
plug (0.889311) sucker (0.810137) metal (0.803704) exit (0.766566) cobbler (0.740732) grace (0.733771) duti (0.718878) lake (0.717370) rad (0.706711) dd (0.701637) 
Error (train/valid/test) = 1.152627/1.278995/1.301499 (0.017934)
..................................................
energy after gradient step = 345739852.674554

Top words for each topic:
skillet (0.903173) mama (0.843593) report (0.809849) pat (0.797836) flag (0.792566) hookah (0.787864) mex (0.768668) intersect (0.767919) basi (0.765558) msg (0.753320) 
info (1.163565) guid (0.997990) domino (0.936098) sooo (0.869680) outback (0.837196) lion (0.832628) pit (0.819801) adopt (0.814892) noisi (0.811602) brother (0.770796) 
swim (0.968307) intend (0.862997) sticker (0.834806) smokehous (0.834064) inspect (0.833841) primari (0.826191) offici (0.811479) strict (0.779553) huh (0.772638) loui (0.766390) 
map (1.011420) accent (0.912006) highest (0.906190) eddi (0.849905) communic (0.779350) 131 (0.775357) upsid (0.766169) surgeri (0.755915) graham (0.755041) yell (0.749609) 
sucker (1.023864) plug (0.969971) smokey (0.942399) exit (0.912740) grace (0.900661) achiev (0.863868) cobbler (0.851861) fondu (0.847547) uncl (0.834629) field (0.822232) 
Error (train/valid/test) = 1.114595/1.266410/1.288551 (0.017903)
..................................................
energy after gradient step = 345627220.692893

Top words for each topic:
mex (1.057263) equival (0.992553) valid (0.928206) struggl (0.916347) commit (0.906443) tzatziki (0.903204) rais (0.897548) confid (0.890954) genuin (0.879380) mama (0.858690) 
info (1.183446) outback (1.045041) burgushi (1.036571) guid (1.028520) success (1.000947) cowfish (0.981132) lion (0.952867) auto (0.946307) t (0.912873) minimum (0.908184) 
swim (1.113146) lip (1.065767) perspect (1.033899) toni (1.015411) strict (0.991538) dislik (0.986783) intend (0.984455) rotat (0.965622) paneer (0.960809) plazamidwood (0.933779) 
map (1.151070) stall (1.051185) mongolian (1.007932) eddi (0.899874) ceil (0.886639) 131 (0.882257) provolon (0.871814) signatur (0.851144) communic (0.850287) london (0.845730) 
exit (1.312719) sucker (1.256846) cobbler (1.095649) grace (0.941934) poach (0.930804) smokey (0.928863) plug (0.897053) uncl (0.887129) duti (0.875974) rad (0.875622) 
Error (train/valid/test) = 1.080322/1.257330/1.278617 (0.017903)
..................................................
energy after gradient step = 345466209.963415

Top words for each topic:
equival (1.138331) mex (1.084772) valid (1.062698) commit (1.000784) mama (0.988295) struggl (0.975195) confid (0.963715) graduat (0.925558) report (0.922085) selfserv (0.913217) 
cowfish (1.362610) info (1.229974) burgushi (1.225422) adopt (1.145784) t (1.132179) guid (1.109865) outback (1.098284) auto (1.050145) success (0.996395) minimum (0.983723) 
toni (1.247998) swim (1.223162) plazamidwood (1.065764) strict (1.044605) lip (1.030252) cuban (0.990310) cabo (0.974689) interact (0.973251) intend (0.966901) smokehous (0.966625) 
map (1.281823) mongolian (1.230539) eddi (1.151934) stall (1.090037) signatur (1.047310) communic (1.015928) ceil (0.966522) 131 (0.965438) provolon (0.949590) 2030 (0.939436) 
sucker (1.324912) oz (1.155659) exit (1.146407) plug (1.062358) industri (1.037320) fondu (1.033281) smokey (1.026296) nutrit (1.010935) omni (1.004825) cobbler (0.981883) 
Error (train/valid/test) = 1.054145/1.251777/1.271975 (0.017913)
..................................................
energy after gradient step = 345322871.669910

Top words for each topic:
mex (1.171766) struggl (1.076195) lupi (1.065764) selfserv (0.983931) maci (0.970547) cousin (0.964737) graduat (0.963253) nfl (0.957447) mama (0.951327) genuin (0.946012) 
cowfish (1.606875) info (1.341633) adopt (1.272895) burgushi (1.265776) t (1.233640) guid (1.113793) success (1.047798) minimum (1.043410) fave (1.035682) pit (1.017306) 
swim (1.369608) toni (1.335652) lip (1.299455) cigar (1.164735) intend (1.142056) relish (1.139129) strict (1.134350) led (1.122821) particip (1.121207) cuban (1.112736) 
map (1.487543) mongolian (1.227830) eddi (1.191796) signatur (1.097854) soak (1.097246) communic (1.062938) stall (1.051393) 2030 (1.041772) hangov (1.035133) graham (1.023077) 
sucker (1.386345) exit (1.229632) oz (1.188348) omni (1.149224) industri (1.134314) nutrit (1.097536) 500 (1.082989) plug (1.071326) fondu (1.068782) smokey (1.052158) 
Error (train/valid/test) = 1.034327/1.247999/1.267578 (0.017926)
..................................................
energy after gradient step = 345172428.443678

Top words for each topic:
mama (1.143658) hookah (1.133437) genuin (1.118123) mex (1.109492) nfl (1.102620) e2 (1.087505) 1511 (1.041666) thoma (1.031793) jack (1.023986) lupi (1.009271) 
cowfish (1.838785) burgushi (1.426137) adopt (1.339372) info (1.318524) guid (1.286219) fave (1.156995) t (1.136874) minimum (1.089184) hundr (1.055591) pit (1.043614) 
swim (1.500064) toni (1.403659) cigar (1.320230) tan (1.286793) relish (1.239598) lip (1.230680) cuban (1.200001) inspect (1.169591) particip (1.149599) intend (1.144117) 
map (1.510633) eddi (1.419824) mongolian (1.201004) signatur (1.152115) ca (1.097719) 131 (1.092777) 2030 (1.065080) soak (1.064187) con (1.055326) jjs (1.039670) 
exit (1.337099) sucker (1.291579) costco (1.160962) batteri (1.147307) nutrit (1.135396) omni (1.120153) fondu (1.085383) oz (1.066948) smokey (1.065782) poach (1.053080) 
Error (train/valid/test) = 1.016465/1.245409/1.264519 (0.017951)
..................................................
energy after gradient step = 345030296.012639

Top words for each topic:
hookah (1.373995) e2 (1.358780) mex (1.322311) mama (1.176095) fuel (1.167850) 1511 (1.150075) lebowski (1.123669) nfl (1.122688) amus (1.057076) thoma (1.052352) 
cowfish (2.031706) burgushi (1.562953) info (1.434486) hundr (1.261899) consign (1.218858) adopt (1.203722) guid (1.202298) pit (1.198800) bento (1.152830) dressler (1.149137) 
cigar (1.678669) swim (1.561301) toni (1.433982) tan (1.363606) lip (1.346205) cabo (1.335189) understaf (1.265012) construct (1.247033) heel (1.221845) ulta (1.215987) 
map (1.485833) eddi (1.413359) jjs (1.217192) ca (1.185167) rail (1.168699) shouldnt (1.165792) 131 (1.152507) stall (1.141377) bojangl (1.125628) 2030 (1.124233) 
costco (1.283653) exit (1.282582) omni (1.254058) fondu (1.239226) smokey (1.188854) tamal (1.184638) overlook (1.166365) media (1.164840) grace (1.136195) sucker (1.131999) 
Error (train/valid/test) = 0.998617/1.242698/1.261579 (0.017972)
..................................................
energy after gradient step = 344858907.784959

Top words for each topic:
mex (1.381456) hookah (1.347156) e2 (1.316245) guac (1.238059) 1511 (1.217078) vine (1.217051) comic (1.197772) fuel (1.162920) nfl (1.160370) confid (1.109946) 
cowfish (2.198140) burgushi (1.605204) info (1.499757) adopt (1.398940) consign (1.298974) pit (1.284259) bento (1.259732) walmart (1.199620) dressler (1.156953) guid (1.155555) 
cigar (1.840788) swim (1.569467) tan (1.398201) toni (1.369046) cabo (1.329938) construct (1.310521) sullivan (1.303632) lip (1.286311) western (1.254324) y (1.242311) 
map (1.570611) eddi (1.404896) ca (1.273072) china (1.260069) bead (1.219710) bojangl (1.218645) cell (1.192346) jjs (1.132992) pocket (1.131008) graham (1.109754) 
costco (1.456961) omni (1.349740) exit (1.330146) fondu (1.281095) smokey (1.231835) overlook (1.220705) oz (1.194082) tamal (1.191466) abc (1.180994) sucker (1.177572) 
Error (train/valid/test) = 0.984154/1.241022/1.259689 (0.017996)
..................................................
energy after gradient step = 344683527.274340

Top words for each topic:
mex (1.512982) mama (1.385436) e2 (1.345698) fuel (1.345295) instal (1.331743) vine (1.323880) guac (1.294610) nfl (1.286457) hookah (1.284732) stadium (1.271952) 
cowfish (2.333481) burgushi (1.780292) bento (1.526173) info (1.496508) adopt (1.405207) pit (1.346805) dressler (1.296195) walmart (1.292945) consign (1.287877) guid (1.240188) 
cigar (1.997935) tan (1.714359) swim (1.697562) nascar (1.399384) sullivan (1.374909) firehous (1.354729) cuban (1.344426) intend (1.318956) cabo (1.311097) heel (1.301896) 
map (1.609283) eddi (1.597211) groom (1.363778) bojangl (1.356031) vet (1.338730) 131 (1.266924) cell (1.263240) china (1.239747) 2030 (1.220991) baklava (1.215818) 
costco (1.427243) oz (1.383019) overlook (1.358137) omni (1.341278) aria (1.327369) 500 (1.276588) abc (1.266528) tamal (1.246399) banh (1.239818) fondu (1.234951) 
Error (train/valid/test) = 0.968587/1.239659/1.258106 (0.018026)
..................................................
energy after gradient step = 344463303.411225

Top words for each topic:
pinki (1.579033) mex (1.434967) stadium (1.417767) mama (1.400456) hookah (1.398348) 1511 (1.379634) guac (1.378424) e2 (1.376406) comic (1.370418) nfl (1.355970) 
cowfish (2.506095) burgushi (1.857166) bento (1.599765) info (1.502732) adopt (1.496174) walmart (1.494875) irish (1.379593) pit (1.373020) pint (1.308477) hat (1.299594) 
cigar (2.147818) tan (1.817933) swim (1.620212) nascar (1.558605) cuban (1.549324) sullivan (1.453072) intend (1.452978) trader (1.437609) firehous (1.400993) exhibit (1.367975) 
map (1.639391) eddi (1.596640) vet (1.459124) bojangl (1.436073) groom (1.423756) anim (1.387445) graham (1.306525) bead (1.254795) china (1.249551) cat (1.235187) 
oz (1.497993) omni (1.491267) overlook (1.481055) costco (1.460334) stir (1.435117) exit (1.389076) capit (1.333778) york (1.330729) boba (1.327704) banh (1.325555) 
Error (train/valid/test) = 0.955259/1.238672/1.256372 (0.018051)
..................................................
energy after gradient step = 344177825.249022

Top words for each topic:
hookah (1.687599) e2 (1.570754) nfl (1.549938) mex (1.531190) guac (1.530047) smoothi (1.519043) 1511 (1.498773) pinki (1.469435) biker (1.461089) stadium (1.454859) 
cowfish (2.620309) burgushi (1.966873) bento (1.758126) info (1.588760) adopt (1.565124) walmart (1.554563) edamam (1.508690) irish (1.465932) aint (1.451307) consign (1.416613) 
cigar (2.107606) tan (1.928798) cuban (1.734965) swim (1.648236) nascar (1.623281) ht (1.622773) trader (1.569238) mert (1.568366) exhibit (1.551731) ikea (1.484187) 
map (1.805216) vet (1.695017) eddi (1.648649) groom (1.603018) anim (1.576931) bojangl (1.564834) baklava (1.457620) cat (1.430533) graham (1.324362) enorm (1.321443) 
overlook (1.568231) oz (1.537957) fondu (1.485337) stir (1.484530) york (1.460432) omni (1.454453) costco (1.450010) exit (1.444807) manicur (1.438943) nova (1.434906) 
Error (train/valid/test) = 0.943449/1.238256/1.255116 (0.018070)
..................................................
energy after gradient step = 343869571.797308

Top words for each topic:
hookah (1.781032) guac (1.761841) smoothi (1.677831) comic (1.674284) stadium (1.619276) pinki (1.603766) instal (1.587867) gym (1.586476) genuin (1.577285) mex (1.575425) 
cowfish (2.722435) burgushi (2.020605) bento (1.822704) edamam (1.752628) irish (1.646252) walmart (1.604892) consign (1.500608) info (1.478706) adopt (1.476399) aint (1.474165) 
cigar (2.419984) tan (2.017232) swim (1.819457) cuban (1.733481) exhibit (1.733223) ht (1.732940) mert (1.714385) trader (1.675213) nascar (1.662016) ikea (1.638248) 
vet (1.889732) eddi (1.758514) anim (1.704294) map (1.653571) cat (1.619239) groom (1.552374) bojangl (1.537149) german (1.509921) baklava (1.467975) pet (1.467546) 
fondu (1.623394) overlook (1.590996) oz (1.576988) boba (1.517237) tin (1.498050) yoga (1.496329) york (1.495477) omni (1.490744) stir (1.490516) manicur (1.481999) 
Error (train/valid/test) = 0.932228/1.236769/1.254757 (0.018106)
..................................................
energy after gradient step = 343493444.944732

Top words for each topic:
hookah (1.861598) guac (1.790516) mex (1.778828) 1511 (1.776475) stadium (1.756212) smoothi (1.749021) gym (1.736410) pinki (1.702152) comic (1.681215) e2 (1.634035) 
cowfish (2.819702) burgushi (2.037144) bento (1.881369) irish (1.749680) walmart (1.728358) edamam (1.659137) consign (1.597310) dressler (1.534437) rangoon (1.512238) adopt (1.475065) 
cigar (2.415870) tan (2.123696) exhibit (1.991999) ht (1.971304) mert (1.937005) cuban (1.920187) swim (1.868791) trader (1.865998) nascar (1.824126) naan (1.798361) 
vet (2.141649) anim (1.874833) cat (1.819921) eddi (1.808701) groom (1.804490) map (1.742316) bojangl (1.689991) pet (1.612078) bike (1.583766) german (1.578400) 
stir (1.656509) fondu (1.645150) overlook (1.612728) boba (1.601269) yoga (1.594929) hibachi (1.571847) costco (1.560221) tin (1.559373) pho (1.527609) manicur (1.523213) 
Error (train/valid/test) = 0.922469/1.236535/1.254029 (0.018125)
..................................................
energy after gradient step = 343061321.141060

Top words for each topic:
hookah (2.007041) gym (1.937949) comic (1.886968) pinki (1.866218) smoothi (1.862658) guac (1.832894) stadium (1.822671) pedicur (1.774324) cvs (1.767869) 1511 (1.757332) 
cowfish (2.849245) burgushi (2.078804) irish (1.917664) edamam (1.873422) bento (1.862753) consign (1.734264) walmart (1.733296) liberti (1.615321) rangoon (1.600210) aint (1.539089) 
cigar (2.524408) tan (2.196885) mert (2.135486) exhibit (2.107439) trader (2.084859) naan (2.052377) cuban (2.047894) ht (2.040032) swim (2.026760) ikea (1.924419) 
vet (2.157214) cat (2.006278) anim (1.968063) groom (1.919615) eddi (1.835994) bojangl (1.820828) pet (1.789932) map (1.760542) cab (1.702589) bike (1.671634) 
stir (1.762274) yoga (1.735404) studio (1.729415) hibachi (1.718053) fondu (1.717110) pho (1.707859) manicur (1.647665) boba (1.624256) vietnames (1.622277) banh (1.616592) 
Error (train/valid/test) = 0.914005/1.236332/1.253223 (0.018139)
..................................................
energy after gradient step = 342476068.213399

Top words for each topic:
gym (2.204061) hookah (2.117914) smoothi (2.040344) stadium (2.002119) comic (2.002049) guac (1.982504) wax (1.944730) equip (1.905105) pedicur (1.877724) cardio (1.871958) 
cowfish (2.954238) burgushi (2.162692) bento (2.063923) walmart (1.911651) irish (1.902048) edamam (1.888401) consign (1.752937) dressler (1.665113) pint (1.630467) rangoon (1.622317) 
cigar (2.660177) tan (2.420749) exhibit (2.304246) trader (2.274748) mert (2.244464) cuban (2.233323) ht (2.177999) naan (2.108461) crepe (2.086356) ikea (2.042071) 
vet (2.344081) cat (2.192344) anim (2.085457) pet (2.008032) airport (1.995019) groom (1.981817) bojangl (1.977642) eddi (1.873457) map (1.827143) bike (1.817809) 
pho (2.097315) hibachi (1.966525) vietnames (1.907971) studio (1.827865) yoga (1.781336) tin (1.767018) fondu (1.735454) banh (1.705412) manicur (1.702587) stir (1.698669) 
Error (train/valid/test) = 0.904997/1.236421/1.253052 (0.018167)
..................................................
energy after gradient step = 341746882.146171

Top words for each topic:
gym (2.463902) smoothi (2.197814) hookah (2.186291) pedicur (2.178515) stadium (2.161304) wax (2.140318) equip (2.088746) cardio (2.072177) comic (2.054416) guac (2.054207) 
cowfish (3.032045) burgushi (2.214875) irish (2.150281) bento (2.110246) walmart (2.015620) edamam (1.944948) consign (1.847039) pint (1.781146) jewelri (1.758429) dressler (1.738604) 
cigar (2.742479) tan (2.541398) trader (2.513658) exhibit (2.413017) naan (2.341142) mert (2.319618) pio (2.313514) ht (2.276567) crepe (2.259300) cuban (2.224453) 
vet (2.517909) airport (2.390175) cat (2.329215) anim (2.246193) pet (2.192976) groom (2.187338) bojangl (2.047805) dog (2.031295) bike (1.992814) map (1.880656) 
pho (2.445349) vietnames (2.119800) hibachi (2.117250) yoga (1.926694) studio (1.905608) tin (1.802155) fondu (1.757900) stir (1.724849) ru (1.723352) manicur (1.718750) 
Error (train/valid/test) = 0.896762/1.236359/1.253087 (0.018206)
..................................................
energy after gradient step = 340876107.215072

Top words for each topic:
gym (2.685283) massag (2.343707) wax (2.341895) stadium (2.334606) smoothi (2.333373) equip (2.294558) pedicur (2.283622) hair (2.278151) hookah (2.271465) cardio (2.227797) 
cowfish (3.105212) burgushi (2.282904) bento (2.145613) irish (2.141070) walmart (2.094513) tot (1.923863) edamam (1.923138) pint (1.901523) consign (1.865734) penguin (1.843152) 
cigar (2.840283) trader (2.662218) exhibit (2.577894) tan (2.567593) crepe (2.502177) naan (2.477803) indian (2.454668) pio (2.412535) mert (2.371740) ht (2.369454) 
airport (2.750209) vet (2.598854) cat (2.444071) dog (2.398380) pet (2.331455) anim (2.313262) groom (2.270465) bojangl (2.203231) bike (2.055435) termin (2.018074) 
pho (2.732661) hibachi (2.320024) vietnames (2.313794) studio (1.952499) broth (1.947421) yoga (1.946621) ru (1.847241) tin (1.847129) dumpl (1.845167) stir (1.817102) 
Error (train/valid/test) = 0.888069/1.237244/1.252780 (0.018249)
..................................................
energy after gradient step = 339647773.153185

Top words for each topic:
gym (2.946486) massag (2.662093) hair (2.640624) wax (2.629739) pedicur (2.587510) equip (2.510812) stadium (2.461064) comic (2.457289) smoothi (2.434730) hookah (2.410692) 
cowfish (3.160778) burgushi (2.364842) irish (2.339052) bento (2.242711) walmart (2.172729) tot (2.133384) pint (2.065977) burger (2.054946) penguin (2.033581) pub (2.001623) 
cigar (2.918590) indian (2.814906) trader (2.750280) crepe (2.727777) naan (2.692301) tan (2.677138) exhibit (2.642096) mert (2.583604) pio (2.502704) ht (2.482621) 
airport (3.168620) vet (2.763321) dog (2.742905) cat (2.581897) pet (2.529872) anim (2.422486) groom (2.386910) bojangl (2.347417) bike (2.221127) termin (2.205047) 
pho (2.932002) vietnames (2.541522) hibachi (2.455454) broth (2.173131) yoga (2.138917) tin (2.011417) sushi (1.998063) studio (1.974299) banh (1.961791) dumpl (1.923791) 
Error (train/valid/test) = 0.879335/1.237194/1.252625 (0.018258)
..................................................
energy after gradient step = 338080427.514930

Top words for each topic:
gym (3.144848) massag (3.023335) hair (2.872506) wax (2.849218) pedicur (2.810683) equip (2.685345) stadium (2.641039) haircut (2.613550) salon (2.595245) hookah (2.569807) 
cowfish (3.235177) burgushi (2.375455) irish (2.370129) burger (2.359303) tot (2.304697) bento (2.287407) walmart (2.228170) pint (2.198814) pub (2.190259) edamam (2.154203) 
indian (3.109615) cigar (2.991284) crepe (2.918962) trader (2.873548) naan (2.845778) exhibit (2.759902) tan (2.737814) mert (2.663478) ht (2.603981) pio (2.586180) 
airport (3.403099) dog (2.956057) vet (2.860560) cat (2.699088) pet (2.644371) anim (2.549082) groom (2.484309) bike (2.398901) termin (2.366563) bojangl (2.360445) 
pho (3.047367) vietnames (2.691477) hibachi (2.588433) sushi (2.342041) broth (2.298662) yoga (2.174352) chines (2.140129) bagel (2.110039) dumpl (2.061316) tin (2.033045) 
Error (train/valid/test) = 0.871987/1.237783/1.252668 (0.018313)
..................................................
energy after gradient step = 336048699.053270

Top words for each topic:
massag (3.405594) gym (3.275387) hair (3.209846) pedicur (3.039425) wax (3.014046) salon (2.936815) cupcak (2.884326) appoint (2.883653) haircut (2.875305) equip (2.873181) 
cowfish (3.303252) burger (2.765362) tot (2.492438) pub (2.436829) irish (2.424239) bento (2.380279) burgushi (2.363031) penguin (2.318403) breweri (2.279460) pint (2.269770) 
indian (3.354455) crepe (3.206769) cigar (3.073685) naan (3.009101) trader (2.982409) exhibit (2.867924) tan (2.808635) museum (2.767257) ht (2.746612) pio (2.736396) 
airport (3.673900) dog (3.240437) vet (2.978317) cat (2.839121) pet (2.813158) anim (2.692194) bike (2.613015) groom (2.583932) bojangl (2.573634) termin (2.573608) 
pho (3.195342) vietnames (2.800168) hibachi (2.732100) sushi (2.722175) chines (2.471822) broth (2.446226) noodl (2.393613) bagel (2.303986) roll (2.295621) japanes (2.188071) 
Error (train/valid/test) = 0.863655/1.237638/1.252333 (0.018351)
..................................................
energy after gradient step = 333671384.737521

Top words for each topic:
massag (3.594310) gym (3.470302) hair (3.387677) pedicur (3.244132) salon (3.238792) wax (3.189375) appoint (3.106974) cupcak (3.093961) haircut (3.070430) nail (3.055049) 
cowfish (3.335758) burger (3.168765) tot (2.622895) pub (2.584600) irish (2.497209) burgushi (2.436549) breweri (2.436100) bento (2.417764) penguin (2.363173) pint (2.343125) 
indian (3.482244) crepe (3.365875) naan (3.092886) trader (3.081383) cigar (3.060128) exhibit (2.904428) museum (2.896564) tan (2.878016) plantain (2.821809) pio (2.808324) 
airport (3.853577) dog (3.387083) vet (3.090024) cat (2.953537) pet (2.946262) anim (2.812961) bike (2.769766) termin (2.698982) groom (2.690704) flight (2.678944) 
pho (3.213384) sushi (2.858017) vietnames (2.783125) hibachi (2.768057) chines (2.667520) roll (2.576817) noodl (2.520545) bagel (2.491741) broth (2.465370) rice (2.337034) 
Error (train/valid/test) = 0.860793/1.237637/1.252642 (0.018377)
..................................................
energy after gradient step = 330865293.794183

Top words for each topic:
massag (3.793249) hair (3.639319) gym (3.604588) salon (3.523210) pedicur (3.383553) nail (3.373559) appoint (3.333308) wax (3.331211) cupcak (3.323136) car (3.272260) 
burger (3.496554) cowfish (3.398679) tot (2.686865) pub (2.679093) breweri (2.574314) irish (2.551882) burgushi (2.477858) penguin (2.477340) pint (2.468777) bento (2.440460) 
indian (3.604479) crepe (3.523047) naan (3.224335) trader (3.172305) cigar (3.137523) museum (2.971868) exhibit (2.955731) mert (2.918196) tan (2.916724) pio (2.911019) 
airport (3.989571) dog (3.545129) vet (3.190648) pet (3.057947) cat (3.049848) flight (2.906030) anim (2.894274) termin (2.872291) bike (2.858167) groom (2.776661) 
pho (3.250963) sushi (3.013410) vietnames (2.815938) chines (2.779736) roll (2.779442) hibachi (2.759231) noodl (2.648291) bagel (2.584646) rice (2.575137) broth (2.494729) 
Error (train/valid/test) = 0.857397/1.237671/1.252718 (0.018410)
..................................................
energy after gradient step = 328038238.551559

Top words for each topic:
massag (3.957827) hair (3.824586) salon (3.765169) gym (3.727296) nail (3.609831) pedicur (3.578152) appoint (3.513679) cupcak (3.488739) wax (3.449738) car (3.430205) 
burger (3.792886) cowfish (3.415706) tot (2.796817) pub (2.785242) breweri (2.712706) irish (2.657728) burgushi (2.547206) penguin (2.547107) pint (2.515326) bento (2.496386) 
indian (3.734630) crepe (3.646769) naan (3.322000) cigar (3.241784) trader (3.230603) museum (3.118060) exhibit (3.028513) pio (2.976956) mert (2.962658) ht (2.959462) 
airport (4.139336) dog (3.696157) vet (3.309199) cat (3.174001) pet (3.161134) anim (3.045016) bike (3.034836) flight (3.015029) termin (2.975036) groom (2.871504) 
pho (3.272873) sushi (3.155644) roll (2.949064) chines (2.904670) vietnames (2.841477) hibachi (2.792983) noodl (2.777387) rice (2.759658) thai (2.694730) bagel (2.671766) 
Error (train/valid/test) = 0.853728/1.238174/1.253327 (0.018450)
..................................................
energy after gradient step = 325103891.341012

Top words for each topic:
massag (4.129616) hair (4.064576) salon (3.996005) nail (3.912944) gym (3.869269) pedicur (3.700748) cupcak (3.689187) appoint (3.687187) stylist (3.630465) car (3.629570) 
burger (4.072941) cowfish (3.506117) tot (2.932433) pub (2.912410) breweri (2.837514) beer (2.823036) irish (2.735940) wing (2.666892) penguin (2.631181) pint (2.617003) 
indian (3.886743) crepe (3.824231) naan (3.432520) trader (3.308192) cigar (3.291370) museum (3.223238) exhibit (3.167100) mert (3.125960) ht (3.124768) plantain (3.074077) 
airport (4.307864) dog (3.866340) vet (3.451754) cat (3.301033) pet (3.261578) flight (3.171729) anim (3.135348) termin (3.124810) bike (3.116671) groom (3.017077) 
sushi (3.328371) pho (3.309530) roll (3.148714) chines (2.997074) rice (2.980389) thai (2.938930) noodl (2.880109) vietnames (2.848152) hibachi (2.828109) bagel (2.738776) 
Error (train/valid/test) = 0.846833/1.237923/1.253630 (0.018489)
..................................................
energy after gradient step = 322307653.943611

Top words for each topic:
massag (4.228219) hair (4.178318) salon (4.129901) nail (4.034661) gym (3.959234) appoint (3.817790) pedicur (3.779127) cupcak (3.779048) stylist (3.744711) car (3.682828) 
burger (4.240784) cowfish (3.521883) beer (3.229734) tot (3.039638) pub (3.024154) breweri (2.939029) wing (2.854457) irish (2.824615) penguin (2.717849) pint (2.703383) 
indian (4.008974) crepe (3.951433) naan (3.553372) trader (3.425712) museum (3.380977) cigar (3.368573) exhibit (3.270047) ht (3.222347) plantain (3.215382) mert (3.185996) 
airport (4.438730) dog (4.034320) vet (3.510557) cat (3.410399) pet (3.388182) flight (3.296752) termin (3.268255) bike (3.267714) anim (3.259731) groom (3.093528) 
sushi (3.470127) roll (3.320903) pho (3.303799) rice (3.053659) chines (3.045797) thai (3.029760) noodl (2.927498) vietnames (2.837665) hibachi (2.831527) shrimp (2.820716) 
Error (train/valid/test) = 0.843081/1.237957/1.254122 (0.018520)
..................................................
energy after gradient step = 319731843.190398

Top words for each topic:
massag (4.309189) hair (4.262787) salon (4.235340) nail (4.127996) gym (3.974712) appoint (3.947611) pedicur (3.864968) cupcak (3.825752) stylist (3.816734) wax (3.701008) 
burger (4.394612) cowfish (3.607459) beer (3.580920) tot (3.119429) pub (3.080330) breweri (3.042705) wing (2.999835) irish (2.861776) penguin (2.802244) pint (2.781442) 
indian (4.125832) crepe (4.080831) naan (3.648419) trader (3.546835) cigar (3.482952) museum (3.456840) exhibit (3.379361) ht (3.338428) plantain (3.312426) pio (3.303385) 
airport (4.539681) dog (4.067651) vet (3.606322) cat (3.489406) pet (3.460126) flight (3.392298) termin (3.353174) bike (3.349495) anim (3.340945) groom (3.165391) 
sushi (3.612952) roll (3.392961) pho (3.296983) rice (3.113637) thai (3.106497) chines (3.098000) noodl (2.984291) shrimp (2.983888) vietnames (2.834131) soup (2.832683) 
Error (train/valid/test) = 0.839190/1.238332/1.254672 (0.018547)
..................................................
energy after gradient step = 317364673.596223

Top words for each topic:
massag (4.380389) salon (4.336401) hair (4.285201) nail (4.191695) gym (4.051368) appoint (4.027066) pedicur (3.917811) cupcak (3.894012) stylist (3.887358) wax (3.743467) 
burger (4.572367) beer (3.846100) cowfish (3.644347) tot (3.199545) pub (3.192683) wing (3.151604) breweri (3.140411) irish (2.965271) penguin (2.895009) bar (2.856939) 
indian (4.265297) crepe (4.197103) naan (3.784711) trader (3.670086) cigar (3.624669) museum (3.599292) exhibit (3.495684) ht (3.469415) pio (3.415710) mert (3.410972) 
airport (4.671042) dog (4.182021) vet (3.688520) cat (3.569924) pet (3.555339) flight (3.486227) termin (3.445566) bike (3.427135) anim (3.420196) starbuck (3.287177) 
sushi (3.678026) roll (3.506472) pho (3.300052) rice (3.210569) thai (3.159819) chines (3.118624) shrimp (3.077681) noodl (2.999843) dish (2.910994) soup (2.899241) 
Error (train/valid/test) = 0.834394/1.238516/1.255233 (0.018576)
..................................................
energy after gradient step = 315024902.437738

Top words for each topic:
massag (4.436585) salon (4.427707) hair (4.316540) nail (4.256883) appoint (4.103935) gym (4.098365) pedicur (3.983801) stylist (3.931695) cupcak (3.923610) wax (3.765930) 
burger (4.687604) beer (4.090301) cowfish (3.690599) pub (3.305987) wing (3.305190) tot (3.288836) breweri (3.233457) bar (2.995507) irish (2.983841) penguin (2.945694) 
indian (4.412037) crepe (4.357669) naan (3.924498) trader (3.807806) museum (3.743407) cigar (3.669327) exhibit (3.636251) ht (3.604674) mert (3.545220) masala (3.501707) 
airport (4.768521) dog (4.229594) vet (3.756485) pet (3.662138) cat (3.653071) flight (3.597906) termin (3.545067) anim (3.500027) bike (3.479612) starbuck (3.453012) 
sushi (3.772277) roll (3.601698) pho (3.301594) rice (3.278154) thai (3.226827) shrimp (3.196266) chines (3.146707) dish (3.044827) noodl (3.010515) soup (2.971986) 
Error (train/valid/test) = 0.829476/1.238554/1.255416 (0.018603)
..................................................
energy after gradient step = 312932142.046370

Top words for each topic:
salon (4.513108) massag (4.507330) hair (4.356780) nail (4.333255) appoint (4.180001) gym (4.143315) pedicur (4.033672) stylist (4.013703) cupcak (3.944831) wax (3.815344) 
burger (4.801316) beer (4.303640) cowfish (3.701073) wing (3.414528) pub (3.364050) tot (3.350298) breweri (3.326117) bar (3.153411) irish (3.090360) game (3.085506) 
indian (4.534625) crepe (4.453940) naan (4.057485) trader (3.907793) museum (3.849528) cigar (3.836403) ht (3.732924) exhibit (3.732185) masala (3.647145) mert (3.641152) 
airport (4.880770) dog (4.295711) vet (3.862439) cat (3.724481) pet (3.711384) flight (3.647205) termin (3.643305) starbuck (3.567084) anim (3.559541) bike (3.540613) 
sushi (3.851529) roll (3.651305) rice (3.344221) pho (3.317929) shrimp (3.290964) thai (3.263567) chines (3.182673) dish (3.169314) chicken (3.069742) noodl (3.037193) 
Error (train/valid/test) = 0.823760/1.238969/1.256352 (0.018641)
..................................................
energy after gradient step = 311111660.499356

Top words for each topic:
salon (4.566122) massag (4.555294) nail (4.358946) hair (4.352537) appoint (4.202458) gym (4.180294) pedicur (4.090737) stylist (4.075730) cupcak (3.974195) wax (3.847972) 
burger (4.907432) beer (4.480322) cowfish (3.764559) wing (3.493839) pub (3.454713) breweri (3.424469) tot (3.423728) bar (3.286636) game (3.238792) bartend (3.213917) 
indian (4.686839) crepe (4.615365) naan (4.192411) trader (4.035491) museum (3.974210) cigar (3.904590) ht (3.836538) exhibit (3.821811) masala (3.813545) mert (3.752579) 
airport (4.954671) dog (4.307721) vet (3.908935) cat (3.827380) pet (3.784268) termin (3.734254) flight (3.724315) starbuck (3.708299) anim (3.631140) bike (3.608522) 
sushi (3.881179) roll (3.669414) rice (3.383380) shrimp (3.360684) pho (3.325957) thai (3.324201) dish (3.309884) chines (3.212717) chicken (3.201996) sauc (3.090337) 
Error (train/valid/test) = 0.817790/1.239387/1.256318 (0.018654)
..................................................
energy after gradient step = 309407308.721343

Top words for each topic:
salon (4.613238) massag (4.582296) nail (4.366770) hair (4.325246) appoint (4.241206) gym (4.199451) pedicur (4.111882) stylist (4.106641) cupcak (3.954375) haircut (3.867936) 
burger (4.967062) beer (4.578432) cowfish (3.791842) wing (3.569370) pub (3.511511) breweri (3.497027) tot (3.495522) game (3.362670) bar (3.328590) bartend (3.300086) 
indian (4.799754) crepe (4.736444) naan (4.283588) museum (4.093760) trader (4.089642) cigar (3.977422) ht (3.940451) exhibit (3.923383) masala (3.895572) mert (3.839288) 
airport (5.032033) dog (4.344262) vet (3.978284) cat (3.881264) pet (3.832666) starbuck (3.789736) termin (3.788918) flight (3.772838) anim (3.699679) bike (3.657785) 
sushi (3.938592) roll (3.695723) rice (3.425807) shrimp (3.418441) dish (3.390025) thai (3.369128) pho (3.332162) chicken (3.298871) chines (3.248079) sauc (3.218036) 
Error (train/valid/test) = 0.813071/1.239916/1.256973 (0.018674)
..................................................
energy after gradient step = 307824729.251150

Top words for each topic:
salon (4.668273) massag (4.623584) nail (4.407632) appoint (4.290463) hair (4.263429) gym (4.202210) stylist (4.153077) pedicur (4.151472) cupcak (3.935687) haircut (3.903997) 
burger (5.059559) beer (4.664515) cowfish (3.826930) wing (3.653210) pub (3.578670) breweri (3.548884) tot (3.547508) game (3.454566) bar (3.420282) bartend (3.415766) 
indian (4.909653) crepe (4.843249) naan (4.432971) museum (4.204152) trader (4.190493) cigar (4.089648) ht (4.050097) exhibit (4.042602) masala (4.024964) ame (3.993178) 
airport (5.122723) dog (4.265015) vet (4.057431) cat (3.936398) starbuck (3.875495) pet (3.862063) termin (3.851262) flight (3.768701) anim (3.740238) bike (3.642341) 
sushi (3.989751) roll (3.712489) dish (3.499493) rice (3.499273) shrimp (3.492085) thai (3.425267) chicken (3.421190) pho (3.361353) restaur (3.349169) sauc (3.341784) 
Error (train/valid/test) = 0.807295/1.240156/1.257727 (0.018706)
..................................................
energy after gradient step = 306612740.205832

Top words for each topic:
salon (4.705070) massag (4.654691) nail (4.426405) appoint (4.331914) hair (4.219595) gym (4.201864) stylist (4.183323) pedicur (4.180269) haircut (3.929683) cupcak (3.899783) 
burger (5.129944) beer (4.760615) cowfish (3.852783) wing (3.747758) pub (3.618620) tot (3.601953) breweri (3.601652) game (3.543321) bar (3.508121) bartend (3.469995) 
indian (5.000722) crepe (4.953360) naan (4.506609) trader (4.304554) museum (4.268893) cigar (4.144075) masala (4.120096) exhibit (4.090387) ht (4.085078) bakeri (4.051151) 
airport (5.198733) dog (4.199722) vet (4.100275) cat (3.992631) starbuck (3.973482) termin (3.923858) pet (3.882560) anim (3.785457) flight (3.747676) bike (3.691042) 
sushi (4.054890) roll (3.747161) dish (3.590975) chicken (3.558950) shrimp (3.546949) rice (3.544496) thai (3.466361) sauc (3.437533) restaur (3.420474) pho (3.380667) 
Error (train/valid/test) = 0.802276/1.241042/1.258220 (0.018732)
..................................................
energy after gradient step = 305570275.374544

Top words for each topic:
salon (4.737695) massag (4.696594) nail (4.436344) appoint (4.364882) stylist (4.219035) pedicur (4.218491) gym (4.195170) hair (4.160199) haircut (3.954070) wax (3.912354) 
burger (5.189675) beer (4.891893) cowfish (3.906535) wing (3.831337) pub (3.682014) breweri (3.668743) tot (3.657176) game (3.619411) bar (3.611250) bartend (3.542356) 
indian (5.103433) crepe (5.043778) naan (4.585370) trader (4.314029) museum (4.267168) cigar (4.226930) ht (4.219910) masala (4.195720) bakeri (4.179216) exhibit (4.159330) 
airport (5.246282) vet (4.157043) dog (4.079212) starbuck (4.062708) cat (4.023475) termin (4.003668) pet (3.914329) anim (3.840989) flight (3.785485) gate (3.732569) 
sushi (4.107047) roll (3.783754) chicken (3.658383) dish (3.655228) shrimp (3.622178) rice (3.598419) sauc (3.542348) thai (3.521816) restaur (3.491131) pho (3.410003) 
Error (train/valid/test) = 0.795807/1.241058/1.258479 (0.018759)
..................................................
energy after gradient step = 304681428.763603

Top words for each topic:
salon (4.772480) massag (4.712767) nail (4.441177) appoint (4.394838) stylist (4.245581) pedicur (4.240802) gym (4.176444) hair (4.114313) haircut (3.981967) wax (3.878564) 
burger (5.229519) beer (4.985560) cowfish (3.924182) wing (3.891146) pub (3.741298) breweri (3.703835) game (3.693984) tot (3.677510) bar (3.671181) bartend (3.579869) 
indian (5.174025) crepe (5.131447) naan (4.655967) trader (4.403758) museum (4.361049) cigar (4.259301) masala (4.245633) bakeri (4.241768) ame (4.227318) ht (4.225073) 
airport (5.309292) vet (4.228138) starbuck (4.144869) termin (4.077911) cat (4.076306) dog (3.967076) pet (3.939077) anim (3.893400) flight (3.803540) gate (3.796079) 
sushi (4.147846) roll (3.803628) chicken (3.747209) dish (3.741820) shrimp (3.691261) sauc (3.642783) rice (3.635446) thai (3.578998) restaur (3.531311) meal (3.445972) 
Error (train/valid/test) = 0.789912/1.241758/1.259045 (0.018784)
..................................................
energy after gradient step = 303931186.598789

Top words for each topic:
salon (4.786554) massag (4.727915) nail (4.437249) appoint (4.386730) stylist (4.271016) pedicur (4.266928) gym (4.193343) hair (4.070789) haircut (3.997701) wax (3.898465) 
burger (5.287257) beer (5.034838) wing (3.937184) cowfish (3.933417) pub (3.791160) game (3.762255) breweri (3.758010) tot (3.726983) bar (3.709133) bartend (3.646371) 
indian (5.238602) crepe (5.221033) naan (4.736977) trader (4.424766) museum (4.392103) masala (4.378113) ht (4.347880) bakeri (4.332357) ame (4.326685) cigar (4.319637) 
airport (5.354149) vet (4.268893) starbuck (4.236340) termin (4.146766) cat (4.130258) pet (3.977611) anim (3.928852) dog (3.914733) gate (3.867207) flight (3.853191) 
sushi (4.204372) chicken (3.829750) dish (3.803793) roll (3.787372) shrimp (3.761538) rice (3.717983) sauc (3.712472) thai (3.632317) restaur (3.604661) meal (3.522948) 
Error (train/valid/test) = 0.783939/1.242836/1.260004 (0.018821)
..................................................
energy after gradient step = 303322700.493259

Top words for each topic:
salon (4.800770) massag (4.738625) appoint (4.420748) nail (4.407623) stylist (4.292200) pedicur (4.286259) gym (4.177819) hair (4.092622) haircut (4.010821) repair (3.927922) 
burger (5.307602) beer (5.087407) wing (3.992965) cowfish (3.969994) game (3.835362) pub (3.818058) breweri (3.795963) tot (3.783490) bar (3.723988) bartend (3.690113) 
indian (5.280433) crepe (5.272855) naan (4.765435) trader (4.456860) bakeri (4.402437) museum (4.384335) masala (4.349831) ht (4.339912) ame (4.332797) cigar (4.266997) 
airport (5.413906) vet (4.307337) starbuck (4.300502) termin (4.187734) cat (4.163225) pet (3.976867) anim (3.954037) dog (3.937295) flight (3.897527) gate (3.885216) 
sushi (4.242019) chicken (3.916136) dish (3.851949) roll (3.832972) shrimp (3.813913) sauc (3.766582) rice (3.763801) thai (3.670860) restaur (3.630468) meal (3.555780) 
Error (train/valid/test) = 0.778202/1.243435/1.260990 (0.018853)
..................................................
energy after gradient step = 302744903.668301

Top words for each topic:
salon (4.808296) massag (4.758423) appoint (4.422005) nail (4.387078) stylist (4.317444) pedicur (4.292196) gym (4.174722) hair (4.032622) haircut (4.024346) repair (3.909632) 
burger (5.350810) beer (5.181311) wing (4.032511) cowfish (3.964533) game (3.889448) pub (3.860524) breweri (3.835345) tot (3.821953) bar (3.735919) bartend (3.698991) 
indian (5.331932) crepe (5.317471) naan (4.819657) bakeri (4.475562) trader (4.439058) masala (4.429802) museum (4.409884) ame (4.396749) ht (4.394472) cigar (4.303546) 
airport (5.451966) starbuck (4.375464) vet (4.364200) termin (4.254637) cat (4.211389) anim (3.999091) pet (3.991041) gate (3.973761) dog (3.951516) flight (3.924969) 
sushi (4.303249) chicken (3.970455) dish (3.918497) shrimp (3.870664) sauc (3.857647) roll (3.820221) rice (3.804060) thai (3.716958) restaur (3.638764) meal (3.597758) 
Error (train/valid/test) = 0.771524/1.244501/1.261004 (0.018870)
..................................................
energy after gradient step = 302332694.966507

Top words for each topic:
salon (4.828605) massag (4.778963) appoint (4.431073) nail (4.354169) stylist (4.341220) pedicur (4.322796) gym (4.172545) hair (4.096071) haircut (4.044919) repair (3.942181) 
burger (5.389885) beer (5.233124) wing (4.087718) cowfish (3.998419) game (3.926857) pub (3.890250) breweri (3.880471) tot (3.855644) pizza (3.823935) bar (3.769954) 
indian (5.382803) crepe (5.356448) naan (4.846714) bakeri (4.530529) masala (4.479258) trader (4.458862) ame (4.425652) ht (4.421147) museum (4.358454) tikka (4.327707) 
airport (5.510425) starbuck (4.439625) vet (4.404404) termin (4.291682) cat (4.241199) gate (4.015743) pet (3.976950) anim (3.971860) dog (3.968053) flight (3.967748) 
sushi (4.325688) chicken (4.048745) dish (3.983043) shrimp (3.927764) sauc (3.925314) rice (3.842627) roll (3.815497) thai (3.744016) restaur (3.668280) meal (3.646907) 
Error (train/valid/test) = 0.765182/1.245209/1.261292 (0.018905)
..................................................
energy after gradient step = 301926837.288349

Top words for each topic:
salon (4.835536) massag (4.780231) appoint (4.429819) stylist (4.352668) nail (4.343717) pedicur (4.328076) gym (4.147516) hair (4.080286) haircut (4.052553) repair (3.951712) 
burger (5.399974) beer (5.270459) wing (4.097369) cowfish (4.025364) game (3.930882) pizza (3.922718) pub (3.917560) breweri (3.917442) tot (3.879169) bar (3.793477) 
indian (5.393956) crepe (5.366348) naan (4.849495) bakeri (4.548840) masala (4.502613) trader (4.449404) ht (4.448896) ame (4.434791) museum (4.375673) tikka (4.368637) 
airport (5.558692) starbuck (4.489062) vet (4.455042) termin (4.358533) cat (4.299144) gate (4.063422) airway (4.026947) anim (4.006277) pet (4.000305) dog (3.999212) 
sushi (4.351197) chicken (4.129116) dish (4.035081) sauc (3.979781) shrimp (3.974961) rice (3.870203) roll (3.811834) thai (3.784802) restaur (3.684283) meal (3.658011) 
Error (train/valid/test) = 0.759358/1.245937/1.261899 (0.018929)
..................................................
energy after gradient step = 301553366.753390

Top words for each topic:
salon (4.850926) massag (4.797468) appoint (4.437585) stylist (4.371229) pedicur (4.347714) nail (4.334125) gym (4.132594) haircut (4.071183) hair (4.063867) repair (3.966939) 
burger (5.433651) beer (5.267644) wing (4.123827) pizza (4.023333) cowfish (4.016809) game (3.971947) breweri (3.943486) pub (3.938790) tot (3.896115) bar (3.804293) 
indian (5.402783) crepe (5.387181) naan (4.880834) bakeri (4.578845) masala (4.487006) ame (4.474168) ht (4.456825) trader (4.437615) yogurt (4.379198) tikka (4.377418) 
airport (5.610157) starbuck (4.545839) vet (4.505522) termin (4.410731) cat (4.299857) gate (4.096813) airway (4.063256) flight (4.031812) anim (4.027345) dog (4.007137) 
sushi (4.384402) chicken (4.176138) dish (4.071997) sauc (4.058765) shrimp (4.012106) rice (3.910587) thai (3.818540) roll (3.802020) meal (3.717818) pork (3.709790) 
Error (train/valid/test) = 0.753935/1.247439/1.262400 (0.018956)
..................................................
energy after gradient step = 301282160.019590

Top words for each topic:
salon (4.867010) massag (4.816484) appoint (4.424554) stylist (4.394922) pedicur (4.362475) nail (4.355048) gym (4.151199) hair (4.094815) haircut (4.077670) repair (3.984799) 
burger (5.451925) beer (5.300423) wing (4.139261) pizza (4.101627) cowfish (4.039728) game (4.001033) breweri (3.971813) pub (3.966627) tot (3.925679) bar (3.804743) 
crepe (5.418997) indian (5.410183) naan (4.903017) cupcak (4.643201) bakeri (4.627917) masala (4.529545) ame (4.500098) ht (4.456011) trader (4.424900) yogurt (4.416759) 
airport (5.650618) starbuck (4.581090) vet (4.521851) termin (4.442306) cat (4.344602) airway (4.107839) gate (4.093755) flight (4.065530) dog (4.056324) layov (4.010579) 
sushi (4.421987) chicken (4.245529) dish (4.140116) sauc (4.116228) shrimp (4.051682) rice (3.944571) thai (3.855916) roll (3.797508) meal (3.778403) pork (3.766989) 
Error (train/valid/test) = 0.747888/1.248661/1.263258 (0.018986)
..................................................
energy after gradient step = 301051882.550634

Top words for each topic:
salon (4.882682) massag (4.830338) appoint (4.417438) stylist (4.410449) pedicur (4.375823) nail (4.352122) gym (4.158275) haircut (4.100981) hair (4.074430) manicur (3.978439) 
burger (5.488958) beer (5.345103) pizza (4.171035) wing (4.153993) cowfish (4.034927) game (4.034330) pub (4.006454) breweri (3.977386) tot (3.935131) bar (3.824115) 
crepe (5.441679) indian (5.433101) naan (4.891162) cupcak (4.876950) bakeri (4.641237) masala (4.543804) ame (4.519943) ht (4.462471) trader (4.446738) yogurt (4.430539) 
airport (5.689046) starbuck (4.635845) vet (4.526463) termin (4.463981) cat (4.348400) airway (4.156156) gate (4.124835) dog (4.107034) flight (4.097230) layov (4.053441) 
sushi (4.451126) chicken (4.296749) sauc (4.163334) dish (4.153642) shrimp (4.094542) rice (3.987779) thai (3.882658) meal (3.828409) pork (3.817555) roll (3.782247) 
Error (train/valid/test) = 0.742605/1.249611/1.264241 (0.019021)
..................................................
energy after gradient step = 300804365.733858

Top words for each topic:
salon (4.908356) massag (4.848496) stylist (4.434527) appoint (4.418957) pedicur (4.394727) nail (4.340346) gym (4.140613) haircut (4.106907) hair (4.084765) repair (4.006914) 
burger (5.543705) beer (5.364896) pizza (4.246676) wing (4.192740) cowfish (4.054545) pub (4.031806) breweri (4.018024) game (3.999952) tot (3.955080) bar (3.848756) 
crepe (5.438991) indian (5.421444) cupcak (4.970045) naan (4.912760) bakeri (4.666853) masala (4.554046) ame (4.543184) ht (4.462486) tikka (4.419821) yogurt (4.418336) 
airport (5.707812) starbuck (4.674912) vet (4.573765) termin (4.505624) cat (4.376638) airway (4.177099) gate (4.150613) flight (4.146319) dog (4.124781) layov (4.059430) 
sushi (4.478087) chicken (4.347911) sauc (4.203766) dish (4.192803) shrimp (4.139435) rice (4.020777) thai (3.905530) meal (3.862243) pork (3.846361) steak (3.796103) 
Error (train/valid/test) = 0.736908/1.251011/1.264819 (0.019049)
..................................................
energy after gradient step = 300620831.360797

Top words for each topic:
salon (4.927917) massag (4.856854) stylist (4.444490) appoint (4.422637) pedicur (4.404755) nail (4.353359) gym (4.148287) haircut (4.122106) hair (4.083651) manicur (4.009561) 
burger (5.562957) beer (5.394773) pizza (4.309451) wing (4.212266) cowfish (4.075732) pub (4.058251) breweri (4.043907) game (4.002580) tot (3.965087) bar (3.892963) 
crepe (5.448883) indian (5.432088) cupcak (5.065568) naan (4.931192) bakeri (4.682117) ame (4.560553) masala (4.554326) ht (4.491867) yogurt (4.453345) tikka (4.419030) 
airport (5.742251) starbuck (4.688971) vet (4.586797) termin (4.538968) cat (4.390203) airway (4.203944) gate (4.173481) flight (4.167189) dog (4.129631) layov (4.114324) 
sushi (4.503855) chicken (4.381513) sauc (4.253641) dish (4.234451) shrimp (4.183295) rice (4.062080) thai (3.943697) meal (3.931875) pork (3.886422) steak (3.832142) 
Error (train/valid/test) = 0.731557/1.251876/1.265100 (0.019076)
..................................................
energy after gradient step = 300430232.267043

Top words for each topic:
salon (4.939188) massag (4.875148) stylist (4.464851) pedicur (4.419510) appoint (4.416309) nail (4.346405) gym (4.156621) haircut (4.142900) hair (4.091246) manicur (4.030503) 
burger (5.582190) beer (5.412864) pizza (4.367298) wing (4.271937) pub (4.096916) cowfish (4.061127) breweri (4.054326) game (4.023525) tot (4.011598) bar (3.896686) 
crepe (5.457291) indian (5.420523) cupcak (5.132461) naan (4.932954) bakeri (4.699452) ame (4.568501) masala (4.554083) ht (4.481506) tikka (4.460819) yogurt (4.448288) 
airport (5.741115) starbuck (4.730081) vet (4.614079) termin (4.564640) cat (4.394791) airway (4.251775) gate (4.204836) dog (4.164207) flight (4.164118) theater (4.149225) 
sushi (4.528066) chicken (4.403841) sauc (4.288482) dish (4.277455) shrimp (4.215814) rice (4.084177) thai (3.968913) meal (3.951612) pork (3.930199) steak (3.872307) 
Error (train/valid/test) = 0.726483/1.253168/1.265843 (0.019104)
..................................................
energy after gradient step = 300248050.322816

Top words for each topic:
salon (4.951970) massag (4.890763) stylist (4.480666) pedicur (4.432028) appoint (4.405966) nail (4.346834) gym (4.148554) haircut (4.147362) hair (4.079704) manicur (4.033555) 
burger (5.605294) beer (5.436584) pizza (4.460327) wing (4.305453) pub (4.115623) cowfish (4.085579) breweri (4.082846) tot (4.019948) game (3.995938) bar (3.932138) 
crepe (5.466884) indian (5.425971) cupcak (5.194907) naan (4.932044) bakeri (4.736281) ame (4.591796) masala (4.554576) ht (4.483338) yogurt (4.475187) tikka (4.461298) 
airport (5.762028) starbuck (4.753076) vet (4.614847) termin (4.592301) cat (4.403372) airway (4.269407) theater (4.213798) gate (4.198345) dog (4.188246) layov (4.159121) 
sushi (4.562570) chicken (4.458728) sauc (4.331749) dish (4.293215) shrimp (4.248600) rice (4.125764) meal (4.014140) thai (3.996102) pork (3.973542) steak (3.905274) 
Error (train/valid/test) = 0.721219/1.254625/1.266609 (0.019121)
