corpus = data_phoe.gz
latentReg = 0.000000
lambda = 4.000000
K = 10
.....
nUsers = 128330, nItems = 25225, nRatings = 591192
.....
Error w/ offset term only (train/valid/test) = 1.799193/1.807475/1.798592 (0.009179)
Error w/ offset and bias (train/valid/test) = 0.955898/1.493857/1.476654 (0.009219)
....
..................................................
energy after gradient step = 1230772232.161045
....
Top words for each topic:
despit (0.197320) brunch (0.175985) sometim (0.173388) tuesday (0.171810) obvious (0.169212) vehicl (0.160346) asid (0.148552) imagin (0.138862) greek (0.138258) host (0.137342) 
ridicul (0.216166) north (0.166480) featur (0.158755) refresh (0.158293) skin (0.151808) throw (0.148821) stuf (0.147964) rotat (0.140693) convinc (0.140658) bistro (0.138206) 
wors (0.217644) fee (0.176430) ya (0.167314) garden (0.166567) balanc (0.157265) natur (0.145613) annoy (0.140175) fool (0.139820) contain (0.138857) pain (0.135006) 
ball (0.196239) muffin (0.189515) overpr (0.181312) requir (0.167754) hidden (0.167036) funni (0.165352) ravioli (0.146433) similar (0.144432) east (0.142954) chris (0.142815) 
brew (0.190971) smaller (0.162759) admit (0.148338) hamburg (0.140258) yesterday (0.139754) fridg (0.136907) fold (0.132155) tuck (0.131453) communiti (0.130359) messag (0.130198) 
cart (0.183168) blown (0.172850) goat (0.157532) whatev (0.154879) polit (0.151493) polici (0.151490) classic (0.149331) wateri (0.148887) tag (0.143297) form (0.141184) 
worker (0.207267) address (0.179029) gilbert (0.147919) medium (0.147091) accompani (0.145786) higher (0.144494) social (0.143623) deep (0.140499) hold (0.139437) pancak (0.138463) 
steam (0.209039) bother (0.171128) filet (0.157647) omelet (0.152462) ignor (0.152441) strawberri (0.152317) member (0.151481) garden (0.147215) annoy (0.145654) highlight (0.142803) 
polit (0.172327) email (0.168499) gelato (0.154017) interior (0.153575) myself (0.144819) doubt (0.141701) pasti (0.136423) girlfriend (0.135781) student (0.135195) suck (0.134181) 
scare (0.147197) ginger (0.145847) match (0.145810) tech (0.143591) delish (0.142723) thin (0.141820) tax (0.140978) tequila (0.140701) met (0.140676) male (0.139993) 
Error (train/valid/test) = 1.723239/1.748615/1.738199 (0.007517)
..................................................
energy after gradient step = 1228889087.033331
....
Top words for each topic:
rep (0.280854) western (0.277043) arugula (0.270769) hop (0.269285) checkin (0.259433) harbor (0.256225) buyer (0.255920) hat (0.250745) code (0.247909) worthi (0.244156) 
grit (0.349443) urban (0.337339) sight (0.312244) along (0.307962) slide (0.287995) veg (0.284429) model (0.284337) pricier (0.277295) happili (0.261784) massiv (0.256917) 
cilantro (0.305983) delay (0.298975) saut (0.261198) branch (0.260985) soso (0.258874) construct (0.250711) sand (0.247543) uncomfort (0.246343) basi (0.245816) reluct (0.244331) 
tear (0.336775) guarante (0.315860) wasabi (0.297560) ahi (0.291974) dealt (0.291317) drinker (0.289009) alon (0.287440) solut (0.279166) bucket (0.278367) communic (0.267694) 
baja (0.333984) bs (0.319473) pastrami (0.297203) male (0.295590) tuck (0.290266) critic (0.282657) dump (0.279635) 2012 (0.278287) squash (0.275047) sweat (0.252805) 
imposs (0.346035) reuben (0.311064) butt (0.281339) bottom (0.281154) headach (0.261681) wateri (0.256999) closest (0.251732) otherwis (0.249382) neck (0.248964) eventu (0.248116) 
hearti (0.306621) aok (0.302700) mere (0.285852) weak (0.285761) reach (0.284247) foodi (0.283886) thoma (0.282495) halloween (0.279306) ca (0.266003) vinaigrett (0.256724) 
bianco (0.372904) pizzeria (0.351664) cibo (0.342525) calzon (0.317939) steam (0.289024) cheeseburg (0.273967) refriger (0.267437) lover (0.260950) wave (0.258605) medic (0.257643) 
anniversari (0.287654) upper (0.283621) sofa (0.280245) falafel (0.274473) heater (0.269262) complex (0.266974) climb (0.265942) along (0.264092) verd (0.263655) 800 (0.260735) 
intent (0.363181) blueberri (0.305277) pros (0.301987) yay (0.301793) everybodi (0.285245) asap (0.282147) trade (0.262719) interact (0.259686) resist (0.255052) lift (0.253871) 
Error (train/valid/test) = 1.550579/1.609766/1.603531 (0.008397)
..................................................
energy after gradient step = 1228342329.215319
....
Top words for each topic:
buyer (0.475729) machaca (0.432712) beg (0.423089) donat (0.403813) matt (0.399605) senior (0.392126) vintag (0.387457) hi (0.371829) scrumptious (0.367561) spaghetti (0.359125) 
sight (0.496892) pricier (0.412050) surgeri (0.410823) pistachio (0.409087) jam (0.395410) volunt (0.392067) creation (0.385582) grit (0.383703) fuck (0.382513) model (0.377911) 
cibo (0.522159) comfi (0.444044) cilantro (0.439966) minus (0.432384) nigiri (0.414962) refriger (0.399586) european (0.380426) bitter (0.377163) soso (0.363589) sticker (0.361914) 
dealership (0.487810) mmm (0.453460) hung (0.436775) ahi (0.393509) wasabi (0.387383) perus (0.377236) muffin (0.373162) tab (0.373119) midnight (0.371036) won (0.365314) 
iphon (0.459825) outlet (0.448452) sum (0.427392) knot (0.418771) alfredo (0.411408) storm (0.397815) pastrami (0.394535) toy (0.390274) spit (0.381246) amus (0.380793) 
concert (0.443338) mussel (0.424681) contract (0.412838) imposs (0.399384) cactus (0.395204) eh (0.392561) scott (0.391059) reuben (0.387595) confer (0.377148) butt (0.368055) 
thoma (0.449944) empanada (0.443416) shelf (0.431484) hearti (0.429263) sunset (0.412283) inspect (0.401053) sigh (0.399545) vinaigrett (0.395862) entr (0.395625) pretzel (0.383406) 
bianco (0.841787) pizzeria (0.571413) biltmor (0.413741) cibo (0.405277) pipe (0.373598) rubberi (0.367780) tikka (0.366812) certifi (0.363836) highlight (0.359975) strang (0.355340) 
rd (0.454825) appli (0.421966) hearti (0.417065) panda (0.408914) heater (0.399312) zucchini (0.398071) anticip (0.395592) sofa (0.385260) hippi (0.381674) climb (0.379682) 
moon (0.498743) blueberri (0.427147) delay (0.412603) resist (0.410393) cornish (0.408584) born (0.383946) stack (0.380307) relleno (0.379493) interact (0.360581) award (0.353076) 
Error (train/valid/test) = 1.469851/1.559779/1.554875 (0.008597)
..................................................
energy after gradient step = 1227787484.963302
....
Top words for each topic:
senior (0.539635) machaca (0.486280) buyer (0.438964) consider (0.437244) hop (0.436358) malt (0.431812) retail (0.428954) donat (0.428734) luxuri (0.425841) reminisc (0.425426) 
sight (0.665147) urban (0.529153) artwork (0.519052) along (0.517250) tile (0.496540) queso (0.484931) massiv (0.468442) pricier (0.454342) race (0.437300) pistachio (0.425754) 
sticker (0.528652) cod (0.515244) mass (0.496801) cibo (0.493763) wateri (0.482729) bitter (0.458592) cilantro (0.455137) comfi (0.454861) arrowhead (0.451059) dens (0.439877) 
mmm (0.527253) guitar (0.523978) solut (0.508321) maze (0.484120) graduat (0.471194) silver (0.465740) dealership (0.459689) wasabi (0.450704) citrus (0.450092) cow (0.447234) 
alfredo (0.556414) iphon (0.542132) outlet (0.516185) niec (0.505589) makeup (0.504162) storm (0.491102) lip (0.491090) parmesan (0.481966) jason (0.479570) yike (0.465843) 
confer (0.569426) mussel (0.540801) minus (0.499878) wateri (0.498665) 7th (0.495500) contract (0.484121) concert (0.480660) fruiti (0.473298) award (0.461633) pretenti (0.459459) 
sigh (0.573665) concoct (0.561848) materi (0.501519) inspect (0.500492) empanada (0.487871) hh (0.487590) sunset (0.486015) shelf (0.479854) hearti (0.477002) spell (0.475773) 
bianco (1.127285) pizzeria (0.863625) engag (0.543958) tikka (0.512688) incorrect (0.478170) themselv (0.444110) biltmor (0.437671) brais (0.436488) southern (0.436082) spoke (0.432153) 
anticip (0.515320) upon (0.487860) unnecessari (0.476916) instrument (0.476881) adjust (0.449653) bet (0.442099) relationship (0.435826) unexpect (0.432365) chilli (0.426389) hippi (0.425558) 
blueberri (0.550736) resist (0.548661) born (0.505007) award (0.501090) relleno (0.487435) 730 (0.472866) jewel (0.471066) shine (0.459147) shampoo (0.454849) categori (0.451068) 
Error (train/valid/test) = 1.414086/1.530034/1.524421 (0.008308)
..................................................
energy after gradient step = 1227273096.793263
....
Top words for each topic:
beg (0.634150) carnita (0.528454) fox (0.519792) machaca (0.514639) matt (0.508059) awar (0.505507) crusti (0.498873) perk (0.497957) retail (0.492395) crush (0.490758) 
along (0.616440) sight (0.603183) pistachio (0.557799) lifetim (0.545351) massiv (0.542511) race (0.535804) eager (0.529647) nervous (0.523146) humbl (0.522087) urban (0.518118) 
cibo (0.654855) cod (0.580834) filthi (0.549822) arrowhead (0.541931) surf (0.534727) cafeteria (0.521362) grimaldi (0.519749) dens (0.517189) navig (0.512473) cilantro (0.507408) 
guitar (0.696334) mmm (0.676582) culinari (0.529920) blood (0.529463) citrus (0.517062) karaok (0.508256) angel (0.507362) graduat (0.504762) whatsoev (0.501537) maze (0.499435) 
caf (0.605029) televis (0.584997) parmesan (0.566306) outlet (0.560300) pastrami (0.545362) sum (0.545345) interact (0.543795) garag (0.543242) lip (0.529000) yike (0.524165) 
confer (0.694049) wateri (0.593533) fruiti (0.559649) fool (0.556329) contract (0.553790) 7th (0.505569) pretenti (0.503970) invest (0.498062) balsam (0.496658) award (0.496444) 
santa (0.689235) sigh (0.647141) freez (0.582447) brat (0.545153) concoct (0.538426) thoma (0.521122) halloween (0.518051) materi (0.515117) butteri (0.508159) hh (0.497829) 
bianco (1.316348) pizzeria (0.927454) tikka (0.555510) thumb (0.538750) incorrect (0.527998) fennel (0.527963) biltmor (0.507197) drizzl (0.502628) adequ (0.500756) stiff (0.493292) 
upon (0.626728) unnecessari (0.575278) unexpect (0.564196) instrument (0.535953) hearti (0.530020) anticip (0.499340) speed (0.487989) encourag (0.484032) bet (0.478273) adjust (0.475983) 
award (0.630218) blueberri (0.617674) shine (0.610574) relleno (0.585260) shampoo (0.578163) born (0.562653) buttermilk (0.559962) resist (0.549464) 730 (0.549186) vendor (0.541287) 
Error (train/valid/test) = 1.380046/1.514252/1.508931 (0.008455)
..................................................
energy after gradient step = 1226779341.332800
....
Top words for each topic:
awar (0.638274) matt (0.629987) laser (0.612565) beg (0.573370) lolo (0.556429) crusti (0.550269) fox (0.546962) retail (0.543022) 400 (0.526187) wouldv (0.523819) 
sight (0.649393) urban (0.622366) race (0.604711) massiv (0.571961) nervous (0.571619) smashburg (0.563337) juli (0.552576) eager (0.547238) intent (0.544961) whether (0.544830) 
mass (0.705820) cod (0.627535) surf (0.602307) tie (0.586857) cibo (0.555264) arrowhead (0.554353) dirt (0.553138) 2013 (0.551215) grimaldi (0.549934) sidewalk (0.547222) 
guitar (0.848575) mmm (0.782355) blood (0.628119) culinari (0.573431) wasabi (0.569115) couldv (0.550077) savori (0.548003) vacat (0.546534) sanit (0.543881) josh (0.543436) 
parmesan (0.725180) don (0.673680) makeup (0.639366) outlet (0.638862) sum (0.633549) caf (0.620665) storm (0.601139) interrupt (0.599645) amazon (0.581422) yike (0.580851) 
confer (0.738924) fool (0.697193) minus (0.640267) contract (0.628904) 7th (0.611478) snap (0.611261) prep (0.573668) dan (0.544904) fruiti (0.541925) skinni (0.536289) 
butteri (0.673906) brat (0.633828) freez (0.628596) paradis (0.625897) halloween (0.598235) santa (0.581845) hearti (0.580029) shelf (0.579810) concoct (0.568099) sigh (0.552437) 
bianco (1.617457) pizzeria (1.143974) margherita (0.802116) fennel (0.743452) bliss (0.631729) brais (0.620194) thumb (0.609970) incorrect (0.596323) tikka (0.584301) stiff (0.579403) 
instrument (0.747578) unexpect (0.720133) warranti (0.594210) imag (0.587950) bet (0.571834) relationship (0.565748) upon (0.562018) zucchini (0.556875) postino (0.553245) unnecessari (0.546230) 
blueberri (0.691011) jewel (0.678866) stool (0.659984) award (0.655660) relleno (0.645401) april (0.619394) shine (0.601453) yay (0.584458) roof (0.583526) laura (0.571016) 
Error (train/valid/test) = 1.346367/1.499915/1.494177 (0.008367)
..................................................
energy after gradient step = 1226307853.425593
....
Top words for each topic:
400 (0.723317) matt (0.716662) german (0.698249) awar (0.622068) carnita (0.614700) crusti (0.597217) wheel (0.591133) beg (0.588247) vintag (0.587380) coney (0.585479) 
eh (0.782871) sight (0.727387) nervous (0.706890) juli (0.706580) snow (0.668437) fuck (0.668099) along (0.665389) curtain (0.660585) hotdog (0.659444) race (0.636579) 
mass (0.864396) crossfit (0.823277) grimaldi (0.721587) tie (0.717116) pillow (0.703125) dens (0.674628) sticker (0.667793) sidewalk (0.647710) 3pm (0.633978) cilantro (0.614894) 
guitar (0.864946) mmm (0.735406) blood (0.716879) whatsoev (0.695684) citrus (0.692157) dealership (0.681178) perman (0.676640) wasabi (0.636695) couldv (0.617908) maze (0.611629) 
outlet (0.827781) sum (0.721577) pastrami (0.709321) innout (0.702740) amazon (0.695935) garag (0.683223) dinein (0.671166) parmesan (0.654221) slide (0.643477) don (0.636748) 
fool (0.722615) confer (0.691255) prep (0.640163) snap (0.638441) fabric (0.628628) mussel (0.621954) contract (0.617156) balsam (0.598790) jazz (0.594303) batteri (0.592468) 
freez (0.805402) santa (0.710905) marriott (0.690543) paradis (0.681408) ethiopian (0.641561) butteri (0.640759) shelf (0.627166) nation (0.607892) togo (0.605906) bus (0.603228) 
bianco (1.800668) pizzeria (1.338459) margherita (0.891898) fennel (0.842895) rosa (0.673848) bliss (0.669068) thumb (0.659831) tikka (0.633758) catfish (0.631788) rep (0.628666) 
unexpect (0.861389) instrument (0.829238) pasti (0.673076) panda (0.651823) unnecessari (0.633073) lash (0.620684) imag (0.613012) nowher (0.585794) dental (0.582936) festiv (0.576404) 
award (0.715970) roof (0.703299) blueberri (0.687634) batteri (0.643169) april (0.640671) virtual (0.639527) jewel (0.633317) g (0.627759) yay (0.622171) stool (0.600917) 
Error (train/valid/test) = 1.316172/1.488594/1.482413 (0.008292)
..................................................
energy after gradient step = 1225853301.778757
....
Top words for each topic:
matt (0.781032) german (0.718273) 400 (0.697488) fox (0.678072) airlin (0.667684) bird (0.661837) complic (0.654253) boat (0.651105) manicur (0.646288) crusti (0.645727) 
juli (0.836611) race (0.791902) eh (0.760203) sight (0.741152) snow (0.736281) along (0.727253) fuck (0.722175) culver (0.694940) model (0.684725) achiev (0.682360) 
mass (0.904202) crossfit (0.891172) tie (0.852252) sidewalk (0.788865) dens (0.709083) grimaldi (0.703216) windshield (0.700415) fed (0.676433) ranchero (0.665821) cilantro (0.659916) 
guitar (0.938851) citrus (0.836165) spirit (0.765427) blood (0.755262) mmm (0.737798) dealership (0.735800) wasabi (0.727036) perman (0.698621) savori (0.664302) happier (0.660659) 
sum (0.792472) outlet (0.769339) pastrami (0.758161) amazon (0.740412) 75 (0.713913) innout (0.709469) garag (0.683993) against (0.681257) sticki (0.669285) toy (0.666682) 
confer (0.836458) contract (0.758489) mussel (0.742609) fool (0.700051) jazz (0.689224) prep (0.680923) h (0.658056) tropic (0.639364) 7th (0.637303) balsam (0.634877) 
ethiopian (0.786355) freez (0.760335) butteri (0.712778) shelf (0.712289) santa (0.706756) concoct (0.697991) hearti (0.685796) togo (0.679740) paradis (0.677349) marriott (0.662089) 
bianco (1.991742) pizzeria (1.599398) margherita (1.066136) fennel (0.898948) rosa (0.782545) cibo (0.743176) hawaiian (0.703163) excess (0.693037) tikka (0.693007) cranberri (0.690497) 
unexpect (0.832793) dental (0.780292) pasti (0.723258) instrument (0.723142) nowher (0.716010) peel (0.666784) john (0.654130) upon (0.647470) barber (0.638411) warranti (0.611346) 
roof (0.865870) batteri (0.792529) g (0.726489) award (0.720574) virtual (0.720270) laura (0.717287) yay (0.710440) april (0.705905) blueberri (0.702437) buttermilk (0.671376) 
Error (train/valid/test) = 1.296388/1.481917/1.475551 (0.008288)
..................................................
energy after gradient step = 1225385358.918080
....
Top words for each topic:
german (0.811220) matt (0.774646) bird (0.765462) awar (0.755997) termin (0.755585) fox (0.725881) zen (0.702642) carpet (0.697515) forgiv (0.684706) paul (0.682398) 
eh (0.876662) race (0.868555) fuck (0.848934) juli (0.845192) culver (0.840375) plant (0.824642) snow (0.775185) mi (0.731895) plug (0.716400) sight (0.709162) 
crossfit (1.081932) tie (0.958679) mass (0.911973) windshield (0.868644) grimaldi (0.809177) dens (0.802512) hassl (0.778638) sidewalk (0.771125) 2013 (0.752076) trail (0.749188) 
guitar (1.010762) mmm (0.859316) dealership (0.844325) jade (0.800694) spirit (0.789333) citrus (0.777002) couldv (0.762191) perman (0.759214) tear (0.727247) happier (0.711585) 
sum (0.852987) outlet (0.769894) innout (0.769307) against (0.755997) pastrami (0.748098) slide (0.735629) garag (0.717477) dentist (0.710204) hooter (0.707862) parmesan (0.684195) 
confer (0.898851) jazz (0.818482) prep (0.764686) mussel (0.748730) snap (0.741928) contract (0.729439) zoo (0.728815) funki (0.699340) batteri (0.677106) wateri (0.668685) 
ethiopian (0.907725) concoct (0.881932) freez (0.788320) chowder (0.776433) froyo (0.738095) paradis (0.729434) nation (0.719722) bus (0.717569) togo (0.710106) santa (0.708517) 
bianco (2.207409) pizzeria (1.741554) margherita (1.161308) rosa (0.986754) fennel (0.938357) cibo (0.936329) hawaiian (0.777892) bliss (0.773578) tikka (0.726971) steal (0.722489) 
dental (0.948738) unexpect (0.916195) pasti (0.766489) technician (0.749646) instrument (0.742583) unnecessari (0.722403) john (0.721265) sink (0.715903) nowher (0.701945) barber (0.700000) 
roof (1.000332) batteri (0.870595) storag (0.764583) blueberri (0.739631) g (0.729058) award (0.710549) yard (0.704162) winner (0.703638) dave (0.690627) campus (0.684183) 
Error (train/valid/test) = 1.279774/1.476712/1.470242 (0.008335)
..................................................
energy after gradient step = 1224858678.848762
....
Top words for each topic:
termin (1.000764) german (0.999060) carpet (0.847048) matt (0.810086) bird (0.805612) luxuri (0.782680) awar (0.751813) fox (0.750238) essenti (0.745932) manicur (0.737491) 
race (1.052866) fuck (0.952693) eh (0.890697) plant (0.858255) culver (0.856666) plug (0.853141) smashburg (0.769303) curtain (0.755901) mi (0.750831) juli (0.746484) 
crossfit (1.295223) tie (0.977528) windshield (0.949381) mass (0.935879) arrowhead (0.923379) brian (0.876342) trail (0.851044) devil (0.829071) hassl (0.816721) grimaldi (0.800607) 
guitar (1.053087) dealership (0.902502) perman (0.881184) tear (0.872161) spirit (0.859361) jade (0.855952) vig (0.829391) couldv (0.814063) mmm (0.805367) pao (0.757106) 
sum (0.921430) outlet (0.881670) pastrami (0.874358) bend (0.867403) innout (0.863568) lake (0.858029) dentist (0.823532) hooter (0.797140) amazon (0.778102) within (0.762199) 
confer (0.877559) jazz (0.832646) snap (0.805230) zoo (0.781988) wateri (0.747900) fool (0.739167) mussel (0.733799) funki (0.719000) batteri (0.712955) contract (0.709222) 
ethiopian (1.002067) froyo (0.842062) denni (0.830193) chowder (0.807948) bus (0.760500) golden (0.747223) concoct (0.746116) togo (0.724477) tint (0.722593) paradis (0.722203) 
bianco (2.529562) pizzeria (2.052638) margherita (1.487060) rosa (1.337371) fennel (1.297349) cibo (1.111624) marinara (0.907372) vinaigrett (0.869513) tikka (0.863380) antipasto (0.809473) 
dental (1.163914) unexpect (0.851904) pasti (0.825604) technician (0.792963) torta (0.753633) hasnt (0.749505) john (0.743318) zucchini (0.741930) nowher (0.718311) tshirt (0.715230) 
roof (1.170315) batteri (0.909658) statement (0.817755) blueberri (0.784022) dave (0.777057) campus (0.773526) cigar (0.762646) warranti (0.752007) yard (0.744920) buttermilk (0.740259) 
Error (train/valid/test) = 1.260632/1.471277/1.464663 (0.008374)
..................................................
energy after gradient step = 1224430734.351041
....
Top words for each topic:
german (1.125104) termin (1.034603) luxuri (0.993389) bird (0.935391) carpet (0.903454) crush (0.839090) manicur (0.835640) matt (0.786321) observ (0.759272) speed (0.756665) 
race (1.168795) fuck (1.077477) plant (0.995488) eh (0.935337) culver (0.873193) juli (0.837705) smashburg (0.821679) mi (0.820274) cat (0.802035) pierc (0.788988) 
crossfit (1.444945) windshield (1.118825) trail (1.057478) mass (1.036481) tie (0.993770) cigar (0.972646) arrowhead (0.942826) hassl (0.937582) brian (0.878978) swap (0.871873) 
guitar (1.101552) vig (1.029156) dealership (1.017628) tear (0.967875) mmm (0.916447) couldv (0.906728) teppanyaki (0.897825) happier (0.870851) jade (0.870341) perman (0.866860) 
sum (1.049702) pastrami (1.040191) outlet (1.031830) pasti (0.958213) dentist (0.946422) innout (0.940951) amazon (0.884209) bend (0.881465) hooter (0.868543) within (0.810187) 
confer (1.015940) jazz (0.856526) zoo (0.836864) batteri (0.833237) carpet (0.808628) climb (0.795098) contract (0.779570) boot (0.770562) float (0.764154) themselv (0.732772) 
ethiopian (1.152717) chowder (0.971362) froyo (0.882475) paradis (0.881186) denni (0.859038) tint (0.824522) golden (0.820413) basi (0.792021) concoct (0.759500) jim (0.750075) 
bianco (2.795371) pizzeria (2.331062) margherita (1.858650) rosa (1.561754) fennel (1.461708) cibo (1.264671) marinara (1.012311) tikka (1.000517) antipasto (0.941964) hype (0.919628) 
dental (1.252798) unexpect (0.943123) groomer (0.912373) skate (0.851404) torta (0.850020) lash (0.799171) peel (0.794526) bud (0.785537) john (0.782830) tshirt (0.781336) 
roof (1.316295) batteri (1.067495) cigar (0.931372) unabl (0.902785) statement (0.880778) dave (0.878289) yard (0.871477) storag (0.839571) buttermilk (0.820167) warranti (0.812779) 
Error (train/valid/test) = 1.243192/1.466755/1.459782 (0.008378)
..................................................
energy after gradient step = 1223799561.525625
....
Top words for each topic:
german (1.195366) termin (1.144915) luxuri (1.067357) carpet (1.052099) crush (0.996403) bird (0.991378) harbor (0.952524) manicur (0.913381) airlin (0.892892) costum (0.847096) 
race (1.276415) plant (1.109437) culver (1.045463) fuck (0.971863) smashburg (0.901761) pierc (0.899005) cat (0.870772) photograph (0.837950) juli (0.812390) lash (0.807938) 
crossfit (1.507931) trail (1.218209) mass (1.198210) windshield (1.161939) cigar (1.085086) brian (1.041024) tie (1.019438) hike (1.008722) grimaldi (0.999300) swap (0.961948) 
vig (1.301542) guitar (1.151590) dealership (1.116317) jade (1.035851) tear (1.022212) mmm (0.972698) couldv (0.958467) perman (0.948032) brake (0.929539) cox (0.919158) 
sum (1.136311) outlet (1.088208) dentist (1.049689) pasti (1.048110) pastrami (0.980364) innout (0.943974) within (0.943070) amazon (0.930746) bend (0.929148) lake (0.922366) 
confer (1.177656) carpet (0.905033) jazz (0.894457) zoo (0.879455) contract (0.861829) float (0.853691) climb (0.847951) batteri (0.839486) jimmi (0.828523) tropic (0.778616) 
ethiopian (1.205386) tint (1.017815) chowder (0.990015) paradis (0.933811) falafel (0.921361) denni (0.862262) golden (0.852733) froyo (0.841851) brat (0.831447) stir (0.822696) 
bianco (3.042282) pizzeria (2.516707) margherita (2.097628) rosa (1.691941) fennel (1.647484) cibo (1.493199) antipasto (1.160350) hype (1.078287) marinara (1.067062) penn (1.038496) 
dental (1.448434) groomer (0.995812) skate (0.986413) pasti (0.959912) lash (0.956449) torta (0.915960) unexpect (0.891764) fundido (0.881822) dentist (0.872700) unnecessari (0.862875) 
roof (1.479588) batteri (1.148635) cigar (1.148382) storag (0.981616) buttermilk (0.927573) dave (0.917754) statement (0.870051) warranti (0.859393) yard (0.855163) award (0.853698) 
Error (train/valid/test) = 1.227954/1.463165/1.455849 (0.008366)
..................................................
energy after gradient step = 1223147279.384205
....
Top words for each topic:
termin (1.346559) german (1.309036) carpet (1.127704) bird (1.090368) luxuri (1.057041) airlin (1.046681) manicur (1.037251) mission (1.026249) crush (0.995780) walmart (0.968295) 
race (1.365965) plant (1.174302) culver (1.113038) pierc (1.102211) smashburg (1.013920) cat (0.945739) photograph (0.944145) fuck (0.931740) veg (0.879094) eh (0.862865) 
crossfit (1.805684) trail (1.439125) hike (1.181898) cigar (1.153501) mass (1.138864) brian (1.093052) grimaldi (1.083032) windshield (1.067235) arrowhead (1.046332) sidewalk (0.988326) 
vig (1.375126) guitar (1.253293) dealership (1.158980) korean (1.039110) couldv (1.038792) brake (1.033477) jade (1.018081) perman (1.013557) tear (1.000941) cox (0.991665) 
dentist (1.268075) outlet (1.228375) sum (1.218473) pasti (1.153633) innout (1.024319) amazon (1.022338) lake (0.991991) comput (0.982241) church (0.975929) zoo (0.960145) 
confer (1.232253) carpet (0.992337) climb (0.957406) contract (0.925279) jazz (0.921310) jimmi (0.902595) float (0.885060) zoo (0.872867) sonic (0.865130) inconsist (0.812056) 
ethiopian (1.351895) tint (1.272875) chowder (1.111609) falafel (1.069201) paradis (1.017718) denni (0.998225) froyo (0.995189) golden (0.923313) stir (0.872862) brat (0.871843) 
bianco (3.200377) pizzeria (2.723767) margherita (2.309696) rosa (1.868047) cibo (1.715977) fennel (1.651188) antipasto (1.283076) prosciutto (1.266816) brick (1.208230) hype (1.203392) 
dental (1.654765) skate (1.117367) groomer (1.089989) dentist (1.048559) vet (1.029519) pasti (1.025412) lash (1.023659) unexpect (0.978808) torta (0.973302) equip (0.963526) 
roof (1.593644) batteri (1.336665) cigar (1.243684) leak (1.056930) storag (1.024267) coach (1.020388) dave (0.951613) unabl (0.941174) campus (0.934717) yard (0.931259) 
Error (train/valid/test) = 1.216943/1.461580/1.453560 (0.008170)
..................................................
energy after gradient step = 1222132705.111395
....
Top words for each topic:
termin (1.544843) german (1.373902) bird (1.313882) carpet (1.290242) mission (1.271774) airlin (1.206405) manicur (1.148908) costum (1.129931) harbor (1.129364) toe (1.070821) 
race (1.462657) pierc (1.361206) plant (1.349207) culver (1.239342) fuck (1.066263) cat (1.058626) smashburg (1.014965) pete (1.006311) frost (0.977764) photograph (0.974237) 
crossfit (2.078252) trail (1.745887) hike (1.483362) cigar (1.300752) mass (1.240249) windshield (1.186439) grimaldi (1.171723) brian (1.135438) comic (1.083682) crepe (1.037128) 
vig (1.555078) guitar (1.514393) dealership (1.281148) korean (1.227919) jade (1.123151) couldv (1.103421) cox (1.093246) filipino (1.083765) brake (1.035110) teppanyaki (1.023904) 
dentist (1.496885) sum (1.432436) outlet (1.380332) pasti (1.207766) amazon (1.155944) lake (1.144802) church (1.133793) comput (1.133740) rental (1.118716) zoo (1.109923) 
confer (1.264008) jimmi (1.076883) climb (1.066037) carpet (1.045573) contract (1.037850) float (1.021358) sonic (0.985289) jazz (0.981111) zoo (0.967745) bagel (0.910268) 
ethiopian (1.515266) tint (1.360113) froyo (1.288955) chowder (1.253405) falafel (1.224894) denni (1.170231) bus (1.071722) paradis (1.068210) brow (1.038386) brat (1.036823) 
bianco (3.393372) pizzeria (2.877857) margherita (2.425756) rosa (2.056219) fennel (1.884214) cibo (1.813912) antipasto (1.565378) prosciutto (1.518711) mozzarella (1.425476) hype (1.420368) 
dental (1.944732) skate (1.306410) dentist (1.241704) vet (1.234000) groomer (1.219824) pasti (1.136905) torta (1.069807) unexpect (1.061743) lash (1.057257) equip (1.013565) 
roof (1.801793) batteri (1.478716) cigar (1.360984) coach (1.157066) leak (1.123954) storag (1.074777) campus (1.048185) smoothi (1.038977) yard (1.022420) haus (1.000560) 
Error (train/valid/test) = 1.203161/1.458226/1.450108 (0.008260)
..................................................
energy after gradient step = 1221034207.455481
....
Top words for each topic:
termin (1.771943) bird (1.486412) carpet (1.472267) german (1.445132) airlin (1.362101) mission (1.352468) harbor (1.292948) manicur (1.283469) ace (1.225631) bagel (1.189329) 
pierc (1.667001) race (1.588678) culver (1.388181) plant (1.277826) cat (1.174829) photograph (1.174659) pete (1.139373) smashburg (1.139364) frost (1.126516) kitti (1.059036) 
crossfit (2.224225) trail (1.991396) hike (1.753666) cigar (1.483314) windshield (1.291793) mass (1.270708) comic (1.208390) crepe (1.206936) brian (1.175259) grimaldi (1.164163) 
vig (1.662356) guitar (1.503106) korean (1.462306) dealership (1.417308) jade (1.215280) cox (1.209106) chino (1.193618) couldv (1.193010) hunt (1.151251) filipino (1.150823) 
dentist (1.710153) outlet (1.648370) sum (1.585502) pasti (1.326241) rental (1.321022) zoo (1.252681) gate (1.249784) mattress (1.221808) airlin (1.206901) agent (1.202804) 
jimmi (1.252741) confer (1.244404) climb (1.220820) carpet (1.149178) float (1.119035) contract (1.099458) sonic (1.095020) zoo (1.078303) jazz (1.069206) bagel (1.057697) 
ethiopian (1.726872) tint (1.415412) froyo (1.412174) falafel (1.354713) denni (1.307891) brat (1.244851) chowder (1.158419) brow (1.142186) tzatziki (1.114158) paradis (1.104852) 
bianco (3.543203) pizzeria (3.049914) margherita (2.479198) rosa (2.277531) cibo (2.103909) fennel (2.010146) antipasto (1.702942) mozzarella (1.679672) prosciutto (1.652845) hype (1.582829) 
dental (2.149413) dentist (1.494644) skate (1.451963) vet (1.451004) groomer (1.299811) pasti (1.249979) lash (1.184336) torta (1.131175) equip (1.120548) john (1.100303) 
roof (1.943164) batteri (1.646961) cigar (1.554306) coach (1.270960) warranti (1.223020) smoothi (1.189965) storag (1.189021) leak (1.120913) german (1.114924) shoot (1.091391) 
Error (train/valid/test) = 1.190841/1.455659/1.447701 (0.008406)
..................................................
energy after gradient step = 1219581344.503816
....
Top words for each topic:
termin (2.027030) bird (1.659356) carpet (1.602500) airlin (1.574447) harbor (1.530877) german (1.462453) mission (1.459825) manicur (1.390615) bagel (1.364855) cupcak (1.307926) 
pierc (1.934044) culver (1.608819) race (1.588926) plant (1.374115) photograph (1.308679) frost (1.302701) smashburg (1.291156) cat (1.281862) pete (1.249484) kitti (1.164968) 
crossfit (2.377214) trail (2.234126) hike (2.007067) cigar (1.572021) harkin (1.443262) windshield (1.420354) crepe (1.417170) brian (1.362130) tattoo (1.284462) mass (1.281259) 
vig (1.917016) korean (1.657121) guitar (1.648407) dealership (1.514837) cox (1.432953) jade (1.339960) chino (1.258805) crepe (1.214157) kimchi (1.169171) couldv (1.142684) 
dentist (1.921628) outlet (1.797098) sum (1.737632) rental (1.586539) zoo (1.528742) gate (1.478935) pasti (1.440501) xray (1.438803) amazon (1.429830) mattress (1.374587) 
jimmi (1.476864) climb (1.286155) confer (1.235073) float (1.215170) bagel (1.196194) sonic (1.181642) contract (1.163166) carpet (1.157793) oregano (1.097018) jazz (1.085617) 
ethiopian (1.783439) falafel (1.627180) froyo (1.593072) denni (1.477053) tint (1.366797) tzatziki (1.256032) chowder (1.214817) carnita (1.199368) kabob (1.186610) mediterranean (1.180897) 
bianco (3.674138) pizzeria (3.204578) margherita (2.687972) rosa (2.265283) cibo (2.246855) fennel (2.174490) mozzarella (1.960743) antipasto (1.908434) itali (1.866283) prosciutto (1.844726) 
dental (2.318003) dentist (1.703974) vet (1.676412) skate (1.667162) groomer (1.466248) pasti (1.316139) torta (1.280519) lash (1.275571) equip (1.229519) teeth (1.206425) 
roof (2.125401) cigar (1.804989) batteri (1.750503) coach (1.416658) german (1.394163) warranti (1.363878) smoothi (1.344157) haus (1.245162) storag (1.239083) leak (1.217399) 
Error (train/valid/test) = 1.180587/1.454717/1.447063 (0.008563)
..................................................
energy after gradient step = 1217402870.393700
....
Top words for each topic:
termin (2.211168) bird (1.867175) carpet (1.762880) airlin (1.740089) harbor (1.629209) german (1.528241) manicur (1.526714) bagel (1.510248) mission (1.505963) cupcak (1.500553) 
pierc (2.199389) culver (1.788991) race (1.643381) plant (1.491749) smashburg (1.486716) cat (1.421330) frost (1.397127) photograph (1.373921) pete (1.349576) lash (1.288761) 
crossfit (2.609590) trail (2.492304) hike (2.253329) cigar (1.666257) harkin (1.625866) windshield (1.552617) crepe (1.526449) brian (1.444705) mass (1.435053) comic (1.430260) 
vig (2.090650) korean (1.879379) guitar (1.842612) dealership (1.560227) cox (1.515479) jade (1.455028) chino (1.363912) kimchi (1.311063) crepe (1.304715) filipino (1.181317) 
dentist (2.107644) outlet (1.952717) rental (1.866711) sum (1.814101) zoo (1.751455) gate (1.729695) pedi (1.653439) nail (1.636092) agent (1.631663) amazon (1.631335) 
jimmi (1.561332) climb (1.426725) float (1.376900) bagel (1.340443) confer (1.328651) sonic (1.295645) contract (1.170342) carpet (1.142954) jazz (1.122973) oregano (1.068013) 
ethiopian (1.950293) falafel (1.789696) froyo (1.693114) denni (1.574722) tzatziki (1.428769) kabob (1.376093) tint (1.344640) carnita (1.338093) mediterranean (1.309752) chowder (1.288093) 
bianco (3.759242) pizzeria (3.311785) margherita (2.773848) cibo (2.421833) rosa (2.342440) fennel (2.221737) mozzarella (2.220386) prosciutto (2.046188) itali (2.008899) antipasto (1.992361) 
dental (2.479608) dentist (1.941396) vet (1.866067) skate (1.710538) groomer (1.472598) pasti (1.438226) lash (1.426925) torta (1.404891) equip (1.344482) teeth (1.341172) 
roof (2.314433) cigar (1.984854) batteri (1.947310) coach (1.546805) smoothi (1.518995) target (1.441414) german (1.429840) warranti (1.408945) shoot (1.330390) leak (1.325563) 
Error (train/valid/test) = 1.170721/1.452175/1.443739 (0.008325)
..................................................
energy after gradient step = 1214381827.446618
....
Top words for each topic:
termin (2.381383) bird (2.018827) carpet (1.978155) airlin (1.892118) harbor (1.873630) flight (1.714525) cupcak (1.714333) bagel (1.708588) manicur (1.704345) gel (1.682482) 
pierc (2.323989) culver (1.944703) race (1.728271) plant (1.675472) smashburg (1.621375) cat (1.613799) pete (1.522565) photograph (1.521989) kitti (1.495084) frost (1.494632) 
trail (2.775295) crossfit (2.654702) hike (2.549814) harkin (1.794235) cigar (1.673334) crepe (1.665035) windshield (1.629290) comic (1.566530) tour (1.560148) popcorn (1.529663) 
vig (2.219292) korean (2.081863) guitar (1.998785) dealership (1.676147) cox (1.612808) jade (1.565695) chino (1.472391) crepe (1.469119) kimchi (1.432459) ohso (1.249155) 
dentist (2.330027) rental (2.138617) outlet (2.107463) nail (2.078037) gate (1.983311) pedi (1.956758) sum (1.943785) zoo (1.915927) agent (1.866816) manicur (1.815621) 
jimmi (1.655418) climb (1.565897) bagel (1.447107) float (1.388813) confer (1.368616) sonic (1.364725) jazz (1.266297) cole (1.094565) carpet (1.084705) contract (1.080953) 
ethiopian (2.044598) falafel (1.988164) froyo (1.866222) kabob (1.648196) denni (1.637966) tzatziki (1.580660) carnita (1.535097) gyro (1.515102) mediterranean (1.512858) baklava (1.452468) 
bianco (3.817761) pizzeria (3.404496) margherita (2.840635) cibo (2.588345) mozzarella (2.435610) crust (2.403182) rosa (2.389045) pizza (2.358209) fennel (2.287772) prosciutto (2.207270) 
dental (2.672480) vet (2.155517) dentist (2.113199) skate (1.896130) groomer (1.645089) torta (1.643982) pasti (1.593405) teeth (1.576523) lash (1.503568) exam (1.472312) 
roof (2.483510) cigar (2.219234) batteri (2.157937) smoothi (1.655716) german (1.630591) target (1.611749) coach (1.607111) shoot (1.548163) warranti (1.543695) haus (1.475643) 
Error (train/valid/test) = 1.162872/1.450982/1.442553 (0.008413)
..................................................
energy after gradient step = 1209933977.354050
....
Top words for each topic:
termin (2.512761) carpet (2.204037) bird (2.124663) airlin (2.034579) harbor (1.987004) bagel (1.953689) cupcak (1.946914) flight (1.875443) airport (1.846240) frost (1.825741) 
pierc (2.494442) culver (2.109744) race (1.867338) plant (1.768442) cat (1.764905) smashburg (1.675343) pete (1.650500) photograph (1.580031) frost (1.577503) kitti (1.576829) 
trail (3.044979) hike (2.807692) crossfit (2.751679) harkin (2.148448) popcorn (1.841848) crepe (1.806437) tour (1.783769) cigar (1.750588) comic (1.746160) mountain (1.738557) 
vig (2.329821) korean (2.268544) guitar (2.131822) dealership (1.710748) cox (1.710447) jade (1.683953) crepe (1.607241) kimchi (1.605385) chino (1.528718) ohso (1.363862) 
nail (2.559368) dentist (2.523005) rental (2.446418) pedi (2.325595) outlet (2.311583) gate (2.179961) manicur (2.179655) zoo (2.145982) sum (2.085581) insur (2.084284) 
jimmi (1.781281) bagel (1.608885) climb (1.577260) confer (1.507149) float (1.468881) sonic (1.438371) jazz (1.341341) dj (1.182885) band (1.175860) concert (1.175248) 
falafel (2.192899) ethiopian (2.013590) froyo (1.999050) kabob (1.835703) gyro (1.832556) tzatziki (1.772650) mediterranean (1.740675) carnita (1.718602) yogurt (1.673064) baklava (1.636002) 
bianco (3.860859) pizzeria (3.449889) pizza (3.025436) crust (2.882655) margherita (2.873963) cibo (2.633845) mozzarella (2.619932) rosa (2.456015) calzon (2.375736) oven (2.364786) 
dental (2.884396) vet (2.421983) dentist (2.389946) skate (2.019006) torta (1.812028) groomer (1.807495) teeth (1.747066) pasti (1.743919) exam (1.637824) lash (1.563790) 
roof (2.656757) cigar (2.332657) batteri (2.267065) target (1.894494) german (1.832277) smoothi (1.813138) shoot (1.755188) coach (1.678143) warranti (1.611233) haus (1.585218) 
Error (train/valid/test) = 1.156068/1.450025/1.441212 (0.008369)
..................................................
energy after gradient step = 1202851211.605939
....
Top words for each topic:
termin (2.664374) carpet (2.374630) bird (2.319047) bagel (2.229537) cupcak (2.229345) airport (2.162965) harbor (2.160710) flight (2.115381) frost (2.106955) airlin (2.027656) 
pierc (2.749821) culver (2.288535) cat (1.964656) race (1.931944) pete (1.876619) plant (1.856138) hair (1.816966) smashburg (1.814217) cupcak (1.784181) clinic (1.773137) 
trail (3.321926) hike (3.096116) crossfit (2.945492) harkin (2.395289) popcorn (2.143484) tour (2.071481) mountain (2.067404) amc (1.994878) theatr (1.962496) theater (1.938372) 
korean (2.529066) vig (2.509278) guitar (2.249162) jade (1.864356) crepe (1.772429) dealership (1.751369) kimchi (1.726165) cox (1.673639) chino (1.666131) ohso (1.477591) 
nail (3.053358) rental (2.756968) dentist (2.678286) pedi (2.653019) manicur (2.519206) gel (2.491131) outlet (2.468953) gate (2.398786) insur (2.394498) pedicur (2.388617) 
jimmi (1.974236) bagel (1.808737) climb (1.690618) float (1.630107) confer (1.571346) sonic (1.531580) jazz (1.444936) tee (1.388645) venu (1.345223) band (1.323955) 
falafel (2.397522) gyro (2.220990) ethiopian (2.137458) froyo (2.088058) kabob (2.078195) yogurt (1.927336) carnita (1.922084) mediterranean (1.878772) tzatziki (1.860344) baklava (1.853003) 
bianco (3.862582) pizza (3.771762) pizzeria (3.453234) crust (3.287924) margherita (2.864325) mozzarella (2.819787) cibo (2.718550) oven (2.548026) calzon (2.520822) pepperoni (2.514958) 
dental (3.057677) vet (2.701662) dentist (2.623769) skate (2.104107) teeth (2.031089) torta (1.949586) pasti (1.948395) dr (1.948179) groomer (1.946791) exam (1.903654) 
roof (2.745971) cigar (2.554028) batteri (2.388587) target (2.185664) german (2.018578) smoothi (1.963877) shoot (1.908281) coach (1.799639) haus (1.776606) jewelri (1.714628) 
Error (train/valid/test) = 1.149440/1.449041/1.440008 (0.008384)
..................................................
energy after gradient step = 1192551291.151966
....
Top words for each topic:
termin (2.904117) cupcak (2.530112) carpet (2.520431) bird (2.484293) bagel (2.471517) airport (2.418945) harbor (2.383568) frost (2.361723) flight (2.295691) walmart (2.141132) 
pierc (2.978736) culver (2.459892) cat (2.177549) hair (2.137846) race (2.087200) pete (2.078276) cupcak (1.985117) plant (1.978329) haircut (1.938202) kitti (1.925035) 
trail (3.562168) hike (3.392900) crossfit (3.079170) harkin (2.672623) theatr (2.392558) popcorn (2.383702) tour (2.339572) theater (2.327669) mountain (2.303229) amc (2.238052) 
korean (2.750999) vig (2.734383) guitar (2.400175) jade (1.981652) kimchi (1.906499) crepe (1.897892) chino (1.777317) dealership (1.725222) cox (1.687531) ohso (1.660747) 
nail (3.561832) rental (3.018557) pedi (2.927206) manicur (2.900995) gel (2.888410) salon (2.885752) pedicur (2.860088) dentist (2.839320) insur (2.701563) rent (2.670657) 
jimmi (2.159354) bagel (1.964095) float (1.782049) climb (1.739401) sonic (1.685107) jazz (1.569068) confer (1.564280) tee (1.563604) band (1.532574) dj (1.532455) 
gyro (2.581880) falafel (2.525313) froyo (2.239043) ethiopian (2.178321) kabob (2.167618) yogurt (2.152531) mexican (2.131891) salsa (2.112726) greek (2.096901) carnita (2.090278) 
pizza (4.369215) bianco (3.872077) crust (3.607659) pizzeria (3.472188) mozzarella (2.952441) margherita (2.896170) italian (2.783799) pepperoni (2.723595) oven (2.694378) cibo (2.693730) 
dental (3.285178) vet (2.920809) dentist (2.846415) dr (2.410794) skate (2.274003) teeth (2.221048) groomer (2.179270) exam (2.170880) pasti (2.105876) torta (2.093161) 
roof (2.901651) cigar (2.737691) batteri (2.532099) target (2.435003) german (2.199118) shoot (2.162407) smoothi (2.121132) haus (2.001080) coach (1.915640) tan (1.871815) 
Error (train/valid/test) = 1.143237/1.448352/1.439357 (0.008503)
..................................................
energy after gradient step = 1179695133.259822
....
Top words for each topic:
termin (3.051496) cupcak (2.826629) carpet (2.760991) bagel (2.755947) bird (2.659951) airport (2.650604) frost (2.592052) harbor (2.551572) flight (2.527064) walmart (2.313283) 
pierc (3.169537) culver (2.569523) hair (2.492238) cat (2.343216) haircut (2.264044) plant (2.186585) pete (2.169150) race (2.163380) cupcak (2.153943) kitti (2.094733) 
trail (3.800679) hike (3.645387) crossfit (3.225256) harkin (2.929592) theatr (2.754054) popcorn (2.716231) theater (2.715165) tour (2.601366) mountain (2.552865) amc (2.530986) 
korean (2.964785) vig (2.851463) guitar (2.557019) jade (2.164037) kimchi (2.103295) crepe (2.023753) chino (1.901610) boba (1.858077) ohso (1.771109) jamba (1.764591) 
nail (3.892490) salon (3.409232) pedicur (3.254165) rental (3.238765) gel (3.226949) manicur (3.220229) pedi (3.182341) car (3.124829) insur (2.965576) tech (2.957981) 
jimmi (2.277192) bagel (2.172300) float (1.949701) venu (1.777396) band (1.768737) sonic (1.768283) dj (1.767215) climb (1.743572) tee (1.727041) stage (1.714900) 
gyro (2.838249) falafel (2.628465) taco (2.531592) mexican (2.526213) salsa (2.498211) burrito (2.431158) yogurt (2.347577) pita (2.309368) greek (2.292290) kabob (2.273427) 
pizza (4.753521) bianco (3.819885) crust (3.816312) pizzeria (3.422751) italian (3.069628) mozzarella (3.044802) margherita (2.861591) pepperoni (2.817015) oven (2.768042) cibo (2.735075) 
dental (3.470667) vet (3.180720) dentist (3.064243) dr (2.821320) teeth (2.453027) exam (2.450105) skate (2.423790) groomer (2.422139) pasti (2.292199) procedur (2.194643) 
roof (3.066017) cigar (2.967632) target (2.787016) batteri (2.625640) german (2.400694) shoot (2.386952) smoothi (2.288095) haus (2.130111) vendor (2.078272) jewelri (2.059194) 
Error (train/valid/test) = 1.139360/1.448513/1.439595 (0.008600)
..................................................
energy after gradient step = 1164209087.373967
....
Top words for each topic:
termin (3.267946) cupcak (3.102429) bagel (3.035115) carpet (2.928364) airport (2.906075) bird (2.840216) frost (2.833705) harbor (2.749948) flight (2.720052) walmart (2.516104) 
pierc (3.346052) hair (2.817322) culver (2.704616) cat (2.555547) haircut (2.526436) pete (2.394613) stylist (2.312097) photograph (2.302741) cupcak (2.302701) race (2.297784) 
trail (4.021516) hike (3.853678) crossfit (3.391689) harkin (3.195331) theater (3.140030) theatr (3.018833) popcorn (2.944267) tour (2.822090) mountain (2.788428) amc (2.772292) 
korean (3.155198) vig (3.080501) guitar (2.724377) jade (2.333160) kimchi (2.259454) crepe (2.217794) boba (2.090646) chino (2.013870) jamba (1.969232) ohso (1.921934) 
nail (4.193094) salon (3.749712) pedicur (3.552698) gel (3.448569) manicur (3.433960) car (3.420145) rental (3.392593) pedi (3.344617) appoint (3.232015) repair (3.190786) 
jimmi (2.437773) bagel (2.294817) float (2.046861) dj (2.010944) venu (1.989228) band (1.980761) sonic (1.965914) stage (1.965548) tee (1.950079) concert (1.852719) 
gyro (3.031390) taco (2.974329) mexican (2.957426) salsa (2.923987) burrito (2.762473) falafel (2.680580) rice (2.613049) asada (2.502319) yogurt (2.496914) pita (2.495891) 
pizza (5.010364) crust (3.883069) bianco (3.788873) pizzeria (3.388496) italian (3.261539) mozzarella (3.083654) pasta (2.990232) pepperoni (2.885654) margherita (2.835942) oven (2.808299) 
dental (3.668686) vet (3.421944) dentist (3.273209) dr (3.199850) teeth (2.695670) exam (2.682523) groomer (2.640809) skate (2.600845) pasti (2.417757) procedur (2.337202) 
roof (3.239590) cigar (3.210339) target (3.001573) batteri (2.711284) german (2.593506) shoot (2.589613) smoothi (2.467468) vendor (2.277673) jewelri (2.275643) yard (2.270134) 
Error (train/valid/test) = 1.134535/1.447624/1.438513 (0.008586)
..................................................
energy after gradient step = 1148135816.048458
....
Top words for each topic:
termin (3.527305) cupcak (3.463546) bagel (3.411894) airport (3.253653) frost (3.145353) carpet (3.108506) flight (3.018195) bird (3.017334) harbor (2.947618) walmart (2.675647) 
pierc (3.510184) hair (3.131361) culver (2.856470) haircut (2.824274) cat (2.687701) pete (2.569103) anim (2.534144) plant (2.515091) photograph (2.476511) walmart (2.456538) 
trail (4.314833) hike (4.138873) theater (3.566278) crossfit (3.527909) harkin (3.431576) theatr (3.340447) popcorn (3.265358) tour (3.156884) mountain (3.104672) amc (3.035370) 
korean (3.401876) vig (3.190040) guitar (2.894148) jade (2.489302) kimchi (2.401547) boba (2.401005) crepe (2.360787) chino (2.147541) jamba (2.140087) ohso (2.030759) 
nail (4.383899) salon (3.938189) pedicur (3.752906) car (3.688387) gel (3.579340) manicur (3.553870) rental (3.466649) appoint (3.465163) repair (3.440237) pedi (3.399276) 
jimmi (2.587110) bagel (2.453992) dj (2.355715) band (2.339622) venu (2.270134) stage (2.234982) danc (2.201824) tee (2.175579) float (2.154036) drunk (2.125218) 
taco (3.349272) mexican (3.242020) salsa (3.200485) gyro (3.163155) burrito (2.998950) rice (2.995206) asada (2.729473) beef (2.691625) falafel (2.681286) pita (2.669918) 
pizza (5.110290) crust (3.904290) bianco (3.701343) italian (3.390401) pizzeria (3.340235) pasta (3.143822) mozzarella (3.078164) pepperoni (2.872509) wine (2.868504) slice (2.865891) 
dental (3.850874) vet (3.702965) dentist (3.554140) dr (3.485468) teeth (2.960008) exam (2.936388) groomer (2.843253) skate (2.760260) cat (2.600817) tint (2.555256) 
roof (3.461893) cigar (3.427556) target (3.365653) shoot (2.869031) german (2.834167) batteri (2.764055) smoothi (2.654701) donut (2.576552) vendor (2.534001) jewelri (2.509975) 
Error (train/valid/test) = 1.130176/1.446191/1.436592 (0.008454)
..................................................
energy after gradient step = 1132514489.763913
....
Top words for each topic:
cupcak (3.861162) termin (3.769486) bagel (3.751520) airport (3.612514) frost (3.457984) flight (3.313167) bird (3.209415) harbor (3.194578) carpet (3.185412) walmart (2.904872) 
pierc (3.733637) hair (3.465815) haircut (3.180074) culver (3.018749) cat (2.819004) anim (2.802588) race (2.701949) plant (2.701573) pete (2.691426) photograph (2.677814) 
trail (4.537653) hike (4.372322) theater (4.007294) crossfit (3.739994) harkin (3.679355) theatr (3.610362) popcorn (3.549878) movi (3.496537) tour (3.428830) barista (3.357086) 
korean (3.572977) vig (3.426318) guitar (3.088832) boba (2.734873) jade (2.632501) kimchi (2.589642) crepe (2.492115) jamba (2.353514) smoothi (2.249303) jerk (2.245931) 
nail (4.520229) salon (4.090427) pedicur (3.897202) car (3.882363) gel (3.665840) manicur (3.662931) repair (3.640040) appoint (3.607802) gym (3.542384) rental (3.519981) 
jimmi (2.728372) dj (2.679186) band (2.614454) stage (2.550329) danc (2.543406) venu (2.514406) bagel (2.447068) concert (2.412337) tee (2.407753) float (2.378485) 
taco (3.678367) mexican (3.506903) salsa (3.484800) rice (3.378768) gyro (3.284907) burrito (3.256488) beef (2.987979) asada (2.926795) pho (2.909234) chines (2.908430) 
pizza (5.255197) crust (3.963943) bianco (3.691520) italian (3.511920) pizzeria (3.326136) pasta (3.290723) wine (3.158516) salad (3.148563) mozzarella (3.095622) slice (3.007541) 
dental (4.015404) vet (3.938742) dentist (3.865728) dr (3.824709) teeth (3.206778) exam (3.205174) groomer (3.098974) skate (2.944833) cat (2.879105) tint (2.861668) 
cigar (3.684228) roof (3.625571) target (3.593068) shoot (3.136176) german (3.089107) donut (2.990854) gun (2.865569) smoothi (2.861489) vendor (2.831871) batteri (2.760624) 
Error (train/valid/test) = 1.126087/1.445832/1.435754 (0.008353)
..................................................
energy after gradient step = 1117733462.506050
....
Top words for each topic:
cupcak (4.198424) termin (4.096583) bagel (4.076877) airport (3.935019) frost (3.735358) flight (3.625790) harbor (3.406419) bird (3.353704) carpet (3.190761) sky (3.178361) 
pierc (3.851489) hair (3.803181) haircut (3.510190) culver (3.174202) anim (2.983160) dog (2.962095) cat (2.952598) pete (2.901250) tattoo (2.890712) plant (2.872830) 
trail (4.722777) hike (4.549410) theater (4.312222) movi (3.939204) crossfit (3.896122) harkin (3.892011) theatr (3.830436) popcorn (3.765017) tour (3.610974) barista (3.565004) 
korean (3.775523) vig (3.543014) guitar (3.177811) boba (3.000343) kimchi (2.786476) jade (2.776533) crepe (2.684695) jamba (2.573510) smoothi (2.497097) lee (2.461588) 
nail (4.602907) salon (4.186974) pedicur (4.003729) car (3.968059) repair (3.768394) gel (3.746681) appoint (3.734528) manicur (3.730623) gym (3.652230) spa (3.597845) 
dj (2.918859) jimmi (2.914933) danc (2.851922) band (2.849017) stage (2.808689) venu (2.745507) tee (2.654657) game (2.633605) drunk (2.609509) concert (2.601680) 
taco (3.902856) mexican (3.756140) salsa (3.700294) rice (3.654078) burrito (3.484964) gyro (3.379072) chicken (3.233331) beef (3.206900) thai (3.198411) bean (3.135279) 
pizza (5.353228) crust (3.999888) bianco (3.686355) italian (3.586153) salad (3.406591) wine (3.396963) pasta (3.396281) pizzeria (3.320853) mozzarella (3.137301) chees (3.119414) 
dental (4.157557) dentist (4.139958) vet (4.130572) dr (4.103058) teeth (3.402741) exam (3.313846) groomer (3.302985) skate (3.052415) tint (3.041368) cat (2.990231) 
cigar (3.888038) target (3.838694) roof (3.832017) donut (3.347241) shoot (3.284570) german (3.252058) gun (3.246195) vendor (3.057906) smoothi (2.992635) jewelri (2.963873) 
Error (train/valid/test) = 1.121887/1.445137/1.435126 (0.008442)
..................................................
energy after gradient step = 1105192102.041860
....
Top words for each topic:
cupcak (4.645556) bagel (4.433001) airport (4.370300) termin (4.350511) frost (3.986097) flight (3.918887) harbor (3.667663) sky (3.513771) bird (3.504010) vintag (3.381388) 
hair (4.116108) pierc (3.980872) haircut (3.794899) dog (3.297910) culver (3.282767) anim (3.166726) tattoo (3.162749) stylist (3.133708) pete (3.071521) makeup (3.070007) 
trail (4.911438) hike (4.737681) theater (4.613704) movi (4.266367) theatr (4.078889) harkin (4.077418) crossfit (4.042388) popcorn (3.980259) barista (3.852966) tour (3.823967) 
korean (3.961712) vig (3.766656) guitar (3.482206) boba (3.333016) kimchi (3.013441) jade (2.895575) crepe (2.870168) jamba (2.837880) lee (2.766511) smoothi (2.682273) 
nail (4.706047) salon (4.290298) pedicur (4.109507) car (4.032740) repair (3.925277) appoint (3.840852) gel (3.823859) manicur (3.800280) gym (3.758098) spa (3.721520) 
danc (3.219781) dj (3.181835) band (3.139375) jimmi (3.077863) game (3.013332) venu (3.001288) stage (2.990794) drunk (2.907691) concert (2.903132) tee (2.880157) 
taco (4.152928) rice (3.942666) mexican (3.938472) salsa (3.906238) burrito (3.697391) chicken (3.551560) sushi (3.493760) thai (3.476924) gyro (3.459682) beef (3.411037) 
pizza (5.397940) crust (4.081103) italian (3.709508) bianco (3.691859) salad (3.666925) wine (3.607087) pasta (3.545918) chees (3.357245) pizzeria (3.347666) bread (3.271944) 
dentist (4.410086) dr (4.396709) vet (4.327101) dental (4.300443) teeth (3.608471) exam (3.517674) groomer (3.437606) tint (3.321286) cat (3.268556) skate (3.228469) 
cigar (4.167290) target (4.057448) roof (3.950764) donut (3.708990) shoot (3.526008) german (3.495330) gun (3.493066) costco (3.327565) jewelri (3.303260) bosa (3.293665) 
Error (train/valid/test) = 1.116700/1.444598/1.434469 (0.008419)
..................................................
energy after gradient step = 1093656503.085317
....
Top words for each topic:
cupcak (4.973482) bagel (4.751805) airport (4.725296) termin (4.548389) frost (4.212741) flight (4.188745) harbor (3.903704) sky (3.777763) bird (3.643314) walmart (3.517079) 
hair (4.475866) pierc (4.122294) haircut (4.051351) dog (3.578399) stylist (3.475755) culver (3.400023) tattoo (3.385012) barber (3.304544) makeup (3.288312) anim (3.276948) 
trail (5.092725) hike (4.918318) theater (4.834511) movi (4.545851) harkin (4.247948) theatr (4.229336) popcorn (4.177659) crossfit (4.176474) barista (4.039179) museum (4.016546) 
korean (4.121064) vig (3.920819) guitar (3.606204) boba (3.592990) kimchi (3.153324) crepe (3.030663) jamba (3.012528) lee (2.992912) smoothi (2.935613) jade (2.913489) 
nail (4.761374) salon (4.348307) pedicur (4.185383) car (4.053732) repair (4.018150) gel (3.888787) appoint (3.861548) manicur (3.859128) gym (3.832274) spa (3.796221) 
danc (3.520843) dj (3.422605) band (3.412171) game (3.391740) venu (3.250003) jimmi (3.179631) stage (3.177998) drunk (3.124548) concert (3.087417) beer (3.068800) 
taco (4.285443) rice (4.064262) mexican (4.044760) salsa (4.021628) burrito (3.810195) chicken (3.769507) sushi (3.753071) thai (3.621019) beef (3.574230) gyro (3.521773) 
pizza (5.489959) crust (4.131571) salad (3.828688) italian (3.783597) wine (3.729991) bianco (3.708678) pasta (3.632391) chees (3.520516) bread (3.415820) pizzeria (3.365073) 
dr (4.629502) dentist (4.614406) vet (4.462403) dental (4.386837) teeth (3.755606) exam (3.619532) groomer (3.608785) cat (3.430033) tint (3.427547) doctor (3.319526) 
cigar (4.343646) target (4.292795) donut (4.078626) roof (4.044878) gun (3.743711) shoot (3.644013) costco (3.631112) german (3.587431) bosa (3.585254) jewelri (3.548749) 
Error (train/valid/test) = 1.112684/1.444152/1.433918 (0.008427)
..................................................
energy after gradient step = 1084072562.564006
....
Top words for each topic:
cupcak (5.183049) bagel (4.992697) airport (4.985165) termin (4.716751) flight (4.410594) frost (4.379707) harbor (4.014683) sky (3.939493) airlin (3.687902) walmart (3.685263) 
hair (4.700668) haircut (4.277707) pierc (4.142791) stylist (3.922906) dog (3.805175) barber (3.558053) makeup (3.519901) tattoo (3.495957) culver (3.490028) anim (3.385491) 
trail (5.222793) hike (5.047481) theater (5.002810) movi (4.694261) harkin (4.371466) theatr (4.361572) popcorn (4.289338) crossfit (4.251076) barista (4.205738) museum (4.197261) 
korean (4.266769) vig (4.070361) boba (3.793562) guitar (3.711801) kimchi (3.250390) lee (3.212729) smoothi (3.199645) jamba (3.174436) crepe (3.096397) jade (2.949977) 
nail (4.813679) salon (4.393426) pedicur (4.252130) repair (4.101942) car (4.065281) gel (3.934264) manicur (3.915666) appoint (3.902076) gym (3.901264) spa (3.869226) 
danc (3.757274) game (3.690826) band (3.595610) dj (3.581774) venu (3.439650) beer (3.424453) stage (3.357064) drunk (3.271132) jimmi (3.254428) bouncer (3.238469) 
taco (4.398545) rice (4.189499) mexican (4.141568) salsa (4.118291) chicken (3.946091) sushi (3.904723) burrito (3.896086) thai (3.731758) beef (3.700794) bean (3.649874) 
pizza (5.566009) crust (4.191047) salad (3.965358) italian (3.854787) wine (3.832446) bianco (3.742363) pasta (3.729037) chees (3.652898) bread (3.541480) pizzeria (3.397273) 
dr (4.851305) dentist (4.724305) vet (4.549521) dental (4.435462) teeth (3.826357) exam (3.696818) groomer (3.645774) doctor (3.571661) cat (3.533781) tint (3.514477) 
cigar (4.485436) target (4.421551) donut (4.401075) roof (4.137160) gun (3.964418) costco (3.885231) bosa (3.819667) german (3.813173) shoot (3.796316) jewelri (3.733708) 
Error (train/valid/test) = 1.108996/1.443783/1.433465 (0.008431)
..................................................
energy after gradient step = 1075661141.342223
....
Top words for each topic:
cupcak (5.403222) bagel (5.265001) airport (5.236683) termin (4.858776) flight (4.592695) frost (4.555488) harbor (4.240387) airlin (4.192875) sky (4.107857) airway (3.914878) 
hair (4.895384) haircut (4.465912) stylist (4.261750) pierc (4.239697) dog (4.035763) barber (3.790554) makeup (3.707114) tattoo (3.649499) culver (3.574858) anim (3.468831) 
trail (5.337619) theater (5.189930) hike (5.154231) movi (4.825736) theatr (4.512623) harkin (4.508450) crossfit (4.422982) popcorn (4.405826) barista (4.372618) museum (4.353102) 
korean (4.376150) vig (4.202794) boba (3.964005) guitar (3.795429) smoothi (3.479803) lee (3.412889) jamba (3.362217) kimchi (3.361981) crepe (3.352419) hookah (3.080393) 
nail (4.891898) salon (4.400849) pedicur (4.330779) repair (4.205873) car (4.061615) gel (4.003493) gym (3.985610) manicur (3.983569) massag (3.948436) spa (3.946905) 
danc (3.980277) game (3.926381) band (3.799866) dj (3.707908) beer (3.706236) venu (3.611531) bar (3.575548) bartend (3.456807) stage (3.453150) concert (3.424996) 
taco (4.503058) rice (4.309688) mexican (4.221178) salsa (4.197776) chicken (4.109465) sushi (4.083296) burrito (3.990416) thai (3.846968) beef (3.839410) bean (3.767930) 
pizza (5.658876) crust (4.265305) salad (4.094496) wine (3.957789) italian (3.936164) pasta (3.827353) chees (3.789550) bianco (3.783085) bread (3.675863) slice (3.478960) 
dr (5.045095) dentist (4.839441) vet (4.641534) dental (4.508394) teeth (3.916737) exam (3.800361) doctor (3.768981) groomer (3.729592) offic (3.684281) cat (3.648082) 
donut (4.718381) cigar (4.671027) target (4.603266) roof (4.227418) gun (4.126638) costco (4.077342) bosa (4.045617) german (3.972298) nordstrom (3.903809) jewelri (3.885456) 
Error (train/valid/test) = 1.104020/1.443404/1.432845 (0.008435)
..................................................
energy after gradient step = 1068340211.771798
....
Top words for each topic:
cupcak (5.569520) bagel (5.439985) airport (5.423873) termin (4.982559) flight (4.747689) frost (4.700193) airlin (4.459298) harbor (4.303417) sky (4.218829) walmart (4.078190) 
hair (5.055420) haircut (4.610371) stylist (4.538597) pierc (4.265019) dog (4.175393) barber (3.937268) makeup (3.774520) tattoo (3.725431) culver (3.620543) cut (3.578875) 
trail (5.436368) theater (5.322931) hike (5.260985) movi (4.926952) theatr (4.606764) harkin (4.585014) barista (4.502454) popcorn (4.497327) crossfit (4.495727) museum (4.486438) 
korean (4.494650) vig (4.323165) boba (4.143728) guitar (3.966266) smoothi (3.727968) lee (3.575748) jamba (3.527041) kimchi (3.484390) crepe (3.436105) hookah (3.267802) 
nail (4.947629) pedicur (4.398914) salon (4.374678) repair (4.290458) gel (4.061944) massag (4.060678) car (4.052555) manicur (4.051228) gym (4.039518) spa (4.024045) 
danc (4.174445) game (4.101117) band (3.947232) beer (3.932822) bar (3.891455) dj (3.843755) bartend (3.778520) venu (3.756538) tvs (3.573951) stage (3.571589) 
taco (4.587312) rice (4.383631) mexican (4.290911) salsa (4.280954) chicken (4.228244) sushi (4.199496) burrito (4.059301) thai (3.941060) beef (3.936469) food (3.868616) 
pizza (5.729993) crust (4.334975) salad (4.218580) wine (4.033736) italian (4.012722) pasta (3.920508) chees (3.900374) bianco (3.825423) bread (3.779351) pie (3.564266) 
dr (5.191250) dentist (4.893104) vet (4.687062) dental (4.527565) doctor (3.967248) teeth (3.917729) exam (3.830650) offic (3.815605) groomer (3.738379) cat (3.711120) 
donut (4.991847) cigar (4.768268) target (4.730586) gun (4.290297) costco (4.267645) bosa (4.208376) roof (4.208152) jewelri (4.074332) nordstrom (4.050488) german (4.033135) 
Error (train/valid/test) = 1.099831/1.443052/1.432317 (0.008439)
..................................................
energy after gradient step = 1062092941.146352
....
Top words for each topic:
cupcak (5.717791) bagel (5.586530) airport (5.566393) termin (5.095914) flight (4.868135) frost (4.801958) airlin (4.611839) harbor (4.442579) sky (4.379692) walmart (4.212770) 
hair (5.236055) stylist (4.726862) haircut (4.714236) pierc (4.346078) dog (4.295825) barber (4.070451) makeup (3.881473) tattoo (3.809614) zoo (3.753590) salon (3.733739) 
trail (5.522171) theater (5.450161) hike (5.331824) movi (5.004503) theatr (4.718988) harkin (4.704063) barista (4.624693) museum (4.604158) popcorn (4.578787) crossfit (4.577863) 
korean (4.601069) vig (4.426651) boba (4.299119) guitar (4.055488) smoothi (3.961487) lee (3.724332) jamba (3.639616) crepe (3.611698) kimchi (3.552652) hookah (3.416230) 
nail (4.990337) pedicur (4.467679) repair (4.358324) salon (4.295369) massag (4.152928) gel (4.121079) manicur (4.105314) gym (4.093347) spa (4.090477) car (4.012134) 
danc (4.312939) game (4.258223) beer (4.185330) bar (4.136243) band (4.068355) bartend (4.055835) dj (3.938122) venu (3.849329) sport (3.715138) tvs (3.706472) 
taco (4.656993) rice (4.472203) mexican (4.359949) salsa (4.338499) chicken (4.338118) sushi (4.308777) burrito (4.116328) thai (4.021472) beef (4.015823) food (3.986007) 
pizza (5.828998) crust (4.418111) salad (4.317843) wine (4.128313) italian (4.093025) pasta (4.015359) chees (3.984799) bread (3.883548) bianco (3.874089) menu (3.663774) 
dr (5.300769) dentist (4.938833) vet (4.743748) dental (4.564204) doctor (4.154806) teeth (3.965367) offic (3.927025) exam (3.897331) medic (3.838677) groomer (3.808995) 
donut (5.195305) cigar (4.874998) target (4.830032) costco (4.399211) gun (4.395765) bosa (4.341436) cloth (4.212228) jewelri (4.198574) nordstrom (4.191650) roof (4.165528) 
Error (train/valid/test) = 1.095434/1.442712/1.431808 (0.008444)
..................................................
energy after gradient step = 1056058819.873098
....
Top words for each topic:
cupcak (5.839034) bagel (5.708590) airport (5.688193) termin (5.171676) flight (4.972954) frost (4.920752) airlin (4.749551) harbor (4.568513) sky (4.434356) walmart (4.297793) 
hair (5.426168) stylist (4.888256) haircut (4.804312) dog (4.397618) pierc (4.347699) barber (4.183278) salon (4.116041) makeup (3.936816) tattoo (3.889223) zoo (3.828961) 
trail (5.616718) theater (5.558246) hike (5.410481) movi (5.058694) theatr (4.817803) harkin (4.762387) barista (4.737633) coffe (4.705386) museum (4.687966) exhibit (4.686938) 
korean (4.691089) vig (4.577235) boba (4.463195) smoothi (4.141724) guitar (4.130606) lee (3.884170) crepe (3.807008) jamba (3.748274) kimchi (3.662518) hookah (3.588148) 
nail (5.026226) pedicur (4.520096) repair (4.428770) massag (4.237185) salon (4.201244) gel (4.173042) spa (4.148224) manicur (4.143459) gym (4.139074) car (3.968912) 
danc (4.402500) game (4.395840) beer (4.391611) bar (4.362239) bartend (4.221306) band (4.154370) dj (4.015047) venu (3.914276) sport (3.832111) tvs (3.797823) 
taco (4.707810) rice (4.533667) chicken (4.434922) mexican (4.411972) salsa (4.389342) sushi (4.386120) burrito (4.156499) beef (4.091334) food (4.080606) thai (4.073331) 
pizza (5.893619) crust (4.491587) salad (4.398646) wine (4.209511) italian (4.171026) pasta (4.104785) chees (4.058711) bread (3.991425) bianco (3.924957) menu (3.754676) 
dr (5.370189) dentist (4.963876) vet (4.766702) dental (4.575838) doctor (4.334807) offic (4.000648) teeth (3.957567) exam (3.927991) medic (3.926934) cat (3.887898) 
donut (5.338863) cigar (4.990541) target (4.949188) gun (4.528045) costco (4.470978) bosa (4.452921) store (4.427186) cloth (4.367757) nordstrom (4.321890) jewelri (4.302319) 
Error (train/valid/test) = 1.091417/1.442302/1.431413 (0.008448)
..................................................
energy after gradient step = 1051284787.581863
....
Top words for each topic:
cupcak (5.933406) bagel (5.813721) airport (5.773099) termin (5.244458) flight (5.033530) frost (5.022842) airlin (4.800544) harbor (4.602165) sky (4.524268) walmart (4.429054) 
hair (5.547045) stylist (4.998468) haircut (4.877253) dog (4.500292) pierc (4.404026) salon (4.349236) barber (4.271483) makeup (4.008549) zoo (3.926179) tattoo (3.911526) 
trail (5.690010) theater (5.638437) hike (5.471435) movi (5.087494) theatr (4.884270) harkin (4.862784) barista (4.807500) coffe (4.790942) museum (4.784704) exhibit (4.748792) 
korean (4.800651) vig (4.636777) boba (4.600085) smoothi (4.310145) guitar (4.216765) crepe (4.052537) lee (4.008609) jamba (3.842692) kimchi (3.764597) hookah (3.737914) 
nail (5.062874) pedicur (4.570380) repair (4.480992) massag (4.304121) gel (4.204491) spa (4.200656) manicur (4.188094) gym (4.174032) salon (4.147693) instal (4.005123) 
beer (4.591625) bar (4.515666) danc (4.479785) game (4.458998) bartend (4.341352) band (4.217097) dj (4.067696) venu (3.938931) sport (3.923609) tvs (3.885045) 
taco (4.754463) rice (4.591328) chicken (4.498469) mexican (4.456521) sushi (4.454073) salsa (4.432840) burrito (4.198176) food (4.143072) beef (4.140975) thai (4.127351) 
pizza (5.967171) crust (4.554972) salad (4.466138) wine (4.282467) italian (4.242562) pasta (4.180658) chees (4.118557) bread (4.067544) bianco (3.973206) menu (3.834882) 
dr (5.429386) dentist (4.979967) vet (4.786083) dental (4.580873) doctor (4.486583) offic (4.065499) teeth (3.992916) medic (3.975950) exam (3.949705) cat (3.912943) 
donut (5.453767) cigar (5.020391) target (4.998122) store (4.698002) gun (4.564557) costco (4.556807) bosa (4.546772) cloth (4.522989) shoe (4.427557) jewelri (4.395811) 
Error (train/valid/test) = 1.087601/1.441962/1.430941 (0.008452)
..................................................
energy after gradient step = 1047231792.076615
....
Top words for each topic:
cupcak (6.015626) bagel (5.898137) airport (5.853996) termin (5.304154) flight (5.085343) frost (5.077886) airlin (4.876840) harbor (4.698203) sky (4.560596) walmart (4.531081) 
hair (5.621450) stylist (5.081224) haircut (4.941653) dog (4.574295) salon (4.560964) pierc (4.391143) barber (4.340261) makeup (4.048327) zoo (3.965263) tattoo (3.956930) 
trail (5.763223) theater (5.730615) hike (5.533203) movi (5.118631) theatr (4.962970) harkin (4.916170) barista (4.912816) coffe (4.865974) exhibit (4.846456) museum (4.844523) 
korean (4.851102) vig (4.738619) boba (4.721225) smoothi (4.450889) guitar (4.317985) crepe (4.190597) lee (4.090220) jamba (3.936007) hookah (3.849500) kimchi (3.820615) 
nail (5.094391) pedicur (4.615103) repair (4.531725) massag (4.371626) spa (4.248663) gel (4.244566) manicur (4.225883) gym (4.207719) salon (4.089317) instal (4.056596) 
beer (4.786093) bar (4.622390) danc (4.521571) game (4.501886) bartend (4.436550) band (4.250268) dj (4.104660) sport (3.977311) venu (3.967704) tvs (3.951576) 
taco (4.796802) rice (4.642818) chicken (4.553369) sushi (4.518961) mexican (4.497504) salsa (4.473273) burrito (4.233219) beef (4.195261) food (4.194033) thai (4.174735) 
pizza (6.024408) crust (4.616560) salad (4.533004) wine (4.335268) italian (4.306186) pasta (4.258049) chees (4.179546) bread (4.145068) bianco (4.012280) menu (3.908171) 
dr (5.458432) dentist (4.982916) vet (4.795042) doctor (4.614216) dental (4.590245) offic (4.122556) medic (4.010221) exam (3.980268) teeth (3.969952) cat (3.941728) 
donut (5.540242) cigar (5.074730) target (5.047025) store (4.915608) cloth (4.637549) gun (4.615082) bosa (4.601619) shoe (4.587683) costco (4.576554) jewelri (4.461461) 
Error (train/valid/test) = 1.083991/1.441897/1.430650 (0.008456)
..................................................
energy after gradient step = 1044159134.080758
....
Top words for each topic:
cupcak (6.088042) bagel (5.972838) airport (5.913355) termin (5.334806) frost (5.143852) flight (5.108892) airlin (4.923028) harbor (4.737783) walmart (4.582098) sky (4.576663) 
hair (5.691057) stylist (5.138075) haircut (4.989608) salon (4.734869) dog (4.625787) pierc (4.435160) barber (4.398700) makeup (4.075937) zoo (4.009449) tattoo (3.994453) 
trail (5.824414) theater (5.806032) hike (5.561978) movi (5.105341) theatr (5.024320) harkin (4.974882) barista (4.963054) museum (4.921906) coffe (4.916903) exhibit (4.901623) 
korean (4.924757) boba (4.809498) vig (4.775870) smoothi (4.564152) guitar (4.350177) crepe (4.322030) lee (4.200388) jamba (4.017621) hookah (3.946068) kimchi (3.834077) 
nail (5.125997) pedicur (4.653412) repair (4.580024) massag (4.425071) spa (4.285456) gel (4.273947) manicur (4.262275) gym (4.234643) instal (4.098886) pedi (4.046714) 
beer (4.913289) bar (4.696424) danc (4.547118) bartend (4.524556) game (4.517797) band (4.267970) dj (4.139000) sport (4.000761) tvs (3.986120) wing (3.974917) 
taco (4.833031) rice (4.693704) chicken (4.599241) sushi (4.576568) mexican (4.536521) salsa (4.512951) burrito (4.270242) beef (4.237809) food (4.232542) thai (4.215646) 
pizza (6.075989) crust (4.677847) salad (4.592602) wine (4.388237) italian (4.359314) pasta (4.326642) chees (4.224483) bread (4.210604) bianco (4.051926) menu (3.966779) 
dr (5.488499) dentist (4.991716) vet (4.799021) doctor (4.700740) dental (4.592333) offic (4.174501) medic (4.068703) exam (3.988253) teeth (3.959315) cat (3.951765) 
donut (5.602206) cigar (5.082466) target (5.074377) store (5.069372) shoe (4.731268) cloth (4.721171) gun (4.636488) bosa (4.636023) costco (4.587056) jewelri (4.547748) 
Error (train/valid/test) = 1.080584/1.441738/1.430454 (0.008461)
..................................................
energy after gradient step = 1041455384.776044
....
Top words for each topic:
cupcak (6.149270) bagel (6.038039) airport (5.971401) termin (5.395359) frost (5.198210) flight (5.126246) airlin (4.972465) harbor (4.800309) walmart (4.666778) sky (4.637849) 
hair (5.739340) stylist (5.190278) haircut (5.036787) salon (4.903199) dog (4.681873) barber (4.470612) pierc (4.461707) makeup (4.133889) tattoo (4.038882) zoo (4.010814) 
trail (5.881243) theater (5.870206) hike (5.608807) movi (5.079555) theatr (5.079038) barista (5.052454) harkin (5.044578) exhibit (4.985179) museum (4.979267) coffe (4.964349) 
korean (4.995036) boba (4.909038) vig (4.863176) smoothi (4.674218) crepe (4.501765) guitar (4.400921) lee (4.275905) jamba (4.075064) hookah (4.061881) kimchi (3.903706) 
nail (5.146002) pedicur (4.693496) repair (4.622155) massag (4.478157) spa (4.323300) gel (4.307019) manicur (4.296455) gym (4.266446) instal (4.139536) pedi (4.077740) 
beer (5.024073) bar (4.744996) bartend (4.575761) danc (4.572693) game (4.504521) band (4.284088) dj (4.151127) wing (4.098591) tvs (4.031268) sport (4.026360) 
taco (4.877311) rice (4.742457) chicken (4.646361) sushi (4.634459) mexican (4.574232) salsa (4.550920) burrito (4.311419) beef (4.281476) thai (4.261779) food (4.261544) 
pizza (6.147703) crust (4.734465) salad (4.634067) wine (4.434077) italian (4.421864) pasta (4.391966) bread (4.277224) chees (4.265909) bianco (4.099955) sandwich (4.026501) 
dr (5.514366) dentist (4.988775) vet (4.807947) doctor (4.756114) dental (4.586709) offic (4.211905) medic (4.100152) exam (3.994883) cat (3.974191) teeth (3.938983) 
donut (5.639681) store (5.179314) cigar (5.124192) target (5.065603) shoe (4.814647) cloth (4.756222) bosa (4.685629) gun (4.656784) costco (4.602574) jewelri (4.550951) 
Error (train/valid/test) = 1.077045/1.441642/1.430213 (0.008465)
..................................................
energy after gradient step = 1039674915.356577
....
Top words for each topic:
cupcak (6.194999) bagel (6.086771) airport (6.008508) termin (5.400951) frost (5.225462) flight (5.129895) airlin (5.019258) harbor (4.841988) walmart (4.717022) breakfast (4.674841) 
hair (5.784394) stylist (5.239522) haircut (5.079054) salon (5.035638) dog (4.721893) barber (4.507827) pierc (4.482147) makeup (4.128307) zoo (4.065163) tattoo (4.055465) 
theater (5.929862) trail (5.917372) hike (5.631748) theatr (5.126994) barista (5.104934) harkin (5.087387) movi (5.066509) museum (5.031863) exhibit (5.030935) stadium (4.992728) 
korean (5.050808) boba (4.987178) vig (4.890884) smoothi (4.753423) crepe (4.573982) guitar (4.437221) lee (4.324557) hookah (4.137866) jamba (4.125691) kimchi (3.937959) 
nail (5.155048) pedicur (4.725855) repair (4.659091) massag (4.518325) spa (4.360994) gel (4.327571) manicur (4.322819) gym (4.286257) instal (4.169046) pedi (4.103071) 
beer (5.093319) bar (4.794813) bartend (4.625086) danc (4.590352) game (4.481011) band (4.298408) wing (4.199673) dj (4.196034) tvs (4.041317) sport (4.032262) 
taco (4.918693) rice (4.788940) chicken (4.691119) sushi (4.684426) mexican (4.608500) salsa (4.584167) burrito (4.342772) beef (4.315286) thai (4.301378) food (4.294039) 
pizza (6.205746) crust (4.791392) salad (4.679894) italian (4.484993) wine (4.478257) pasta (4.462596) bread (4.335561) chees (4.312711) bianco (4.145288) menu (4.092363) 
dr (5.536817) dentist (4.994345) vet (4.815837) doctor (4.798495) dental (4.587422) offic (4.225925) medic (4.111741) exam (4.014763) cat (3.998652) teeth (3.941178) 
donut (5.669218) store (5.268474) cigar (5.106637) target (5.046548) shoe (4.857391) cloth (4.787600) bosa (4.708323) gun (4.666323) costco (4.590576) jewelri (4.589945) 
Error (train/valid/test) = 1.073516/1.441411/1.430016 (0.008470)
..................................................
energy after gradient step = 1037684307.575738
....
Top words for each topic:
cupcak (6.239382) bagel (6.139562) airport (6.051369) termin (5.419747) frost (5.269426) flight (5.139507) airlin (5.031193) harbor (4.866825) breakfast (4.837441) walmart (4.748506) 
hair (5.817313) stylist (5.284059) salon (5.165155) haircut (5.125864) dog (4.760408) barber (4.564793) pierc (4.492383) makeup (4.195891) tattoo (4.087016) zoo (4.074327) 
theater (5.986135) trail (5.957829) hike (5.646687) theatr (5.184140) barista (5.159598) harkin (5.130288) museum (5.096919) exhibit (5.077151) movi (5.044988) stadium (5.017446) 
korean (5.075606) boba (5.050582) vig (4.936314) smoothi (4.815514) crepe (4.670450) guitar (4.453097) lee (4.375268) hookah (4.202937) jamba (4.165284) kimchi (4.001183) 
nail (5.175762) pedicur (4.760242) repair (4.689241) massag (4.549439) spa (4.393115) gel (4.357165) manicur (4.348481) gym (4.304745) instal (4.199821) pedi (4.136586) 
beer (5.162007) bar (4.831794) bartend (4.691800) danc (4.608114) game (4.461124) wing (4.309478) band (4.301145) dj (4.212694) sport (4.046371) tvs (4.041743) 
taco (4.953195) rice (4.821754) chicken (4.729950) sushi (4.728762) mexican (4.635243) salsa (4.612816) burrito (4.367440) beef (4.349521) thai (4.339127) food (4.310296) 
pizza (6.258752) crust (4.839348) salad (4.721424) italian (4.529723) wine (4.509799) pasta (4.508020) bread (4.379515) chees (4.349827) bianco (4.178204) menu (4.154156) 
dr (5.560935) dentist (4.998260) doctor (4.823490) vet (4.821642) dental (4.592088) offic (4.238486) medic (4.133388) exam (4.029333) cat (4.025191) teeth (3.924482) 
donut (5.688818) store (5.326992) cigar (5.129009) target (5.070624) shoe (4.889084) cloth (4.804787) bosa (4.720239) jewelri (4.659519) gun (4.655834) costco (4.604697) 
Error (train/valid/test) = 1.070383/1.441349/1.429687 (0.008473)
..................................................
energy after gradient step = 1035589394.551956
....
Top words for each topic:
cupcak (6.281718) bagel (6.183091) airport (6.079051) termin (5.458680) frost (5.296720) flight (5.153992) airlin (5.077195) breakfast (4.996982) harbor (4.899786) walmart (4.774795) 
hair (5.856302) stylist (5.327148) salon (5.266732) haircut (5.170271) dog (4.793339) barber (4.609019) pierc (4.521129) makeup (4.181684) tattoo (4.110925) zoo (4.088997) 
theater (6.035473) trail (5.995253) hike (5.672764) theatr (5.214233) barista (5.208439) harkin (5.169495) museum (5.138758) exhibit (5.124390) stadium (5.064146) movi (5.031169) 
korean (5.139966) boba (5.107560) vig (4.962193) smoothi (4.871356) crepe (4.760981) guitar (4.486200) lee (4.428321) hookah (4.284183) jamba (4.204522) kimchi (4.026932) 
nail (5.184984) pedicur (4.787799) repair (4.722055) massag (4.581719) spa (4.423303) manicur (4.371757) gel (4.369394) gym (4.324131) instal (4.224733) pedi (4.155118) 
beer (5.212159) bar (4.859252) bartend (4.723242) danc (4.615062) game (4.426783) wing (4.390803) band (4.304356) dj (4.229295) tvs (4.050753) sport (4.028805) 
taco (4.989007) rice (4.857297) sushi (4.768265) chicken (4.764960) mexican (4.663630) salsa (4.643487) burrito (4.396276) beef (4.387751) thai (4.374345) fri (4.319837) 
pizza (6.305189) crust (4.882891) salad (4.762928) italian (4.574474) pasta (4.563473) wine (4.537637) bread (4.408606) chees (4.377772) bianco (4.213684) menu (4.199331) 
dr (5.585849) dentist (5.013597) doctor (4.852711) vet (4.840166) dental (4.604374) offic (4.273790) medic (4.155898) cat (4.040827) exam (4.036876) teeth (3.974534) 
donut (5.700151) store (5.370128) cigar (5.102351) target (5.043177) shoe (4.900607) cloth (4.793170) bosa (4.737236) gun (4.655537) jewelri (4.649235) nordstrom (4.603823) 
Error (train/valid/test) = 1.067174/1.441259/1.429610 (0.008478)
..................................................
energy after gradient step = 1033876303.968718
....
Top words for each topic:
cupcak (6.318917) bagel (6.217379) airport (6.100440) termin (5.451331) frost (5.309573) flight (5.158249) breakfast (5.127303) airlin (5.089318) harbor (4.907119) bakeri (4.815136) 
hair (5.889776) stylist (5.363638) salon (5.362873) haircut (5.201953) dog (4.807735) barber (4.642268) pierc (4.541160) makeup (4.249164) zoo (4.115254) tattoo (4.110844) 
theater (6.070767) trail (6.029950) hike (5.680195) barista (5.257485) theatr (5.255143) harkin (5.203294) museum (5.174504) exhibit (5.160713) stadium (5.107712) movi (5.031120) 
boba (5.157824) korean (5.144196) vig (4.978402) smoothi (4.908854) crepe (4.774449) guitar (4.504319) lee (4.459574) hookah (4.311315) jamba (4.218019) juic (4.051774) 
nail (5.192488) pedicur (4.809475) repair (4.745790) massag (4.612383) spa (4.444405) manicur (4.390490) gel (4.386569) gym (4.335754) instal (4.251112) pedi (4.170928) 
beer (5.242871) bar (4.881634) bartend (4.740605) danc (4.621234) wing (4.461080) game (4.392806) band (4.292623) dj (4.245738) pub (4.106330) breweri (4.065803) 
taco (5.019596) rice (4.889826) sushi (4.806453) chicken (4.793052) mexican (4.684723) salsa (4.669591) burrito (4.420362) beef (4.411509) thai (4.404844) fri (4.349141) 
pizza (6.343877) crust (4.922833) salad (4.802334) italian (4.612174) pasta (4.599288) wine (4.560222) bread (4.449467) chees (4.412806) bianco (4.241596) menu (4.231544) 
dr (5.600170) dentist (5.020510) doctor (4.875535) vet (4.849709) dental (4.602511) offic (4.287805) medic (4.181146) exam (4.058585) cat (4.049580) clinic (3.952543) 
donut (5.697568) store (5.393221) cigar (5.101911) target (5.042534) shoe (4.899702) cloth (4.790916) bosa (4.751517) jewelri (4.703946) gun (4.653103) nordstrom (4.615060) 
Error (train/valid/test) = 1.064316/1.441218/1.429459 (0.008481)
..................................................
energy after gradient step = 1032480857.464331
....
Top words for each topic:
cupcak (6.348413) bagel (6.246681) airport (6.114205) termin (5.473241) frost (5.329895) breakfast (5.244384) flight (5.166063) airlin (5.110267) harbor (4.912800) bakeri (4.887600) 
hair (5.920791) salon (5.474013) stylist (5.401045) haircut (5.246359) dog (4.831907) barber (4.684709) pierc (4.565846) makeup (4.255060) tattoo (4.169036) zoo (4.119841) 
theater (6.114026) trail (6.066129) hike (5.691145) barista (5.299634) theatr (5.294462) harkin (5.249340) museum (5.210670) exhibit (5.204845) stadium (5.129838) crossfit (5.029575) 
boba (5.200479) korean (5.176215) vig (4.998059) smoothi (4.963608) crepe (4.820802) guitar (4.521885) lee (4.488060) hookah (4.356174) jamba (4.241237) juic (4.081727) 
nail (5.198260) pedicur (4.828724) repair (4.775261) massag (4.629108) spa (4.465616) manicur (4.409535) gel (4.401474) gym (4.347316) instal (4.276024) pedi (4.191492) 
beer (5.264828) bar (4.902403) bartend (4.780564) danc (4.627949) wing (4.532638) game (4.355120) band (4.294393) dj (4.272882) pub (4.150255) breweri (4.062953) 
taco (5.050422) rice (4.927610) sushi (4.846636) chicken (4.824138) mexican (4.714045) salsa (4.702486) burrito (4.446855) beef (4.438795) thai (4.438204) fri (4.376328) 
pizza (6.384105) crust (4.961128) salad (4.842054) pasta (4.651150) italian (4.648536) wine (4.571855) bread (4.488715) chees (4.448670) menu (4.278934) bianco (4.270818) 
dr (5.625915) dentist (5.036295) doctor (4.903736) vet (4.861646) dental (4.620848) offic (4.284178) medic (4.185372) cat (4.084679) exam (4.076107) clinic (3.977669) 
donut (5.707218) store (5.443009) cigar (5.106332) target (5.028567) shoe (4.899324) cloth (4.767672) bosa (4.764028) jewelri (4.681685) nordstrom (4.638434) gun (4.637240) 
Error (train/valid/test) = 1.061171/1.441094/1.429297 (0.008485)
..................................................
energy after gradient step = 1031365646.721290
....
Top words for each topic:
cupcak (6.369741) bagel (6.273652) airport (6.117567) termin (5.465987) breakfast (5.360038) frost (5.334064) flight (5.150220) airlin (5.109230) coffe (4.961078) harbor (4.957173) 
hair (5.950974) salon (5.564690) stylist (5.436068) haircut (5.280399) dog (4.859709) barber (4.723327) pierc (4.560713) makeup (4.281208) tattoo (4.144997) zoo (4.116606) 
theater (6.152544) trail (6.092557) hike (5.703945) barista (5.344477) theatr (5.323089) harkin (5.277857) museum (5.252732) exhibit (5.248339) stadium (5.167775) crossfit (5.050994) 
boba (5.232698) korean (5.176409) vig (5.016346) smoothi (4.986675) crepe (4.836266) lee (4.527419) guitar (4.523159) hookah (4.393115) jamba (4.253110) juic (4.100786) 
nail (5.201084) pedicur (4.849030) repair (4.801215) massag (4.643890) spa (4.483807) manicur (4.419160) gel (4.419118) gym (4.363075) instal (4.293740) pedi (4.204074) 
beer (5.278705) bar (4.913359) bartend (4.805465) danc (4.631528) wing (4.585353) game (4.300965) band (4.295995) dj (4.294887) pub (4.212454) breweri (4.092202) 
taco (5.083183) rice (4.962088) sushi (4.884304) chicken (4.855123) mexican (4.743635) salsa (4.731588) burrito (4.478206) thai (4.471778) beef (4.467666) fri (4.403811) 
pizza (6.418068) crust (4.996928) salad (4.881612) italian (4.685331) pasta (4.684503) wine (4.580702) bread (4.516047) chees (4.466939) menu (4.309595) bianco (4.291263) 
dr (5.648410) dentist (5.045795) doctor (4.926292) vet (4.880893) dental (4.627090) offic (4.311607) medic (4.214232) cat (4.100634) exam (4.094069) clinic (3.984464) 
donut (5.712826) store (5.453253) cigar (5.082145) target (5.031296) shoe (4.873044) bosa (4.774562) cloth (4.753960) jewelri (4.707212) sale (4.643620) nordstrom (4.641693) 
Error (train/valid/test) = 1.058128/1.440971/1.429244 (0.008489)
..................................................
energy after gradient step = 1030304393.489368
....
Top words for each topic:
cupcak (6.384909) bagel (6.290365) airport (6.125658) termin (5.467402) breakfast (5.438360) frost (5.344650) flight (5.131674) airlin (5.105541) coffe (5.018704) bakeri (4.970666) 
hair (5.976845) salon (5.648045) stylist (5.460157) haircut (5.307726) dog (4.875786) barber (4.746206) pierc (4.584686) makeup (4.290638) tattoo (4.189763) zoo (4.098497) 
theater (6.188009) trail (6.118705) hike (5.717715) barista (5.386235) theatr (5.371496) harkin (5.310102) museum (5.274773) exhibit (5.271899) stadium (5.198887) crossfit (5.058478) 
boba (5.256587) korean (5.185732) vig (5.014530) smoothi (5.004382) crepe (4.866535) lee (4.530067) guitar (4.525544) hookah (4.411460) jamba (4.273631) juic (4.115898) 
nail (5.206184) pedicur (4.865235) repair (4.820428) massag (4.666834) spa (4.505713) manicur (4.439181) gel (4.436195) gym (4.372586) instal (4.319369) pedi (4.227652) 
beer (5.289328) bar (4.918241) bartend (4.831395) wing (4.649488) danc (4.627916) dj (4.295940) band (4.284534) pub (4.266957) game (4.255295) irish (4.132221) 
taco (5.115137) rice (4.993000) sushi (4.915407) chicken (4.876555) mexican (4.769678) salsa (4.757377) burrito (4.508567) thai (4.500287) beef (4.495571) sauc (4.430561) 
pizza (6.445045) crust (5.028425) salad (4.918438) pasta (4.725449) italian (4.718931) wine (4.598724) bread (4.542906) chees (4.504080) menu (4.340885) bianco (4.319524) 
dr (5.670149) dentist (5.057391) doctor (4.949067) vet (4.893785) dental (4.641636) offic (4.317476) medic (4.235891) cat (4.105661) exam (4.094694) clinic (4.013121) 
donut (5.700681) store (5.452033) cigar (5.057687) target (4.987033) shoe (4.830499) bosa (4.778641) jewelri (4.725759) cloth (4.723824) sale (4.664000) nordstrom (4.643831) 
Error (train/valid/test) = 1.055265/1.440786/1.429057 (0.008491)
..................................................
energy after gradient step = 1029325843.783363
....
Top words for each topic:
cupcak (6.399335) bagel (6.305507) airport (6.130758) breakfast (5.524959) termin (5.458042) frost (5.351019) flight (5.112933) airlin (5.111138) coffe (5.107826) bakeri (5.004409) 
hair (6.004428) salon (5.719370) stylist (5.495452) haircut (5.336332) dog (4.905308) barber (4.781343) pierc (4.602335) makeup (4.313245) tattoo (4.182423) facial (4.142097) 
theater (6.225682) trail (6.151266) hike (5.727277) barista (5.413091) theatr (5.389681) harkin (5.353692) museum (5.326999) exhibit (5.306677) stadium (5.209575) crossfit (5.070767) 
boba (5.275979) korean (5.191724) smoothi (5.024051) vig (5.011169) crepe (4.905739) lee (4.558423) guitar (4.502992) hookah (4.420971) jamba (4.282586) bike (4.195516) 
nail (5.208986) pedicur (4.878570) repair (4.839734) massag (4.676942) spa (4.517657) manicur (4.454790) gel (4.445883) gym (4.373582) instal (4.332499) pedi (4.241256) 
beer (5.301468) bar (4.920699) bartend (4.868199) wing (4.685754) danc (4.623921) pub (4.318331) dj (4.311684) band (4.271942) game (4.198618) irish (4.164963) 
taco (5.141325) rice (5.021550) sushi (4.946268) chicken (4.896963) mexican (4.791972) salsa (4.783479) thai (4.533591) burrito (4.532951) beef (4.519900) sauc (4.464642) 
pizza (6.478892) crust (5.058432) salad (4.951735) pasta (4.759869) italian (4.743642) wine (4.589405) bread (4.559835) chees (4.518894) menu (4.375125) bianco (4.338200) 
dr (5.696070) dentist (5.070659) doctor (4.967788) vet (4.907928) dental (4.647551) offic (4.334832) medic (4.243271) exam (4.132424) cat (4.125654) clinic (4.022974) 
donut (5.685657) store (5.445611) cigar (5.044678) target (4.996742) shoe (4.812558) bosa (4.773537) jewelri (4.696125) cloth (4.686156) sale (4.679078) nordstrom (4.654779) 
Error (train/valid/test) = 1.052388/1.440835/1.429088 (0.008495)
..................................................
energy after gradient step = 1028485886.006809
....
Top words for each topic:
cupcak (6.411863) bagel (6.325676) airport (6.134687) breakfast (5.610582) termin (5.462177) frost (5.354264) coffe (5.186170) flight (5.115170) airlin (5.102400) bakeri (5.036467) 
hair (6.022612) salon (5.774699) stylist (5.524812) haircut (5.369256) dog (4.916995) barber (4.813594) pierc (4.602568) makeup (4.335184) tattoo (4.218254) facial (4.192964) 
theater (6.254960) trail (6.165211) hike (5.726183) barista (5.453429) theatr (5.422595) harkin (5.371250) exhibit (5.347061) museum (5.341782) stadium (5.245313) crossfit (5.111479) 
boba (5.295167) korean (5.200814) smoothi (5.046488) vig (5.018236) crepe (4.891421) lee (4.576366) guitar (4.514039) hookah (4.446956) jamba (4.278369) bike (4.252210) 
nail (5.215814) pedicur (4.893086) repair (4.858495) massag (4.681778) spa (4.534932) manicur (4.460442) gel (4.457062) gym (4.387042) instal (4.351448) pedi (4.255470) 
beer (5.306320) bar (4.911723) bartend (4.885939) wing (4.703355) danc (4.622798) pub (4.337519) dj (4.332267) band (4.269016) irish (4.185929) game (4.156568) 
taco (5.170159) rice (5.052591) sushi (4.977831) chicken (4.923102) mexican (4.815447) salsa (4.810725) burrito (4.563815) thai (4.563685) beef (4.545110) sauc (4.489618) 
pizza (6.502834) crust (5.082521) salad (4.980868) pasta (4.790980) italian (4.769295) wine (4.583208) bread (4.578111) chees (4.537293) menu (4.396178) bianco (4.355058) 
dr (5.710584) dentist (5.081754) doctor (4.984451) vet (4.918078) dental (4.652950) offic (4.329380) medic (4.251993) cat (4.148599) exam (4.131454) clinic (4.049797) 
donut (5.666560) store (5.432049) cigar (5.043845) target (4.948832) shoe (4.801982) bosa (4.773489) jewelri (4.736945) sale (4.692179) nordstrom (4.673739) cloth (4.669818) 
Error (train/valid/test) = 1.049701/1.440723/1.429019 (0.008498)
..................................................
energy after gradient step = 1027758397.354775
....
Top words for each topic:
cupcak (6.428378) bagel (6.339668) airport (6.135340) breakfast (5.686309) termin (5.454400) frost (5.352176) coffe (5.244419) airlin (5.130170) flight (5.093850) bakeri (5.062132) 
hair (6.050223) salon (5.828825) stylist (5.548152) haircut (5.397250) dog (4.922835) barber (4.839333) pierc (4.638004) wax (4.375903) makeup (4.343590) facial (4.264536) 
theater (6.281550) trail (6.194988) hike (5.726153) barista (5.475401) theatr (5.435197) harkin (5.397141) museum (5.371183) exhibit (5.365969) stadium (5.262590) crossfit (5.146525) 
boba (5.307231) korean (5.179744) smoothi (5.035888) vig (5.026128) crepe (4.920531) lee (4.581451) guitar (4.489134) hookah (4.454802) bike (4.324715) jamba (4.275485) 
nail (5.201526) pedicur (4.910196) repair (4.875150) massag (4.682219) spa (4.549467) manicur (4.479002) gel (4.466294) gym (4.396232) instal (4.366822) pedi (4.266739) 
beer (5.311653) bar (4.923008) bartend (4.905569) wing (4.712764) danc (4.623300) pub (4.371307) dj (4.344387) band (4.265648) irish (4.202041) breweri (4.164841) 
taco (5.197155) rice (5.084209) sushi (5.009514) chicken (4.940039) mexican (4.842232) salsa (4.837095) thai (4.594365) burrito (4.585459) beef (4.568470) sauc (4.514814) 
pizza (6.526126) crust (5.111159) salad (5.013782) pasta (4.816102) italian (4.790403) bread (4.592766) wine (4.581899) chees (4.554605) menu (4.417807) bianco (4.377504) 
dr (5.731212) dentist (5.087816) doctor (5.004845) vet (4.932457) dental (4.669129) offic (4.345520) medic (4.269083) cat (4.155225) exam (4.154711) clinic (4.051443) 
donut (5.644730) store (5.419552) cigar (5.019037) target (4.970270) shoe (4.788080) bosa (4.786182) jewelri (4.722958) sale (4.708461) nordstrom (4.679563) cloth (4.664857) 
Error (train/valid/test) = 1.046977/1.440603/1.429079 (0.008501)
..................................................
energy after gradient step = 1027076206.761447
....
Top words for each topic:
cupcak (6.440490) bagel (6.350207) airport (6.131289) breakfast (5.740903) termin (5.436729) frost (5.348478) coffe (5.299215) airlin (5.123429) bakeri (5.081770) flight (5.071236) 
hair (6.057475) salon (5.881825) stylist (5.571834) haircut (5.418505) dog (4.930692) barber (4.858858) pierc (4.632076) wax (4.494342) makeup (4.348614) facial (4.316312) 
theater (6.306440) trail (6.205617) hike (5.736826) barista (5.518549) theatr (5.459337) harkin (5.424584) museum (5.396728) exhibit (5.387930) stadium (5.288107) crossfit (5.174138) 
boba (5.327505) korean (5.170213) smoothi (5.063058) vig (5.014378) crepe (4.894259) lee (4.565160) guitar (4.486633) hookah (4.465618) bike (4.378789) jamba (4.276968) 
nail (5.201920) pedicur (4.923944) repair (4.893302) massag (4.682879) spa (4.567443) manicur (4.485191) gel (4.483652) gym (4.406620) instal (4.382102) pedi (4.283136) 
beer (5.319310) bartend (4.924422) bar (4.920607) wing (4.733055) danc (4.615031) pub (4.391172) dj (4.350046) band (4.257359) irish (4.215762) breweri (4.185929) 
taco (5.223704) rice (5.109068) sushi (5.040641) chicken (4.964091) mexican (4.862598) salsa (4.861159) thai (4.617657) burrito (4.605142) beef (4.587349) sauc (4.541195) 
pizza (6.547857) crust (5.132687) salad (5.040048) pasta (4.842545) italian (4.807858) bread (4.616152) chees (4.575114) wine (4.563934) menu (4.429174) bianco (4.391399) 
dr (5.751775) dentist (5.106820) doctor (5.021794) vet (4.950600) dental (4.678772) offic (4.352656) medic (4.297642) exam (4.163913) cat (4.159276) clinic (4.076463) 
donut (5.620335) store (5.393559) cigar (5.006996) target (4.934766) bosa (4.780248) shoe (4.755809) jewelri (4.725906) sale (4.718345) nordstrom (4.672135) cloth (4.634344) 
Error (train/valid/test) = 1.044334/1.440552/1.429054 (0.008505)
..................................................
energy after gradient step = 1026412541.001329
....
Top words for each topic:
cupcak (6.441430) bagel (6.351867) airport (6.117447) breakfast (5.795676) termin (5.430792) frost (5.344833) coffe (5.342634) airlin (5.113580) bakeri (5.089065) flight (5.052911) 
hair (6.069988) salon (5.927135) stylist (5.595561) haircut (5.441314) dog (4.948081) barber (4.885953) pierc (4.652297) wax (4.593503) makeup (4.371196) facial (4.348808) 
theater (6.332406) trail (6.225855) hike (5.732798) barista (5.529864) theatr (5.482881) harkin (5.447820) museum (5.415917) exhibit (5.405189) stadium (5.310117) crossfit (5.179509) 
boba (5.338500) korean (5.173322) smoothi (5.069616) vig (5.020969) crepe (4.904837) lee (4.568209) guitar (4.475925) hookah (4.461020) bike (4.435352) jamba (4.274910) 
nail (5.197363) pedicur (4.933775) repair (4.909792) massag (4.677170) spa (4.581040) manicur (4.496551) gel (4.485701) gym (4.419359) instal (4.389011) pedi (4.291069) 
beer (5.328302) bartend (4.938639) bar (4.919362) wing (4.741780) danc (4.612028) pub (4.415825) dj (4.353897) band (4.257249) irish (4.239750) breweri (4.207822) 
taco (5.250190) rice (5.134846) sushi (5.069706) chicken (4.979289) mexican (4.885011) salsa (4.883845) thai (4.643800) burrito (4.626363) beef (4.611019) sauc (4.559369) 
pizza (6.564704) crust (5.150159) salad (5.061359) pasta (4.866752) italian (4.822056) bread (4.629049) chees (4.582793) wine (4.551665) menu (4.450586) bianco (4.406606) 
dr (5.767993) dentist (5.116122) doctor (5.039485) vet (4.959128) dental (4.688751) offic (4.359072) medic (4.296771) exam (4.176348) cat (4.167193) clinic (4.078495) 
donut (5.597795) store (5.366694) cigar (4.987992) target (4.923053) bosa (4.791706) jewelri (4.771228) shoe (4.732456) sale (4.724325) nordstrom (4.683047) cloth (4.625073) 
Error (train/valid/test) = 1.041980/1.440584/1.428966 (0.008508)
..................................................
energy after gradient step = 1025782736.981307
....
Top words for each topic:
cupcak (6.449905) bagel (6.357580) airport (6.105968) breakfast (5.832109) termin (5.420179) coffe (5.380256) frost (5.347582) airlin (5.105895) bakeri (5.103827) flight (5.017510) 
hair (6.083204) salon (5.953387) stylist (5.611668) haircut (5.460851) dog (4.955089) barber (4.911557) wax (4.679512) pierc (4.659504) facial (4.395822) makeup (4.375733) 
theater (6.354252) trail (6.241080) hike (5.728095) barista (5.546037) theatr (5.505106) harkin (5.474501) exhibit (5.445746) museum (5.443382) stadium (5.329096) crossfit (5.208363) 
boba (5.350357) korean (5.169349) smoothi (5.075601) vig (5.005006) crepe (4.923341) lee (4.561615) gelato (4.505076) guitar (4.470130) hookah (4.459355) bike (4.442627) 
nail (5.193028) pedicur (4.946924) repair (4.926729) massag (4.686964) spa (4.592746) manicur (4.505350) gel (4.501053) gym (4.425430) instal (4.402207) pedi (4.296226) 
beer (5.335774) bartend (4.957727) bar (4.919231) wing (4.754607) danc (4.603254) pub (4.429980) dj (4.373388) irish (4.257361) band (4.236062) tap (4.208014) 
taco (5.273609) rice (5.160847) sushi (5.096532) chicken (4.995955) salsa (4.908079) mexican (4.906213) thai (4.668481) burrito (4.647258) beef (4.630381) sauc (4.579352) 
pizza (6.581262) crust (5.169043) salad (5.079078) pasta (4.886798) italian (4.838347) bread (4.642172) chees (4.601248) wine (4.540749) menu (4.467974) bianco (4.420319) 
dr (5.783310) dentist (5.126928) doctor (5.054278) vet (4.970313) dental (4.696180) offic (4.368441) medic (4.320860) exam (4.189929) cat (4.184750) clinic (4.112335) 
donut (5.588113) store (5.368841) cigar (4.976352) target (4.915674) bosa (4.798661) jewelri (4.757308) sale (4.721305) shoe (4.708298) nordstrom (4.705049) merchandis (4.638410) 
Error (train/valid/test) = 1.039458/1.440626/1.428941 (0.008510)
