corpus = data_phoe.gz
latentReg = 0.000000
lambda = 1.000000
K = 10
.....
nUsers = 128330, nItems = 25225, nRatings = 591192
.....
Error w/ offset term only (train/valid/test) = 1.799193/1.807475/1.798592 (0.009179)
Error w/ offset and bias (train/valid/test) = 0.955898/1.493857/1.476654 (0.009219)
....
..................................................
energy after gradient step = 308667691.697591
....
Top words for each topic:
obvious (0.184559) italian (0.175832) brunch (0.172348) despit (0.169128) tuesday (0.146506) sometim (0.145737) ton (0.140252) build (0.138552) imagin (0.124821) vehicl (0.124481) 
ridicul (0.193370) sale (0.167887) north (0.148855) stuf (0.141728) almost (0.139547) prompt (0.133608) must (0.130761) black (0.130390) refresh (0.129054) featur (0.125911) 
wors (0.185524) neighborhood (0.154154) fee (0.152085) toast (0.150115) garden (0.134337) annoy (0.126749) ya (0.122381) balanc (0.119976) natur (0.117907) pain (0.117643) 
overpr (0.169719) ball (0.164512) muffin (0.142926) crave (0.140296) mac (0.135928) funni (0.134638) hidden (0.132470) consid (0.131371) addit (0.131158) into (0.130625) 
brew (0.155577) smaller (0.137873) floor (0.137624) pull (0.132666) admit (0.124512) yesterday (0.118956) readi (0.118096) generous (0.116055) machin (0.110597) understand (0.109816) 
cart (0.141942) polit (0.131329) blown (0.126067) classic (0.121823) whatev (0.121601) goat (0.120200) grab (0.120141) air (0.119458) 9 (0.119133) touch (0.111839) 
tortilla (0.173048) worker (0.162593) pancak (0.146426) hold (0.140987) medium (0.140910) address (0.133380) speak (0.130382) tonight (0.129252) convers (0.124829) case (0.122116) 
steam (0.161140) bother (0.150898) rush (0.149706) member (0.138485) enchilada (0.136495) annoy (0.132550) roast (0.131538) strawberri (0.131117) given (0.128274) filet (0.125277) 
polit (0.149767) email (0.145060) margarita (0.141437) myself (0.133075) suck (0.130803) chair (0.128582) interior (0.126132) face (0.125550) weird (0.121654) follow (0.121405) 
buck (0.133895) airport (0.132741) met (0.132305) market (0.125917) bought (0.125762) suppos (0.123621) birthday (0.122035) frozen (0.121479) opinion (0.121112) delish (0.114550) 
Error (train/valid/test) = 1.590267/1.637769/1.630628 (0.008254)
..................................................
energy after gradient step = 307720733.468638
....
Top words for each topic:
express (0.264883) neat (0.244880) arugula (0.242037) frost (0.240110) asid (0.235462) mayo (0.233998) rep (0.233691) advertis (0.229157) hop (0.227431) burro (0.223623) 
urban (0.306230) opportun (0.293940) grit (0.286157) along (0.279909) sight (0.268089) inexpens (0.255846) jam (0.248228) massiv (0.243517) model (0.242067) rotat (0.241159) 
uncomfort (0.299017) cilantro (0.295926) squar (0.281492) appeal (0.264197) mainten (0.257466) catch (0.251492) soso (0.249417) vanilla (0.245240) los (0.244538) suffer (0.238449) 
tear (0.264837) golden (0.261011) accord (0.255092) communic (0.252796) haircut (0.246793) wasabi (0.238886) crepe (0.236810) drinker (0.231233) bucket (0.230311) crunch (0.229817) 
tuck (0.295650) broken (0.287036) bs (0.267999) baja (0.266945) male (0.262626) blow (0.250552) associ (0.248649) brother (0.248283) dump (0.246837) critic (0.245794) 
imposs (0.316743) goat (0.282451) eventu (0.265634) crepe (0.264707) fajita (0.263554) fool (0.257963) behind (0.250589) pound (0.243769) manicur (0.242264) closest (0.237204) 
weak (0.312150) reach (0.297806) gilbert (0.267635) effici (0.267402) mayo (0.267173) switch (0.259201) hearti (0.255736) float (0.241685) secret (0.239399) vs (0.234658) 
strang (0.355619) steam (0.353756) medic (0.296467) calzon (0.289583) ignor (0.283297) mustard (0.276488) frys (0.275225) ave (0.260016) highlight (0.251003) lead (0.246859) 
anniversari (0.304262) complex (0.291555) gelato (0.289778) falafel (0.279496) entertain (0.259938) wood (0.257608) ny (0.254626) theyll (0.247459) bet (0.238273) suppli (0.237382) 
howev (0.308230) delish (0.304031) blueberri (0.290434) yay (0.279132) intent (0.260949) older (0.244176) pros (0.241547) everybodi (0.236013) camelback (0.231399) asap (0.230419) 
Error (train/valid/test) = 1.394366/1.520097/1.514612 (0.008283)
..................................................
energy after gradient step = 307504333.680552
....
Top words for each topic:
spaghetti (0.395014) donat (0.367010) matt (0.362984) buyer (0.344857) hop (0.344369) pro (0.337777) frost (0.335745) plain (0.328907) asid (0.328730) machaca (0.320659) 
sight (0.489552) jam (0.421363) strike (0.400399) grit (0.380818) massiv (0.379551) surgeri (0.379201) wet (0.367296) 60 (0.363367) lit (0.361354) fuck (0.359212) 
cilantro (0.438320) comfi (0.429196) squar (0.402922) dream (0.386203) cibo (0.384358) minus (0.373838) nigiri (0.369168) social (0.345394) ya (0.337593) ultim (0.337342) 
haircut (0.408575) dealership (0.408472) tab (0.378642) shut (0.373402) crunch (0.370899) wasabi (0.360831) won (0.360359) muffin (0.354122) bum (0.344720) crepe (0.342529) 
sum (0.481148) outlet (0.397373) broken (0.396715) knot (0.390763) tuck (0.387329) trash (0.377440) associ (0.365437) iphon (0.364882) toy (0.364285) within (0.343070) 
boot (0.405268) concert (0.404072) imposs (0.390231) drove (0.375833) excus (0.363288) pound (0.358908) blown (0.358663) cactus (0.344079) goat (0.341537) contract (0.338960) 
pretzel (0.412628) hearti (0.401211) paradis (0.393140) vinaigrett (0.385688) empanada (0.362014) spaghetti (0.361445) thoma (0.359818) bc (0.351582) weak (0.351514) inspect (0.351140) 
strang (0.453537) medic (0.426587) biltmor (0.396838) spoke (0.394409) stapl (0.394256) neat (0.369516) highlight (0.367073) pipe (0.359875) engag (0.332672) thin (0.323522) 
complex (0.387851) certif (0.383240) wood (0.371869) upon (0.365510) rd (0.359969) target (0.351225) layout (0.345460) cave (0.345406) ball (0.343311) wheat (0.343081) 
older (0.407553) blueberri (0.396972) moon (0.381737) stack (0.364908) camelback (0.336427) english (0.333973) relleno (0.329404) resist (0.324779) delay (0.324345) dive (0.324081) 
Error (train/valid/test) = 1.301845/1.481487/1.474447 (0.008183)
..................................................
energy after gradient step = 307339311.594779
....
Top words for each topic:
carnita (0.422452) senior (0.420577) pan (0.414149) hop (0.411870) awar (0.409201) consider (0.388150) donat (0.386784) advis (0.377610) patti (0.372559) frost (0.369510) 
sight (0.646858) massiv (0.509855) along (0.494936) urban (0.494094) tile (0.453905) queso (0.443941) strike (0.418941) grit (0.414033) jam (0.390883) wet (0.389523) 
cilantro (0.470975) comfi (0.446573) cibo (0.437015) ale (0.424239) wateri (0.420188) dream (0.419442) cod (0.414991) mass (0.413997) squar (0.412583) suffer (0.411964) 
won (0.437272) haircut (0.427831) wasabi (0.422372) savori (0.414477) solut (0.406265) angel (0.401494) shut (0.396890) graduat (0.389333) stuck (0.389186) culinari (0.389173) 
sum (0.561124) outlet (0.466704) iphon (0.441040) trash (0.437070) clue (0.436110) toy (0.435171) tuck (0.430786) parmesan (0.424233) makeup (0.417990) associ (0.416843) 
boot (0.482884) confer (0.477143) wateri (0.467341) concert (0.453391) 7th (0.433888) award (0.417827) drove (0.409942) mussel (0.406072) imposs (0.395877) goat (0.387242) 
sigh (0.493455) bianco (0.478509) paradis (0.462864) gilbert (0.460979) materi (0.447500) hearti (0.443152) bc (0.441749) vinaigrett (0.420470) pretzel (0.414834) concoct (0.410003) 
engag (0.518611) spoke (0.495956) receipt (0.430417) stapl (0.426679) biltmor (0.423932) butt (0.414230) neat (0.414116) 150 (0.403917) medic (0.400880) incorrect (0.397818) 
instrument (0.465617) certif (0.437089) wood (0.433507) bet (0.424207) broke (0.420909) anticip (0.420289) complex (0.419638) upon (0.409643) exist (0.397463) cross (0.393554) 
blueberri (0.527840) resist (0.456009) relleno (0.438978) older (0.437998) born (0.426122) shampoo (0.405877) camelback (0.400754) oili (0.390748) award (0.386174) worthi (0.381046) 
Error (train/valid/test) = 1.234575/1.460806/1.453492 (0.008400)
..................................................
energy after gradient step = 307199125.271521
....
Top words for each topic:
carnita (0.568093) awar (0.509643) holi (0.505170) beg (0.493611) wouldv (0.475918) matt (0.464470) walmart (0.451396) manicur (0.448724) advis (0.446933) crusti (0.443975) 
along (0.602862) sight (0.577412) massiv (0.553586) lifetim (0.528835) urban (0.500257) pistachio (0.484503) nervous (0.466028) strike (0.465981) god (0.459531) happili (0.437930) 
cibo (0.604619) ale (0.588720) grimaldi (0.528053) cilantro (0.518045) hassl (0.504671) squar (0.492251) master (0.482014) cod (0.480623) pretenti (0.476568) kill (0.467416) 
angel (0.570735) mmm (0.556077) savori (0.539692) culinari (0.523064) facial (0.510219) shut (0.508331) guitar (0.498166) won (0.491791) wasabi (0.470061) argu (0.452457) 
sum (0.754545) televis (0.539235) outlet (0.528863) parmesan (0.521188) knot (0.491067) unbeliev (0.487240) moon (0.475551) unit (0.469217) garag (0.469176) pastrami (0.468769) 
confer (0.602285) wateri (0.586657) fool (0.525082) boot (0.524890) pound (0.503822) invest (0.477752) southwest (0.475747) award (0.471281) fabric (0.448098) contract (0.445074) 
santa (0.541082) sigh (0.534873) bianco (0.534299) gilbert (0.530731) tamal (0.506294) basi (0.478729) materi (0.477339) paradis (0.468318) pharmaci (0.464590) halloween (0.448158) 
thumb (0.534404) spoke (0.507268) biltmor (0.499138) engag (0.488039) hippi (0.481190) draw (0.453282) steal (0.450653) receipt (0.446111) polici (0.445408) 150 (0.444054) 
upon (0.547879) unexpect (0.538305) speed (0.516169) instrument (0.497320) broke (0.488382) encourag (0.481650) bet (0.481264) wood (0.458037) john (0.451362) bud (0.446331) 
blueberri (0.586621) shampoo (0.538037) award (0.526633) relleno (0.518895) shine (0.503591) born (0.497566) camelback (0.482628) buttermilk (0.481124) vendor (0.480331) america (0.475479) 
Error (train/valid/test) = 1.187030/1.450527/1.442116 (0.008446)
..................................................
energy after gradient step = 307066903.160909
....
Top words for each topic:
awar (0.666272) matt (0.568774) carnita (0.534544) holi (0.532286) spread (0.517282) advis (0.513123) 400 (0.497611) gluten (0.494643) wouldv (0.493805) crusti (0.488578) 
juli (0.620029) sight (0.605793) massiv (0.585584) bone (0.574876) urban (0.574020) plug (0.531768) accessori (0.530338) along (0.524439) wet (0.522208) amc (0.518643) 
mass (0.634074) ale (0.630648) cod (0.605012) grimaldi (0.559344) cibo (0.557502) tie (0.539260) pretenti (0.533172) squar (0.513879) arrowhead (0.509136) cilantro (0.506722) 
savori (0.691049) mmm (0.667247) guitar (0.625111) crepe (0.570319) wasabi (0.555634) culinari (0.549152) smokey (0.541307) blood (0.531447) shut (0.529820) happier (0.517045) 
sum (0.855795) parmesan (0.685883) don (0.603478) makeup (0.583670) outlet (0.560511) o (0.548545) innout (0.547728) garag (0.515656) unit (0.505432) somewher (0.503347) 
confer (0.674441) fool (0.651709) 7th (0.591894) wateri (0.559133) fabric (0.539923) batteri (0.530632) belt (0.528054) dealership (0.526446) torta (0.524522) southwest (0.513355) 
bianco (0.771775) denni (0.638309) paradis (0.586595) dim (0.531975) hearti (0.522294) basi (0.511764) togo (0.511670) gilbert (0.506676) heater (0.488789) express (0.487017) 
thumb (0.599480) steal (0.563156) rep (0.552746) engag (0.543189) repeat (0.526326) hippi (0.518261) diet (0.516771) row (0.504865) shame (0.502922) spoke (0.490434) 
instrument (0.709595) unexpect (0.685870) speed (0.606982) bet (0.600213) broke (0.572388) warranti (0.564868) encourag (0.550966) pasti (0.547918) postino (0.546884) dentist (0.524697) 
blueberri (0.650122) jewel (0.628977) stool (0.623446) roof (0.623162) relleno (0.580129) april (0.565557) yay (0.557032) mahi (0.543099) shampoo (0.526715) camelback (0.522027) 
Error (train/valid/test) = 1.145992/1.444327/1.434874 (0.008450)
..................................................
energy after gradient step = 306924565.837195
....
Top words for each topic:
awar (0.676907) 400 (0.667834) matt (0.621605) carnita (0.619256) german (0.578209) gluten (0.558436) vintag (0.557138) wheel (0.528673) walmart (0.526168) bird (0.520466) 
eh (0.742668) juli (0.702554) along (0.688341) bone (0.646068) sight (0.631238) fuck (0.630128) nervous (0.608321) volunt (0.580035) plug (0.562011) god (0.555476) 
mass (0.725455) grimaldi (0.658061) pillow (0.648001) tie (0.631264) cilantro (0.621161) crossfit (0.619100) kill (0.605419) cod (0.596486) cafeteria (0.578921) pretenti (0.567486) 
savori (0.723624) dealership (0.631667) whatsoev (0.627984) mmm (0.627043) guitar (0.626874) haircut (0.617524) wasabi (0.614594) blood (0.607581) crepe (0.605013) happier (0.567152) 
sum (0.931147) outlet (0.714545) pastrami (0.662558) innout (0.644184) parmesan (0.638226) garag (0.627504) dinein (0.596374) 5th (0.584594) don (0.559545) rental (0.552751) 
fool (0.732309) fabric (0.705887) confer (0.629717) batteri (0.606449) picnic (0.574429) safeti (0.573762) 7th (0.565989) wateri (0.531711) torta (0.530821) southwest (0.522561) 
bianco (1.029919) paradis (0.621795) togo (0.616195) nacho (0.598458) pizzeria (0.595870) denni (0.574245) weak (0.563956) freez (0.557823) dim (0.555976) santa (0.546855) 
rep (0.666585) steal (0.649292) thumb (0.627639) shame (0.623388) hippi (0.607982) diet (0.551999) repeat (0.534440) frys (0.534038) rim (0.526232) bliss (0.511711) 
unexpect (0.793417) instrument (0.779348) pasti (0.678101) ala (0.626591) broke (0.607091) adjust (0.547980) john (0.541745) warranti (0.530470) bet (0.526225) speed (0.523151) 
roof (0.700435) batteri (0.618830) jewel (0.611357) blueberri (0.608132) stool (0.607222) yay (0.590504) award (0.575465) shampoo (0.566340) april (0.558914) protein (0.539068) 
Error (train/valid/test) = 1.115265/1.441597/1.431521 (0.008536)
..................................................
energy after gradient step = 306795105.839101
....
Top words for each topic:
awar (0.680751) matt (0.678086) manicur (0.640914) bird (0.638080) gluten (0.629962) carpet (0.614311) carnita (0.614301) toe (0.611675) 400 (0.606495) boat (0.600651) 
juli (0.804955) along (0.756404) eh (0.709836) fuck (0.698482) plug (0.678371) sight (0.668318) bone (0.650825) strike (0.622978) sticki (0.620583) race (0.608212) 
mass (0.755703) tie (0.723594) cilantro (0.694505) social (0.689794) crossfit (0.638371) grimaldi (0.630021) termin (0.617621) fed (0.607955) comfi (0.605372) sidewalk (0.601459) 
savori (0.883032) dealership (0.675395) inch (0.668002) blood (0.661315) spirit (0.653222) wasabi (0.648060) guitar (0.647790) brake (0.642955) mmm (0.642055) haircut (0.609915) 
sum (1.059949) outlet (0.708506) parmesan (0.670936) pastrami (0.667124) innout (0.660409) garag (0.652460) lee (0.634615) within (0.613785) switch (0.605209) rip (0.602977) 
confer (0.794949) 7th (0.696344) fabric (0.694823) batteri (0.685456) fool (0.665669) contract (0.611284) prep (0.610682) routin (0.584370) oregano (0.582590) wateri (0.581751) 
bianco (1.254328) pizzeria (0.863610) denni (0.717966) nacho (0.697831) togo (0.673689) hearti (0.669085) 24 (0.659567) weak (0.657146) dim (0.654340) rosa (0.652458) 
hawaiian (0.718837) rep (0.688781) hippi (0.685017) gel (0.642648) shame (0.631332) technician (0.627475) vintag (0.626209) steal (0.604676) stiff (0.594107) diet (0.593261) 
pasti (0.753533) unexpect (0.749967) john (0.734384) dental (0.728865) instrument (0.693953) barber (0.668644) equip (0.656704) wheat (0.628150) adjust (0.625504) gold (0.609682) 
roof (0.874741) batteri (0.786206) yay (0.676711) warranti (0.664917) laura (0.624264) g (0.621156) protein (0.616201) april (0.611144) blueberri (0.605687) buttermilk (0.601234) 
Error (train/valid/test) = 1.090629/1.441043/1.430491 (0.008648)
..................................................
energy after gradient step = 306646719.383383
....
Top words for each topic:
carpet (0.842731) awar (0.816594) bird (0.759681) german (0.700034) matt (0.674611) toe (0.665895) manicur (0.652745) tempura (0.644250) vintag (0.640708) cupcak (0.636135) 
fuck (0.837925) juli (0.823227) eh (0.819975) plant (0.754461) along (0.727397) race (0.724766) plug (0.722784) volunt (0.664391) mi (0.657256) sight (0.650308) 
crossfit (0.790975) tie (0.771472) grimaldi (0.756315) social (0.754365) mass (0.753290) termin (0.741537) cilantro (0.731669) windshield (0.731386) kill (0.718447) fed (0.682880) 
savori (0.883231) mmm (0.794485) dealership (0.751347) inch (0.713147) nordstrom (0.710525) guitar (0.702356) couldv (0.698250) crepe (0.695435) spirit (0.689726) angel (0.676902) 
sum (1.165038) lee (0.759241) garag (0.741385) innout (0.728056) outlet (0.718078) parmesan (0.698132) pastrami (0.695073) rip (0.661637) cartel (0.635641) lake (0.625202) 
confer (0.877268) batteri (0.779089) 7th (0.726390) fabric (0.699385) prep (0.698930) oregano (0.695390) wateri (0.654570) jazz (0.653789) contract (0.647697) routin (0.638124) 
bianco (1.444954) pizzeria (0.884696) denni (0.838194) rosa (0.778963) weak (0.760930) 24 (0.711309) chowder (0.707192) ethiopian (0.706508) togo (0.703996) concoct (0.672637) 
hawaiian (0.768302) rep (0.711342) steal (0.706971) frys (0.687067) surgeri (0.686412) hippi (0.668229) gel (0.664382) pitcher (0.660809) bliss (0.651084) vinaigrett (0.650481) 
dental (0.933624) unexpect (0.825073) john (0.795899) pasti (0.783799) equip (0.775932) torta (0.743889) barber (0.731455) adjust (0.731144) instrument (0.707128) bet (0.700178) 
roof (0.989701) batteri (0.859214) warranti (0.780572) blueberri (0.678534) yard (0.668449) yay (0.656078) g (0.641321) mahi (0.624175) winner (0.620696) protein (0.618158) 
Error (train/valid/test) = 1.068503/1.440127/1.428659 (0.008545)
..................................................
energy after gradient step = 306541293.811497
....
Top words for each topic:
carpet (1.064194) german (0.832553) cupcak (0.800551) bird (0.799397) awar (0.785545) termin (0.774584) tempura (0.754640) toe (0.739608) vintag (0.714645) matt (0.703153) 
fuck (0.883353) race (0.871072) plant (0.836683) eh (0.819711) plug (0.814612) along (0.732934) juli (0.721864) sticki (0.720046) flower (0.714515) mi (0.707166) 
termin (0.900102) crossfit (0.887024) windshield (0.792925) cilantro (0.782532) social (0.772855) brian (0.764780) tie (0.762475) grimaldi (0.758092) arrowhead (0.749385) realiti (0.738823) 
savori (0.957230) dealership (0.830921) crepe (0.822424) guitar (0.786936) mmm (0.767771) nordstrom (0.761898) spirit (0.750045) indoor (0.747505) couldv (0.735325) angel (0.714358) 
sum (1.260372) lake (0.849575) outlet (0.810683) innout (0.806797) pastrami (0.761799) rip (0.753151) garag (0.734385) dim (0.725338) lee (0.717741) dentist (0.709584) 
confer (0.890984) batteri (0.808624) oregano (0.807995) fabric (0.754332) 7th (0.705443) wateri (0.690209) fool (0.684067) soggi (0.679107) routin (0.671262) jazz (0.667652) 
bianco (1.596213) pizzeria (1.102485) denni (0.968919) rosa (0.953457) ethiopian (0.772038) weak (0.765157) chowder (0.743822) froyo (0.729033) togo (0.718249) nacho (0.694165) 
museum (0.818857) gel (0.772672) vinaigrett (0.771364) frys (0.757193) pitcher (0.740845) soul (0.735932) hawaiian (0.733703) extens (0.727735) steal (0.722187) hippi (0.709961) 
dental (1.115195) pasti (0.910022) john (0.838013) equip (0.803417) torta (0.761068) unexpect (0.742316) adjust (0.739979) 13 (0.708145) bet (0.691866) bagel (0.687638) 
roof (1.145393) batteri (0.878679) warranti (0.819816) blueberri (0.711832) protein (0.691835) yard (0.683864) statement (0.682067) held (0.656792) appli (0.653216) buttermilk (0.640694) 
Error (train/valid/test) = 1.051448/1.441411/1.429089 (0.008444)
..................................................
energy after gradient step = 306399642.033336
....
Top words for each topic:
carpet (1.158947) cupcak (0.969159) bird (0.927430) german (0.905279) sashimi (0.851721) awar (0.789296) tempura (0.782583) manicur (0.756535) ramen (0.755117) frost (0.753418) 
race (1.028575) fuck (0.992602) flower (0.930907) plant (0.930562) eh (0.843972) juli (0.819050) plug (0.752482) cat (0.738600) mi (0.730847) vodka (0.727183) 
termin (1.066903) crossfit (0.950214) windshield (0.898107) hassl (0.875659) grimaldi (0.832962) tie (0.831173) arrowhead (0.814239) brian (0.802829) social (0.802092) cilantro (0.793709) 
savori (1.045271) dealership (0.924278) crepe (0.905987) guitar (0.891025) mmm (0.852615) couldv (0.826571) indoor (0.811050) nordstrom (0.804760) korean (0.796239) inch (0.778887) 
sum (1.415788) outlet (0.910390) pastrami (0.907189) innout (0.883030) zoo (0.877305) dentist (0.818901) plane (0.809768) lake (0.800406) vietnames (0.797813) dim (0.760778) 
confer (1.020410) oregano (0.952458) batteri (0.913548) carpet (0.744756) soggi (0.733113) scoop (0.727524) 7th (0.716323) fabric (0.713650) jazz (0.688417) respect (0.683754) 
bianco (1.785618) pizzeria (1.402493) denni (1.046072) rosa (1.040906) margherita (0.927912) chowder (0.901188) ethiopian (0.830563) mozzarella (0.801599) froyo (0.798878) cibo (0.761060) 
museum (0.956530) pitcher (0.846824) gel (0.838377) hawaiian (0.811861) vinaigrett (0.787381) technician (0.767683) extens (0.747391) hippi (0.742187) aisl (0.740376) greek (0.730388) 
dental (1.246736) pasti (1.010267) john (0.902238) equip (0.868679) bagel (0.837071) unexpect (0.821249) vet (0.805430) dentist (0.798825) groomer (0.788717) torta (0.783019) 
roof (1.286173) batteri (1.010968) warranti (0.874870) yard (0.769714) unabl (0.758520) yay (0.740065) protein (0.737370) buttermilk (0.722653) statement (0.720161) held (0.714822) 
Error (train/valid/test) = 1.032275/1.441376/1.428854 (0.008582)
..................................................
energy after gradient step = 306223604.438827
....
Top words for each topic:
carpet (1.345815) cupcak (1.128944) german (1.021361) bird (0.989318) frost (0.983623) tempura (0.858733) manicur (0.834689) ramen (0.833425) donut (0.808348) bagel (0.802250) 
race (1.132170) flower (1.089727) plant (1.027137) fuck (0.922119) cat (0.804484) lgo (0.772525) juli (0.767614) bone (0.765731) eh (0.764229) culver (0.757085) 
termin (1.345259) grimaldi (0.996262) crossfit (0.979932) windshield (0.929051) brian (0.926077) airport (0.884782) tie (0.876580) mass (0.860265) arrowhead (0.845305) cigar (0.840788) 
crepe (1.073934) dealership (1.046558) savori (1.010134) indoor (0.952568) guitar (0.950969) nordstrom (0.886726) brake (0.882145) mmm (0.879993) couldv (0.856803) korean (0.854777) 
sum (1.570204) dim (0.999312) outlet (0.982515) zoo (0.959709) lake (0.956103) innout (0.923846) plane (0.906272) pastrami (0.883502) pho (0.872300) dentist (0.868194) 
confer (1.152678) oregano (1.145810) batteri (0.922657) scoop (0.871589) carpet (0.846576) respect (0.796344) bagel (0.763035) alfredo (0.750427) 7th (0.742962) climb (0.725142) 
bianco (2.007587) pizzeria (1.665172) margherita (1.146104) denni (1.101468) rosa (1.023003) cibo (0.965695) chowder (0.891187) mozzarella (0.848884) ethiopian (0.829711) farm (0.814955) 
museum (1.076478) pitcher (0.970959) technician (0.914710) gel (0.886990) aisl (0.863319) hawaiian (0.855164) greek (0.839939) target (0.837323) irish (0.822407) extens (0.778756) 
dental (1.480862) pasti (1.361203) bagel (1.033000) dentist (1.014971) equip (0.986288) vet (0.985815) john (0.972560) bike (0.869621) instal (0.829893) groomer (0.827188) 
roof (1.439204) batteri (1.073011) warranti (0.912704) cigar (0.812585) smoothi (0.790826) protein (0.784958) coach (0.774944) buttermilk (0.762069) leak (0.759706) yay (0.751652) 
Error (train/valid/test) = 1.015037/1.442487/1.429580 (0.008604)
..................................................
energy after gradient step = 306058007.945298
....
Top words for each topic:
carpet (1.410031) cupcak (1.320531) frost (1.170765) german (1.120301) bird (1.051609) bagel (1.008722) ramen (0.929035) tempura (0.913447) manicur (0.884034) walmart (0.875139) 
flower (1.265591) race (1.219949) plant (1.060585) sticki (0.904756) fuck (0.883261) cat (0.858862) lgo (0.814273) eh (0.785390) mi (0.781540) bone (0.776301) 
termin (1.468950) grimaldi (1.144162) crossfit (1.104202) airport (1.031118) brian (0.974366) sky (0.958420) arrowhead (0.922504) cigar (0.889895) flight (0.871022) trail (0.870777) 
crepe (1.318808) dealership (1.069702) indoor (1.044324) guitar (1.023471) brake (0.989840) savori (0.974231) korean (0.959669) gelato (0.939728) couldv (0.927789) nordstrom (0.859367) 
sum (1.748041) dim (1.182919) outlet (1.112377) zoo (1.100028) lake (1.048342) vietnames (1.045216) pho (1.021989) dentist (1.019180) plane (0.975407) innout (0.965459) 
oregano (1.217455) confer (1.198914) carpet (0.937787) scoop (0.915267) bagel (0.907479) batteri (0.809175) alfredo (0.794591) climb (0.784199) torta (0.766470) jazz (0.761440) 
bianco (2.217899) pizzeria (1.892609) margherita (1.304362) denni (1.224519) cibo (1.164696) rosa (1.127315) mozzarella (0.993251) chowder (0.948225) donut (0.920521) ethiopian (0.908280) 
museum (1.210555) gel (1.008200) pitcher (0.994572) hawaiian (0.955026) aisl (0.931294) technician (0.924857) target (0.909062) irish (0.889957) greek (0.881914) asada (0.867443) 
dental (1.604427) pasti (1.599333) bagel (1.256156) dentist (1.185070) vet (1.151636) equip (1.062477) john (0.996941) bike (0.953001) instrument (0.951412) instal (0.938886) 
roof (1.505916) batteri (1.224542) warranti (0.978331) protein (0.946785) leak (0.919814) coach (0.913477) smoothi (0.860940) cigar (0.829908) rent (0.780158) award (0.773190) 
Error (train/valid/test) = 1.001676/1.443438/1.430546 (0.008693)
..................................................
energy after gradient step = 305905370.311579
....
Top words for each topic:
cupcak (1.537752) carpet (1.524697) frost (1.303582) german (1.240660) bird (1.210083) ramen (1.067924) sashimi (1.052312) bagel (1.019789) tempura (1.011328) spread (0.935677) 
flower (1.462851) race (1.273145) plant (1.186931) fuck (0.988480) sticki (0.960535) cat (0.926206) mi (0.912122) lgo (0.902168) cupcak (0.885550) brisket (0.841336) 
termin (1.704440) crossfit (1.317821) grimaldi (1.299875) airport (1.242461) sky (1.137092) brian (1.046223) cigar (0.987582) trail (0.983276) flight (0.964639) harbor (0.964189) 
crepe (1.612131) dealership (1.200382) gelato (1.087462) guitar (1.077033) korean (1.055581) brake (1.016680) couldv (0.964231) haircut (0.955264) savori (0.942388) indoor (0.936762) 
sum (2.002755) dim (1.607895) zoo (1.411534) outlet (1.238316) lake (1.198841) vietnames (1.190159) pho (1.175976) dentist (1.165635) lee (1.057177) amazon (1.052093) 
oregano (1.317068) confer (1.235827) torta (1.015997) bagel (0.992959) scoop (0.951199) carpet (0.933702) climb (0.876531) donut (0.830459) contract (0.821060) batteri (0.810698) 
bianco (2.387769) pizzeria (2.017306) margherita (1.422335) denni (1.339062) cibo (1.305463) rosa (1.266204) mozzarella (1.129226) froyo (1.099423) ethiopian (1.059499) chowder (1.012152) 
museum (1.281288) gel (1.088251) asada (1.048951) irish (1.043946) pitcher (1.037077) hawaiian (1.015741) costco (1.011108) greek (1.009452) aisl (1.008185) technician (0.972530) 
dental (1.886594) pasti (1.801344) bagel (1.409173) dentist (1.386885) vet (1.363938) bike (1.140922) equip (1.132075) john (1.089473) instal (1.082282) skate (0.983109) 
roof (1.682899) batteri (1.406174) warranti (1.092678) coach (1.070379) leak (1.011615) cigar (0.938529) smoothi (0.935873) rent (0.913437) protein (0.885837) ray (0.841154) 
Error (train/valid/test) = 0.986805/1.444706/1.431596 (0.008731)
..................................................
energy after gradient step = 305693854.181466
....
Top words for each topic:
cupcak (1.763193) carpet (1.717032) frost (1.641923) bird (1.372460) ramen (1.317761) german (1.316268) sashimi (1.265019) bagel (1.139901) tempura (1.102075) spread (1.038691) 
flower (1.618542) race (1.355097) plant (1.125615) lgo (1.039764) cat (1.020025) cupcak (1.019413) sticki (0.967473) mi (0.960600) culver (0.919498) brisket (0.917627) 
termin (2.102525) airport (1.476998) crossfit (1.452809) sky (1.359470) grimaldi (1.254283) flight (1.245924) trail (1.199268) harbor (1.180891) cigar (1.137413) hike (1.099367) 
crepe (1.875342) dealership (1.343877) korean (1.259410) gelato (1.214742) haircut (1.144045) bike (1.091255) guitar (1.069717) indoor (1.054731) toy (1.015823) couldv (1.004917) 
sum (2.198487) dim (1.841023) zoo (1.620950) outlet (1.489199) vietnames (1.429915) dentist (1.415083) pho (1.361094) lake (1.267092) lee (1.210073) flight (1.164595) 
oregano (1.491608) confer (1.237948) bagel (1.126194) torta (1.100020) carpet (1.041521) scoop (1.004682) climb (0.976757) band (0.953061) donut (0.905366) danc (0.888458) 
bianco (2.590512) pizzeria (2.187186) cibo (1.664332) margherita (1.558210) rosa (1.504257) denni (1.434661) mozzarella (1.294516) froyo (1.223952) oven (1.200519) ethiopian (1.192602) 
museum (1.515017) gel (1.255008) asada (1.220278) irish (1.208989) greek (1.144621) yogurt (1.144071) costco (1.101640) hawaiian (1.100351) pitcher (1.076038) pita (1.053372) 
dental (2.081587) pasti (2.018130) dentist (1.643127) bagel (1.629825) vet (1.599480) bike (1.366969) john (1.249316) equip (1.230326) instal (1.206694) skate (1.092797) 
roof (1.810797) batteri (1.578515) warranti (1.344964) coach (1.197318) smoothi (1.120580) cigar (1.051638) leak (1.001015) health (0.949430) rent (0.941179) brake (0.935389) 
Error (train/valid/test) = 0.973263/1.446037/1.432547 (0.008644)
..................................................
energy after gradient step = 305390555.279217
....
Top words for each topic:
cupcak (1.996069) frost (1.948030) carpet (1.854042) ramen (1.538034) bird (1.512832) sashimi (1.405956) german (1.336092) tempura (1.217808) bagel (1.207011) teriyaki (1.182155) 
flower (1.788043) race (1.396192) plant (1.198055) cupcak (1.165097) cat (1.087397) lgo (1.085042) brisket (1.045279) sticki (1.044221) culver (1.024049) mi (0.982423) 
termin (2.381801) airport (1.707184) sky (1.617396) crossfit (1.577239) trail (1.498153) harbor (1.485392) grimaldi (1.404631) flight (1.389967) hike (1.353775) brian (1.209784) 
crepe (2.046718) dealership (1.453754) gelato (1.431701) korean (1.360947) bike (1.287022) haircut (1.199523) brake (1.110601) indoor (1.104852) guitar (1.055393) toy (1.053335) 
sum (2.420389) dim (2.095570) zoo (1.954614) outlet (1.662285) vietnames (1.637776) pho (1.534634) dentist (1.478393) stadium (1.435146) lee (1.349305) unit (1.330244) 
oregano (1.659570) confer (1.273261) bagel (1.244234) torta (1.139793) scoop (1.053796) band (1.015743) climb (1.013599) danc (1.012523) donut (0.998481) carpet (0.988077) 
bianco (2.776396) pizzeria (2.377042) cibo (1.930140) margherita (1.774766) mozzarella (1.577987) denni (1.571560) rosa (1.569082) froyo (1.366795) oven (1.363535) calzon (1.296383) 
museum (1.696848) asada (1.383014) gel (1.341099) yogurt (1.333641) irish (1.315416) greek (1.288509) pita (1.272648) costco (1.252964) hawaiian (1.219501) frys (1.130592) 
dental (2.245274) pasti (2.175720) vet (1.870742) dentist (1.838656) bagel (1.817794) bike (1.528888) equip (1.416595) john (1.343630) instal (1.335396) skate (1.269274) 
roof (1.994675) batteri (1.727755) warranti (1.569024) coach (1.396307) smoothi (1.306351) cigar (1.235562) brake (1.136331) leak (1.111837) tan (1.090878) rent (1.051837) 
Error (train/valid/test) = 0.959754/1.447025/1.433962 (0.008771)
..................................................
energy after gradient step = 304939006.432447
....
Top words for each topic:
cupcak (2.299182) frost (2.244713) carpet (2.063184) ramen (1.801538) bird (1.713478) sashimi (1.585761) tempura (1.483201) german (1.458074) teriyaki (1.365965) sushi (1.271961) 
flower (1.987118) race (1.419237) plant (1.339003) cupcak (1.234068) brisket (1.218673) lgo (1.202828) culver (1.161047) cat (1.141023) sticki (1.136268) aj (1.059370) 
termin (2.562424) airport (1.988885) sky (1.862979) trail (1.749750) crossfit (1.703680) harbor (1.666089) flight (1.617767) hike (1.534113) grimaldi (1.514488) gate (1.423426) 
crepe (2.267845) gelato (1.641201) dealership (1.569128) korean (1.534956) bike (1.414240) haircut (1.385787) guitar (1.284587) doctor (1.253722) toy (1.197786) theater (1.186606) 
sum (2.598797) dim (2.342183) zoo (2.240593) vietnames (1.910204) pho (1.812435) outlet (1.804006) stadium (1.636754) rental (1.620802) insur (1.588392) lee (1.540514) 
oregano (1.775850) confer (1.409825) bagel (1.381597) torta (1.250990) climb (1.157426) scoop (1.153397) band (1.149211) donut (1.111184) danc (1.070063) jimmi (1.024612) 
bianco (2.902037) pizzeria (2.533704) cibo (2.117276) margherita (1.955978) mozzarella (1.801769) rosa (1.680129) denni (1.623848) calzon (1.570315) oven (1.562140) yogurt (1.423129) 
museum (1.937710) asada (1.596323) pita (1.532461) gel (1.487752) yogurt (1.477647) costco (1.473908) greek (1.433607) irish (1.376937) hummus (1.309376) hawaiian (1.276093) 
dental (2.389072) pasti (2.351188) vet (2.114035) dentist (2.093761) bagel (2.046261) bike (1.752801) equip (1.611865) john (1.467369) instal (1.462694) skate (1.331968) 
roof (2.214201) batteri (1.985591) warranti (1.727475) coach (1.593794) smoothi (1.468759) brake (1.404316) cigar (1.356167) tan (1.288441) leak (1.270206) target (1.263540) 
Error (train/valid/test) = 0.947617/1.448448/1.435104 (0.008753)
..................................................
energy after gradient step = 304289125.609085
....
Top words for each topic:
cupcak (2.620136) frost (2.449291) carpet (2.201144) ramen (2.038904) sashimi (1.845139) bird (1.824054) tempura (1.750366) sushi (1.579877) german (1.542524) japanes (1.538411) 
flower (2.181191) race (1.505315) plant (1.458053) brisket (1.445142) cupcak (1.322932) lgo (1.297164) culver (1.282387) cat (1.223010) florist (1.177244) muffin (1.126343) 
termin (2.775054) airport (2.271803) sky (2.070599) trail (2.022978) harbor (1.941058) flight (1.846827) crossfit (1.792680) hike (1.752519) gate (1.667385) grimaldi (1.573983) 
crepe (2.430902) gelato (1.896628) dealership (1.748354) korean (1.604634) haircut (1.595494) bike (1.549384) theater (1.503450) guitar (1.441285) doctor (1.439299) barber (1.347940) 
sum (2.743888) dim (2.496092) zoo (2.413514) vietnames (2.115084) pho (2.113592) outlet (1.972851) stadium (1.919254) rental (1.849838) lee (1.793370) insur (1.784663) 
oregano (1.843778) confer (1.478911) bagel (1.423680) band (1.294527) torta (1.284470) climb (1.255210) danc (1.214559) donut (1.208647) jimmi (1.143411) barro (1.071035) 
bianco (2.964253) pizzeria (2.612084) cibo (2.243204) margherita (2.060209) mozzarella (1.962562) oven (1.829829) calzon (1.824806) rosa (1.779453) denni (1.670132) gyro (1.607407) 
museum (2.096888) asada (1.854622) pita (1.762160) yogurt (1.674471) greek (1.623105) gel (1.573862) irish (1.553603) costco (1.552351) carn (1.486497) hummus (1.466303) 
dental (2.568235) pasti (2.546468) vet (2.415114) dentist (2.313910) bagel (2.246100) bike (1.991784) equip (1.775244) instal (1.629270) john (1.590405) exam (1.489416) 
roof (2.372137) batteri (2.187341) warranti (1.961514) coach (1.756603) smoothi (1.600998) cigar (1.600380) brake (1.577423) tan (1.528057) leak (1.410776) target (1.407213) 
Error (train/valid/test) = 0.936501/1.450193/1.436965 (0.008827)
..................................................
energy after gradient step = 303401975.931898
....
Top words for each topic:
cupcak (2.970878) frost (2.632167) carpet (2.343000) ramen (2.321063) sashimi (2.065312) sushi (2.006090) tempura (1.977040) bird (1.873572) japanes (1.704106) teriyaki (1.683666) 
flower (2.337512) race (1.638851) brisket (1.587832) plant (1.512547) culver (1.443682) lgo (1.387296) florist (1.286711) muffin (1.248370) cupcak (1.233074) cat (1.217876) 
termin (2.965797) airport (2.589172) trail (2.307695) sky (2.234756) harbor (2.107262) flight (2.056286) hike (2.046906) crossfit (1.903602) gate (1.855382) shuttl (1.684561) 
crepe (2.594834) gelato (2.120559) dealership (1.867787) theater (1.815436) haircut (1.756365) bike (1.728508) korean (1.656081) harkin (1.653033) barber (1.650279) doctor (1.613062) 
sum (2.918579) zoo (2.694430) dim (2.675242) pho (2.415521) vietnames (2.364667) stadium (2.208653) outlet (2.176005) rental (2.116956) insur (2.018637) lee (1.999384) 
oregano (2.040344) confer (1.594369) torta (1.508647) bagel (1.501880) band (1.437937) climb (1.379639) danc (1.375232) jimmi (1.289438) donut (1.261530) venu (1.191148) 
bianco (3.056032) pizzeria (2.710414) cibo (2.291807) mozzarella (2.118703) margherita (2.110195) oven (2.001176) calzon (1.968538) gyro (1.893816) crust (1.892191) rosa (1.885522) 
museum (2.241159) asada (2.096122) pita (2.012497) yogurt (1.938851) carn (1.801567) greek (1.774631) gel (1.736419) costco (1.677214) chipotl (1.674268) irish (1.664352) 
dental (2.758216) pasti (2.725632) vet (2.662726) dentist (2.576702) bagel (2.470639) bike (2.197254) equip (1.927821) instal (1.821836) john (1.750702) exam (1.716607) 
roof (2.535657) batteri (2.416594) warranti (2.202995) coach (1.916607) brake (1.841900) tan (1.797670) smoothi (1.767551) cigar (1.711667) leak (1.707574) target (1.702146) 
Error (train/valid/test) = 0.926150/1.451788/1.438275 (0.008834)
..................................................
energy after gradient step = 302038609.017716
....
Top words for each topic:
cupcak (3.276783) frost (2.801562) ramen (2.477515) sushi (2.450467) carpet (2.411818) sashimi (2.276538) tempura (2.234913) japanes (2.049397) bird (1.997690) teriyaki (1.850332) 
flower (2.487666) brisket (1.744654) race (1.660766) culver (1.576305) plant (1.568762) lgo (1.452963) muffin (1.450743) florist (1.432225) aj (1.359068) pete (1.344884) 
termin (3.106658) airport (2.896185) trail (2.506324) sky (2.451420) harbor (2.334724) hike (2.311376) flight (2.293777) gate (2.087557) crossfit (1.933263) shuttl (1.855659) 
crepe (2.795698) gelato (2.348326) theater (2.149212) haircut (2.032764) dealership (2.010796) harkin (1.964246) barber (1.909931) bike (1.831392) doctor (1.752529) korean (1.743325) 
sum (3.074899) zoo (2.877385) dim (2.820369) pho (2.717398) vietnames (2.589111) stadium (2.486979) rental (2.371561) outlet (2.339611) unit (2.226455) insur (2.197772) 
oregano (2.165595) confer (1.701585) torta (1.625616) danc (1.592643) band (1.590179) bagel (1.576294) climb (1.440753) jimmi (1.403842) donut (1.360326) venu (1.336035) 
bianco (3.058476) pizzeria (2.697188) pizza (2.461952) cibo (2.335869) crust (2.331428) mozzarella (2.274164) margherita (2.154139) oven (2.145121) gyro (2.133640) calzon (2.070329) 
museum (2.371384) asada (2.359960) pita (2.205896) yogurt (2.118759) carn (2.078158) taco (1.991621) greek (1.913446) gel (1.872218) chipotl (1.868627) guacamol (1.860488) 
vet (2.909725) pasti (2.896727) dental (2.895674) dentist (2.814300) bagel (2.676777) bike (2.410255) equip (2.074962) tint (1.963666) exam (1.943811) dr (1.933634) 
roof (2.644128) batteri (2.606373) warranti (2.400151) coach (2.130272) tan (2.086728) brake (2.080207) target (1.951693) smoothi (1.913184) spray (1.893221) leak (1.873431) 
Error (train/valid/test) = 0.919988/1.454876/1.441653 (0.009019)
..................................................
energy after gradient step = 299926327.493275
....
Top words for each topic:
cupcak (3.550566) frost (2.952294) sushi (2.901120) ramen (2.668916) sashimi (2.525668) carpet (2.450264) tempura (2.449922) japanes (2.257722) teriyaki (2.086733) bird (2.082479) 
flower (2.616599) brisket (1.975296) race (1.775432) culver (1.661942) plant (1.643088) florist (1.570274) muffin (1.556962) lgo (1.524726) aj (1.498725) pete (1.435685) 
termin (3.277539) airport (3.168120) trail (2.728592) sky (2.606711) hike (2.561096) flight (2.541124) harbor (2.480965) gate (2.225046) crossfit (2.017271) shuttl (1.959540) 
crepe (2.963044) gelato (2.596855) theater (2.503105) haircut (2.298429) harkin (2.245005) barber (2.114554) theatr (2.094771) dealership (2.052789) bike (1.911083) movi (1.907546) 
sum (3.157585) zoo (3.037387) pho (3.035366) dim (2.947725) vietnames (2.770790) stadium (2.672548) rental (2.589273) outlet (2.496576) insur (2.447735) unit (2.419471) 
oregano (2.215825) band (1.771281) danc (1.771094) torta (1.715406) confer (1.702461) climb (1.557340) bagel (1.550063) jimmi (1.525477) sub (1.444767) venu (1.412473) 
pizza (3.067332) bianco (3.049635) pizzeria (2.733709) crust (2.655832) mozzarella (2.347261) gyro (2.323749) cibo (2.320332) oven (2.232724) pita (2.162525) calzon (2.148585) 
asada (2.596988) museum (2.462829) carn (2.376437) taco (2.370719) pita (2.318931) yogurt (2.234633) guacamol (2.110241) burrito (2.013048) enchilada (2.005945) chipotl (2.002370) 
vet (3.115883) dental (3.082082) dentist (3.030097) pasti (3.026495) bagel (2.885388) bike (2.620745) dr (2.268243) equip (2.246018) tint (2.238991) teeth (2.138096) 
batteri (2.813182) roof (2.811591) warranti (2.549850) tan (2.403065) brake (2.359320) coach (2.340523) target (2.166762) membership (2.154760) spray (2.124132) gym (2.123585) 
Error (train/valid/test) = 0.912649/1.454328/1.440769 (0.008839)
..................................................
energy after gradient step = 297195776.636456
....
Top words for each topic:
cupcak (3.761220) sushi (3.318560) frost (3.090602) ramen (2.827746) sashimi (2.792505) tempura (2.703171) japanes (2.530195) carpet (2.513186) roll (2.503673) miso (2.344699) 
flower (2.782167) brisket (2.185047) race (1.850037) plant (1.822851) culver (1.764819) florist (1.714523) muffin (1.709737) aj (1.661861) lgo (1.584488) pete (1.510857) 
airport (3.423162) termin (3.423059) trail (3.008191) hike (2.850712) flight (2.813366) sky (2.781505) harbor (2.698688) gate (2.409027) crossfit (2.115803) peak (2.056320) 
crepe (3.131434) theater (2.863767) gelato (2.843017) haircut (2.562911) harkin (2.513022) barber (2.453672) theatr (2.445422) movi (2.240838) dealership (2.153899) guitar (1.993692) 
pho (3.283443) sum (3.253054) zoo (3.237538) dim (3.026107) vietnames (2.962878) stadium (2.925255) rental (2.868775) outlet (2.705907) unit (2.651794) insur (2.649158) 
oregano (2.288958) danc (2.030829) band (1.963554) confer (1.838359) torta (1.837502) venu (1.646118) jimmi (1.644233) climb (1.624144) sub (1.609215) bagel (1.556313) 
pizza (3.626426) bianco (2.988797) crust (2.879257) pizzeria (2.648051) gyro (2.500201) mozzarella (2.437062) pita (2.313129) cibo (2.304944) oven (2.251623) slice (2.248776) 
asada (2.856286) taco (2.781788) carn (2.672466) museum (2.528081) yogurt (2.446297) burrito (2.391458) pita (2.375335) guacamol (2.368132) enchilada (2.216578) tortilla (2.171373) 
vet (3.340872) dentist (3.249960) dental (3.212075) pasti (3.193966) bagel (3.091347) bike (2.845587) dr (2.610220) tint (2.454179) equip (2.415083) cat (2.394378) 
batteri (3.067173) roof (2.946376) warranti (2.755713) tan (2.682180) brake (2.620516) target (2.555449) membership (2.494942) gym (2.451036) coach (2.431713) spray (2.426441) 
Error (train/valid/test) = 0.908650/1.456803/1.443813 (0.009036)
..................................................
energy after gradient step = 293680302.989220
....
Top words for each topic:
cupcak (3.944520) sushi (3.774671) frost (3.249962) ramen (3.006369) sashimi (2.999626) roll (2.938724) tempura (2.896724) japanes (2.821282) miso (2.612526) donut (2.523249) 
flower (2.938412) brisket (2.401616) race (1.967469) plant (1.927624) muffin (1.923424) culver (1.874380) florist (1.856087) aj (1.781611) lgo (1.663329) bbq (1.660222) 
airport (3.656134) termin (3.592169) trail (3.222395) hike (3.064434) flight (3.040390) sky (2.986365) harbor (2.848365) gate (2.562552) peak (2.279274) breweri (2.244398) 
crepe (3.316416) theater (3.197014) gelato (3.099713) haircut (2.821664) harkin (2.783346) theatr (2.699408) barber (2.691094) movi (2.606166) dealership (2.225740) facial (2.160275) 
pho (3.475148) zoo (3.325188) sum (3.280328) stadium (3.083714) rental (3.064809) vietnames (3.026421) dim (2.990022) unit (2.866041) outlet (2.815050) instal (2.807484) 
oregano (2.278245) danc (2.250826) band (2.155699) confer (1.919287) venu (1.841087) torta (1.818734) sub (1.777013) jimmi (1.731828) climb (1.671219) tvs (1.637711) 
pizza (3.932884) crust (2.997636) bianco (2.950274) gyro (2.634957) pizzeria (2.625766) mozzarella (2.433715) slice (2.432341) pita (2.405146) rice (2.293795) greek (2.283577) 
taco (3.189048) asada (3.077200) carn (2.939977) burrito (2.721214) museum (2.652213) yogurt (2.617121) salsa (2.561928) guacamol (2.556042) pita (2.438954) mexican (2.417813) 
vet (3.514273) dentist (3.463074) dental (3.374584) pasti (3.288713) bagel (3.257411) bike (3.051844) dr (2.985635) tint (2.645141) cat (2.632577) car (2.623987) 
batteri (3.234671) roof (3.088286) warranti (2.938820) tan (2.935629) brake (2.844818) membership (2.765003) gym (2.763877) target (2.723511) coach (2.693366) spray (2.636683) 
Error (train/valid/test) = 0.902567/1.456489/1.443204 (0.008917)
..................................................
energy after gradient step = 289981962.426512
....
Top words for each topic:
sushi (4.213218) cupcak (4.118785) frost (3.378079) roll (3.330314) sashimi (3.223047) ramen (3.171752) tempura (3.090830) japanes (3.055595) miso (2.795802) donut (2.785846) 
flower (3.165181) brisket (2.593110) plant (2.151340) race (2.100196) muffin (2.083408) florist (2.039827) aj (2.039386) culver (2.037489) pete (1.863658) bbq (1.851436) 
airport (3.894846) termin (3.759015) trail (3.447178) hike (3.303034) flight (3.267640) sky (3.163084) harbor (3.012096) gate (2.716952) breweri (2.542462) peak (2.519109) 
theater (3.507380) crepe (3.442527) gelato (3.327939) haircut (3.078463) harkin (3.038657) movi (3.024561) theatr (3.008982) barber (2.969877) facial (2.435449) guitar (2.350345) 
pho (3.622430) zoo (3.451988) sum (3.294671) rental (3.243983) stadium (3.228642) vietnames (3.061878) unit (3.049952) car (3.044791) dim (2.988091) resort (2.984231) 
danc (2.464665) band (2.391740) oregano (2.208508) venu (2.047348) confer (2.006488) sub (1.906860) dj (1.898445) stage (1.848778) jimmi (1.848225) wing (1.840316) 
pizza (4.208503) crust (3.088339) bianco (2.894396) gyro (2.736417) slice (2.594881) pizzeria (2.583838) sauc (2.572431) rice (2.540197) thai (2.531849) pita (2.508152) 
taco (3.531893) asada (3.285427) carn (3.183137) burrito (3.042414) salsa (2.989972) mexican (2.865614) yogurt (2.813076) guacamol (2.785936) museum (2.742055) tortilla (2.646295) 
vet (3.677110) dentist (3.611109) dental (3.491094) bagel (3.400600) pasti (3.387887) dr (3.375596) bike (3.242400) car (2.897826) cat (2.856520) tint (2.821617) 
batteri (3.375057) roof (3.262625) tan (3.137303) warranti (3.117139) brake (3.090570) target (3.068292) gym (3.028659) membership (2.985122) coach (2.925551) workout (2.919715) 
Error (train/valid/test) = 0.897439/1.458086/1.444127 (0.008821)
..................................................
energy after gradient step = 286079586.482591
....
Top words for each topic:
sushi (4.653611) cupcak (4.253304) roll (3.684857) frost (3.537906) sashimi (3.428344) ramen (3.323231) japanes (3.300940) tempura (3.283177) donut (3.133377) miso (3.064472) 
flower (3.313735) brisket (2.861139) plant (2.319980) race (2.283894) florist (2.242170) aj (2.230267) muffin (2.229113) culver (2.180170) bbq (2.044889) pete (1.972250) 
airport (4.059762) termin (3.961421) trail (3.684797) hike (3.591691) flight (3.538261) sky (3.363278) harbor (3.230878) breweri (2.890057) gate (2.864319) peak (2.766649) 
theater (3.795741) crepe (3.597938) gelato (3.537734) haircut (3.377113) movi (3.322541) barber (3.282146) theatr (3.234811) harkin (3.226256) facial (2.678762) film (2.577050) 
pho (3.711755) zoo (3.518826) rental (3.403262) hotel (3.326820) stadium (3.319854) sum (3.259992) car (3.219156) pedicur (3.218917) stylist (3.212582) resort (3.194783) 
danc (2.696984) band (2.605625) venu (2.294648) dj (2.210757) confer (2.137117) oregano (2.121906) sub (2.106138) stage (2.101390) wing (2.100723) tvs (2.090286) 
pizza (4.289599) crust (3.177038) sauc (2.918889) bianco (2.842655) gyro (2.836071) salad (2.783791) thai (2.765065) dish (2.755711) rice (2.754684) slice (2.708101) 
taco (3.869782) asada (3.506652) carn (3.399104) salsa (3.332658) burrito (3.297027) mexican (3.193253) yogurt (3.059678) guacamol (2.997819) museum (2.887982) tortilla (2.850208) 
vet (3.800106) dentist (3.765608) dr (3.697785) dental (3.584649) bagel (3.545175) pasti (3.424174) bike (3.386540) car (3.083589) cat (3.025526) tint (2.961629) 
batteri (3.566480) roof (3.356738) tan (3.350782) gym (3.297530) brake (3.288051) target (3.251613) membership (3.242381) workout (3.207453) warranti (3.193444) yoga (3.124393) 
Error (train/valid/test) = 0.891815/1.459480/1.445022 (0.008847)
..................................................
energy after gradient step = 282305098.337991
....
Top words for each topic:
sushi (4.998703) cupcak (4.427785) roll (4.026425) frost (3.663486) sashimi (3.593543) donut (3.539452) japanes (3.496063) ramen (3.487568) tempura (3.482342) miso (3.221944) 
flower (3.532217) brisket (3.058319) plant (2.503997) florist (2.423955) race (2.412607) aj (2.406386) muffin (2.343221) culver (2.300260) bbq (2.224329) pete (2.140037) 
airport (4.310006) termin (4.086683) trail (3.935942) flight (3.849599) hike (3.821111) sky (3.508276) harbor (3.368524) breweri (3.116594) peak (3.058065) beer (3.053864) 
theater (4.105038) crepe (3.721662) gelato (3.712715) haircut (3.660384) movi (3.642223) barber (3.489046) theatr (3.443380) harkin (3.434175) film (2.866089) facial (2.834620) 
pho (3.768714) hotel (3.593156) zoo (3.575473) pedicur (3.525978) rental (3.487204) salon (3.421327) stadium (3.409226) nail (3.388396) stylist (3.341686) car (3.337740) 
danc (2.995021) band (2.835096) venu (2.511416) dj (2.422366) wing (2.365644) tvs (2.340515) stage (2.329388) drunk (2.260924) sport (2.256156) confer (2.235329) 
pizza (4.429348) crust (3.196157) sauc (3.156611) salad (3.038261) dish (2.993501) thai (2.878765) rice (2.865700) gyro (2.863590) chicken (2.812453) bianco (2.786421) 
taco (4.156012) asada (3.742020) carn (3.658582) salsa (3.603365) burrito (3.565150) mexican (3.491074) yogurt (3.358203) guacamol (3.244692) tortilla (3.093828) enchilada (3.016256) 
dr (3.942136) vet (3.879649) dentist (3.858881) dental (3.647001) bagel (3.636256) bike (3.532926) pasti (3.452709) car (3.251669) doctor (3.209703) cat (3.120370) 
batteri (3.671413) gym (3.606445) tan (3.499997) roof (3.481078) yoga (3.471020) brake (3.435907) workout (3.422605) membership (3.415368) target (3.392920) class (3.318711) 
Error (train/valid/test) = 0.887337/1.460306/1.445627 (0.008941)
..................................................
energy after gradient step = 278850436.844211
....
Top words for each topic:
sushi (5.335557) cupcak (4.559627) roll (4.272125) frost (3.794774) donut (3.773289) sashimi (3.771557) japanes (3.661345) ramen (3.640860) tempura (3.610433) buffet (3.384021) 
flower (3.633545) brisket (3.194628) plant (2.704821) race (2.633145) florist (2.619677) aj (2.618744) muffin (2.516027) culver (2.455695) bbq (2.365724) pete (2.346888) 
airport (4.488608) termin (4.256134) trail (4.089839) flight (4.034100) hike (3.996441) sky (3.709208) harbor (3.545374) breweri (3.360080) beer (3.319402) peak (3.238226) 
theater (4.284641) movi (3.913120) gelato (3.853089) haircut (3.829570) crepe (3.798495) barber (3.716919) theatr (3.630346) harkin (3.570598) pierc (3.074404) facial (3.060235) 
pho (3.794564) hotel (3.793586) nail (3.776866) pedicur (3.712878) salon (3.681495) zoo (3.665570) rental (3.604198) stadium (3.467668) spa (3.447955) stylist (3.443332) 
danc (3.175477) band (3.007930) venu (2.729286) dj (2.628425) wing (2.558957) tvs (2.549621) stage (2.468441) sport (2.456614) drunk (2.452624) bar (2.428005) 
pizza (4.427757) sauc (3.394273) salad (3.318742) crust (3.237364) dish (3.185466) chicken (3.080503) thai (3.027395) rice (3.000438) gyro (2.922697) chees (2.890880) 
taco (4.408022) asada (3.906986) salsa (3.870862) burrito (3.853197) carn (3.830078) mexican (3.793893) yogurt (3.551089) guacamol (3.428562) tortilla (3.286204) enchilada (3.231481) 
dr (4.154724) vet (3.961027) dentist (3.948929) dental (3.705955) bagel (3.699693) bike (3.602714) pasti (3.416746) doctor (3.394053) car (3.371138) cat (3.207214) 
gym (3.818739) batteri (3.812873) yoga (3.734953) workout (3.627134) tan (3.614441) membership (3.595912) class (3.554843) roof (3.548462) target (3.543626) brake (3.535682) 
Error (train/valid/test) = 0.881390/1.461739/1.446842 (0.008919)
..................................................
energy after gradient step = 275500123.089757
....
Top words for each topic:
sushi (5.495154) cupcak (4.680049) roll (4.484270) donut (3.986821) frost (3.909237) sashimi (3.884513) japanes (3.800584) tempura (3.742235) ramen (3.729307) buffet (3.637881) 
flower (3.810747) brisket (3.330943) aj (2.819347) plant (2.816243) florist (2.790793) race (2.754424) muffin (2.679005) culver (2.596047) pete (2.526382) bbq (2.422500) 
airport (4.663250) termin (4.372120) trail (4.250901) flight (4.225890) hike (4.176356) sky (3.824006) harbor (3.715177) beer (3.612371) breweri (3.588469) peak (3.397834) 
theater (4.448252) movi (4.162774) haircut (3.995915) gelato (3.974505) barber (3.858077) crepe (3.857056) theatr (3.742320) harkin (3.705277) pierc (3.245335) amc (3.211250) 
nail (4.107925) salon (3.922803) hotel (3.913326) pedicur (3.882034) pho (3.755159) rental (3.683763) zoo (3.677213) pool (3.615587) spa (3.597726) manicur (3.576852) 
danc (3.337317) band (3.168565) venu (2.901814) dj (2.818886) tvs (2.759632) bar (2.728642) wing (2.728389) drunk (2.609394) sport (2.604124) stage (2.597344) 
pizza (4.551766) sauc (3.571269) salad (3.508922) dish (3.324788) crust (3.252954) chicken (3.247462) thai (3.067463) rice (3.061056) chees (3.046438) food (3.023855) 
taco (4.626164) burrito (4.155965) salsa (4.138363) mexican (4.092968) asada (4.057419) carn (3.995956) yogurt (3.741451) guacamol (3.606903) tortilla (3.483705) enchilada (3.427757) 
dr (4.265799) dentist (3.996475) vet (3.995802) dental (3.734894) bagel (3.726908) bike (3.627175) doctor (3.534779) car (3.490312) pasti (3.397311) wash (3.287961) 
gym (4.008474) yoga (3.961266) batteri (3.890073) workout (3.817282) class (3.802419) membership (3.771640) instructor (3.732536) tan (3.714933) studio (3.693999) brake (3.690350) 
Error (train/valid/test) = 0.876500/1.462922/1.447691 (0.008951)
..................................................
energy after gradient step = 272736154.837789
....
Top words for each topic:
sushi (5.654942) cupcak (4.808895) roll (4.657227) donut (4.205799) sashimi (4.035942) frost (4.005297) japanes (3.977636) tempura (3.885746) buffet (3.880931) ramen (3.854571) 
flower (3.930936) brisket (3.422416) aj (3.029134) florist (2.966181) plant (2.960553) race (2.909921) muffin (2.773789) culver (2.725486) pete (2.696361) bbq (2.428472) 
airport (4.845015) termin (4.538113) flight (4.431685) trail (4.428777) hike (4.344364) sky (3.967758) beer (3.853080) harbor (3.800501) breweri (3.729652) gate (3.551269) 
theater (4.615776) movi (4.334801) haircut (4.183824) gelato (4.113942) barber (4.047855) theatr (3.878060) crepe (3.876712) harkin (3.842684) pierc (3.388210) hair (3.385119) 
nail (4.360106) salon (4.141425) pedicur (4.056586) hotel (4.034668) rental (3.780009) pool (3.763223) spa (3.762596) zoo (3.758452) manicur (3.738967) gel (3.700581) 
danc (3.518126) band (3.321948) venu (3.094226) bar (2.999976) tvs (2.963211) dj (2.961002) wing (2.922398) sport (2.772463) stage (2.758370) drunk (2.739138) 
pizza (4.548241) sauc (3.686895) salad (3.664447) chicken (3.477596) dish (3.421175) crust (3.292997) food (3.213940) chees (3.189204) meal (3.166320) thai (3.154435) 
taco (4.834189) burrito (4.454053) salsa (4.379089) mexican (4.353973) asada (4.233092) carn (4.170877) yogurt (3.966137) guacamol (3.792502) tortilla (3.731241) enchilada (3.688180) 
dr (4.368174) dentist (4.040740) vet (4.033713) dental (3.764783) bagel (3.749310) doctor (3.692406) bike (3.651046) car (3.611273) wash (3.385407) pasti (3.337040) 
gym (4.252161) yoga (4.206582) class (4.086439) batteri (4.024888) workout (4.004375) instructor (3.951020) studio (3.942496) membership (3.909640) tan (3.835872) brake (3.793572) 
Error (train/valid/test) = 0.871108/1.464841/1.449071 (0.008921)
..................................................
energy after gradient step = 270220223.003916
....
Top words for each topic:
sushi (5.853667) cupcak (4.926730) roll (4.871031) donut (4.386115) buffet (4.169335) sashimi (4.158399) frost (4.118794) japanes (4.086534) tempura (3.997394) ramen (3.956196) 
flower (4.123172) brisket (3.496398) aj (3.178287) plant (3.156035) florist (3.141368) race (3.006588) muffin (2.975032) culver (2.902420) pete (2.871312) arrang (2.502487) 
airport (5.038205) termin (4.627744) flight (4.582568) trail (4.557183) hike (4.481934) sky (4.098282) beer (4.037172) harbor (3.999173) breweri (3.916067) gate (3.724725) 
theater (4.768900) movi (4.517259) haircut (4.329964) gelato (4.197788) barber (4.164045) theatr (4.020768) harkin (3.968151) crepe (3.920979) hair (3.730042) pierc (3.527263) 
nail (4.622726) salon (4.353217) pedicur (4.226996) hotel (4.147742) pool (3.917602) spa (3.895985) gel (3.877467) manicur (3.875843) rental (3.846237) zoo (3.816200) 
danc (3.656404) band (3.449647) bar (3.343981) venu (3.220757) tvs (3.083158) wing (3.079654) dj (3.076683) bartend (3.014790) drink (2.995755) sport (2.963875) 
pizza (4.670458) sauc (3.834768) salad (3.808990) chicken (3.691873) dish (3.582255) food (3.368474) crust (3.338888) meal (3.337597) chees (3.328608) fri (3.279535) 
taco (5.166314) burrito (4.766765) salsa (4.653420) mexican (4.579795) asada (4.380944) carn (4.333865) yogurt (4.141124) tortilla (3.995553) guacamol (3.951703) enchilada (3.919562) 
dr (4.452630) dentist (4.092245) vet (4.078805) doctor (3.811101) dental (3.792275) bagel (3.765534) car (3.714207) bike (3.673778) wash (3.493281) appoint (3.461850) 
gym (4.493634) class (4.465227) yoga (4.398561) instructor (4.163795) workout (4.159254) batteri (4.156972) studio (4.106081) membership (4.084782) tan (3.953972) brake (3.937806) 
Error (train/valid/test) = 0.864456/1.467201/1.451464 (0.009109)
..................................................
energy after gradient step = 267823575.437323
....
Top words for each topic:
sushi (6.004145) roll (5.049904) cupcak (5.030388) donut (4.535862) buffet (4.352849) sashimi (4.267501) japanes (4.222681) frost (4.207393) tempura (4.114662) ramen (4.076371) 
flower (4.231548) brisket (3.646135) aj (3.319708) florist (3.290725) plant (3.286311) race (3.194659) muffin (3.126102) pete (3.041576) culver (3.032147) tea (2.703953) 
airport (5.179545) termin (4.759282) flight (4.732374) trail (4.693799) hike (4.627448) beer (4.244009) sky (4.220997) breweri (4.098775) harbor (4.087989) gate (3.876724) 
theater (4.898057) movi (4.653396) haircut (4.496574) barber (4.340414) gelato (4.301156) theatr (4.124734) hair (4.065348) harkin (4.055983) crepe (3.914255) pierc (3.657381) 
nail (4.784243) salon (4.515699) pedicur (4.376436) hotel (4.257886) pool (4.038540) manicur (4.035935) spa (4.030635) gel (4.002446) rental (3.951331) wax (3.873087) 
danc (3.783359) band (3.559044) bar (3.528073) venu (3.356501) bartend (3.250163) drink (3.242074) wing (3.236798) dj (3.221378) tvs (3.198580) game (3.186164) 
pizza (4.722446) sauc (3.940052) salad (3.935496) chicken (3.848073) dish (3.704020) food (3.506322) meal (3.478383) chees (3.445761) fri (3.428276) crust (3.404287) 
taco (5.428556) burrito (4.954331) salsa (4.922688) mexican (4.812602) asada (4.512932) carn (4.484552) yogurt (4.293241) tortilla (4.227720) guacamol (4.123707) enchilada (4.105539) 
dr (4.551169) dentist (4.128616) vet (4.105510) doctor (3.911073) dental (3.818642) car (3.815202) bagel (3.794109) bike (3.689682) appoint (3.561356) wash (3.545456) 
gym (4.664082) class (4.656619) yoga (4.594141) instructor (4.341524) workout (4.332597) studio (4.306997) batteri (4.280534) membership (4.243955) tan (4.037198) target (4.024179) 
Error (train/valid/test) = 0.856688/1.468299/1.451919 (0.008958)
..................................................
energy after gradient step = 265595842.093658
....
Top words for each topic:
sushi (6.128584) roll (5.180977) cupcak (5.126572) donut (4.668249) buffet (4.524183) sashimi (4.360424) japanes (4.322724) frost (4.279603) tempura (4.205361) ramen (4.167405) 
flower (4.322203) brisket (3.714866) aj (3.418571) florist (3.396695) plant (3.350876) race (3.247457) muffin (3.241430) culver (3.222374) pete (3.158860) tea (2.862803) 
airport (5.312372) flight (4.867677) termin (4.856005) trail (4.816760) hike (4.739527) beer (4.388221) sky (4.351100) breweri (4.228866) harbor (4.178888) brew (3.967194) 
theater (5.019195) movi (4.781255) haircut (4.621470) barber (4.440015) gelato (4.385096) hair (4.359024) theatr (4.248418) harkin (4.178369) crepe (3.899887) pierc (3.757398) 
nail (4.934554) salon (4.630535) pedicur (4.513532) hotel (4.331921) pool (4.151990) spa (4.145625) manicur (4.141276) gel (4.128115) rental (3.994943) wax (3.951158) 
danc (3.902459) bar (3.705675) band (3.657798) bartend (3.481772) venu (3.448923) drink (3.425001) game (3.404699) wing (3.374100) dj (3.299259) tvs (3.295773) 
pizza (4.789891) salad (4.041433) sauc (4.030386) chicken (3.979174) dish (3.790986) food (3.611449) meal (3.579439) fri (3.565054) chees (3.550252) restaur (3.496480) 
taco (5.641012) salsa (5.123545) burrito (5.107209) mexican (5.008491) asada (4.636330) carn (4.617755) tortilla (4.438273) yogurt (4.423225) enchilada (4.312426) guacamol (4.270507) 
dr (4.595752) dentist (4.148517) vet (4.124950) doctor (3.980146) car (3.876918) dental (3.824535) bagel (3.811262) bike (3.678996) appoint (3.654560) wash (3.578745) 
gym (4.828258) class (4.808712) yoga (4.754892) instructor (4.495705) workout (4.487169) studio (4.443019) membership (4.388238) batteri (4.359980) target (4.148998) brake (4.123601) 
Error (train/valid/test) = 0.849618/1.469742/1.453645 (0.009041)
..................................................
energy after gradient step = 263616135.219395
....
Top words for each topic:
sushi (6.260525) roll (5.320915) cupcak (5.228013) donut (4.796202) buffet (4.688990) sashimi (4.452713) japanes (4.424837) frost (4.365785) tempura (4.317680) cake (4.278749) 
flower (4.421041) brisket (3.800068) aj (3.579047) florist (3.503892) plant (3.458660) muffin (3.392565) race (3.371710) culver (3.310856) pete (3.291562) tea (3.036665) 
airport (5.478420) flight (5.020137) termin (4.961046) trail (4.958792) hike (4.864759) beer (4.608666) sky (4.446562) breweri (4.348730) harbor (4.303270) gate (4.133061) 
theater (5.153505) movi (4.901181) haircut (4.764611) hair (4.620736) barber (4.553788) gelato (4.464681) theatr (4.344611) harkin (4.261903) stylist (4.030854) crepe (3.907166) 
nail (5.069198) salon (4.727893) pedicur (4.658550) hotel (4.439023) pool (4.281393) spa (4.277473) manicur (4.269583) gel (4.261877) rental (4.085584) pedi (4.063956) 
danc (3.992327) bar (3.839243) band (3.744128) bartend (3.683486) game (3.587534) drink (3.566421) venu (3.538981) wing (3.529724) dj (3.405774) tvs (3.363702) 
pizza (4.851800) salad (4.135749) sauc (4.130484) chicken (4.114910) dish (3.874139) food (3.689396) fri (3.683738) meal (3.675254) chees (3.632251) menu (3.612026) 
taco (5.803942) salsa (5.331824) mexican (5.264000) burrito (5.256859) asada (4.765051) carn (4.752926) tortilla (4.635039) yogurt (4.557311) enchilada (4.529082) guacamol (4.412975) 
dr (4.651817) dentist (4.167036) vet (4.144109) doctor (4.022608) car (3.946424) dental (3.834197) bagel (3.805106) appoint (3.733268) bike (3.638935) wash (3.590447) 
gym (5.033608) class (4.937115) yoga (4.901527) instructor (4.641671) workout (4.631635) studio (4.601178) membership (4.506574) batteri (4.483033) target (4.245411) brake (4.222367) 
Error (train/valid/test) = 0.841724/1.471454/1.455232 (0.009049)
..................................................
energy after gradient step = 262100382.783873
....
Top words for each topic:
sushi (6.354569) roll (5.429000) cupcak (5.298888) donut (4.894809) buffet (4.809324) sashimi (4.540171) japanes (4.510049) frost (4.428927) tempura (4.387117) cake (4.367169) 
flower (4.481828) brisket (3.924776) aj (3.631331) florist (3.600756) plant (3.513317) muffin (3.495841) culver (3.409962) race (3.402656) pete (3.360957) tea (3.187673) 
airport (5.577351) flight (5.121060) trail (5.060297) termin (5.037847) hike (4.959257) beer (4.765159) sky (4.533640) breweri (4.468331) harbor (4.370174) brew (4.248528) 
theater (5.255054) movi (4.985334) haircut (4.879466) hair (4.843037) barber (4.656559) gelato (4.561283) theatr (4.428888) stylist (4.357235) harkin (4.354382) crepe (4.020160) 
nail (5.185278) salon (4.819658) pedicur (4.781784) hotel (4.521738) pool (4.407510) spa (4.395459) manicur (4.394846) gel (4.377113) pedi (4.169245) rental (4.142009) 
danc (4.067686) bar (3.992183) bartend (3.854878) band (3.810946) drink (3.710977) game (3.693071) wing (3.644855) venu (3.584700) dj (3.471848) sport (3.465005) 
pizza (4.921968) salad (4.230861) chicken (4.226088) sauc (4.215350) dish (3.944257) fri (3.802634) meal (3.762647) food (3.754675) menu (3.726912) chees (3.708187) 
taco (5.936249) salsa (5.488927) mexican (5.450390) burrito (5.369022) asada (4.865147) carn (4.850653) tortilla (4.775024) enchilada (4.677717) yogurt (4.654525) guacamol (4.529709) 
dr (4.689482) dentist (4.189517) vet (4.157333) doctor (4.074346) car (3.983541) dental (3.838262) bagel (3.807865) appoint (3.801200) bike (3.610662) wash (3.586840) 
gym (5.168031) yoga (5.025027) class (5.024684) instructor (4.781577) workout (4.750376) studio (4.742531) membership (4.636201) batteri (4.558515) target (4.348036) jewelri (4.243398) 
Error (train/valid/test) = 0.833884/1.473436/1.456961 (0.009037)
..................................................
energy after gradient step = 260670937.927433
....
Top words for each topic:
sushi (6.459286) roll (5.528776) cupcak (5.370029) donut (4.987988) buffet (4.914762) sashimi (4.618723) japanes (4.595441) frost (4.501846) tempura (4.476670) cake (4.452830) 
flower (4.554154) brisket (4.026243) aj (3.676270) florist (3.650580) muffin (3.592467) plant (3.568433) culver (3.494644) race (3.430696) pete (3.392499) coffe (3.365968) 
airport (5.675347) flight (5.227620) trail (5.174946) termin (5.144063) hike (5.070905) beer (4.918663) sky (4.615867) breweri (4.602213) harbor (4.481729) brew (4.356495) 
theater (5.354781) movi (5.078131) hair (5.056204) haircut (5.002215) barber (4.760786) stylist (4.650096) gelato (4.611825) theatr (4.530089) harkin (4.430686) facial (4.037016) 
nail (5.294351) pedicur (4.902421) salon (4.846877) hotel (4.601591) spa (4.513082) pool (4.503321) manicur (4.497088) gel (4.478769) pedi (4.264487) rental (4.229517) 
danc (4.129432) bar (4.104289) bartend (3.968211) band (3.863391) drink (3.803200) game (3.788481) wing (3.744621) venu (3.649648) dj (3.528566) sport (3.521665) 
pizza (4.975320) salad (4.326957) chicken (4.311387) sauc (4.305160) dish (4.013077) fri (3.913306) meal (3.849675) food (3.814994) menu (3.812684) chees (3.780083) 
taco (6.043749) salsa (5.617576) mexican (5.592285) burrito (5.478140) asada (4.947964) carn (4.941018) tortilla (4.872822) enchilada (4.808889) yogurt (4.739379) guacamol (4.636201) 
dr (4.733637) dentist (4.190729) vet (4.159936) doctor (4.119438) car (4.018541) appoint (3.850602) dental (3.846685) bagel (3.812762) insur (3.621833) bike (3.589701) 
gym (5.278385) yoga (5.153325) class (5.081489) instructor (4.899506) workout (4.883275) studio (4.844887) membership (4.761475) batteri (4.577320) target (4.429798) jewelri (4.342613) 
Error (train/valid/test) = 0.827710/1.477942/1.461522 (0.009286)
..................................................
energy after gradient step = 259414734.548637
....
Top words for each topic:
sushi (6.534311) roll (5.600447) cupcak (5.429461) donut (5.061453) buffet (4.990655) sashimi (4.674532) japanes (4.656910) frost (4.545993) tempura (4.532076) cake (4.500288) 
flower (4.575703) brisket (4.097934) coffe (3.724829) muffin (3.701992) aj (3.700174) florist (3.688221) plant (3.630759) culver (3.572743) race (3.483428) pete (3.430026) 
airport (5.750704) flight (5.306721) trail (5.254623) termin (5.185956) hike (5.142820) beer (5.032911) sky (4.679231) breweri (4.673021) harbor (4.542779) brew (4.443193) 
theater (5.436086) hair (5.219386) movi (5.134704) haircut (5.090554) stylist (4.843995) barber (4.830602) gelato (4.670686) theatr (4.597918) harkin (4.491973) facial (4.146814) 
nail (5.380473) pedicur (5.005630) salon (4.825403) hotel (4.685481) spa (4.609741) manicur (4.595549) pool (4.585526) gel (4.567987) pedi (4.362355) properti (4.272231) 
danc (4.180176) bar (4.169628) bartend (4.076033) band (3.911849) drink (3.893288) game (3.847515) wing (3.825087) venu (3.698765) dj (3.602783) sport (3.564651) 
pizza (5.025501) salad (4.393939) chicken (4.378628) sauc (4.372251) dish (4.072343) fri (3.994373) meal (3.920293) menu (3.877891) food (3.853725) chees (3.821403) 
taco (6.127010) salsa (5.719632) mexican (5.702706) burrito (5.557767) asada (5.013246) carn (5.013168) tortilla (4.960124) enchilada (4.905691) yogurt (4.805412) guacamol (4.710254) 
dr (4.753888) dentist (4.200955) vet (4.161934) doctor (4.141869) car (4.041397) appoint (3.881404) dental (3.848150) bagel (3.803060) repair (3.654654) insur (3.652625) 
gym (5.362686) yoga (5.252000) class (5.106366) instructor (5.007119) workout (4.971598) studio (4.938376) membership (4.843448) batteri (4.646339) target (4.481125) jewelri (4.447369) 
Error (train/valid/test) = 0.818816/1.478110/1.460787 (0.009042)
..................................................
energy after gradient step = 258256823.087984
....
Top words for each topic:
sushi (6.626705) roll (5.675382) cupcak (5.490740) donut (5.137719) buffet (5.095244) sashimi (4.753762) japanes (4.726098) frost (4.615743) tempura (4.602319) cake (4.544312) 
flower (4.607958) brisket (4.203180) coffe (3.980260) aj (3.780292) florist (3.718434) muffin (3.718060) plant (3.626835) culver (3.592030) tea (3.529562) pete (3.470535) 
airport (5.845491) flight (5.384325) trail (5.335567) termin (5.271601) hike (5.213896) beer (5.135483) breweri (4.783299) sky (4.753190) harbor (4.632103) brew (4.521479) 
theater (5.507517) hair (5.341146) movi (5.186313) haircut (5.170636) stylist (4.962196) barber (4.906432) gelato (4.700495) theatr (4.673713) harkin (4.578867) facial (4.225757) 
nail (5.461779) pedicur (5.093968) salon (4.782898) hotel (4.742867) pool (4.698005) spa (4.690438) manicur (4.676780) gel (4.642394) pedi (4.439204) properti (4.328895) 
danc (4.234335) bar (4.226464) bartend (4.174947) drink (3.957184) band (3.950480) wing (3.903522) game (3.901468) venu (3.738398) dj (3.648568) sport (3.623851) 
pizza (5.071045) salad (4.449367) chicken (4.434855) sauc (4.425056) dish (4.116241) fri (4.067706) meal (3.973185) menu (3.912715) food (3.879747) chees (3.857681) 
taco (6.207363) salsa (5.797962) mexican (5.788503) burrito (5.629240) carn (5.077200) asada (5.077062) tortilla (5.029722) enchilada (4.989157) yogurt (4.859349) guacamol (4.785429) 
dr (4.770847) dentist (4.210638) vet (4.176054) doctor (4.157504) car (4.035626) appoint (3.901122) dental (3.851509) bagel (3.788978) repair (3.756702) insur (3.694684) 
gym (5.438923) yoga (5.327709) class (5.128309) instructor (5.086250) workout (5.038374) studio (4.988544) membership (4.906812) batteri (4.634307) trainer (4.527109) target (4.524744) 
Error (train/valid/test) = 0.810889/1.479991/1.462562 (0.009113)
..................................................
energy after gradient step = 257298843.574908
....
Top words for each topic:
sushi (6.687882) roll (5.712537) cupcak (5.544803) donut (5.196744) buffet (5.160827) sashimi (4.814407) japanes (4.790699) tempura (4.666168) frost (4.650004) pho (4.614781) 
flower (4.613770) brisket (4.215364) coffe (4.201378) muffin (3.793756) aj (3.753626) florist (3.735292) plant (3.653292) latt (3.628094) tea (3.614420) culver (3.608491) 
airport (5.906137) flight (5.449035) trail (5.419504) termin (5.334696) hike (5.282535) beer (5.203285) breweri (4.857592) sky (4.816232) harbor (4.713720) brew (4.578340) 
theater (5.578396) hair (5.460715) haircut (5.254285) movi (5.245224) stylist (5.096318) barber (4.975143) gelato (4.762066) theatr (4.722356) harkin (4.626793) salon (4.284213) 
nail (5.510763) pedicur (5.181045) hotel (4.818914) pool (4.791961) salon (4.772308) spa (4.767740) manicur (4.764968) gel (4.730866) pedi (4.519521) properti (4.388224) 
bar (4.289575) danc (4.281383) bartend (4.247905) drink (4.014795) band (3.992443) wing (3.978606) game (3.942203) venu (3.783759) dj (3.734372) sport (3.649730) 
pizza (5.118583) salad (4.516617) chicken (4.492836) sauc (4.480523) dish (4.169103) fri (4.146705) meal (4.032980) menu (3.968150) food (3.910455) chees (3.896136) 
taco (6.272098) salsa (5.871116) mexican (5.864508) burrito (5.697256) asada (5.138625) carn (5.137666) tortilla (5.110614) enchilada (5.066773) yogurt (4.911400) guacamol (4.852193) 
dr (4.793345) dentist (4.214172) doctor (4.183222) vet (4.177148) car (4.057372) appoint (3.927587) dental (3.846308) repair (3.838978) bagel (3.775401) insur (3.722480) 
gym (5.497179) yoga (5.410182) instructor (5.176780) class (5.139993) workout (5.115966) studio (5.064954) membership (5.010751) trainer (4.631064) batteri (4.598960) jewelri (4.580294) 
Error (train/valid/test) = 0.803272/1.482643/1.465299 (0.009063)
..................................................
energy after gradient step = 256534143.503483
....
Top words for each topic:
sushi (6.761975) roll (5.773371) cupcak (5.603407) donut (5.259863) buffet (5.226320) pho (4.873981) sashimi (4.871704) japanes (4.848276) tempura (4.719197) frost (4.708335) 
flower (4.623650) coffe (4.467110) brisket (4.270621) muffin (3.830794) aj (3.809235) latt (3.793816) florist (3.739135) tea (3.699501) culver (3.631495) plant (3.615425) 
airport (5.975450) flight (5.516495) trail (5.487790) termin (5.367843) hike (5.330283) beer (5.278212) breweri (4.936480) sky (4.879849) harbor (4.755249) ale (4.648931) 
theater (5.650906) hair (5.533725) haircut (5.337195) movi (5.275602) stylist (5.195157) barber (5.048264) theatr (4.812205) gelato (4.775074) harkin (4.701265) salon (4.518845) 
nail (5.574207) pedicur (5.274925) pool (4.872536) spa (4.856731) hotel (4.851380) manicur (4.841932) gel (4.802511) salon (4.757423) pedi (4.596105) properti (4.458993) 
bartend (4.341460) bar (4.332019) danc (4.328775) drink (4.061017) wing (4.060974) band (4.038721) game (3.988205) venu (3.828492) dj (3.783187) sport (3.686680) 
pizza (5.168867) salad (4.586547) chicken (4.545112) sauc (4.532624) fri (4.217463) dish (4.205216) meal (4.095474) menu (4.019208) food (3.934063) chees (3.930447) 
taco (6.333178) salsa (5.942036) mexican (5.933186) burrito (5.758633) asada (5.201802) carn (5.195654) tortilla (5.173170) enchilada (5.135384) yogurt (4.965010) guacamol (4.917101) 
dr (4.819839) dentist (4.225728) doctor (4.201770) vet (4.186236) car (4.062124) appoint (3.930868) repair (3.922287) dental (3.857897) bagel (3.760882) insur (3.753516) 
gym (5.547284) yoga (5.478519) instructor (5.237374) workout (5.179339) class (5.171296) studio (5.108690) membership (5.045113) trainer (4.714782) jewelri (4.673033) target (4.626225) 
Error (train/valid/test) = 0.793730/1.484464/1.467098 (0.009178)
..................................................
energy after gradient step = 255832370.316791
....
Top words for each topic:
sushi (6.826500) roll (5.808544) cupcak (5.655505) donut (5.322326) buffet (5.303570) pho (5.121575) sashimi (4.930614) japanes (4.907749) tempura (4.782450) frost (4.758941) 
coffe (4.685332) flower (4.608392) brisket (4.292261) latt (3.934220) muffin (3.899952) aj (3.792508) florist (3.757429) tea (3.744042) starbuck (3.735058) dog (3.673418) 
airport (6.034814) flight (5.587239) trail (5.557098) termin (5.437938) hike (5.385205) beer (5.338366) breweri (5.005501) sky (4.913199) harbor (4.823615) brew (4.674503) 
theater (5.715202) hair (5.587716) haircut (5.411449) movi (5.304029) stylist (5.290082) barber (5.109915) theatr (4.847574) gelato (4.828016) harkin (4.729271) salon (4.675484) 
nail (5.626902) pedicur (5.349097) pool (4.941729) spa (4.935300) manicur (4.913790) hotel (4.902382) gel (4.874880) salon (4.757185) pedi (4.667559) properti (4.496446) 
bartend (4.395829) bar (4.382774) danc (4.362858) wing (4.132410) drink (4.101562) band (4.080013) game (4.027317) venu (3.876188) dj (3.840450) sport (3.703133) 
pizza (5.216544) salad (4.643525) chicken (4.594140) sauc (4.579345) fri (4.280416) dish (4.239100) meal (4.153676) menu (4.045298) bread (3.984582) chees (3.956735) 
taco (6.392013) salsa (6.004404) mexican (5.989955) burrito (5.818476) asada (5.255809) carn (5.254131) tortilla (5.224105) enchilada (5.197533) yogurt (5.006854) guacamol (4.970351) 
dr (4.838821) dentist (4.236975) doctor (4.225913) vet (4.200352) car (4.068802) repair (3.991013) appoint (3.958894) dental (3.863881) insur (3.783956) bagel (3.747305) 
gym (5.571580) yoga (5.528862) instructor (5.317961) workout (5.230055) class (5.188534) studio (5.147629) membership (5.104424) trainer (4.797551) jewelri (4.711684) teacher (4.643403) 
Error (train/valid/test) = 0.785237/1.486786/1.469394 (0.009200)
..................................................
energy after gradient step = 255089458.814236
....
Top words for each topic:
sushi (6.890474) roll (5.837921) cupcak (5.707888) donut (5.381668) buffet (5.359344) pho (5.339188) sashimi (4.984273) japanes (4.962863) tempura (4.833085) frost (4.792708) 
coffe (4.867010) flower (4.612386) brisket (4.307588) latt (4.013674) muffin (3.934244) starbuck (3.891208) aj (3.802167) tea (3.796898) dog (3.769255) florist (3.755114) 
airport (6.088515) flight (5.639320) trail (5.627345) termin (5.476297) hike (5.423935) beer (5.382746) breweri (5.091794) sky (4.956250) harbor (4.876830) ale (4.730067) 
theater (5.777034) hair (5.636627) haircut (5.480281) stylist (5.374314) movi (5.327884) barber (5.171213) theatr (4.915251) gelato (4.845718) salon (4.827220) harkin (4.792085) 
nail (5.669566) pedicur (5.423416) pool (5.011755) spa (5.004966) manicur (4.985130) hotel (4.948383) gel (4.932125) salon (4.744466) pedi (4.726240) properti (4.544518) 
bartend (4.455191) bar (4.430514) danc (4.399837) wing (4.202937) drink (4.140601) band (4.107019) game (4.016372) venu (3.897661) dj (3.880474) sport (3.726245) 
pizza (5.255501) salad (4.694335) chicken (4.625013) sauc (4.618053) fri (4.325844) dish (4.260832) meal (4.193398) menu (4.061937) bread (4.030927) chees (3.987472) 
taco (6.452235) salsa (6.064270) mexican (6.049029) burrito (5.872146) carn (5.306587) asada (5.305980) tortilla (5.268995) enchilada (5.253619) yogurt (5.043259) guacamol (5.026548) 
dr (4.850612) dentist (4.241763) doctor (4.240258) vet (4.205285) car (4.069065) repair (4.035360) appoint (3.970470) dental (3.866222) insur (3.798678) bagel (3.742996) 
gym (5.596930) yoga (5.577537) instructor (5.365386) workout (5.264826) class (5.200821) studio (5.184067) membership (5.121726) trainer (4.849206) jewelri (4.781234) teacher (4.673868) 
Error (train/valid/test) = 0.777183/1.489232/1.471633 (0.009186)
..................................................
energy after gradient step = 254500221.288371
....
Top words for each topic:
sushi (6.955464) roll (5.859292) cupcak (5.761507) pho (5.483998) donut (5.440350) buffet (5.411537) sashimi (5.037593) japanes (5.012471) tempura (4.887211) frost (4.837742) 
coffe (5.052383) flower (4.606252) brisket (4.362518) latt (4.112093) muffin (4.012392) starbuck (3.999992) tea (3.843048) dog (3.839387) florist (3.796628) aj (3.781596) 
airport (6.133666) flight (5.692960) trail (5.683008) termin (5.520787) hike (5.461684) beer (5.413545) breweri (5.119665) sky (4.995747) harbor (4.916152) ale (4.794575) 
theater (5.832911) hair (5.675433) haircut (5.544535) stylist (5.457359) movi (5.360292) barber (5.230417) theatr (4.964270) salon (4.956852) gelato (4.897193) harkin (4.854977) 
nail (5.704734) pedicur (5.486269) pool (5.079433) spa (5.066067) manicur (5.039055) hotel (5.025014) gel (4.993114) pedi (4.787362) salon (4.744771) properti (4.581177) 
bartend (4.534325) bar (4.480673) danc (4.438004) wing (4.286343) drink (4.173991) band (4.135948) game (4.030993) dj (3.948039) venu (3.937894) beer (3.792986) 
pizza (5.298182) salad (4.746641) chicken (4.661644) sauc (4.660636) fri (4.380543) dish (4.279471) meal (4.235263) menu (4.090003) bread (4.078417) chees (4.003525) 
taco (6.502194) salsa (6.119990) mexican (6.097976) burrito (5.918720) carn (5.361311) asada (5.355972) tortilla (5.325042) enchilada (5.311628) yogurt (5.085416) guacamol (5.072465) 
dr (4.868457) doctor (4.261976) dentist (4.251413) vet (4.210210) repair (4.073118) car (4.057373) appoint (3.969184) dental (3.869938) insur (3.816679) bagel (3.735871) 
yoga (5.624885) gym (5.604194) instructor (5.425276) workout (5.293860) studio (5.186883) class (5.184696) membership (5.175012) trainer (4.898403) jewelri (4.796172) teacher (4.703980) 
Error (train/valid/test) = 0.768330/1.491813/1.474282 (0.009261)
..................................................
energy after gradient step = 253978598.594170
....
Top words for each topic:
sushi (7.001566) roll (5.857915) cupcak (5.803892) pho (5.579850) donut (5.485150) buffet (5.458108) sashimi (5.084253) japanes (5.058648) tempura (4.921979) frost (4.852232) 
coffe (5.164717) flower (4.606763) brisket (4.359093) latt (4.165016) starbuck (4.104607) muffin (4.051253) tea (3.892292) barista (3.890650) dog (3.886718) aj (3.798052) 
airport (6.175988) trail (5.744919) flight (5.731672) termin (5.553231) hike (5.500354) beer (5.442914) breweri (5.217284) sky (5.035627) harbor (4.996556) airlin (4.845006) 
theater (5.887678) hair (5.710950) haircut (5.611414) stylist (5.530514) movi (5.390108) barber (5.283859) salon (5.082802) theatr (5.017632) gelato (4.936800) harkin (4.897376) 
nail (5.739241) pedicur (5.550101) pool (5.151904) spa (5.115904) manicur (5.093828) hotel (5.055074) gel (5.050308) pedi (4.839604) salon (4.734467) properti (4.625753) 
bartend (4.600600) bar (4.527538) danc (4.462054) wing (4.345277) drink (4.184346) band (4.166815) game (4.003647) dj (3.991929) venu (3.960108) beer (3.870705) 
pizza (5.335210) salad (4.795245) chicken (4.693786) sauc (4.689396) fri (4.423954) dish (4.295979) meal (4.272727) bread (4.116686) menu (4.112006) burger (4.040230) 
taco (6.549669) salsa (6.174651) mexican (6.141267) burrito (5.971463) carn (5.408231) asada (5.403794) tortilla (5.364455) enchilada (5.360739) guacamol (5.126783) yogurt (5.117294) 
dr (4.878655) doctor (4.269819) dentist (4.253004) vet (4.216934) repair (4.106298) car (4.051800) appoint (3.970510) dental (3.873798) insur (3.833751) bagel (3.721584) 
yoga (5.657259) gym (5.620435) instructor (5.459956) workout (5.317897) studio (5.203462) class (5.202482) membership (5.194486) trainer (4.946941) jewelri (4.817026) store (4.762986) 
Error (train/valid/test) = 0.759745/1.494232/1.477072 (0.009243)
..................................................
energy after gradient step = 253543769.984753
....
Top words for each topic:
sushi (7.056966) roll (5.856153) cupcak (5.846715) pho (5.674345) donut (5.530614) buffet (5.494779) sashimi (5.127077) japanes (5.101027) tempura (4.980604) frost (4.897465) 
coffe (5.231158) flower (4.614313) brisket (4.376313) latt (4.233901) starbuck (4.202060) muffin (4.115458) barista (3.975884) dog (3.974663) tea (3.926684) espresso (3.859451) 
airport (6.218041) trail (5.791217) flight (5.765804) termin (5.600109) hike (5.531066) beer (5.475332) breweri (5.229064) sky (5.064671) harbor (5.003838) airlin (4.893059) 
theater (5.941877) hair (5.738033) haircut (5.678752) stylist (5.601676) movi (5.402136) barber (5.342444) salon (5.191384) theatr (5.062436) gelato (4.972353) harkin (4.947350) 
nail (5.764962) pedicur (5.607422) pool (5.207416) spa (5.171628) manicur (5.158693) hotel (5.111164) gel (5.096892) pedi (4.911125) salon (4.745831) resort (4.670715) 
bartend (4.670225) bar (4.557852) danc (4.487860) wing (4.420970) drink (4.193927) band (4.186332) dj (4.021268) venu (3.979631) game (3.979278) beer (3.947687) 
pizza (5.371642) salad (4.853497) chicken (4.724822) sauc (4.717165) fri (4.477138) dish (4.318926) meal (4.303317) bread (4.160369) burger (4.114923) menu (4.114326) 
taco (6.601683) salsa (6.230618) mexican (6.191397) burrito (6.022741) carn (5.456581) asada (5.449825) tortilla (5.415434) enchilada (5.411904) guacamol (5.174257) yogurt (5.145650) 
dr (4.898970) doctor (4.289225) dentist (4.264980) vet (4.225516) repair (4.145364) car (4.038103) appoint (3.963573) dental (3.888723) insur (3.858201) bagel (3.713770) 
yoga (5.683096) gym (5.607855) instructor (5.508320) workout (5.331107) membership (5.222242) studio (5.209040) class (5.187512) trainer (4.979041) jewelri (4.883170) store (4.830709) 
Error (train/valid/test) = 0.749919/1.497250/1.480722 (0.009346)
..................................................
energy after gradient step = 253122074.169303
....
Top words for each topic:
sushi (7.099220) cupcak (5.876812) roll (5.857943) pho (5.742475) donut (5.566168) buffet (5.533445) sashimi (5.168627) japanes (5.137920) tempura (5.004508) ramen (4.909676) 
coffe (5.283509) flower (4.623914) brisket (4.405478) latt (4.297475) starbuck (4.272158) muffin (4.148012) dog (4.036554) barista (4.029357) tea (3.966561) espresso (3.889135) 
airport (6.253394) trail (5.841639) flight (5.799550) termin (5.616507) hike (5.556514) beer (5.502866) breweri (5.306259) harbor (5.086480) sky (5.081643) airlin (4.931919) 
theater (5.992239) hair (5.760327) haircut (5.722984) stylist (5.662232) movi (5.422444) barber (5.387845) salon (5.285032) theatr (5.114387) harkin (4.996277) gelato (4.987197) 
nail (5.778130) pedicur (5.662232) pool (5.254818) spa (5.220192) manicur (5.211240) hotel (5.173732) gel (5.153942) pedi (4.951089) salon (4.755806) resort (4.721456) 
bartend (4.732947) bar (4.585197) danc (4.498835) wing (4.465731) band (4.200059) drink (4.180688) dj (4.056129) beer (4.015939) venu (3.997274) game (3.942462) 
pizza (5.405577) salad (4.894191) chicken (4.751395) sauc (4.747718) fri (4.515611) meal (4.327732) dish (4.326294) bread (4.200239) burger (4.174622) menu (4.123997) 
taco (6.639988) salsa (6.271262) mexican (6.231089) burrito (6.061223) carn (5.497694) asada (5.492410) enchilada (5.454718) tortilla (5.444424) guacamol (5.216435) yogurt (5.174586) 
dr (4.914955) doctor (4.306776) dentist (4.271910) vet (4.225328) repair (4.186261) car (4.031203) appoint (3.969673) dental (3.880036) insur (3.873166) bagel (3.711992) 
yoga (5.712559) gym (5.607003) instructor (5.533884) workout (5.339163) membership (5.228694) studio (5.190980) class (5.176082) trainer (5.021160) store (4.892728) jewelri (4.869350) 
Error (train/valid/test) = 0.741315/1.499657/1.483312 (0.009342)
..................................................
energy after gradient step = 252794374.295691
....
Top words for each topic:
sushi (7.146764) cupcak (5.911754) roll (5.840651) pho (5.819539) donut (5.601692) buffet (5.558392) sashimi (5.211678) japanes (5.171015) tempura (5.060142) ramen (4.950520) 
coffe (5.342583) flower (4.631242) brisket (4.427466) latt (4.363272) starbuck (4.336498) muffin (4.203107) barista (4.117773) dog (4.083794) tea (4.009764) espresso (3.951721) 
airport (6.294419) trail (5.880369) flight (5.822982) termin (5.658675) hike (5.570795) beer (5.523041) breweri (5.339646) sky (5.125243) harbor (5.092505) airlin (4.968338) 
theater (6.041746) haircut (5.785372) hair (5.765740) stylist (5.731207) movi (5.446553) barber (5.433975) salon (5.374746) theatr (5.159205) harkin (5.035119) gelato (5.026053) 
nail (5.806541) pedicur (5.719024) pool (5.318585) spa (5.273850) manicur (5.258212) hotel (5.217391) gel (5.196463) pedi (5.009216) salon (4.777266) resort (4.749250) 
bartend (4.776063) bar (4.605418) wing (4.517164) danc (4.514381) band (4.219204) drink (4.153037) dj (4.095566) beer (4.065399) venu (3.984690) game (3.917083) 
pizza (5.441490) salad (4.945354) chicken (4.781705) sauc (4.776671) fri (4.563298) meal (4.344425) dish (4.328212) bread (4.237161) burger (4.231016) menu (4.125089) 
taco (6.686612) salsa (6.316329) mexican (6.260803) burrito (6.103633) carn (5.545240) asada (5.536419) enchilada (5.501463) tortilla (5.480364) guacamol (5.255800) yogurt (5.201857) 
dr (4.918909) doctor (4.317994) dentist (4.282347) vet (4.235577) repair (4.208766) car (4.020760) appoint (3.939425) insur (3.895723) dental (3.885812) bagel (3.719116) 
yoga (5.725371) gym (5.590784) instructor (5.571260) workout (5.345637) membership (5.244395) studio (5.168706) class (5.160018) trainer (5.035765) store (4.951283) jewelri (4.921167) 
Error (train/valid/test) = 0.730878/1.503399/1.487521 (0.009404)
..................................................
energy after gradient step = 252439586.250714
....
Top words for each topic:
sushi (7.185992) cupcak (5.947300) pho (5.868702) roll (5.822018) donut (5.625533) buffet (5.579390) sashimi (5.246865) japanes (5.196565) tempura (5.078170) ramen (4.975846) 
coffe (5.392803) flower (4.626751) brisket (4.450274) latt (4.418044) starbuck (4.400632) muffin (4.247872) barista (4.172474) dog (4.110702) tea (4.037838) espresso (3.994365) 
airport (6.326257) trail (5.937689) flight (5.867422) termin (5.695977) hike (5.606719) beer (5.540074) breweri (5.412179) harbor (5.174069) sky (5.147936) airlin (5.070260) 
theater (6.085744) haircut (5.838652) stylist (5.787216) hair (5.769319) barber (5.485526) movi (5.459769) salon (5.457460) theatr (5.194155) harkin (5.079534) gelato (5.062403) 
nail (5.808477) pedicur (5.769781) pool (5.362999) spa (5.323668) manicur (5.308110) hotel (5.270406) gel (5.237052) pedi (5.055381) resort (4.788282) salon (4.785652) 
bartend (4.804150) bar (4.634361) wing (4.552438) danc (4.523161) band (4.220917) drink (4.139906) dj (4.131897) beer (4.107267) venu (4.002146) game (3.898339) 
pizza (5.473199) salad (4.983183) sauc (4.803932) chicken (4.797543) fri (4.600037) meal (4.359632) dish (4.328301) burger (4.279481) bread (4.268349) thai (4.140904) 
taco (6.721880) salsa (6.353699) mexican (6.282103) burrito (6.138371) carn (5.580078) asada (5.570965) enchilada (5.536421) tortilla (5.497727) guacamol (5.285430) yogurt (5.222559) 
dr (4.936026) doctor (4.329936) dentist (4.283987) repair (4.243158) vet (4.239483) car (4.005260) appoint (3.929239) insur (3.914414) dental (3.890957) bagel (3.718625) 
yoga (5.742080) gym (5.589897) instructor (5.583642) workout (5.347851) membership (5.237357) studio (5.156025) class (5.132159) trainer (5.074126) store (4.981696) jewelri (4.916233) 
Error (train/valid/test) = 0.721649/1.506184/1.490533 (0.009400)
..................................................
energy after gradient step = 252179944.151115
....
Top words for each topic:
sushi (7.215271) cupcak (5.969419) pho (5.917769) roll (5.794479) donut (5.649272) buffet (5.591334) sashimi (5.274600) japanes (5.221357) tempura (5.107624) ramen (5.011151) 
coffe (5.430243) flower (4.650629) latt (4.479216) brisket (4.457698) starbuck (4.455522) muffin (4.286412) barista (4.254836) dog (4.150236) tea (4.068347) espresso (4.049330) 
airport (6.347495) trail (5.973364) flight (5.892169) termin (5.723024) hike (5.626014) beer (5.552470) breweri (5.454560) harbor (5.186181) sky (5.166720) airlin (5.091544) 
theater (6.129230) haircut (5.887217) stylist (5.843907) hair (5.759576) barber (5.526326) salon (5.519493) movi (5.470469) theatr (5.237869) harkin (5.119010) gelato (5.064523) 
pedicur (5.821801) nail (5.820617) pool (5.402638) spa (5.371857) manicur (5.352093) hotel (5.308712) gel (5.279825) pedi (5.101331) resort (4.848011) salon (4.803238) 
bartend (4.840230) bar (4.643106) wing (4.596812) danc (4.528895) band (4.232379) beer (4.145982) dj (4.140751) drink (4.124506) venu (4.000802) karaok (3.895714) 
pizza (5.500325) salad (5.026139) sauc (4.829784) chicken (4.811688) fri (4.626785) meal (4.373182) burger (4.323930) dish (4.323018) bread (4.308399) thai (4.169971) 
taco (6.749514) salsa (6.386783) mexican (6.307422) burrito (6.167592) carn (5.614933) asada (5.605275) enchilada (5.575291) tortilla (5.523620) guacamol (5.318365) yogurt (5.234013) 
dr (4.947166) doctor (4.339353) dentist (4.292710) repair (4.272325) vet (4.245690) car (4.013724) insur (3.922315) appoint (3.898853) dental (3.891122) bagel (3.711343) 
yoga (5.753392) instructor (5.615104) gym (5.570554) workout (5.339412) membership (5.232210) studio (5.148235) class (5.108059) trainer (5.089875) store (5.018648) jewelri (4.940961) 
Error (train/valid/test) = 0.712518/1.509149/1.493918 (0.009408)
..................................................
energy after gradient step = 251940967.969137
....
Top words for each topic:
sushi (7.246168) cupcak (5.990822) pho (5.960464) roll (5.750924) donut (5.672972) buffet (5.607295) sashimi (5.304724) japanes (5.250491) tempura (5.132039) ramen (5.028814) 
coffe (5.462178) flower (4.651830) latt (4.531937) starbuck (4.498747) brisket (4.454178) muffin (4.313229) barista (4.291708) dog (4.179874) espresso (4.098674) tea (4.095159) 
airport (6.381036) trail (6.018782) flight (5.922168) termin (5.741722) hike (5.633300) beer (5.560284) breweri (5.486585) harbor (5.249648) sky (5.193423) airlin (5.130923) 
theater (6.166200) haircut (5.926854) stylist (5.887455) hair (5.753052) salon (5.595005) barber (5.561728) movi (5.488537) theatr (5.258826) harkin (5.155511) gelato (5.095977) 
pedicur (5.866797) nail (5.822786) pool (5.451649) spa (5.412894) manicur (5.392340) hotel (5.356853) gel (5.316043) pedi (5.140832) resort (4.888032) salon (4.804947) 
bartend (4.866168) bar (4.650793) wing (4.620261) danc (4.529539) band (4.236757) beer (4.193108) dj (4.166173) drink (4.086147) venu (3.988521) irish (3.928703) 
pizza (5.528008) salad (5.063267) sauc (4.850327) chicken (4.822022) fri (4.653120) meal (4.373517) burger (4.370656) bread (4.325055) dish (4.316471) thai (4.200988) 
taco (6.778403) salsa (6.414960) mexican (6.331712) burrito (6.192973) carn (5.648316) asada (5.636177) enchilada (5.605965) tortilla (5.547374) guacamol (5.346422) yogurt (5.244586) 
dr (4.950763) doctor (4.343151) dentist (4.295166) repair (4.285486) vet (4.248714) car (4.008575) insur (3.933829) dental (3.898928) appoint (3.864335) instal (3.734798) 
yoga (5.765696) instructor (5.628578) gym (5.556869) workout (5.331738) membership (5.232713) studio (5.127625) trainer (5.122224) class (5.099287) store (5.035531) jewelri (4.932020) 
Error (train/valid/test) = 0.703937/1.512701/1.497438 (0.009391)
..................................................
energy after gradient step = 251745009.603372
....
Top words for each topic:
sushi (7.274768) cupcak (6.010663) pho (5.997730) roll (5.717860) donut (5.694079) buffet (5.602383) sashimi (5.326018) japanes (5.265992) tempura (5.158929) noodl (5.053880) 
coffe (5.496621) flower (4.646593) latt (4.582640) starbuck (4.551942) brisket (4.477515) muffin (4.359585) barista (4.341741) dog (4.219238) espresso (4.147834) tea (4.124230) 
airport (6.395664) trail (6.049673) flight (5.933656) termin (5.773004) hike (5.649847) beer (5.558192) breweri (5.532432) harbor (5.237011) sky (5.203102) airlin (5.181377) 
theater (6.201322) haircut (5.967604) stylist (5.935271) hair (5.741083) salon (5.646154) barber (5.599047) movi (5.504149) theatr (5.309969) harkin (5.188976) gelato (5.090898) 
pedicur (5.909491) nail (5.830836) pool (5.489216) spa (5.444250) manicur (5.431851) hotel (5.392451) gel (5.352282) pedi (5.174485) resort (4.922599) salon (4.825909) 
bartend (4.900462) wing (4.664458) bar (4.653979) danc (4.520519) band (4.227239) beer (4.221076) dj (4.175231) drink (4.051966) venu (3.993308) pub (3.946467) 
pizza (5.552075) salad (5.097184) sauc (4.865779) chicken (4.825924) fri (4.677859) burger (4.402400) meal (4.373704) bread (4.357134) dish (4.314140) thai (4.229200) 
taco (6.802581) salsa (6.438127) mexican (6.353020) burrito (6.212322) carn (5.675182) asada (5.665367) enchilada (5.637909) tortilla (5.569830) guacamol (5.374437) yogurt (5.251152) 
dr (4.962804) doctor (4.352842) repair (4.300537) dentist (4.294541) vet (4.253542) car (4.001197) insur (3.938883) dental (3.889959) appoint (3.855620) instal (3.754287) 
yoga (5.762864) instructor (5.639370) gym (5.543771) workout (5.316390) membership (5.226838) studio (5.123338) trainer (5.117644) store (5.076223) class (5.064509) jewelri (4.949491) 
Error (train/valid/test) = 0.695105/1.515491/1.501051 (0.009467)
