corpus = data_edin.gz
latentReg = 0.000000
lambda = 3.000000
K = 10

nUsers = 3150, nItems = 2941, nRatings = 23780

Error w/ offset term only (train/valid/test) = 1.016008/1.045332/1.041079 (0.032906)
Error w/ offset and bias (train/valid/test) = 0.526098/0.875884/0.856607 (0.029552)

..................................................
energy after gradient step = 49438885.071737

Top words for each topic:
layer (0.825972) rout (0.768088) du (0.734584) mess (0.705403) shore (0.696547) catch (0.689982) track (0.670441) buzz (0.650869) heavi (0.635780) pancak (0.633528) 
chic (0.862836) victoria (0.835272) dure (0.778015) korean (0.705184) massag (0.693973) fluffi (0.680545) luck (0.669434) morningsid (0.657078) secret (0.655525) yard (0.649744) 
der (0.735987) cave (0.732080) potenti (0.711978) queen (0.682081) ocean (0.669055) hipster (0.648528) feet (0.641886) carrot (0.632759) topshop (0.627328) fail (0.609019) 
hangov (0.722096) asid (0.678765) caramel (0.678649) goer (0.661812) joint (0.647625) diner (0.617371) stuck (0.615895) contain (0.601114) diamond (0.580198) eateri (0.568343) 
chop (0.790686) updat (0.765305) dcor (0.763369) broken (0.735663) spanish (0.705576) sticki (0.702971) desk (0.672534) trap (0.648662) stori (0.648149) lager (0.613868) 
greasi (0.741607) balanc (0.737016) squash (0.723533) layout (0.686165) belt (0.683392) eventu (0.682098) fool (0.677041) except (0.670044) grill (0.657798) skewer (0.653666) 
steep (0.909425) print (0.870771) stew (0.790499) measur (0.790491) platter (0.785174) miso (0.712932) war (0.696963) reflect (0.687592) equip (0.630516) partial (0.620062) 
galleri (0.768799) leather (0.741345) 50 (0.722405) detail (0.690410) chris (0.592269) request (0.591797) il (0.588742) dosa (0.581358) array (0.560063) attempt (0.550960) 
descript (0.661504) coat (0.631500) countri (0.622904) victoria (0.621956) outlet (0.614321) attitud (0.600922) giant (0.600193) basi (0.593497) 35 (0.588070) known (0.583636) 
meatbal (0.811153) yum (0.783950) somewher (0.719579) non (0.697195) pretend (0.696142) spring (0.683799) spectacular (0.675440) magic (0.652014) outdoor (0.644859) gent (0.636483) 
Error (train/valid/test) = 0.743092/0.929782/0.893235 (0.026480)
..................................................
energy after gradient step = 49290594.047515

Top words for each topic:
layer (1.245962) entri (1.171900) rout (1.159055) forc (1.107251) dot (1.096505) nicht (1.009916) c (0.997404) potter (0.993272) jumper (0.971465) biryani (0.962259) 
fond (1.217489) fluffi (1.186148) victoria (1.182517) studi (1.118300) teenag (1.061432) luck (1.059149) whip (1.028839) attend (1.024349) bow (1.020104) yard (1.019363) 
initi (1.193298) iv (1.112713) petit (1.083893) waver (1.016092) potenti (1.010973) scott (0.996967) necklac (0.971988) leisur (0.949765) manner (0.903074) element (0.899438) 
assur (1.243568) treasur (1.178729) stroll (1.103399) crap (1.067248) eater (1.047786) tenner (1.032938) consum (1.024565) confid (0.993853) contain (0.983432) pad (0.981564) 
sick (1.148799) companion (1.066990) sticki (1.043842) tie (1.035698) hairdress (1.017905) earth (0.984522) answer (0.975011) expert (0.953996) 23 (0.951532) fridg (0.940828) 
dens (1.289428) whenev (1.096551) mac (1.056813) masala (1.051804) creativ (0.987245) overcook (0.986662) ratio (0.958863) sleep (0.954105) lentil (0.930728) leaf (0.926906) 
miso (1.400879) print (1.159242) gran (1.041229) closest (1.036480) stew (1.030395) scream (1.022114) mistak (0.990009) sehr (0.974293) palat (0.959968) measur (0.943293) 
halloween (1.152593) ravioli (1.097647) chris (1.088222) 45 (1.076552) blood (1.069575) guarante (1.055980) spanish (1.043564) 150 (1.036759) driver (0.995440) 50 (0.994533) 
tasteless (1.242378) mr (1.224966) victoria (1.139246) termin (1.135239) butcher (1.055020) tall (1.008893) primarili (1.003819) los (0.981712) 35 (0.978364) outlet (0.973303) 
began (1.227209) messi (1.145928) modest (1.109889) devil (1.081939) extent (1.059671) outstand (1.007222) pretend (1.006655) spectacular (1.002071) prais (0.995339) cooki (0.989313) 
Error (train/valid/test) = 0.579960/0.867837/0.835146 (0.029771)
..................................................
energy after gradient step = 49204115.708254

Top words for each topic:
entri (1.473755) layer (1.333088) bustl (1.273590) abov (1.239950) endless (1.225472) nicht (1.199522) forc (1.162657) rout (1.152277) traffic (1.144823) potter (1.127578) 
fluffi (1.330252) studi (1.221250) luck (1.192877) lettuc (1.189061) victoria (1.167866) fond (1.162500) indic (1.156110) yard (1.150180) listen (1.135338) zone (1.134714) 
iv (1.506314) microwav (1.449930) petit (1.365221) initi (1.320973) scoop (1.231100) awar (1.217862) draw (1.157532) john (1.156238) manner (1.079586) fr (1.067939) 
hide (1.474834) convinc (1.304283) confid (1.267143) assur (1.238362) scream (1.210381) juici (1.189978) refil (1.187370) stroll (1.185786) lifetim (1.152564) coleslaw (1.147682) 
tie (1.370452) 23 (1.286354) sick (1.243288) experienc (1.233684) earth (1.233639) companion (1.205409) dock (1.201403) physic (1.155172) electr (1.129856) sticki (1.125296) 
mac (1.320407) masala (1.311572) creativ (1.286050) ratio (1.253049) dens (1.228667) leaf (1.224043) supris (1.171461) fudg (1.143066) tonic (1.130329) renov (1.114575) 
miso (1.321509) print (1.266788) sehr (1.260612) blockbust (1.173798) period (1.159083) pesto (1.136087) salon (1.124099) social (1.097415) function (1.089205) compet (1.070152) 
chris (1.467552) halloween (1.396898) guarante (1.396623) ravioli (1.379648) fillet (1.369210) tonight (1.262130) handbag (1.236130) golf (1.225308) august (1.196476) divin (1.169413) 
tasteless (1.527895) discuss (1.433015) outlet (1.336258) uninspir (1.251333) execut (1.243275) basi (1.238440) descript (1.185672) karaok (1.150403) cooki (1.136312) piss (1.115385) 
began (1.578228) messi (1.395330) sainsburi (1.368805) modest (1.324605) outstand (1.308409) novel (1.263682) dedic (1.229467) settl (1.225279) goodi (1.195408) prior (1.140656) 
Error (train/valid/test) = 0.526954/0.870632/0.837157 (0.029125)
..................................................
energy after gradient step = 49127397.335184

Top words for each topic:
layer (1.626719) traffic (1.434527) dosa (1.427406) therefor (1.421492) refurbish (1.409291) cranberri (1.389396) entri (1.358955) abov (1.343127) cuckoo (1.319483) potter (1.314843) 
planet (1.497613) lettuc (1.389993) attend (1.381903) clerk (1.374315) blood (1.364540) luck (1.361924) yard (1.360295) massag (1.358306) mackerel (1.351461) bond (1.341363) 
microwav (1.584260) petit (1.479439) scoop (1.401767) stylish (1.376987) million (1.372549) cramp (1.361017) awar (1.353049) iv (1.329842) noisi (1.329690) missoni (1.314040) 
scream (1.674452) tvs (1.565944) confid (1.511600) frank (1.429406) plant (1.426901) neep (1.352136) weve (1.312111) convinc (1.300288) teriyaki (1.296139) hide (1.291250) 
dock (1.660801) tie (1.593508) fiction (1.535645) labyrinth (1.511673) costa (1.464626) girlfriend (1.401102) mosqu (1.362300) au (1.362058) leaf (1.354708) earth (1.350077) 
overcook (1.690903) ratio (1.626872) mac (1.587087) supris (1.416255) creativ (1.372709) platform (1.366526) beetroot (1.319529) contact (1.274583) tortilla (1.271249) greedi (1.259517) 
miso (1.585046) pesto (1.520240) juli (1.435836) function (1.401581) china (1.374059) blockbust (1.369468) jazz (1.338059) tire (1.336019) cous (1.335319) print (1.324467) 
guarante (1.786837) halloween (1.699623) golf (1.521296) shini (1.489318) jalapeno (1.403561) grate (1.395441) spanish (1.386270) fillet (1.370075) invent (1.363578) 14 (1.346242) 
discuss (1.661194) stool (1.645775) tasteless (1.515447) 35 (1.462781) brie (1.458862) tequila (1.438970) execut (1.420023) tile (1.414818) eateri (1.405986) oper (1.396936) 
messi (1.821241) resist (1.703162) began (1.503283) settl (1.484302) song (1.417919) amus (1.407844) hipster (1.404644) aok (1.365701) supris (1.313936) spectacular (1.312187) 
Error (train/valid/test) = 0.477968/0.885845/0.854493 (0.030951)
..................................................
energy after gradient step = 49053068.099006

Top words for each topic:
refurbish (1.704002) layer (1.692380) mouthwat (1.577411) therefor (1.571239) bustl (1.522921) potter (1.459291) mayo (1.435215) endless (1.374752) wing (1.371157) dosa (1.366108) 
repeat (1.572436) record (1.560759) divers (1.560253) clerk (1.508146) bond (1.479171) luck (1.455948) david (1.411819) korean (1.402631) planet (1.377319) illeg (1.331008) 
petit (1.728803) fr (1.628867) stylish (1.601327) microwav (1.598859) awar (1.500639) iv (1.457688) million (1.432125) track (1.415839) delic (1.411353) enthusiast (1.404792) 
scream (1.802687) weve (1.641998) plant (1.585655) chatti (1.540998) confid (1.467726) frank (1.455102) player (1.454713) stadium (1.454671) juici (1.448621) consum (1.401380) 
tie (1.725400) labyrinth (1.690463) au (1.614812) leaf (1.611005) girlfriend (1.597814) garment (1.534415) fiction (1.499798) custard (1.493847) curtain (1.463645) subway (1.463251) 
overcook (1.804681) creativ (1.760002) ratio (1.723871) armchair (1.641529) baguett (1.508350) platform (1.477364) trainer (1.467110) mac (1.459204) tortilla (1.436709) ik (1.413844) 
miso (1.739679) pesto (1.635747) shake (1.494666) juli (1.494571) al (1.488394) pate (1.468554) blockbust (1.464269) basil (1.426738) bagel (1.407282) social (1.382338) 
golf (1.842693) 14 (1.716845) henri (1.661111) 45 (1.614623) mighti (1.598966) halloween (1.586212) spanish (1.574770) guarante (1.573108) block (1.473075) shini (1.459864) 
tequila (1.723502) crab (1.690495) oper (1.646663) stool (1.631590) discuss (1.602095) butcher (1.589873) eateri (1.513498) uninspir (1.506656) tasteless (1.482300) outlet (1.423318) 
pretend (1.809844) resist (1.779306) messi (1.697223) aok (1.633391) settl (1.632485) began (1.611531) sainsburi (1.570804) amus (1.500350) brais (1.500129) vous (1.494471) 
Error (train/valid/test) = 0.451688/0.892579/0.861039 (0.030093)
..................................................
energy after gradient step = 48977793.258099

Top words for each topic:
mayo (1.923184) potter (1.861806) dosa (1.835268) layer (1.726594) mouthwat (1.669467) bustl (1.597383) construct (1.583881) canal (1.576966) multipl (1.541117) wing (1.528129) 
divers (1.896480) rug (1.770971) repeat (1.710267) korean (1.684791) itll (1.680534) von (1.653920) luck (1.634805) frankenstein (1.633039) worker (1.630110) massag (1.615412) 
petit (1.865871) stylish (1.673968) track (1.603717) five (1.528336) million (1.524106) advis (1.515339) awar (1.510961) microwav (1.494859) hangov (1.460047) fr (1.457405) 
chatti (1.777820) scream (1.718192) hundr (1.558500) plant (1.536946) ikea (1.532659) mug (1.527136) weve (1.524564) lower (1.506747) convinc (1.474441) juici (1.473586) 
labyrinth (1.827388) fiction (1.765186) tie (1.760492) mosqu (1.619737) influenc (1.607961) dock (1.583978) costa (1.579083) au (1.555959) garment (1.551221) sticki (1.534081) 
overcook (1.796144) armchair (1.793077) tonic (1.680150) mini (1.665732) peter (1.645163) 80 (1.639107) creativ (1.580524) supris (1.579522) joy (1.576980) tortilla (1.575932) 
blockbust (1.863425) pesto (1.802821) al (1.700481) basil (1.626458) justifi (1.597271) jazz (1.588812) miso (1.585247) ultim (1.583039) social (1.580102) salon (1.521349) 
golf (2.225018) guarante (1.915938) highland (1.885610) henri (1.851885) realiz (1.813013) jalapeno (1.733364) tikka (1.669648) fillet (1.656587) 45 (1.622748) mighti (1.600024) 
discuss (1.976026) crab (1.813997) tequila (1.801603) butcher (1.793306) scotsman (1.716427) stool (1.693149) couch (1.648121) exquisit (1.587168) machin (1.560498) eateri (1.541638) 
pretend (1.883181) amus (1.850201) hmv (1.744211) hell (1.650752) sainsburi (1.630371) resist (1.593540) 9pm (1.578317) vous (1.565879) rack (1.552552) swift (1.541617) 
Error (train/valid/test) = 0.429967/0.903511/0.876158 (0.030105)
..................................................
energy after gradient step = 48895587.032303

Top words for each topic:
dosa (2.246849) mayo (2.022817) canal (1.910916) mouthwat (1.764218) layer (1.755283) traffic (1.721648) ship (1.704534) potter (1.682324) bustl (1.633040) nom (1.620004) 
vin (2.051046) divers (2.007589) record (1.915109) frankenstein (1.895522) itll (1.894169) korean (1.798798) rug (1.781414) wedg (1.758386) exchang (1.733818) repeat (1.710690) 
hangov (1.779702) dislik (1.779335) petit (1.759014) tartan (1.739641) five (1.715089) fr (1.648696) bistro (1.607487) iv (1.601247) coast (1.566766) snax (1.557968) 
hundr (1.883811) chatti (1.871970) botan (1.752196) ikea (1.737300) plant (1.736363) eater (1.693844) mug (1.691214) scream (1.681602) wind (1.631855) lower (1.604067) 
mosqu (1.894872) fiction (1.874162) leaf (1.849689) labyrinth (1.847031) costa (1.834935) dock (1.817924) mental (1.738158) garment (1.733104) goat (1.730117) influenc (1.723255) 
van (1.888616) overcook (1.847057) credit (1.841837) 80 (1.815857) mini (1.762047) armchair (1.727897) contact (1.705341) peter (1.697450) notebook (1.683783) joy (1.672332) 
blockbust (2.013978) basil (1.981595) dim (1.845293) al (1.825882) pesto (1.801899) cat (1.771297) justifi (1.747265) linger (1.691862) minimalist (1.682730) pasti (1.655920) 
golf (2.156943) henri (2.099377) traci (2.063647) highland (1.845473) jalapeno (1.744129) guarante (1.726061) mighti (1.688362) antipasti (1.678948) 45 (1.670671) liver (1.641853) 
butcher (2.084193) discuss (2.081353) crab (1.990204) scotsman (1.938978) stool (1.864307) uninspir (1.797388) couch (1.754607) tequila (1.749802) journey (1.730671) margarita (1.721222) 
pretend (2.001891) vous (1.973547) inexpens (1.968758) hmv (1.874460) amus (1.852282) cigar (1.775923) broth (1.761638) greek (1.716313) swift (1.695850) sainsburi (1.654063) 
Error (train/valid/test) = 0.403442/0.910318/0.890606 (0.030996)
..................................................
energy after gradient step = 48809348.858856

Top words for each topic:
canal (2.235264) dosa (2.125626) mayo (2.070411) smith (1.985564) 13 (1.851100) layer (1.804857) mouthwat (1.784438) potter (1.781906) indoor (1.770191) explor (1.705737) 
hula (2.141117) record (2.122078) vin (2.111264) rug (2.076884) frankenstein (2.012924) repeat (1.915289) wedg (1.875321) nail (1.823956) divers (1.810119) robert (1.772687) 
hangov (1.993443) dislik (1.931574) petit (1.899663) fr (1.849069) tatti (1.738835) coast (1.693038) earthi (1.666060) advertis (1.622707) iv (1.609047) snax (1.601182) 
expos (1.979296) scream (1.974046) ikea (1.963971) botan (1.933580) fife (1.904422) creepi (1.823284) chatti (1.813864) addict (1.721501) lower (1.705795) galleri (1.700663) 
goat (1.916450) dock (1.910331) costa (1.896514) mosqu (1.886621) earth (1.865542) influenc (1.864197) labyrinth (1.815214) forth (1.781781) fiction (1.733042) answer (1.720275) 
punch (1.963756) baguett (1.912088) overcook (1.848945) fillet (1.817035) creativ (1.807109) contact (1.795419) bat (1.787152) father (1.774465) notebook (1.747933) ik (1.725609) 
cat (2.274177) blockbust (2.143858) pesto (2.029021) period (1.962420) dim (1.905619) jazz (1.870665) al (1.837507) basil (1.833674) swim (1.790579) video (1.781361) 
golf (2.117534) traci (2.092032) henri (2.091287) jalapeno (1.938907) 45 (1.837555) highland (1.817557) bubbl (1.784365) mighti (1.775580) spark (1.754413) driver (1.748646) 
discuss (2.148888) butcher (2.051560) crab (2.050081) brie (1.909800) margarita (1.882610) bank (1.864780) 90 (1.818049) dare (1.800750) tequila (1.790264) journey (1.788156) 
hmv (2.194899) cigar (2.071494) vous (2.051245) broth (1.979262) amus (1.967468) pretend (1.958500) fudg (1.950744) swift (1.885178) inexpens (1.853531) travers (1.768724) 
Error (train/valid/test) = 0.389600/0.925079/0.905623 (0.031175)
..................................................
energy after gradient step = 48726213.381612

Top words for each topic:
dosa (2.229655) canal (2.162409) mayo (2.143720) smith (2.137120) crown (2.089809) potter (2.061091) 13 (2.030938) wing (1.947059) explor (1.931463) y (1.893848) 
rug (2.322388) record (2.284820) hula (2.194922) frankenstein (2.111983) vin (2.075003) divers (1.993114) repeat (1.933694) korean (1.926382) nail (1.925793) wedg (1.912206) 
petit (2.159608) hangov (2.010935) dislik (1.996874) coast (1.901616) tatti (1.891610) cathedr (1.793636) fr (1.793088) gothic (1.764117) advertis (1.703904) purpl (1.657881) 
plant (2.139630) dean (2.125114) scream (2.073140) ikea (2.070006) botan (1.984342) tree (1.962793) librari (1.928233) chatti (1.917738) hundr (1.899580) galleri (1.847509) 
mosqu (2.187072) goat (2.097718) influenc (2.093866) costa (2.082399) fiction (1.916795) dock (1.863140) labyrinth (1.858651) leaf (1.828478) spinach (1.810708) buzz (1.806648) 
baguett (2.116325) overcook (2.034360) bat (1.924300) punch (1.821092) ik (1.814911) notebook (1.779972) dragon (1.775471) fillet (1.773522) van (1.755142) peter (1.740107) 
cat (2.603344) blockbust (2.330739) video (2.197494) pesto (2.180305) dim (2.031975) swim (1.952561) print (1.895173) function (1.843512) al (1.824490) period (1.824054) 
golf (2.354455) driver (1.973452) henri (1.949134) traci (1.936854) 45 (1.931895) 14 (1.865635) jalapeno (1.849984) mighti (1.818165) laptop (1.802154) theyll (1.761291) 
butcher (2.501139) crab (2.288750) discuss (2.142182) brie (2.072991) scotsman (1.950759) bank (1.875180) morningsid (1.868382) le (1.866695) cooki (1.802519) dare (1.788101) 
hmv (2.358635) amus (2.074851) inexpens (2.070401) fudg (2.056151) cigar (1.967360) travers (1.931625) tom (1.872957) pretend (1.868634) grand (1.828463) sorbet (1.821532) 
Error (train/valid/test) = 0.382080/0.948266/0.926909 (0.031066)
..................................................
energy after gradient step = 48619948.620549

Top words for each topic:
dosa (2.603136) canal (2.417862) crown (2.256219) mayo (2.230636) wing (2.191580) smith (2.173032) y (2.064182) 13 (2.054232) gear (2.020913) rout (1.941561) 
rug (2.634966) record (2.484056) hula (2.331800) frankenstein (2.172188) david (2.162006) wedg (2.068400) towel (2.028040) vin (2.001181) repeat (1.985831) nail (1.976913) 
dislik (2.276475) petit (2.206698) coast (2.083822) cathedr (1.960444) crave (1.864232) tartan (1.838875) gothic (1.824054) cheesi (1.823607) fr (1.814281) beginn (1.794373) 
dean (2.410478) plant (2.130084) botan (2.104336) galleri (2.074642) makeup (2.069105) ikea (2.055777) held (2.047858) librari (2.034772) scream (2.026391) juici (2.011457) 
mosqu (2.455946) labyrinth (2.287970) goat (2.251303) fiction (2.164844) costa (2.163193) influenc (2.019995) inevit (1.911329) monkey (1.888504) buzz (1.858072) farm (1.828435) 
baguett (2.187296) bat (2.091868) mountain (2.050687) aisl (2.024688) ik (1.973551) fillet (1.952434) punch (1.916637) peter (1.910873) dan (1.886517) overcook (1.886288) 
cat (2.796828) video (2.541177) blockbust (2.369662) pesto (2.215810) swim (2.054250) caff (2.030356) vintag (2.018189) jazz (2.013535) wing (1.983769) al (1.980686) 
golf (2.676289) henri (2.565538) driver (2.157975) burrito (2.092249) traci (2.026171) 9a (1.971168) handbag (1.957692) smoothi (1.932453) healthier (1.923507) terribl (1.920279) 
butcher (2.516780) scotsman (2.443519) oper (2.233066) cooki (2.204432) crab (2.165378) le (2.157858) les (2.142809) trade (2.072843) brie (1.985252) discuss (1.906935) 
hmv (2.495210) inexpens (2.407444) amus (2.374747) cigar (2.369642) fudg (2.359301) travers (2.235940) rack (2.103788) song (2.081864) pretend (2.031977) vous (1.953620) 
Error (train/valid/test) = 0.360109/0.958395/0.934271 (0.032350)
..................................................
energy after gradient step = 48519383.242953

Top words for each topic:
dosa (2.603189) canal (2.505343) wing (2.360328) smith (2.316658) gear (2.229072) crown (2.126270) potter (2.065320) na (2.007731) y (1.999821) rule (1.962111) 
frankenstein (2.606871) rug (2.536887) record (2.521641) hula (2.440010) david (2.130148) korean (2.087744) lager (2.047532) wedg (2.020421) towel (2.011748) yard (2.002433) 
petit (2.388561) dislik (2.172608) cathedr (2.169890) coast (2.132756) museum (2.033017) mexican (1.943636) crave (1.938243) guacamol (1.928593) john (1.880304) tatti (1.857033) 
plant (2.485260) dean (2.324951) botan (2.216029) librari (2.214126) galleri (2.200000) makeup (2.139422) ikea (2.105706) held (2.079821) tree (2.076572) scream (2.068332) 
mosqu (2.602091) labyrinth (2.302718) goat (2.270061) fiction (2.269965) costa (2.225814) influenc (2.197761) inevit (2.158206) treatment (2.125761) massag (2.110700) monkey (2.072474) 
baguett (2.428190) bat (2.215719) ik (2.191347) armchair (2.113236) trainer (2.038899) mountain (2.021856) peter (2.009674) van (1.986882) fillet (1.960853) notebook (1.923210) 
cat (2.979933) video (2.598076) blockbust (2.510115) vintag (2.271706) swim (2.210354) gym (2.201697) wing (2.138963) caff (2.124901) pesto (2.083155) dim (2.042150) 
golf (2.736923) driver (2.373132) henri (2.332085) burrito (2.185774) 9a (2.064448) laptop (2.040556) liver (1.998145) handbag (1.980740) traci (1.948712) macaron (1.934739) 
butcher (2.598798) scotsman (2.530497) le (2.491294) crab (2.356875) cooki (2.324576) oper (2.146148) les (2.133998) tempura (2.122957) trade (2.078393) morningsid (2.003492) 
fudg (2.702045) cigar (2.470781) hmv (2.372491) pretend (2.304296) inexpens (2.273181) song (2.251330) travers (2.185124) rack (2.113346) amus (2.105674) bannerman (2.042730) 
Error (train/valid/test) = 0.360472/0.978923/0.944450 (0.031490)
..................................................
energy after gradient step = 48409816.036683

Top words for each topic:
dosa (2.604826) smith (2.470018) wing (2.432728) canal (2.399648) crown (2.322378) na (2.192298) shoe (2.185191) y (2.098316) 13 (2.095748) gear (2.062089) 
record (2.775415) rug (2.562989) hula (2.504821) frankenstein (2.460413) vinyl (2.392287) nail (2.134322) lager (2.119970) david (2.105484) vin (2.098907) drag (2.069961) 
petit (2.638939) dislik (2.387050) cathedr (2.202104) mexican (2.191707) print (2.163647) flower (2.143201) coast (2.112154) guacamol (2.063642) john (2.057212) museum (2.004570) 
plant (2.585896) botan (2.512001) dean (2.459674) librari (2.440807) ikea (2.419725) galleri (2.400941) scream (2.192401) pitch (2.180252) makeup (2.178983) museum (2.157600) 
mosqu (2.653383) treatment (2.360949) goat (2.336219) costa (2.304852) monkey (2.288921) fiction (2.270418) labyrinth (2.226751) medicin (2.081636) tapa (2.071058) influenc (2.049270) 
baguett (2.348791) ik (2.272110) bat (2.268739) van (2.184875) peter (2.131853) aisl (2.061444) bike (2.055688) express (2.017807) fillet (1.970048) trainer (1.967263) 
cat (2.956668) blockbust (2.680632) swim (2.486829) video (2.483832) vintag (2.454246) gym (2.371351) dvds (2.353285) dim (2.314154) wing (2.226323) jazz (2.211821) 
golf (2.767493) driver (2.431747) henri (2.413589) burrito (2.382763) traci (2.224318) smoothi (2.047448) laptop (2.041041) butterfli (2.038710) macaron (2.012110) tortilla (2.006458) 
butcher (2.620011) scotsman (2.611509) le (2.608486) les (2.459135) oper (2.281168) nous (2.279071) cooki (2.215039) discuss (2.210345) trade (2.201354) et (2.118030) 
fudg (2.991184) cigar (2.830353) hmv (2.685640) pretend (2.418142) travers (2.329525) amus (2.315680) song (2.264354) bannerman (2.257629) icecream (2.189292) inexpens (2.156850) 
Error (train/valid/test) = 0.344083/0.969435/0.951495 (0.034230)
..................................................
energy after gradient step = 48283040.778691

Top words for each topic:
dosa (2.627905) canal (2.617976) wing (2.524170) smith (2.458268) shoe (2.346734) gear (2.300401) na (2.231228) potter (2.224750) crown (2.210872) rule (2.208123) 
record (2.951662) rug (2.782051) frankenstein (2.715520) hula (2.707224) vinyl (2.613593) david (2.436931) nail (2.396520) portrait (2.312606) cds (2.274353) vin (2.216436) 
petit (2.722138) dislik (2.467408) mexican (2.352623) print (2.276788) flower (2.226632) guacamol (2.173147) museum (2.170275) cathedr (2.161396) pin (2.138736) tartan (2.111585) 
plant (2.719070) dean (2.718566) botan (2.638390) librari (2.607576) galleri (2.577583) ikea (2.399596) tree (2.313364) pitch (2.267898) museum (2.232151) held (2.206723) 
mosqu (2.814710) goat (2.490049) labyrinth (2.459879) monkey (2.437009) fiction (2.275240) tapa (2.222846) influenc (2.161736) costa (2.147969) farm (2.134576) massag (2.120495) 
baguett (2.447131) van (2.414696) bat (2.411077) aisl (2.305931) ik (2.303366) express (2.276457) bike (2.220447) notebook (2.179670) trainer (2.154373) bracelet (2.143746) 
cat (3.080444) swim (2.757353) blockbust (2.725686) video (2.620262) vintag (2.606532) dvds (2.592172) gym (2.583871) jazz (2.483149) dim (2.466384) turkish (2.345213) 
golf (2.657132) burrito (2.495074) driver (2.445294) traci (2.402321) henri (2.239575) smoothi (2.236183) butterfli (2.139662) macaron (2.106516) handbag (2.076696) laptop (2.045712) 
butcher (2.920409) le (2.785612) scotsman (2.711769) les (2.508390) nous (2.378872) cooki (2.280531) oper (2.251759) discuss (2.225628) morningsid (2.210726) rip (2.142184) 
fudg (3.257126) hmv (2.777820) cigar (2.743865) amus (2.480385) travers (2.343337) pretend (2.340435) bannerman (2.325480) tie (2.267467) song (2.235436) pasti (2.223313) 
Error (train/valid/test) = 0.336997/0.991041/0.969131 (0.033369)
..................................................
energy after gradient step = 48144978.193607

Top words for each topic:
shoe (2.738087) wing (2.599230) smith (2.514857) dosa (2.493194) topshop (2.486452) canal (2.436149) airport (2.403688) crown (2.399686) gear (2.382355) rout (2.311247) 
record (3.159140) hula (2.888902) rug (2.745701) vinyl (2.711938) frankenstein (2.604823) nail (2.452154) vin (2.445471) david (2.336963) portrait (2.309798) wedg (2.258674) 
petit (2.691387) mexican (2.593074) coast (2.550124) flower (2.425902) dislik (2.420012) fr (2.413078) snax (2.405548) cathedr (2.323730) museum (2.305627) tartan (2.258550) 
librari (2.823902) galleri (2.807875) plant (2.766073) dean (2.607409) ikea (2.603193) botan (2.493626) tree (2.473133) museum (2.405704) exhibit (2.363242) pitch (2.341800) 
mosqu (2.835484) labyrinth (2.720882) goat (2.607136) monkey (2.564797) tapa (2.410007) treatment (2.365076) massag (2.337543) fi (2.308326) screen (2.238281) farm (2.228188) 
baguett (2.672470) express (2.508325) bat (2.495534) ik (2.433993) bike (2.395122) aisl (2.326525) van (2.323333) trainer (2.307803) brew (2.262923) fillet (2.238428) 
cat (3.204393) swim (2.911188) video (2.874917) gym (2.866903) vintag (2.800032) blockbust (2.773795) dvds (2.733518) turkish (2.545174) dim (2.500019) jazz (2.484748) 
golf (2.794718) burrito (2.607329) driver (2.513400) henri (2.463294) smoothi (2.419897) macaron (2.401426) handbag (2.318654) traci (2.262118) appoint (2.199784) liver (2.196180) 
butcher (3.057999) le (2.894632) nous (2.892587) scotsman (2.625082) morningsid (2.607761) les (2.530987) et (2.452416) cooki (2.413482) hostel (2.369229) uninspir (2.330483) 
fudg (3.435781) cigar (3.017610) hmv (2.652412) pretend (2.514700) travers (2.459782) amus (2.380428) icecream (2.334878) inexpens (2.304063) banana (2.287576) song (2.253307) 
Error (train/valid/test) = 0.324509/0.999838/0.977677 (0.034834)
..................................................
energy after gradient step = 47973446.024178

Top words for each topic:
shoe (2.869724) wing (2.723983) airport (2.682873) canal (2.682835) dosa (2.610619) rout (2.559856) smith (2.534121) crown (2.531906) topshop (2.516666) chariti (2.486664) 
record (3.314977) vinyl (2.891670) frankenstein (2.788449) rug (2.777640) hula (2.704951) nail (2.641040) vin (2.599713) cds (2.403073) wedg (2.367255) david (2.365079) 
mexican (2.958154) cathedr (2.588181) coast (2.538354) mexico (2.532615) petit (2.532197) museum (2.521223) snax (2.487092) flower (2.485005) tartan (2.479780) buse (2.474070) 
galleri (3.103824) librari (3.016761) plant (2.958891) dean (2.683823) exhibit (2.669390) botan (2.669084) museum (2.555174) tree (2.451940) facil (2.437744) ikea (2.406903) 
mosqu (2.853404) labyrinth (2.772031) goat (2.771813) tapa (2.762273) monkey (2.700066) treatment (2.505054) fiction (2.439573) massag (2.436386) grill (2.391960) brass (2.358691) 
baguett (2.816112) express (2.678704) bike (2.612473) bat (2.589008) ik (2.403705) notebook (2.371704) aisl (2.350529) brew (2.342407) een (2.338149) tandoori (2.311651) 
cat (3.412061) gym (3.138804) vintag (3.099339) blockbust (2.990239) dvds (2.934322) video (2.898720) swim (2.891595) dim (2.688914) jazz (2.637910) equip (2.626768) 
golf (2.776487) burrito (2.685747) smoothi (2.600360) driver (2.531948) macaron (2.412258) henri (2.398153) tortilla (2.324488) laptop (2.272804) traci (2.268751) juic (2.202411) 
butcher (3.038988) le (3.026423) nous (2.944497) morningsid (2.849244) scotsman (2.809232) les (2.737122) et (2.685532) hostel (2.676833) cooki (2.578103) zoo (2.541638) 
fudg (3.662743) cigar (3.068671) hmv (2.897747) travers (2.619801) amus (2.496845) banana (2.434923) icecream (2.386085) tie (2.384468) bannerman (2.346473) tshirt (2.335560) 
Error (train/valid/test) = 0.320430/1.002760/0.987484 (0.035099)
..................................................
energy after gradient step = 47776181.864268

Top words for each topic:
shoe (3.087338) dosa (2.844926) airport (2.835361) canal (2.742968) wing (2.725057) rout (2.637478) chariti (2.635346) smith (2.618842) bookshop (2.618552) boot (2.575590) 
record (3.419192) vinyl (2.944994) hula (2.870247) frankenstein (2.856924) nail (2.839068) rug (2.771526) vin (2.590853) lager (2.457443) venison (2.451080) nando (2.448962) 
mexican (3.252037) petit (2.836987) mexico (2.814249) platform (2.772056) flower (2.742908) climb (2.741635) coast (2.729495) tartan (2.713630) cathedr (2.677244) buse (2.626315) 
galleri (3.224963) librari (3.101421) plant (2.935094) botan (2.850574) exhibit (2.770534) museum (2.727444) dean (2.693446) ikea (2.642683) tree (2.624208) pitch (2.440252) 
tapa (2.993200) mosqu (2.978095) monkey (2.760806) goat (2.685616) labyrinth (2.685226) grill (2.575704) spanish (2.573306) brass (2.510936) massag (2.499060) treatment (2.490550) 
baguett (2.859804) express (2.811683) bike (2.798739) bat (2.602213) ik (2.562681) naan (2.526066) notebook (2.487626) van (2.475545) trainer (2.448005) brew (2.420765) 
cat (3.494587) gym (3.365688) swim (3.107417) vintag (3.062840) video (2.993796) blockbust (2.988443) dvds (2.942525) portobello (2.781756) dim (2.738103) turkish (2.699933) 
golf (2.723250) burrito (2.676255) smoothi (2.559044) driver (2.394832) macaron (2.374309) juic (2.343787) traci (2.340060) henri (2.326351) grey (2.225416) appoint (2.220974) 
le (3.105214) butcher (3.102721) nous (2.986489) scotsman (2.888841) les (2.851968) hostel (2.831642) et (2.812045) morningsid (2.778590) zoo (2.709461) cooki (2.674482) 
fudg (3.750514) cigar (3.069134) hmv (2.900686) travers (2.700540) icecream (2.538910) amus (2.486770) banana (2.467232) tie (2.460234) pretend (2.431947) jean (2.415202) 
Error (train/valid/test) = 0.335223/1.007694/1.004334 (0.037302)
..................................................
energy after gradient step = 47565269.630211

Top words for each topic:
shoe (3.275764) airport (2.968917) smith (2.800376) canal (2.789605) crown (2.763437) dosa (2.745947) topshop (2.738777) gear (2.736577) chariti (2.707176) wing (2.685913) 
record (3.510285) vinyl (3.050212) hula (2.982614) frankenstein (2.866144) rug (2.805754) nail (2.737659) vin (2.663258) bond (2.573550) starbuck (2.566128) cds (2.497287) 
mexican (3.480963) platform (3.003400) buse (2.966661) mexico (2.930474) petit (2.909764) salsa (2.863308) flower (2.828810) coast (2.802961) climb (2.791759) cathedr (2.740584) 
galleri (3.308430) librari (3.188197) plant (2.946058) exhibit (2.858372) museum (2.851591) dean (2.771819) botan (2.732978) ikea (2.687617) pitch (2.658905) tree (2.643179) 
tapa (3.133773) mosqu (3.120486) monkey (2.997589) goat (2.873795) labyrinth (2.813293) massag (2.763954) grill (2.659491) brass (2.648385) fiction (2.600862) seafood (2.584788) 
baguett (2.920400) express (2.872451) bike (2.766896) bat (2.704913) ik (2.578221) tandoori (2.526785) jewelleri (2.521246) trainer (2.521125) naan (2.506441) notebook (2.495045) 
cat (3.502791) gym (3.501626) vintag (3.216598) swim (3.119188) video (3.081279) dvds (3.041514) blockbust (3.036722) beach (2.959620) equip (2.802101) wing (2.801698) 
golf (2.703774) smoothi (2.650420) burrito (2.598454) macaron (2.497068) juic (2.442674) driver (2.422098) traci (2.238812) tortilla (2.202246) laptop (2.193635) tattoo (2.165907) 
le (3.241879) butcher (3.224018) nous (3.131856) les (3.055697) hostel (2.986327) et (2.974334) morningsid (2.887892) scotsman (2.874972) zoo (2.804101) cooki (2.798929) 
fudg (3.884477) cigar (3.283704) hmv (3.004834) banana (2.690192) travers (2.670149) song (2.602532) tie (2.600529) bannerman (2.563389) jean (2.533064) cockburn (2.514360) 
Error (train/valid/test) = 0.315891/1.006284/0.992006 (0.035180)
..................................................
energy after gradient step = 47316420.412648

Top words for each topic:
shoe (3.480698) airport (3.001463) dosa (2.933790) wing (2.868148) canal (2.858196) chariti (2.824430) smith (2.809154) harri (2.771312) crown (2.725128) boot (2.714417) 
record (3.466215) hula (3.123507) vinyl (3.029164) nail (2.932374) frankenstein (2.889752) rug (2.870615) starbuck (2.796610) vin (2.697595) lager (2.639954) bond (2.621507) 
mexican (3.786189) buse (3.314892) platform (3.200752) mexico (3.158265) climb (3.083990) burrito (3.082413) salsa (3.065507) petit (2.970252) tartan (2.962884) station (2.960170) 
galleri (3.473127) librari (3.390337) plant (3.093120) museum (2.987322) exhibit (2.960104) botan (2.856174) dean (2.786216) tree (2.662641) ikea (2.654153) pitch (2.576860) 
tapa (3.219310) mosqu (3.165048) goat (3.012563) monkey (2.895921) seafood (2.847302) labyrinth (2.795248) grill (2.794268) thai (2.768896) spanish (2.763630) fiction (2.697747) 
baguett (2.973871) express (2.903032) naan (2.763472) bike (2.716598) bat (2.666408) jewelleri (2.634153) ik (2.576867) tandoori (2.529867) brew (2.491670) bracelet (2.458882) 
gym (3.722079) cat (3.653610) vintag (3.411623) video (3.327430) swim (3.305615) dvds (3.236697) blockbust (3.134800) beach (3.108701) dim (3.092232) equip (2.970829) 
golf (2.666413) macaron (2.581475) juic (2.565063) burrito (2.556125) driver (2.493790) smoothi (2.481443) tea (2.322644) tortilla (2.320054) traci (2.291534) henri (2.270021) 
le (3.491061) butcher (3.394532) hostel (3.298002) les (3.295716) nous (3.206993) et (3.078022) scotsman (3.012331) guid (2.941270) bridg (2.936767) camera (2.926327) 
fudg (3.983448) cigar (3.263684) hmv (3.183265) jean (2.870828) song (2.852882) tie (2.819318) travers (2.799329) banana (2.725946) gig (2.715025) icecream (2.643320) 
Error (train/valid/test) = 0.319058/1.018488/0.998982 (0.035093)
..................................................
energy after gradient step = 46991203.281275

Top words for each topic:
shoe (3.687505) airport (3.171711) chariti (2.963135) canal (2.938718) wing (2.853368) boot (2.794644) dosa (2.786684) smith (2.777118) potter (2.774997) topshop (2.770875) 
record (3.510474) hula (3.139364) vinyl (3.109808) frankenstein (2.962873) rug (2.913660) nail (2.908528) starbuck (2.800680) vin (2.787863) cinema (2.684855) cds (2.675145) 
mexican (3.996013) platform (3.383123) buse (3.377260) burrito (3.338107) climb (3.326613) station (3.279268) mexico (3.223259) salsa (3.196213) guacamol (3.163536) petit (3.091623) 
galleri (3.551465) librari (3.386960) museum (3.172901) plant (3.108247) exhibit (3.053560) botan (2.859965) tree (2.828445) dean (2.825625) ikea (2.695765) pitch (2.689883) 
tapa (3.298464) mosqu (3.129683) goat (3.016310) seafood (2.925304) thai (2.909233) grill (2.893741) prawn (2.869167) monkey (2.846715) labyrinth (2.775059) brass (2.719566) 
express (2.961971) baguett (2.950464) jewelleri (2.726742) naan (2.698408) ik (2.619579) bike (2.617663) bat (2.615468) brew (2.600948) bracelet (2.576804) tandoori (2.491743) 
gym (3.849976) cat (3.666647) vintag (3.457400) dvds (3.350978) swim (3.318732) video (3.259162) blockbust (3.257681) beach (3.194837) dim (3.166069) equip (3.103860) 
smoothi (2.678820) golf (2.616935) juic (2.579803) macaron (2.555627) tea (2.537783) tortilla (2.390390) burrito (2.389657) driver (2.358031) laptop (2.344423) cupcak (2.304070) 
le (3.518749) butcher (3.431120) hostel (3.361847) et (3.343057) nous (3.274707) les (3.272268) zoo (3.079072) guid (3.060143) camera (3.058503) scotsman (3.044638) 
fudg (4.070251) cigar (3.431832) hmv (3.314769) jean (2.875829) song (2.836713) travers (2.833314) gig (2.817719) tie (2.793859) icecream (2.788170) hall (2.772265) 
Error (train/valid/test) = 0.322377/1.025052/1.002826 (0.035007)
..................................................
energy after gradient step = 46618574.839979

Top words for each topic:
shoe (3.881617) airport (3.272078) canal (3.140855) chariti (2.975681) topshop (2.970553) potter (2.965967) wing (2.924863) harri (2.910838) boot (2.891198) smith (2.888956) 
record (3.579546) vinyl (3.173154) hula (3.134897) frankenstein (3.059949) rug (2.921931) starbuck (2.901550) ale (2.866072) cinema (2.831956) lager (2.794189) vin (2.790056) 
mexican (4.197400) burrito (3.836738) buse (3.716940) platform (3.622555) climb (3.494383) station (3.478373) mexico (3.438833) salsa (3.384173) cathedr (3.297809) tartan (3.297122) 
galleri (3.585144) librari (3.544351) museum (3.274870) exhibit (3.242260) plant (3.236847) botan (3.021575) dean (2.991310) tree (2.814130) pitch (2.805733) facil (2.774282) 
tapa (3.459477) mosqu (3.260452) thai (3.206524) seafood (3.092977) prawn (3.044960) grill (3.008959) monkey (2.958135) goat (2.949838) spanish (2.808318) labyrinth (2.797760) 
baguett (3.089143) express (2.964234) bike (2.932436) naan (2.883513) bat (2.861282) jewelleri (2.850575) brew (2.702419) ik (2.631971) een (2.532474) indian (2.522880) 
gym (4.031862) cat (3.928904) video (3.559632) swim (3.558714) dvds (3.527762) vintag (3.446376) blockbust (3.401277) beach (3.392914) dim (3.245178) jazz (3.198426) 
tea (2.811605) smoothi (2.644741) juic (2.604866) macaron (2.597423) golf (2.570773) tortilla (2.520809) deli (2.379692) traci (2.365708) chees (2.354547) scone (2.284944) 
le (3.607205) hostel (3.595319) butcher (3.577930) les (3.522268) nous (3.488372) et (3.357418) tour (3.311754) guid (3.256379) castl (3.229391) scotsman (3.225144) 
fudg (4.229954) cigar (3.654338) hmv (3.428482) gig (3.166041) jean (3.040933) travers (3.014718) theatr (3.010111) tshirt (2.927572) bannerman (2.913871) tie (2.862239) 
Error (train/valid/test) = 0.319683/1.016250/1.005010 (0.036724)
..................................................
energy after gradient step = 46218907.281721

Top words for each topic:
shoe (4.031947) airport (3.311863) canal (3.080665) bookshop (3.026860) boot (3.011425) topshop (2.985071) potter (2.965342) chariti (2.954328) smith (2.940981) harri (2.925839) 
record (3.668898) hula (3.219334) vinyl (3.187991) frankenstein (3.114840) cinema (3.097350) ale (2.988319) starbuck (2.950509) rug (2.890033) vin (2.840498) lager (2.817363) 
mexican (4.444997) burrito (4.143703) buse (3.847145) platform (3.721274) climb (3.653599) station (3.606795) mexico (3.592259) flower (3.456022) salsa (3.447770) guacamol (3.410854) 
galleri (3.744571) librari (3.672406) museum (3.454514) exhibit (3.366579) plant (3.330032) botan (3.075322) dean (3.042193) tree (2.958683) pitch (2.876297) ikea (2.846307) 
tapa (3.494733) thai (3.369801) seafood (3.225947) prawn (3.187361) mosqu (3.161152) grill (3.085480) goat (3.024759) spanish (2.912551) monkey (2.827772) squid (2.814765) 
express (3.098447) baguett (3.084218) jewelleri (2.942299) naan (2.844852) bat (2.807147) bike (2.795091) indian (2.655808) ik (2.636159) kebab (2.624996) brew (2.585643) 
gym (4.230446) cat (3.988102) dvds (3.711704) swim (3.708900) blockbust (3.567415) vintag (3.541922) video (3.514848) beach (3.441455) bike (3.404008) portobello (3.347864) 
tea (2.951993) smoothi (2.663538) macaron (2.649055) juic (2.642273) golf (2.595489) chees (2.499825) deli (2.488364) scone (2.449552) cupcak (2.438554) tortilla (2.411354) 
le (3.813206) hostel (3.701307) butcher (3.689665) et (3.601125) tour (3.561664) les (3.549306) nous (3.524133) castl (3.487596) guid (3.435337) zoo (3.361173) 
fudg (4.354178) cigar (3.660561) hmv (3.542328) gig (3.202683) theatr (3.202450) jean (3.160877) travers (3.121237) bannerman (3.079662) shirt (3.074323) tshirt (3.061068) 
Error (train/valid/test) = 0.321805/1.030635/1.007859 (0.035503)
..................................................
energy after gradient step = 45821595.460302

Top words for each topic:
shoe (4.126609) airport (3.403077) bookshop (3.117350) boot (3.110371) canal (3.089625) topshop (3.079223) sport (3.030267) potter (3.024874) smith (2.982447) harri (2.976918) 
record (3.596501) cinema (3.291060) hula (3.218241) vinyl (3.178000) frankenstein (3.159413) ale (3.148177) starbuck (3.061734) lager (2.923161) rug (2.918386) pub (2.884330) 
mexican (4.702280) burrito (4.506862) buse (4.004510) station (3.891334) platform (3.847344) salsa (3.766331) climb (3.731593) mexico (3.690054) korean (3.630743) guacamol (3.628818) 
galleri (3.841420) librari (3.717416) museum (3.565736) exhibit (3.515113) plant (3.298370) botan (3.111646) dean (3.091033) tree (3.051634) pitch (3.007771) ikea (2.909185) 
thai (3.497745) tapa (3.484463) seafood (3.293369) prawn (3.279500) mosqu (3.234219) grill (3.099391) goat (3.041829) pizza (2.912067) spanish (2.846416) squid (2.774974) 
baguett (3.082956) naan (3.000893) express (2.971757) jewelleri (2.938563) indian (2.828330) bat (2.732658) brew (2.714801) kebab (2.698496) bike (2.658195) ik (2.626941) 
gym (4.407220) cat (4.196175) vintag (3.811363) swim (3.775605) dvds (3.759883) blockbust (3.688963) bike (3.687274) video (3.653845) costum (3.550839) beach (3.549758) 
tea (3.077358) juic (2.799484) smoothi (2.725007) macaron (2.653513) chees (2.585933) cake (2.545837) golf (2.519670) scone (2.519220) deli (2.473218) burger (2.435009) 
hostel (3.865775) le (3.858374) butcher (3.758331) tour (3.751582) castl (3.735350) les (3.715110) et (3.657449) nous (3.651191) guid (3.542904) zoo (3.528105) 
fudg (4.483329) cigar (3.775321) hmv (3.674205) theatr (3.508392) gig (3.399896) jean (3.339106) song (3.272690) tshirt (3.240195) bannerman (3.220055) band (3.138328) 
Error (train/valid/test) = 0.319272/1.022926/1.005713 (0.036222)
..................................................
energy after gradient step = 45400614.965188

Top words for each topic:
shoe (4.184993) airport (3.458340) bookshop (3.205486) boot (3.138806) topshop (3.107391) canal (3.097201) smith (3.045417) potter (3.032585) sport (3.012955) harri (3.005163) 
record (3.720707) cinema (3.491604) pub (3.342137) ale (3.258745) vinyl (3.215058) hula (3.155751) frankenstein (3.113832) starbuck (3.107739) lager (3.070076) pint (3.002669) 
mexican (4.877383) burrito (4.823150) buse (4.123886) station (4.071926) platform (4.044230) climb (3.976268) korean (3.907453) guacamol (3.895552) salsa (3.864086) mexico (3.828726) 
librari (3.842630) galleri (3.842340) museum (3.692792) exhibit (3.587599) plant (3.461620) dean (3.124994) botan (3.095844) tree (3.089617) art (3.086427) pitch (3.072180) 
thai (3.580570) tapa (3.509359) prawn (3.356435) seafood (3.332265) mosqu (3.231069) grill (3.157764) goat (3.042413) pizza (3.032366) dish (2.989852) starter (2.861532) 
express (3.156151) baguett (3.103688) jewelleri (3.043190) naan (2.953944) indian (2.940640) bat (2.795594) kebab (2.766588) peter (2.730914) brew (2.636262) ik (2.633140) 
gym (4.560772) cat (4.190998) bike (4.069690) dvds (4.035918) swim (4.001505) vintag (3.882340) wing (3.857111) video (3.813803) blockbust (3.777572) equip (3.707938) 
tea (3.216160) juic (2.902042) cake (2.863608) chees (2.745955) smoothi (2.692591) macaron (2.640045) scone (2.577620) cupcak (2.560882) golf (2.552419) coffe (2.540411) 
le (3.999695) castl (3.976999) tour (3.965943) hostel (3.926524) butcher (3.870171) et (3.778432) les (3.756091) guid (3.726702) nous (3.697432) zoo (3.608164) 
fudg (4.605972) cigar (3.911664) hmv (3.766672) theatr (3.563848) gig (3.498902) jean (3.389676) danc (3.369371) shirt (3.347403) band (3.312276) song (3.301744) 
Error (train/valid/test) = 0.319639/1.025535/1.003995 (0.036142)
..................................................
energy after gradient step = 44985154.294607

Top words for each topic:
shoe (4.251296) airport (3.479641) boot (3.231255) bookshop (3.192943) canal (3.128084) topshop (3.104445) potter (3.101471) chariti (3.056925) pair (3.012169) smith (3.008727) 
cinema (3.636096) pub (3.602284) record (3.573734) ale (3.404496) vinyl (3.202646) pint (3.175816) frankenstein (3.107213) starbuck (3.081040) lager (3.045843) bar (3.017022) 
mexican (5.071199) burrito (5.024715) buse (4.289664) station (4.288093) platform (4.188475) climb (4.181929) salsa (4.141644) mexico (4.027064) korean (4.017541) guacamol (3.976951) 
galleri (3.952363) librari (3.825175) museum (3.727010) exhibit (3.710230) plant (3.457548) tree (3.251180) botan (3.248957) art (3.183070) dean (3.172534) pitch (3.170355) 
thai (3.651162) tapa (3.492778) prawn (3.381019) seafood (3.362547) dish (3.274525) mosqu (3.163406) grill (3.146550) pizza (3.139543) restaur (3.089433) goat (3.062613) 
baguett (3.157804) jewelleri (3.148429) naan (3.098814) express (3.051762) indian (3.051697) kebab (2.884936) bat (2.849162) peter (2.676575) tandoori (2.675951) bracelet (2.640464) 
gym (4.633728) cat (4.401849) bike (4.245120) dvds (4.113929) swim (4.101881) wing (3.984671) vintag (3.966718) video (3.953631) blockbust (3.932368) beach (3.864061) 
tea (3.347619) cake (3.009967) juic (2.949861) chees (2.834589) smoothi (2.753774) macaron (2.709003) coffe (2.707372) scone (2.678322) deli (2.631831) burger (2.628186) 
tour (4.179033) castl (4.153823) le (4.085855) hostel (4.081516) les (3.898351) guid (3.893163) hotel (3.881308) et (3.865167) butcher (3.840414) nous (3.799818) 
fudg (4.726709) cigar (3.988581) hmv (3.858900) gig (3.835138) theatr (3.777850) danc (3.588663) jean (3.587652) shirt (3.549820) hall (3.524289) tshirt (3.494768) 
Error (train/valid/test) = 0.326690/1.026742/1.008946 (0.037519)
..................................................
energy after gradient step = 44587072.600646

Top words for each topic:
shoe (4.331187) airport (3.491645) bookshop (3.323391) boot (3.294705) pair (3.150350) potter (3.132402) canal (3.106403) harri (3.061427) topshop (3.046884) cloth (3.021215) 
pub (3.817768) cinema (3.679557) record (3.678680) ale (3.511826) pint (3.403453) bar (3.351489) screen (3.139067) vinyl (3.131949) lager (3.094124) starbuck (3.079652) 
burrito (5.224004) mexican (5.206580) buse (4.507696) station (4.458282) platform (4.378324) korean (4.360046) climb (4.308432) salsa (4.206433) mexico (4.173475) guacamol (4.131418) 
librari (4.034561) galleri (3.992587) museum (3.888091) exhibit (3.811799) plant (3.458325) botan (3.376536) tree (3.267065) art (3.252524) dean (3.242976) garden (3.187420) 
thai (3.681607) dish (3.501475) tapa (3.486271) prawn (3.441782) restaur (3.406531) seafood (3.363632) starter (3.261850) pizza (3.261114) mosqu (3.164754) grill (3.130028) 
express (3.253829) baguett (3.206274) jewelleri (3.149818) indian (3.142795) naan (3.131587) kebab (2.943392) bat (2.856809) ik (2.760261) yard (2.759146) bracelet (2.753716) 
gym (4.817584) bike (4.542646) cat (4.443093) dvds (4.279945) swim (4.124099) wing (4.086468) beach (4.006916) vintag (4.006516) turkish (3.991064) blockbust (3.960182) 
tea (3.468415) cake (3.226682) chees (3.028077) juic (2.953276) coffe (2.911620) smoothi (2.835470) burger (2.825844) scone (2.799961) cupcak (2.669746) macaron (2.655203) 
tour (4.465999) castl (4.376222) le (4.215180) hotel (4.162120) hostel (4.090067) et (4.039082) butcher (3.997228) les (3.978843) guid (3.966870) nous (3.940053) 
fudg (4.852956) cigar (4.143950) gig (4.004229) hmv (3.996391) theatr (3.989905) danc (3.811578) club (3.666096) venu (3.651988) song (3.615074) bannerman (3.610541) 
Error (train/valid/test) = 0.321711/1.026753/1.002120 (0.036789)
..................................................
energy after gradient step = 44202769.917327

Top words for each topic:
shoe (4.398766) airport (3.583148) bookshop (3.288396) boot (3.264308) canal (3.204657) topshop (3.186928) potter (3.167152) cloth (3.100704) gear (3.082792) smith (3.070911) 
pub (4.078612) cinema (3.749843) ale (3.634384) bar (3.632975) record (3.617357) pint (3.581407) screen (3.184566) music (3.182978) vinyl (3.174682) beer (3.168731) 
burrito (5.453330) mexican (5.432745) station (4.654298) buse (4.614405) platform (4.600418) korean (4.484423) climb (4.467751) salsa (4.366296) flower (4.335245) guacamol (4.297266) 
galleri (4.138027) librari (4.064898) museum (3.962768) exhibit (3.924351) plant (3.672705) tree (3.419950) botan (3.410593) pitch (3.339419) dean (3.322874) garden (3.316346) 
thai (3.714800) dish (3.625117) restaur (3.486469) tapa (3.476963) prawn (3.455598) starter (3.395985) pizza (3.364323) seafood (3.349729) meal (3.185996) grill (3.122203) 
jewelleri (3.292766) express (3.268139) baguett (3.261800) naan (3.193420) indian (3.184326) kebab (3.002779) bat (2.870917) bracelet (2.823391) oink (2.793767) yard (2.787909) 
gym (4.805385) bike (4.629899) cat (4.544649) dvds (4.315802) wing (4.279158) swim (4.253709) vintag (4.098767) blockbust (4.062348) video (4.044989) beach (4.001771) 
tea (3.547989) cake (3.415593) chees (3.058630) coffe (3.025456) juic (2.970710) burger (2.962605) smoothi (2.844729) scone (2.824648) macaron (2.734909) cupcak (2.674092) 
tour (4.618483) castl (4.529883) hotel (4.306486) hostel (4.220347) le (4.187844) les (4.132209) guid (4.068846) butcher (4.032020) et (4.030550) nous (3.981665) 
fudg (4.928691) cigar (4.225773) gig (4.221486) theatr (4.110238) hmv (4.091624) danc (3.956246) club (3.878491) band (3.836452) bannerman (3.769348) venu (3.755357) 
Error (train/valid/test) = 0.330144/1.045849/1.015245 (0.035445)
..................................................
energy after gradient step = 43878711.908216

Top words for each topic:
shoe (4.463932) airport (3.546132) bookshop (3.426722) boot (3.315763) cloth (3.231977) canal (3.217257) topshop (3.189409) potter (3.148332) pair (3.119697) gear (3.099374) 
pub (4.262409) bar (3.905720) cinema (3.798137) ale (3.712210) pint (3.710815) record (3.621032) beer (3.509137) drink (3.256439) music (3.218810) screen (3.202888) 
burrito (5.613844) mexican (5.566179) station (4.795425) buse (4.779575) platform (4.728210) korean (4.695158) mexico (4.617674) climb (4.568889) salsa (4.488119) flower (4.435687) 
galleri (4.189868) librari (4.184620) museum (4.093441) exhibit (4.015392) plant (3.738955) botan (3.517393) pitch (3.446989) ikea (3.429735) tree (3.409595) garden (3.384373) 
dish (3.780763) thai (3.753301) restaur (3.594171) tapa (3.530216) pizza (3.514264) prawn (3.509770) starter (3.471318) seafood (3.404313) meal (3.320634) rice (3.253820) 
jewelleri (3.358592) naan (3.318483) indian (3.306364) baguett (3.291436) express (3.221439) kebab (3.129689) bat (3.081428) oink (2.904105) peter (2.870053) bracelet (2.862952) 
gym (4.906413) bike (4.729201) cat (4.671470) dvds (4.476958) wing (4.383632) swim (4.328055) blockbust (4.262685) vintag (4.241771) video (4.151586) beach (4.121039) 
tea (3.663860) cake (3.651075) coffe (3.260842) chees (3.129942) burger (3.109794) juic (3.036552) scone (2.938157) smoothi (2.904811) macaron (2.839542) cupcak (2.751253) 
tour (4.853337) castl (4.764759) hotel (4.540785) le (4.315736) hostel (4.268184) guid (4.217245) butcher (4.137200) les (4.123757) nous (4.073715) et (4.041104) 
fudg (5.100469) cigar (4.402912) gig (4.327473) hmv (4.259376) theatr (4.228143) danc (4.103971) club (4.017495) venu (4.016239) band (3.976610) tshirt (3.967223) 
Error (train/valid/test) = 0.316596/1.036157/1.007771 (0.036440)
..................................................
energy after gradient step = 43593437.880141

Top words for each topic:
shoe (4.515995) airport (3.593325) bookshop (3.410757) boot (3.398052) cloth (3.298708) potter (3.243258) canal (3.225808) topshop (3.221617) smith (3.155133) harri (3.126846) 
pub (4.453772) bar (4.134881) pint (3.799307) cinema (3.774146) ale (3.765207) beer (3.637506) record (3.620827) drink (3.335483) cocktail (3.299957) music (3.223875) 
burrito (5.776141) mexican (5.749944) station (4.979072) buse (4.970918) platform (4.830370) korean (4.762293) guacamol (4.666983) climb (4.666852) mexico (4.644818) salsa (4.604408) 
galleri (4.269304) librari (4.247912) museum (4.174914) exhibit (4.123482) plant (3.744579) botan (3.576276) pitch (3.541631) garden (3.515053) art (3.475685) tree (3.442557) 
dish (3.896856) thai (3.753360) restaur (3.672634) starter (3.565268) pizza (3.542536) tapa (3.525789) prawn (3.511673) seafood (3.416452) meal (3.401788) rice (3.290766) 
jewelleri (3.420780) express (3.367157) naan (3.337181) indian (3.333354) baguett (3.267020) kebab (3.202254) bat (3.087154) yard (2.980395) oink (2.933408) tandoori (2.906796) 
gym (5.016556) bike (4.981796) cat (4.625179) dvds (4.554115) wing (4.415295) swim (4.258160) blockbust (4.245698) video (4.211199) portobello (4.118732) beach (4.086903) 
tea (3.778425) cake (3.750607) coffe (3.337314) burger (3.186567) chees (3.167090) juic (3.086896) smoothi (3.039424) scone (3.023248) cupcak (2.895939) macaron (2.854799) 
tour (4.930133) castl (4.829532) hotel (4.615973) hostel (4.368428) le (4.366959) guid (4.343688) les (4.209298) et (4.173062) hill (4.125614) nous (4.119916) 
fudg (5.195839) gig (4.566160) theatr (4.459386) cigar (4.421033) danc (4.317333) hmv (4.260953) venu (4.208230) band (4.185590) club (4.166196) tshirt (4.034409) 
Error (train/valid/test) = 0.316680/1.035144/1.004465 (0.036191)
..................................................
energy after gradient step = 43325419.710890

Top words for each topic:
shoe (4.577803) airport (3.613906) bookshop (3.508339) boot (3.406809) cloth (3.359389) topshop (3.237380) canal (3.230747) pair (3.207508) hair (3.160752) potter (3.155949) 
pub (4.671054) bar (4.286570) pint (3.893649) ale (3.833366) beer (3.807450) cinema (3.802282) cocktail (3.584483) record (3.568692) drink (3.501017) tap (3.278513) 
burrito (5.896999) mexican (5.865031) buse (5.104960) station (5.104367) platform (4.984414) korean (4.942265) climb (4.761774) taco (4.761604) flower (4.754010) mexico (4.751194) 
galleri (4.330447) librari (4.319463) museum (4.253676) exhibit (4.206501) plant (3.791331) garden (3.584701) tree (3.578562) botan (3.549949) pitch (3.538591) dean (3.489294) 
dish (3.967467) thai (3.804237) restaur (3.778261) starter (3.612736) pizza (3.592971) prawn (3.547884) tapa (3.539201) meal (3.480489) seafood (3.473019) sauc (3.420992) 
naan (3.425924) jewelleri (3.422564) indian (3.416146) express (3.368087) baguett (3.271344) kebab (3.263787) bat (3.125232) oink (3.073998) peter (2.989034) tandoori (2.972114) 
gym (5.077058) bike (5.033099) dvds (4.641583) cat (4.635571) wing (4.493313) swim (4.411840) video (4.304101) blockbust (4.297970) vintag (4.240689) beach (4.240533) 
cake (3.899311) tea (3.897013) coffe (3.451040) chees (3.271716) burger (3.227461) juic (3.111512) scone (3.091198) smoothi (3.023833) macaron (2.962683) deli (2.939138) 
tour (5.061669) castl (4.995914) hotel (4.679242) hostel (4.507510) le (4.393586) guid (4.351036) les (4.275145) et (4.230635) nous (4.210013) hill (4.179633) 
fudg (5.348391) gig (4.676927) cigar (4.621279) theatr (4.513402) danc (4.467049) hmv (4.417913) venu (4.290781) band (4.289530) club (4.283065) bannerman (4.100509) 
Error (train/valid/test) = 0.313720/1.035912/1.004181 (0.036148)
..................................................
energy after gradient step = 43093455.510865

Top words for each topic:
shoe (4.623311) bookshop (3.598189) airport (3.534321) boot (3.484485) cloth (3.431907) hair (3.264718) store (3.244033) pair (3.241707) topshop (3.232253) gear (3.215549) 
pub (4.818165) bar (4.421875) beer (3.957153) pint (3.895050) ale (3.888529) cinema (3.814367) cocktail (3.680886) record (3.528162) drink (3.518820) tap (3.258851) 
burrito (6.016289) mexican (5.956521) buse (5.162641) station (5.151538) platform (5.120920) korean (5.020713) taco (4.974623) guacamol (4.844232) salsa (4.834044) climb (4.830204) 
librari (4.405423) galleri (4.371971) museum (4.367591) exhibit (4.265443) plant (3.853511) botan (3.656702) garden (3.638695) tree (3.624692) dean (3.600239) pitch (3.571518) 
dish (4.064332) restaur (3.863063) thai (3.849384) starter (3.709656) pizza (3.659953) prawn (3.593852) meal (3.561248) tapa (3.533492) menu (3.529184) seafood (3.503399) 
indian (3.461081) jewelleri (3.449558) express (3.433361) naan (3.405396) kebab (3.332346) baguett (3.201896) bat (3.087678) bracelet (3.015377) ik (3.000771) peter (2.997537) 
bike (5.158210) gym (5.131498) cat (4.750932) dvds (4.702220) wing (4.374239) blockbust (4.372183) swim (4.363313) beach (4.317182) video (4.258046) costum (4.233505) 
cake (3.972859) tea (3.938848) coffe (3.560808) chees (3.321647) burger (3.312086) juic (3.178860) scone (3.165166) smoothi (3.128848) sandwich (3.067698) chocol (3.047668) 
tour (5.161525) castl (5.137334) hotel (4.798150) hostel (4.541600) le (4.428610) guid (4.379038) les (4.340893) et (4.302960) hill (4.280795) sushi (4.250036) 
fudg (5.408764) gig (4.822941) theatr (4.687345) cigar (4.653554) danc (4.636391) hmv (4.535998) band (4.484762) venu (4.452612) club (4.379755) bannerman (4.246542) 
Error (train/valid/test) = 0.311609/1.038065/1.002233 (0.036051)
..................................................
energy after gradient step = 42831163.490938

Top words for each topic:
shoe (4.712427) bookshop (3.652391) cloth (3.590528) airport (3.560587) boot (3.548675) store (3.436981) hair (3.382889) shop (3.350514) potter (3.327586) canal (3.296382) 
pub (4.968197) bar (4.532622) beer (4.062944) pint (3.928245) ale (3.901380) cocktail (3.884412) cinema (3.754222) drink (3.627930) record (3.530502) tap (3.358218) 
burrito (6.197281) mexican (6.161869) station (5.398213) buse (5.364529) platform (5.217493) korean (5.206882) taco (5.202937) mexico (5.087529) der (5.043771) salsa (4.996008) 
galleri (4.496451) museum (4.492900) librari (4.488620) exhibit (4.348176) plant (3.837688) pitch (3.782514) garden (3.762912) botan (3.754162) dean (3.688376) tree (3.673790) 
dish (4.217602) restaur (4.060459) starter (3.875418) thai (3.811442) pizza (3.739747) prawn (3.660009) meal (3.647041) menu (3.644335) sauc (3.594185) tapa (3.590768) 
jewelleri (3.508941) indian (3.471994) naan (3.469342) kebab (3.436019) express (3.331762) baguett (3.282585) oink (3.236041) bat (3.184468) tandoori (3.132215) bracelet (3.108620) 
bike (5.239828) gym (5.223145) dvds (4.841704) cat (4.795485) blockbust (4.523462) swim (4.482650) wing (4.363404) store (4.316075) costum (4.294213) beach (4.286370) 
cake (4.161606) tea (4.074984) coffe (3.739489) burger (3.476819) chees (3.404307) scone (3.352914) juic (3.306909) chocol (3.283108) smoothi (3.237407) sandwich (3.203750) 
tour (5.277092) castl (5.218230) hotel (4.876692) hostel (4.595420) le (4.494099) guid (4.486272) les (4.481057) nous (4.387752) sushi (4.378292) et (4.351594) 
fudg (5.541388) gig (4.999671) danc (4.960885) theatr (4.884167) cigar (4.794287) hmv (4.726896) club (4.698640) band (4.681267) venu (4.652250) tshirt (4.410519) 
Error (train/valid/test) = 0.305865/1.049980/1.004110 (0.036035)
..................................................
energy after gradient step = 42629236.830097

Top words for each topic:
shoe (4.775476) bookshop (3.749787) cloth (3.658489) boot (3.560121) store (3.549149) hair (3.536261) airport (3.459441) shop (3.446082) topshop (3.377279) potter (3.358343) 
pub (5.064894) bar (4.612789) beer (4.059569) pint (4.027348) ale (3.947637) cocktail (3.941435) cinema (3.779080) drink (3.690192) record (3.462684) tap (3.431934) 
burrito (6.332244) mexican (6.273427) station (5.445246) taco (5.426513) buse (5.364373) platform (5.357013) korean (5.274249) der (5.233829) climb (5.083416) salsa (5.062624) 
librari (4.597633) galleri (4.586874) museum (4.586616) exhibit (4.531998) plant (3.947575) pitch (3.851322) garden (3.808269) dean (3.791002) botan (3.771745) bobbi (3.620400) 
dish (4.241846) restaur (4.121407) starter (3.938746) thai (3.891960) pizza (3.840219) sauc (3.719337) menu (3.706219) prawn (3.695174) meal (3.689798) tapa (3.619210) 
jewelleri (3.582400) naan (3.545552) kebab (3.516493) indian (3.504748) express (3.480215) baguett (3.363452) oink (3.280410) bracelet (3.120450) ik (3.094898) bat (3.093840) 
bike (5.346136) gym (5.272356) cat (4.847231) dvds (4.835086) blockbust (4.541358) store (4.462796) swim (4.419852) shop (4.405114) chariti (4.392600) video (4.343789) 
cake (4.287399) tea (4.165761) coffe (3.866392) burger (3.571044) chees (3.489321) scone (3.448379) chocol (3.436827) smoothi (3.378582) juic (3.351660) sandwich (3.317040) 
tour (5.369529) castl (5.329819) hotel (4.907264) hostel (4.649620) le (4.632627) guid (4.574550) les (4.503980) et (4.388260) nous (4.376053) hill (4.359902) 
fudg (5.585341) gig (5.156803) danc (5.130847) theatr (4.962520) cigar (4.904778) club (4.856622) band (4.825659) hmv (4.731948) venu (4.731042) tshirt (4.470778) 
Error (train/valid/test) = 0.302496/1.051516/1.007233 (0.036136)
..................................................
energy after gradient step = 42422398.865531

Top words for each topic:
shoe (4.849993) cloth (3.767411) bookshop (3.764075) store (3.661117) hair (3.630916) boot (3.610990) airport (3.533155) shop (3.485936) topshop (3.431503) potter (3.396614) 
pub (5.155580) bar (4.619794) beer (4.136700) pint (4.049869) ale (3.970964) cocktail (3.963663) cinema (3.812549) drink (3.710705) burger (3.452337) tap (3.448683) 
burrito (6.413527) mexican (6.349317) station (5.520396) taco (5.505266) buse (5.429333) platform (5.378616) korean (5.333211) der (5.264662) mexico (5.217514) und (5.159953) 
librari (4.678295) galleri (4.666678) exhibit (4.662528) museum (4.642866) plant (3.944241) botan (3.940716) pitch (3.874973) garden (3.866162) dean (3.832602) tree (3.704713) 
dish (4.319321) restaur (4.120499) thai (3.963977) starter (3.958508) sauc (3.844822) pizza (3.844699) menu (3.791400) meal (3.744182) prawn (3.720977) seafood (3.642382) 
jewelleri (3.584307) kebab (3.546588) indian (3.537179) naan (3.481221) express (3.470543) baguett (3.425585) oink (3.322748) peter (3.254773) bracelet (3.174550) tandoori (3.156286) 
bike (5.411062) gym (5.274050) dvds (4.978741) cat (4.783464) blockbust (4.627397) store (4.545922) chariti (4.539176) cds (4.486802) shop (4.453883) swim (4.442666) 
cake (4.365504) tea (4.210735) coffe (3.991189) burger (3.652537) chocol (3.587866) chees (3.539062) scone (3.535001) smoothi (3.455504) sandwich (3.437696) juic (3.436865) 
tour (5.412818) castl (5.358280) hotel (4.919753) hostel (4.707354) guid (4.591546) le (4.561789) les (4.508715) monument (4.426910) nous (4.410730) et (4.392748) 
fudg (5.712104) gig (5.259116) danc (5.213934) theatr (5.137589) cigar (4.974907) club (4.940904) band (4.845916) venu (4.838596) hmv (4.717525) tshirt (4.612783) 
Error (train/valid/test) = 0.298789/1.058369/1.013454 (0.036569)
..................................................
energy after gradient step = 42256964.218047

Top words for each topic:
shoe (4.878748) bookshop (3.824750) cloth (3.816461) store (3.786016) hair (3.690626) boot (3.641336) shop (3.562314) topshop (3.485027) airport (3.432415) potter (3.425985) 
pub (5.151025) bar (4.614173) beer (4.157442) pint (4.097119) ale (3.990441) cocktail (3.945067) cinema (3.821871) drink (3.723091) burger (3.569400) tap (3.489676) 
burrito (6.466934) mexican (6.442489) taco (5.602739) station (5.542269) buse (5.486805) platform (5.424298) der (5.398475) korean (5.303272) und (5.252825) mexico (5.210907) 
librari (4.739431) galleri (4.725289) exhibit (4.717535) museum (4.683253) plant (4.096854) botan (3.966729) garden (3.949745) pitch (3.912396) dean (3.804089) tree (3.714458) 
dish (4.338198) restaur (4.212916) thai (3.980484) starter (3.970787) sauc (3.924519) pizza (3.848304) menu (3.810921) prawn (3.754621) meal (3.735873) seafood (3.666920) 
kebab (3.645579) jewelleri (3.590805) express (3.549255) indian (3.523914) naan (3.485163) baguett (3.365316) oink (3.320308) bracelet (3.220895) takeaway (3.206774) peter (3.200729) 
bike (5.464427) gym (5.305275) dvds (4.978111) cat (4.877822) store (4.653642) blockbust (4.549946) chariti (4.534620) shop (4.523099) cds (4.516120) toy (4.467540) 
cake (4.447540) tea (4.289879) coffe (4.082388) chocol (3.848724) burger (3.634947) sandwich (3.634843) scone (3.591752) chees (3.566587) smoothi (3.520020) juic (3.490009) 
tour (5.489325) castl (5.421368) hotel (4.975758) hostel (4.708890) le (4.681771) guid (4.616832) les (4.603491) nous (4.464092) et (4.427225) hill (4.374190) 
fudg (5.770540) gig (5.392790) danc (5.295606) theatr (5.259337) cigar (5.055338) club (5.028291) band (4.969123) venu (4.927156) hmv (4.759004) bannerman (4.659395) 
Error (train/valid/test) = 0.297181/1.061914/1.019397 (0.036863)
..................................................
energy after gradient step = 42097837.016344

Top words for each topic:
shoe (4.951574) bookshop (3.886494) cloth (3.864773) store (3.861303) hair (3.763783) boot (3.672933) shop (3.563817) topshop (3.517541) potter (3.516003) smith (3.462271) 
pub (5.235669) bar (4.671087) beer (4.190726) pint (4.147179) ale (4.062626) cocktail (3.993582) cinema (3.825910) drink (3.688982) burger (3.617708) tap (3.564203) 
mexican (6.529118) burrito (6.523414) taco (5.710214) station (5.644616) platform (5.525370) buse (5.502505) korean (5.497712) der (5.478960) und (5.411286) mexico (5.340496) 
exhibit (4.819483) galleri (4.785794) museum (4.765093) librari (4.750694) plant (4.086382) garden (4.028143) botan (3.987498) pitch (3.928622) dean (3.919633) forest (3.807768) 
dish (4.419077) restaur (4.211035) starter (4.058506) sauc (4.013976) thai (4.006247) menu (3.912102) pizza (3.906520) prawn (3.813370) meal (3.758445) dessert (3.733823) 
kebab (3.743080) jewelleri (3.610746) indian (3.603689) express (3.569967) naan (3.460051) oink (3.402092) baguett (3.327463) takeaway (3.284718) tandoori (3.238406) bracelet (3.230421) 
bike (5.541915) gym (5.346979) dvds (5.042030) cat (4.783529) store (4.777312) cds (4.731079) blockbust (4.649631) shop (4.548038) toy (4.510794) chariti (4.476319) 
cake (4.547384) tea (4.352904) coffe (4.172921) chocol (4.019446) burger (3.710202) sandwich (3.699315) scone (3.641270) chees (3.638906) smoothi (3.609956) breakfast (3.571933) 
tour (5.547551) castl (5.474193) hotel (4.999932) hostel (4.760717) guid (4.671105) le (4.636153) les (4.622605) nous (4.498601) monument (4.451726) hill (4.410426) 
fudg (5.818918) gig (5.470140) danc (5.432704) theatr (5.317792) cigar (5.147221) club (5.113836) band (5.058880) venu (4.997143) hmv (4.915003) bannerman (4.731495) 
Error (train/valid/test) = 0.292832/1.069874/1.018083 (0.036813)
..................................................
energy after gradient step = 41948301.777015

Top words for each topic:
shoe (5.028134) bookshop (3.975175) store (3.917742) cloth (3.888474) hair (3.830135) boot (3.704161) shop (3.642137) topshop (3.546487) hairdress (3.534655) potter (3.506338) 
pub (5.282147) bar (4.711176) beer (4.225027) pint (4.150615) ale (4.089854) cocktail (4.036886) cinema (3.845719) drink (3.752170) burger (3.645100) tap (3.571067) 
burrito (6.571469) mexican (6.567678) taco (5.792995) station (5.666004) der (5.600594) platform (5.543596) korean (5.482379) und (5.479138) buse (5.456829) mexico (5.359597) 
exhibit (4.890108) galleri (4.851756) museum (4.844922) librari (4.768195) plant (4.084676) botan (4.060212) garden (4.016813) dean (3.998241) pitch (3.974082) stadium (3.918423) 
dish (4.493307) restaur (4.260950) starter (4.111986) sauc (4.069951) thai (4.026803) pizza (3.959628) menu (3.955260) prawn (3.847339) dessert (3.802581) meal (3.776528) 
kebab (3.804643) jewelleri (3.602146) indian (3.593410) express (3.562315) oink (3.508825) naan (3.330086) takeaway (3.309651) peter (3.279346) bracelet (3.261110) baguett (3.247556) 
bike (5.586602) gym (5.369811) dvds (5.110810) cat (4.905097) store (4.834102) cds (4.727481) blockbust (4.705796) chariti (4.694370) shop (4.606336) toy (4.534557) 
cake (4.608437) tea (4.386088) coffe (4.251163) chocol (4.145231) burger (3.820298) sandwich (3.743103) scone (3.719662) chees (3.699232) smoothi (3.673403) brunch (3.653270) 
tour (5.550871) castl (5.527806) hotel (5.006999) hostel (4.812755) guid (4.684763) les (4.674935) le (4.648466) nous (4.538385) monument (4.496740) hill (4.454424) 
fudg (5.830519) gig (5.509220) danc (5.464791) theatr (5.376639) club (5.231230) cigar (5.185565) band (5.159033) venu (5.054086) hmv (4.810932) bannerman (4.728180) 
Error (train/valid/test) = 0.289387/1.074719/1.024398 (0.037097)
..................................................
energy after gradient step = 41857320.181711

Top words for each topic:
shoe (5.065135) cloth (4.058708) bookshop (3.991755) store (3.910550) hair (3.853403) boot (3.768139) shop (3.690818) hairdress (3.626549) potter (3.619361) topshop (3.590312) 
pub (5.338122) bar (4.709599) beer (4.346037) pint (4.239258) cocktail (4.132153) ale (4.129275) cinema (3.850785) drink (3.807898) burger (3.706800) tap (3.604166) 
mexican (6.627557) burrito (6.625240) taco (5.874352) station (5.730653) der (5.663888) buse (5.585554) und (5.569524) korean (5.504533) platform (5.500025) mexico (5.351139) 
exhibit (4.958258) museum (4.934901) galleri (4.895232) librari (4.831692) plant (4.310151) botan (4.166958) pitch (4.065315) garden (4.046562) meadow (3.999575) dean (3.997277) 
dish (4.498417) restaur (4.270372) starter (4.145784) thai (4.086889) sauc (4.045027) menu (4.009332) pizza (3.952305) prawn (3.905761) dessert (3.887850) steak (3.835725) 
kebab (3.853218) express (3.596131) indian (3.587193) jewelleri (3.585983) oink (3.432944) takeaway (3.348246) naan (3.315221) costa (3.296430) bracelet (3.290825) ik (3.173451) 
bike (5.634772) gym (5.416867) dvds (5.117042) store (4.878363) cds (4.846961) chariti (4.820554) cat (4.802869) toy (4.682254) shop (4.676333) blockbust (4.673710) 
cake (4.700627) tea (4.385388) coffe (4.297529) chocol (4.230001) burger (3.865905) sandwich (3.804457) scone (3.798830) brunch (3.739525) smoothi (3.730541) chees (3.719717) 
tour (5.624388) castl (5.610516) hotel (5.066113) hostel (4.802345) les (4.688557) le (4.676280) guid (4.673996) nous (4.546728) monument (4.512058) hill (4.494313) 
fudg (5.899674) gig (5.550359) danc (5.542366) theatr (5.444127) cigar (5.265160) club (5.243682) band (5.217696) venu (5.100710) tshirt (4.858477) bannerman (4.799533) 
Error (train/valid/test) = 0.287635/1.080647/1.029935 (0.037238)
..................................................
energy after gradient step = 41742691.884486

Top words for each topic:
shoe (5.156963) cloth (4.137073) bookshop (4.066635) store (3.998722) hair (3.938715) shop (3.781997) boot (3.772790) hairdress (3.694817) topshop (3.646259) potter (3.594639) 
pub (5.411481) bar (4.723315) beer (4.381267) pint (4.314380) ale (4.244980) cocktail (4.219106) cinema (3.899890) drink (3.835932) burger (3.773086) tap (3.663919) 
burrito (6.697465) mexican (6.674976) taco (5.933788) der (5.770860) station (5.714952) und (5.664859) platform (5.664486) buse (5.551797) korean (5.524861) mexico (5.506679) 
exhibit (4.999548) museum (4.985555) galleri (4.967674) librari (4.882240) plant (4.195933) garden (4.154921) botan (4.117585) meadow (4.087099) dean (4.060997) stadium (4.036744) 
dish (4.618718) restaur (4.359164) starter (4.253734) thai (4.176710) sauc (4.108891) menu (4.046608) pizza (3.991967) prawn (3.976101) dessert (3.954104) steak (3.907187) 
kebab (3.894154) jewelleri (3.653482) indian (3.639105) express (3.554503) oink (3.551396) takeaway (3.439921) pizza (3.282531) tikka (3.267197) baguett (3.214157) tandoori (3.212292) 
bike (5.653707) gym (5.431859) dvds (5.196603) store (5.004720) cds (4.905982) cat (4.866772) blockbust (4.797956) chariti (4.786406) shop (4.743516) toy (4.692579) 
cake (4.821681) tea (4.469549) coffe (4.393426) chocol (4.347790) burger (3.945152) scone (3.870069) sandwich (3.839250) brunch (3.838963) chees (3.800485) smoothi (3.792926) 
castl (5.673668) tour (5.639504) hotel (5.139244) hostel (4.850252) les (4.798342) le (4.714064) guid (4.697658) nous (4.598526) monument (4.578987) hill (4.494984) 
fudg (5.951512) gig (5.656127) danc (5.646166) theatr (5.500603) club (5.393282) cigar (5.318872) band (5.237059) venu (5.144620) bannerman (4.859382) underground (4.798260) 
Error (train/valid/test) = 0.281937/1.098774/1.039174 (0.037604)
..................................................
energy after gradient step = 41639599.472175

Top words for each topic:
shoe (5.189384) cloth (4.179389) bookshop (4.121641) store (4.005779) hair (3.996904) boot (3.788319) hairdress (3.765494) shop (3.760367) topshop (3.726201) potter (3.716815) 
pub (5.479393) bar (4.731973) beer (4.434705) pint (4.358361) ale (4.277569) cocktail (4.250193) drink (3.901490) cinema (3.888456) burger (3.812315) tap (3.689725) 
burrito (6.733581) mexican (6.673127) taco (5.981296) der (5.824831) und (5.748793) station (5.695019) korean (5.621846) platform (5.594465) buse (5.520818) mexico (5.423329) 
museum (5.114250) exhibit (5.067161) galleri (5.016034) librari (4.970314) botan (4.307747) plant (4.227012) garden (4.205639) pitch (4.173971) stadium (4.143435) meadow (4.132330) 
dish (4.671547) restaur (4.374259) starter (4.243348) thai (4.209527) sauc (4.189009) menu (4.080191) prawn (4.016352) dessert (4.013504) pizza (4.007114) steak (3.952724) 
kebab (3.934854) indian (3.628598) jewelleri (3.627051) express (3.578658) oink (3.572562) takeaway (3.454006) pizza (3.358577) bracelet (3.275404) ik (3.251894) card (3.186095) 
bike (5.702399) gym (5.448061) dvds (5.291848) store (5.062874) cds (4.945777) cat (4.875457) shop (4.769215) blockbust (4.757143) chariti (4.741811) toy (4.705308) 
cake (4.905691) tea (4.560920) coffe (4.508916) chocol (4.368691) burger (4.005047) scone (3.956952) brunch (3.940413) sandwich (3.904507) smoothi (3.874309) breakfast (3.868530) 
castl (5.659159) tour (5.656369) hotel (5.167650) hostel (4.856903) les (4.787136) le (4.773450) guid (4.755443) nous (4.631657) monument (4.619489) zoo (4.522623) 
fudg (5.888145) gig (5.685451) danc (5.668484) theatr (5.489565) club (5.441728) cigar (5.326255) band (5.322964) venu (5.174669) bannerman (4.976500) hmv (4.899162) 
Error (train/valid/test) = 0.278052/1.101305/1.042074 (0.037549)
..................................................
energy after gradient step = 41539171.478992

Top words for each topic:
shoe (5.286193) cloth (4.210484) bookshop (4.186508) store (4.118536) hair (4.042734) hairdress (3.887297) shop (3.841357) boot (3.825896) topshop (3.713703) potter (3.664450) 
pub (5.503912) bar (4.786356) beer (4.479752) pint (4.408961) ale (4.343309) cocktail (4.294981) drink (3.935706) cinema (3.906530) burger (3.899049) tap (3.723251) 
burrito (6.781461) mexican (6.694948) taco (6.021936) der (5.923983) und (5.865927) station (5.711300) platform (5.645999) korean (5.645492) buse (5.585010) mexico (5.529591) 
museum (5.154348) exhibit (5.123306) galleri (5.042053) librari (4.970086) plant (4.317584) botan (4.281308) garden (4.252883) stadium (4.180450) meadow (4.137286) dean (4.130735) 
dish (4.710007) restaur (4.384088) thai (4.292999) starter (4.290620) sauc (4.250091) menu (4.118438) dessert (4.051203) steak (4.049150) prawn (4.047695) pizza (4.015844) 
kebab (3.948429) jewelleri (3.623720) indian (3.612275) oink (3.534929) express (3.526873) takeaway (3.453945) pizza (3.421370) deliveri (3.250450) bracelet (3.239187) tandoori (3.236869) 
bike (5.737580) gym (5.469196) dvds (5.313927) store (5.123281) cds (5.062007) blockbust (4.902244) shop (4.824872) chariti (4.822929) cat (4.819794) toy (4.760210) 
cake (4.957190) coffe (4.573961) tea (4.503495) chocol (4.437320) burger (4.053378) scone (4.037366) brunch (4.002393) sandwich (3.982090) smoothi (3.932032) breakfast (3.900646) 
castl (5.705184) tour (5.695663) hotel (5.198776) hostel (4.904317) les (4.875465) le (4.781776) guid (4.748393) nous (4.711022) monument (4.664881) et (4.516159) 
fudg (5.948184) gig (5.762287) danc (5.704629) theatr (5.491968) club (5.462432) cigar (5.412586) band (5.392988) venu (5.225004) bannerman (4.986903) underground (4.876771) 
Error (train/valid/test) = 0.275524/1.107491/1.046983 (0.037801)
..................................................
energy after gradient step = 41461549.671803

Top words for each topic:
shoe (5.360848) bookshop (4.229027) cloth (4.196497) store (4.148732) hair (4.052887) shop (3.918207) hairdress (3.895206) boot (3.866123) topshop (3.844843) haircut (3.690061) 
pub (5.560409) bar (4.771515) beer (4.504968) pint (4.466855) ale (4.408799) cocktail (4.304954) burger (3.961209) cinema (3.956736) drink (3.918361) tap (3.770465) 
burrito (6.825305) mexican (6.706363) taco (6.065329) der (5.978213) und (5.937076) station (5.717561) platform (5.687046) korean (5.638172) buse (5.587843) mexico (5.499802) 
museum (5.211347) exhibit (5.206396) galleri (5.080704) librari (5.026078) botan (4.325294) plant (4.270678) meadow (4.242202) stadium (4.200160) dean (4.197367) garden (4.172622) 
dish (4.786347) restaur (4.433968) thai (4.349796) starter (4.333851) sauc (4.269397) menu (4.149430) prawn (4.115068) steak (4.112540) pizza (4.069797) dessert (4.055568) 
kebab (4.004319) jewelleri (3.690351) express (3.618597) oink (3.581783) indian (3.577798) takeaway (3.544050) pizza (3.429999) bracelet (3.300146) ik (3.247401) deliveri (3.170516) 
bike (5.750029) gym (5.512830) dvds (5.374393) store (5.113591) cds (5.058233) blockbust (4.900545) chariti (4.900366) shop (4.864488) cat (4.850427) toy (4.806127) 
cake (5.010190) coffe (4.606560) tea (4.513086) chocol (4.500431) scone (4.110952) burger (4.110022) brunch (4.075356) sandwich (4.043241) smoothi (3.971332) cafe (3.952805) 
castl (5.725881) tour (5.711694) hotel (5.259011) hostel (4.969598) les (4.872559) le (4.828788) guid (4.794472) nous (4.710560) monument (4.709766) zoo (4.615040) 
fudg (5.976657) gig (5.840455) danc (5.753262) theatr (5.597747) club (5.535225) band (5.469728) cigar (5.367197) venu (5.216035) bannerman (5.052415) underground (5.004963) 
Error (train/valid/test) = 0.271926/1.118116/1.050023 (0.038000)
..................................................
energy after gradient step = 41389742.275267

Top words for each topic:
shoe (5.418572) bookshop (4.304201) cloth (4.294230) store (4.191855) hair (4.127406) hairdress (4.022120) shop (3.957916) boot (3.834901) topshop (3.767810) potter (3.744008) 
pub (5.613884) bar (4.807447) beer (4.531216) pint (4.514916) ale (4.409834) cocktail (4.379920) burger (4.026210) cinema (3.976298) drink (3.949613) tap (3.832827) 
burrito (6.863424) mexican (6.732014) taco (6.138447) der (6.030378) und (5.987097) korean (5.737758) station (5.715074) platform (5.632341) nicht (5.616976) buse (5.598194) 
museum (5.280072) exhibit (5.258638) galleri (5.166708) librari (5.071445) plant (4.365618) stadium (4.359922) botan (4.276194) meadow (4.243290) bobbi (4.213096) garden (4.203285) 
dish (4.835430) restaur (4.486151) thai (4.411875) starter (4.387387) sauc (4.285322) menu (4.192573) steak (4.169901) prawn (4.131318) curri (4.096535) dessert (4.091936) 
kebab (4.052179) jewelleri (3.713270) indian (3.609661) express (3.570361) pizza (3.556906) takeaway (3.532021) oink (3.495903) bracelet (3.246841) ik (3.231649) tandoori (3.229194) 
bike (5.768075) gym (5.482074) dvds (5.428207) cds (5.194163) store (5.162079) blockbust (4.972923) chariti (4.937846) shop (4.915176) cat (4.874506) toy (4.870795) 
cake (5.018041) coffe (4.719953) chocol (4.500960) tea (4.498033) scone (4.159762) brunch (4.144416) burger (4.134826) sandwich (4.049361) smoothi (4.032205) breakfast (3.985550) 
castl (5.743639) tour (5.725736) hotel (5.296618) hostel (4.961396) le (4.855408) les (4.848487) monument (4.788979) guid (4.769756) nous (4.757816) airport (4.567313) 
fudg (6.032743) gig (5.921293) danc (5.812201) club (5.618972) theatr (5.607690) band (5.513583) cigar (5.453608) venu (5.291968) bannerman (5.104545) underground (5.003376) 
Error (train/valid/test) = 0.267352/1.126165/1.052512 (0.038395)
..................................................
energy after gradient step = 41323121.536453

Top words for each topic:
shoe (5.496428) cloth (4.362114) bookshop (4.336349) store (4.239142) hair (4.121260) hairdress (4.049994) shop (4.028761) topshop (3.910523) boot (3.850470) haircut (3.840345) 
pub (5.648708) bar (4.814547) beer (4.557430) pint (4.544232) ale (4.474596) cocktail (4.380925) burger (4.106272) cinema (4.013057) drink (3.969025) tap (3.843378) 
burrito (6.891989) mexican (6.762706) taco (6.165235) der (6.054795) und (6.039367) korean (5.775798) platform (5.709882) station (5.698555) nicht (5.613371) ist (5.611029) 
museum (5.320821) exhibit (5.297578) galleri (5.203141) librari (5.108108) botan (4.418450) stadium (4.367397) plant (4.311928) garden (4.291955) dean (4.237782) hemma (4.235105) 
dish (4.877086) restaur (4.523690) thai (4.490187) starter (4.420524) sauc (4.326305) steak (4.234286) menu (4.233334) prawn (4.214723) curri (4.134380) dessert (4.129261) 
kebab (4.091088) jewelleri (3.758121) pizza (3.616936) takeaway (3.586259) express (3.583161) oink (3.579303) indian (3.577858) bracelet (3.244076) hog (3.214713) ik (3.201045) 
bike (5.834345) gym (5.492453) dvds (5.478026) cds (5.225678) store (5.209797) shop (5.000110) blockbust (4.971845) toy (4.952214) chariti (4.927463) cat (4.881799) 
cake (5.079617) coffe (4.726412) chocol (4.549623) tea (4.532725) scone (4.209875) burger (4.196378) brunch (4.195875) smoothi (4.105665) breakfast (4.061781) sandwich (4.057024) 
tour (5.794447) castl (5.744136) hotel (5.315165) hostel (5.036399) les (4.954707) le (4.841353) nous (4.825461) monument (4.801701) guid (4.776213) airport (4.678852) 
fudg (6.005723) gig (6.002898) danc (5.837211) theatr (5.723145) club (5.694964) band (5.539334) cigar (5.474559) venu (5.350257) bannerman (5.113580) underground (5.078152) 
Error (train/valid/test) = 0.263359/1.136556/1.054688 (0.038615)
..................................................
energy after gradient step = 41265005.133771

Top words for each topic:
shoe (5.547416) cloth (4.404669) bookshop (4.360984) store (4.287996) hairdress (4.192250) hair (4.128084) shop (4.095141) topshop (3.926005) boot (3.882945) salon (3.845288) 
pub (5.689802) bar (4.874505) beer (4.646137) pint (4.582706) ale (4.500493) cocktail (4.434633) burger (4.164727) drink (4.057472) cinema (4.026930) tap (3.918336) 
burrito (6.914189) mexican (6.773096) taco (6.223464) der (6.120350) und (6.086249) korean (5.768576) nicht (5.736094) platform (5.723700) station (5.719927) ist (5.651985) 
museum (5.358003) exhibit (5.340946) galleri (5.256678) librari (5.139886) plant (4.395155) stadium (4.392309) botan (4.328939) garden (4.320293) bobbi (4.310406) dean (4.295352) 
dish (4.911062) thai (4.537735) restaur (4.522548) starter (4.466530) sauc (4.318410) steak (4.268714) menu (4.261170) prawn (4.239498) curri (4.183230) dessert (4.178394) 
kebab (4.125290) jewelleri (3.750917) pizza (3.677783) express (3.603006) takeaway (3.602123) oink (3.596004) indian (3.422639) ik (3.266855) card (3.243232) naan (3.227120) 
bike (5.872146) gym (5.517983) dvds (5.516883) cds (5.261290) store (5.243619) shop (5.067017) toy (5.028475) blockbust (5.010965) chariti (4.905523) cat (4.863304) 
cake (5.073645) coffe (4.750548) chocol (4.576016) tea (4.572717) brunch (4.250795) scone (4.240756) burger (4.232124) smoothi (4.153691) breakfast (4.097217) sandwich (4.078125) 
tour (5.802101) castl (5.746960) hotel (5.357820) hostel (5.079711) les (4.967966) le (4.800164) airport (4.790774) monument (4.790444) nous (4.773505) guid (4.740708) 
gig (5.998586) fudg (5.989525) danc (5.862212) theatr (5.741578) club (5.721488) band (5.552029) cigar (5.529572) venu (5.402408) bannerman (5.216015) underground (5.124756) 
Error (train/valid/test) = 0.260073/1.144885/1.055549 (0.038741)
..................................................
energy after gradient step = 41228806.358721

Top words for each topic:
shoe (5.585585) cloth (4.537253) store (4.356655) bookshop (4.274103) hairdress (4.244576) hair (4.164577) shop (4.141244) topshop (4.032833) boot (3.938170) salon (3.928612) 
pub (5.744735) bar (4.917758) beer (4.717098) pint (4.651862) ale (4.574716) cocktail (4.507925) burger (4.234552) cinema (4.108450) drink (4.103218) tap (3.926209) 
burrito (6.962030) mexican (6.840075) taco (6.298400) der (6.230219) und (6.183570) korean (5.833402) station (5.766603) platform (5.766038) ein (5.761638) ist (5.746825) 
museum (5.423160) exhibit (5.400433) galleri (5.292145) librari (5.142089) botan (4.447285) stadium (4.429810) dean (4.382578) garden (4.351534) plant (4.350161) hemma (4.341036) 
dish (4.992779) thai (4.570946) starter (4.556176) restaur (4.534821) sauc (4.387267) steak (4.335471) prawn (4.317300) menu (4.307783) curri (4.279461) dessert (4.217661) 
kebab (4.087146) pizza (3.755960) jewelleri (3.702473) express (3.674895) takeaway (3.636652) oink (3.586863) indian (3.408617) bracelet (3.316187) ik (3.253537) tandoori (3.247498) 
bike (5.889089) dvds (5.502547) gym (5.474972) cds (5.308632) store (5.276131) shop (5.118076) toy (5.000559) chariti (4.876009) blockbust (4.868903) scotmid (4.831795) 
cake (5.078002) coffe (4.757333) tea (4.640476) chocol (4.574067) scone (4.329633) brunch (4.289148) burger (4.241731) smoothi (4.212809) breakfast (4.165353) bacon (4.125292) 
tour (5.828477) castl (5.773629) hotel (5.389020) hostel (5.124931) les (5.027395) monument (4.871883) nous (4.856088) airport (4.847626) le (4.814360) guid (4.772379) 
gig (6.017841) fudg (6.014545) danc (5.864104) theatr (5.771229) club (5.663163) band (5.594155) cigar (5.532083) venu (5.469335) bannerman (5.197615) underground (5.163963) 
Error (train/valid/test) = 0.256231/1.155167/1.064216 (0.039205)
..................................................
energy after gradient step = 41162290.328596

Top words for each topic:
shoe (5.685428) cloth (4.562510) store (4.449102) hairdress (4.354540) bookshop (4.318047) hair (4.249709) shop (4.232764) topshop (4.069518) salon (4.038528) boot (3.980732) 
pub (5.786025) bar (4.884112) beer (4.715308) pint (4.675453) ale (4.603648) cocktail (4.573767) burger (4.352355) drink (4.163268) cinema (4.134307) tap (3.983052) 
burrito (7.042596) mexican (6.857511) taco (6.370653) der (6.272993) und (6.250017) nicht (5.864054) ist (5.853260) korean (5.835541) ein (5.817691) platform (5.816351) 
museum (5.475985) exhibit (5.444469) galleri (5.329304) librari (5.131935) plant (4.490952) stadium (4.461803) bobbi (4.360834) botan (4.309139) hemma (4.306927) meadow (4.288874) 
dish (4.982657) thai (4.629563) starter (4.552096) restaur (4.544226) sauc (4.463868) menu (4.360930) steak (4.352724) prawn (4.341660) curri (4.322292) dessert (4.255084) 
kebab (4.095267) pizza (3.845665) jewelleri (3.762789) takeaway (3.642583) express (3.639560) oink (3.628637) indian (3.362729) tandoori (3.262801) ik (3.233754) bracelet (3.211918) 
bike (5.888386) dvds (5.557477) gym (5.470340) cds (5.292604) store (5.269905) shop (5.115344) toy (5.004005) blockbust (4.899832) cat (4.860273) chariti (4.799778) 
cake (5.117103) coffe (4.810405) tea (4.586729) chocol (4.578632) scone (4.386189) brunch (4.335777) burger (4.278455) breakfast (4.255622) smoothi (4.253181) sandwich (4.156392) 
tour (5.812589) castl (5.775396) hotel (5.407238) hostel (5.178670) les (5.039625) monument (4.894461) nous (4.888760) le (4.872254) airport (4.865619) guid (4.772343) 
gig (6.045254) fudg (5.950867) danc (5.941783) theatr (5.776944) club (5.733885) cigar (5.618946) band (5.562393) venu (5.502038) bannerman (5.308123) underground (5.216423) 
Error (train/valid/test) = 0.253104/1.157769/1.073284 (0.039749)
..................................................
energy after gradient step = 41128472.345166

Top words for each topic:
shoe (5.773595) cloth (4.620712) store (4.557193) hairdress (4.448152) hair (4.314553) shop (4.301235) bookshop (4.173758) topshop (4.118360) salon (4.078766) haircut (4.071386) 
pub (5.808470) bar (4.926099) beer (4.824117) pint (4.756801) cocktail (4.645037) ale (4.641762) burger (4.405879) drink (4.225731) cinema (4.164109) tap (4.015208) 
burrito (7.088426) mexican (6.908562) taco (6.398639) der (6.354258) und (6.293321) korean (5.918219) ist (5.912709) ein (5.904940) nicht (5.894755) das (5.861046) 
exhibit (5.500911) museum (5.449789) galleri (5.370691) librari (5.143628) stadium (4.544229) botan (4.541573) dean (4.404861) bobbi (4.329369) peartre (4.325352) meadow (4.319274) 
dish (4.976135) thai (4.676320) restaur (4.617835) starter (4.601468) sauc (4.484949) curri (4.416803) steak (4.415107) menu (4.409033) prawn (4.405447) dessert (4.335702) 
kebab (4.113109) pizza (3.898733) jewelleri (3.771595) takeaway (3.676773) express (3.676555) oink (3.589738) card (3.326096) bracelet (3.279775) indian (3.269374) ik (3.242348) 
bike (5.925004) dvds (5.564755) gym (5.421979) cds (5.385521) store (5.370691) shop (5.145503) blockbust (5.075908) toy (4.970300) scotmid (4.889686) chariti (4.835819) 
cake (5.119848) coffe (4.873381) chocol (4.609512) tea (4.573804) brunch (4.424594) scone (4.422678) breakfast (4.338242) burger (4.302135) smoothi (4.289270) sandwich (4.217736) 
tour (5.806279) castl (5.781019) hotel (5.467903) hostel (5.136565) les (5.039777) nous (4.912489) le (4.871255) monument (4.864063) airport (4.835155) guid (4.786000) 
gig (6.110874) danc (5.982482) fudg (5.974912) theatr (5.847226) club (5.760317) band (5.651961) cigar (5.591887) venu (5.447049) underground (5.320957) bannerman (5.239017) 
Error (train/valid/test) = 0.249536/1.166697/1.082433 (0.040372)
..................................................
energy after gradient step = 41078966.748350

Top words for each topic:
shoe (5.818969) cloth (4.698872) store (4.630512) hairdress (4.463843) shop (4.336932) hair (4.271539) topshop (4.230630) salon (4.171292) massag (4.088350) haircut (4.077943) 
pub (5.858731) bar (4.967919) beer (4.875511) pint (4.791862) cocktail (4.724451) ale (4.697353) burger (4.428843) drink (4.189796) cinema (4.153838) tap (4.044954) 
burrito (7.103126) mexican (6.896473) taco (6.448751) der (6.414351) und (6.327701) ein (5.997308) ist (5.965168) nicht (5.942240) das (5.933163) korean (5.928144) 
exhibit (5.530962) museum (5.494659) galleri (5.412916) librari (5.165401) hemma (4.471800) stadium (4.442900) bobbi (4.442442) dean (4.438769) plant (4.430964) botan (4.399730) 
dish (5.015781) thai (4.715373) restaur (4.680736) starter (4.587956) sauc (4.546732) curri (4.485643) menu (4.468825) prawn (4.440653) steak (4.413103) dessert (4.351487) 
kebab (4.137144) pizza (3.923509) jewelleri (3.710962) takeaway (3.690786) express (3.673814) oink (3.541115) tandoori (3.314306) card (3.288598) ik (3.268495) deliveri (3.253615) 
bike (5.932502) dvds (5.617438) store (5.428535) gym (5.389533) cds (5.387327) shop (5.169884) toy (5.005857) blockbust (4.952330) chariti (4.867976) scotmid (4.815184) 
cake (5.199784) coffe (4.907685) chocol (4.659720) tea (4.628651) brunch (4.468220) scone (4.461039) breakfast (4.388074) smoothi (4.342954) burger (4.329213) sandwich (4.250980) 
castl (5.828460) tour (5.796439) hotel (5.424698) hostel (5.189178) les (5.099241) nous (4.947753) airport (4.904845) monument (4.898340) le (4.885153) guid (4.790658) 
gig (6.179748) danc (6.022928) fudg (6.010114) theatr (5.901626) club (5.821144) band (5.700171) cigar (5.665730) venu (5.476153) underground (5.349459) bannerman (5.314017) 
Error (train/valid/test) = 0.246971/1.176646/1.092353 (0.040768)
..................................................
energy after gradient step = 41044134.710040

Top words for each topic:
shoe (5.848556) cloth (4.734553) store (4.626144) hairdress (4.571823) shop (4.377745) hair (4.282072) massag (4.249406) topshop (4.224533) salon (4.192569) haircut (4.163971) 
pub (5.903402) bar (4.913695) beer (4.900214) pint (4.816003) cocktail (4.730117) ale (4.728680) burger (4.471449) drink (4.193968) cinema (4.184744) tap (4.049875) 
burrito (7.144194) mexican (6.940908) taco (6.501883) der (6.446170) und (6.381598) ein (6.090182) nicht (5.998777) ist (5.989943) das (5.989369) korean (5.971227) 
exhibit (5.544034) museum (5.473186) galleri (5.434041) librari (5.186521) stadium (4.560670) botan (4.495315) bobbi (4.448589) hemma (4.408443) meadow (4.400101) dean (4.375676) 
dish (5.059969) thai (4.746757) restaur (4.714498) starter (4.586870) sauc (4.557231) curri (4.513947) menu (4.508615) prawn (4.482125) steak (4.432701) dessert (4.372012) 
kebab (4.115342) pizza (3.904916) jewelleri (3.678157) takeaway (3.664901) express (3.609097) oink (3.517682) card (3.265445) deliveri (3.258366) ik (3.224128) bracelet (3.156682) 
bike (5.944445) dvds (5.617882) store (5.424896) cds (5.415928) gym (5.365375) shop (5.174922) toy (5.047270) blockbust (5.032878) scotmid (4.928006) chariti (4.842438) 
cake (5.230783) coffe (4.957739) chocol (4.671374) tea (4.659136) brunch (4.517791) scone (4.486470) breakfast (4.427921) smoothi (4.387069) burger (4.355277) cupcak (4.271438) 
castl (5.831038) tour (5.798741) hotel (5.437946) hostel (5.189491) les (5.115282) nous (4.957168) le (4.911889) airport (4.887827) monument (4.881037) guid (4.763406) 
gig (6.159844) danc (6.023913) fudg (5.921714) theatr (5.905742) club (5.851620) band (5.688188) cigar (5.650060) venu (5.493989) bannerman (5.316209) underground (5.299684) 
Error (train/valid/test) = 0.244807/1.183507/1.099048 (0.041432)
..................................................
energy after gradient step = 41003721.349645

Top words for each topic:
shoe (5.886172) cloth (4.803145) store (4.688262) hairdress (4.582534) shop (4.377724) hair (4.302281) massag (4.294112) salon (4.248653) topshop (4.245832) haircut (4.196928) 
pub (5.905124) beer (4.916571) bar (4.914681) pint (4.848403) cocktail (4.782612) ale (4.766239) burger (4.466758) drink (4.232879) cinema (4.225272) tap (4.109754) 
burrito (7.176960) mexican (6.938731) taco (6.531275) der (6.505662) und (6.425018) ein (6.103769) ist (6.051937) nicht (6.037416) das (6.014676) korean (5.999186) 
exhibit (5.567176) museum (5.509298) galleri (5.436403) librari (5.198448) stadium (4.635642) botan (4.493339) dean (4.482643) hemma (4.481377) bobbi (4.477380) meadow (4.451896) 
dish (5.120107) thai (4.758351) restaur (4.642476) sauc (4.614860) starter (4.583241) curri (4.542709) menu (4.505164) prawn (4.498539) steak (4.432300) dessert (4.400286) 
kebab (4.103562) pizza (3.924281) takeaway (3.674657) jewelleri (3.639699) express (3.611218) oink (3.562118) card (3.331977) deliveri (3.300644) ik (3.244663) hog (3.130493) 
bike (5.951212) dvds (5.620119) store (5.477599) cds (5.429997) gym (5.326640) shop (5.180048) bookshop (5.029049) toy (5.023404) blockbust (5.021735) scotmid (4.868847) 
cake (5.244235) coffe (5.009955) chocol (4.677748) tea (4.637908) brunch (4.579399) scone (4.537229) breakfast (4.454752) smoothi (4.432522) burger (4.357694) cupcak (4.304210) 
castl (5.844418) tour (5.839512) hotel (5.474514) hostel (5.228678) les (5.121086) nous (4.985268) le (4.914932) monument (4.906886) airport (4.903867) guid (4.791452) 
gig (6.196681) danc (6.045166) theatr (5.959400) fudg (5.929529) club (5.888075) band (5.744106) cigar (5.707323) venu (5.531409) underground (5.346089) bannerman (5.337762) 
Error (train/valid/test) = 0.243688/1.191343/1.102132 (0.041349)
