corpus = data_mont.gz
latentReg = 0.000000
lambda = 2.500000
K = 10

nUsers = 13861, nItems = 3918, nRatings = 49484

Error w/ offset term only (train/valid/test) = 1.351568/1.374852/1.345016 (0.027323)
Error w/ offset and bias (train/valid/test) = 0.636440/1.215347/1.140556 (0.025648)

..................................................
energy after gradient step = 69289216.735495

Top words for each topic:
dtre (0.498911) hamburg (0.480610) provid (0.470899) ami (0.456526) month (0.455750) soon (0.455155) dautr (0.454105) someon (0.414744) artist (0.404550) almond (0.392735) 
choisir (0.471966) wow (0.462089) hint (0.460254) dirti (0.453346) viateur (0.441307) anyway (0.437244) youv (0.423642) compani (0.423464) souvent (0.390066) trouv (0.386679) 
pho (0.478360) product (0.389671) step (0.374710) funni (0.373125) invit (0.355772) despit (0.344314) idal (0.342218) havent (0.341061) tradit (0.332184) cab (0.327190) 
under (0.526958) receiv (0.430316) massiv (0.426003) lime (0.415566) serious (0.392424) valu (0.384474) tant (0.375375) alor (0.370059) conveni (0.369708) hang (0.368963) 
singl (0.463060) difficult (0.450517) cher (0.430326) accommod (0.424050) spend (0.406873) transport (0.401844) massiv (0.399333) sell (0.393085) prompt (0.383940) fare (0.381749) 
deli (0.477070) starter (0.477034) welcom (0.438293) bore (0.431788) fromag (0.430647) crisp (0.395249) eggplant (0.392823) sake (0.385846) melt (0.384786) anyth (0.381303) 
frozen (0.536354) stand (0.463702) thursday (0.454449) jazz (0.443040) part (0.410435) general (0.404125) pita (0.396943) tight (0.387804) 6 (0.386089) sucr (0.381294) 
attract (0.512861) ici (0.510842) soft (0.485604) singl (0.442264) rang (0.440351) anyth (0.415104) today (0.413346) dj (0.404982) strong (0.395824) moin (0.394153) 
tax (0.432138) nearbi (0.397384) pancak (0.388931) gross (0.374157) pastri (0.372736) mcgill (0.368523) five (0.358731) appreci (0.354336) glace (0.352889) crme (0.348505) 
shower (0.510088) curd (0.492883) ideal (0.482933) creme (0.481436) school (0.468039) station (0.456853) tour (0.430034) issu (0.411654) mozzarella (0.394398) tant (0.376245) 
Error (train/valid/test) = 1.068527/1.223593/1.150873 (0.024848)
..................................................
energy after gradient step = 69073111.924742

Top words for each topic:
tad (0.917151) gen (0.757854) celebr (0.755158) quell (0.749554) dy (0.725767) internet (0.718363) dautr (0.703450) verr (0.702395) dragon (0.688995) slection (0.685091) 
messi (0.978029) jalapeno (0.915145) addict (0.822283) gratuit (0.809324) rank (0.744058) gentil (0.723969) faim (0.712620) foot (0.690344) insan (0.677782) passion (0.666906) 
breath (0.795297) idal (0.770894) companion (0.733500) health (0.730436) hotdog (0.711673) cherri (0.707354) exit (0.698301) sen (0.661344) diet (0.659254) calm (0.653040) 
bewar (0.807797) magasin (0.720894) doi (0.707849) research (0.698473) collect (0.693651) tant (0.681641) magnifiqu (0.667713) galleri (0.653225) under (0.649910) booth (0.648265) 
ventur (0.868972) cramp (0.819783) gnocchi (0.802637) naan (0.790595) pepperoni (0.772958) raison (0.713633) ideal (0.706186) quaint (0.700973) sampler (0.693090) condiment (0.683822) 
gym (0.960184) eggplant (0.842820) con (0.796405) babi (0.786627) fairmount (0.773908) lover (0.752780) troubl (0.741382) insist (0.735135) drive (0.674309) noisi (0.662513) 
steep (0.796091) numer (0.780638) sy (0.777796) cultur (0.738893) hadnt (0.729159) hipster (0.729130) ran (0.722910) cabbag (0.694552) indoor (0.679747) tub (0.673636) 
lair (0.889046) soy (0.796502) laugh (0.725607) exampl (0.724772) massag (0.680270) pein (0.678169) attract (0.644149) raisonn (0.642040) picnic (0.640939) till (0.609293) 
cross (0.780042) glace (0.737596) laid (0.736812) blueberri (0.715867) fortement (0.710176) ignor (0.697909) spoke (0.679264) smart (0.677764) tub (0.674122) latin (0.667058) 
nen (0.879039) lextrieur (0.751707) interact (0.749779) steakhous (0.733068) express (0.681076) requir (0.678889) ale (0.674489) hummus (0.673705) ultra (0.661982) pumpkin (0.658766) 
Error (train/valid/test) = 0.859176/1.182349/1.096650 (0.024357)
..................................................
energy after gradient step = 68984876.708411

Top words for each topic:
western (0.986797) sympathiqu (0.973142) tad (0.963006) 18 (0.961919) power (0.931618) fusion (0.912173) quell (0.911379) moist (0.902085) equal (0.886245) stdeni (0.879510) 
addict (1.143255) tag (1.080151) communal (1.039915) fountain (1.018408) messi (1.006841) insan (0.996619) princip (0.975094) rank (0.940493) sorbet (0.940393) confirm (0.934797) 
diet (1.157001) america (1.070353) avi (1.004408) serveus (0.999523) franc (0.989419) gear (0.961715) companion (0.898775) luxuri (0.889507) mar (0.885079) idal (0.847921) 
research (1.188268) accent (0.981871) collect (0.981729) envi (0.964617) nois (0.944584) foam (0.919053) souvenir (0.902034) subtl (0.897279) galleri (0.888816) 70 (0.866568) 
pepperoni (1.200503) ventur (1.179292) goto (1.108702) omg (0.954700) cheesecak (0.943110) sorbet (0.892558) ideal (0.891632) difficil (0.884511) cramp (0.882921) pomm (0.880108) 
coeur (1.145665) gym (1.055118) exprienc (0.948490) energi (0.918358) piss (0.903527) dattent (0.899714) 300 (0.895474) chilli (0.876690) ketchup (0.860437) fairmount (0.839774) 
cabbag (1.160474) martini (0.934703) promis (0.906337) japan (0.903510) dlicieus (0.902944) passer (0.886245) beau (0.874293) breast (0.871507) yep (0.867803) hadnt (0.861583) 
eater (0.978157) appoint (0.962036) wise (0.903383) lair (0.902948) qu (0.879534) irish (0.858197) ici (0.857386) laugh (0.816506) de (0.813245) comput (0.811871) 
sprout (1.119180) appropri (1.002244) mur (0.988178) tub (0.965663) smart (0.931160) laid (0.906969) bass (0.903504) patat (0.858747) sheraton (0.854623) mcgill (0.843695) 
starv (1.024205) none (1.019128) interact (1.003262) togeth (0.940886) blueberri (0.932634) proceed (0.908852) pleasur (0.897709) gorgeous (0.893232) troi (0.890830) 18 (0.887563) 
Error (train/valid/test) = 0.766065/1.174205/1.089370 (0.023336)
..................................................
energy after gradient step = 68914838.966273

Top words for each topic:
fusion (1.211249) internet (1.189653) western (1.017862) power (1.005283) tad (0.978193) hockey (0.977237) univers (0.962930) moist (0.959785) courtoi (0.914630) freez (0.904914) 
tag (1.294551) fountain (1.289485) princip (1.183567) messi (1.137889) invent (1.086531) boeuf (1.050086) countri (1.046996) lgume (1.026772) bilingu (1.003754) jalapeno (0.990582) 
exit (1.101677) peuttr (1.095012) diet (1.048746) yelper (1.048654) avi (1.037720) franc (1.023746) tasteless (1.020211) deliveri (0.989504) fellow (0.985374) admit (0.968519) 
research (1.185662) viennoiseri (1.111170) quoi (1.059657) souvenir (1.041892) accent (1.039272) fridg (1.006301) intim (0.982671) mayonnais (0.981365) collect (0.978362) mac (0.964340) 
pepperoni (1.213955) ventur (1.189147) goto (1.103275) china (1.035713) propr (1.021430) support (1.017306) omg (0.998836) air (0.961242) mine (0.950394) cheesecak (0.928586) 
coeur (1.423520) energi (1.037210) fairmount (1.015669) chilli (1.008947) wors (0.986957) gym (0.976988) ketchup (0.971629) concordia (0.914502) chic (0.909726) 300 (0.887787) 
cabbag (1.342270) breast (1.294540) dlicieus (1.053929) lebanes (1.018397) ver (0.980595) delish (0.974757) switch (0.957157) velvet (0.945280) promis (0.933154) debat (0.918843) 
exampl (1.191053) laugh (1.109975) qu (0.972690) instal (0.944276) yoga (0.936798) yet (0.934968) midi (0.934660) chane (0.927158) hadnt (0.911687) kick (0.894944) 
appropri (1.207763) sprout (1.103357) maintain (1.098310) remark (1.089154) tub (0.982787) laid (0.982315) perhap (0.966336) dit (0.960891) christma (0.949767) stress (0.930927) 
none (1.217536) interact (1.100566) famous (1.071898) anticip (1.069659) steakhous (1.025841) togeth (0.980373) 18 (0.972199) troi (0.966077) blanc (0.958105) hummus (0.953512) 
Error (train/valid/test) = 0.709948/1.177979/1.089143 (0.024004)
..................................................
energy after gradient step = 68846397.644256

Top words for each topic:
cat (1.400362) freez (1.246306) hockey (1.245033) internet (1.222896) tad (1.199513) colleagu (1.174294) power (1.165552) fortun (1.093202) dehor (1.084476) amateur (1.068981) 
fountain (1.424788) tag (1.371981) princip (1.329780) countri (1.282942) faim (1.267641) boeuf (1.263582) bilingu (1.258506) payer (1.231553) complement (1.219742) jalapeno (1.203059) 
queen (1.412062) peuttr (1.288835) franc (1.280819) serveus (1.264595) brows (1.253370) tasteless (1.245278) america (1.175694) lawrenc (1.134415) exit (1.121654) continent (1.118562) 
accent (1.481462) along (1.287578) quoi (1.258127) viennoiseri (1.257655) dy (1.129676) maker (1.122959) souvenir (1.112063) fridg (1.101831) hotdog (1.096465) opportun (1.095863) 
ventur (1.373045) pepperoni (1.310775) blood (1.308425) propr (1.264955) almond (1.239965) cheesecak (1.212051) whos (1.204103) gnocchi (1.179709) equip (1.056517) bremner (1.054541) 
coeur (1.422689) shit (1.266107) iron (1.187007) discuss (1.141704) eggplant (1.134850) grain (1.133273) fairmount (1.112090) stone (1.107271) froid (1.075472) ideal (1.073736) 
cabbag (1.527566) velvet (1.393505) tres (1.158991) lebanes (1.158733) tim (1.137767) promis (1.130090) popcorn (1.124493) pic (1.079314) dlicieus (1.068877) court (1.058567) 
exampl (1.312326) livr (1.261552) laugh (1.167849) longtemp (1.157774) qu (1.152701) midi (1.133595) chane (1.127004) macaron (1.098321) kick (1.094088) picnic (1.082620) 
california (1.320198) southern (1.212772) basket (1.208604) loin (1.185088) christma (1.153737) tub (1.131563) crescent (1.045301) sprout (1.039736) bass (1.033408) jen (1.028925) 
18 (1.324118) root (1.285690) closer (1.236105) wheat (1.228658) cot (1.210715) famous (1.149211) vaut (1.142627) six (1.126715) gout (1.110596) proceed (1.102070) 
Error (train/valid/test) = 0.638514/1.187320/1.094423 (0.024203)
..................................................
energy after gradient step = 68764637.198269

Top words for each topic:
cat (1.632624) moist (1.366561) power (1.310212) dehor (1.288925) tad (1.278118) hockey (1.273897) mouss (1.267335) carrot (1.245024) internet (1.197321) contain (1.194120) 
fountain (1.838739) princip (1.703718) bilingu (1.692408) tag (1.607054) countri (1.453953) complement (1.386521) boeuf (1.367614) undercook (1.327859) messi (1.305352) faim (1.276999) 
lawrenc (1.488006) unbeliev (1.449682) queen (1.376498) america (1.371526) diet (1.363902) serveus (1.321308) brows (1.300360) tasteless (1.265589) continent (1.260475) exit (1.251955) 
accent (1.599412) hotdog (1.374278) along (1.330878) quoi (1.320721) replac (1.308971) dy (1.294727) tattoo (1.265012) contrast (1.254076) fridg (1.236762) w (1.209593) 
pepperoni (1.391704) ventur (1.360557) pomm (1.343892) cole (1.318250) aka (1.301246) blood (1.234195) address (1.227536) gnocchi (1.191856) henri (1.182095) outlet (1.166173) 
coeur (1.627896) grain (1.321822) thin (1.295341) vie (1.179404) efficac (1.176371) boisson (1.170140) stone (1.143944) eggplant (1.104597) dlicieus (1.103629) fairmount (1.096956) 
promis (1.572461) cabbag (1.488227) lebanes (1.420958) velvet (1.363803) tres (1.343822) tim (1.282376) lemon (1.244523) p (1.232770) cigar (1.226907) pdc (1.221156) 
livr (1.353721) exampl (1.331810) midi (1.319218) comput (1.255951) macaron (1.253642) notredam (1.238182) rais (1.229618) furnitur (1.227315) longtemp (1.223881) chunk (1.221281) 
christma (1.467721) california (1.445755) district (1.433020) tub (1.270695) southern (1.233451) loin (1.229225) bass (1.202572) basket (1.185803) laid (1.183720) doughnut (1.173856) 
cot (1.452047) six (1.401022) famous (1.343703) doit (1.317995) root (1.313354) cone (1.261691) 18 (1.248904) blueberri (1.193367) vaut (1.165912) mountain (1.157927) 
Error (train/valid/test) = 0.591104/1.198993/1.102273 (0.024855)
..................................................
energy after gradient step = 68684912.930445

Top words for each topic:
cat (1.843800) power (1.464257) moist (1.448646) hockey (1.375247) western (1.363262) convinc (1.354171) joe (1.350202) mouss (1.339082) ring (1.276448) chaleureux (1.243781) 
bilingu (1.778072) tag (1.706537) princip (1.702506) fountain (1.601725) sleep (1.445447) messi (1.390886) descript (1.357816) countri (1.335935) theyv (1.278753) men (1.268000) 
lawrenc (1.665755) queen (1.579975) unbeliev (1.542740) opportun (1.483528) nail (1.478425) continent (1.426772) exit (1.402913) diet (1.389173) america (1.314895) franc (1.302160) 
dy (1.473459) massiv (1.392822) visibl (1.359221) quoi (1.349641) replac (1.304740) fridg (1.295760) w (1.286615) count (1.275041) chai (1.274636) research (1.257314) 
ass (1.473137) gnocchi (1.455906) henri (1.451836) outlet (1.448907) pepperoni (1.448143) ventur (1.438534) omg (1.405197) sublim (1.392997) oeuf (1.338571) golden (1.315588) 
coeur (1.806520) thin (1.497811) peruvian (1.385234) grain (1.276633) daller (1.237305) eggplant (1.228967) dlicieus (1.227749) troubl (1.219116) fairmount (1.200019) ferm (1.196527) 
lebanes (1.770750) velvet (1.577337) pdc (1.504318) passer (1.499851) blame (1.443691) p (1.435502) tim (1.434873) cigar (1.431631) cabbag (1.416065) mi (1.388042) 
exampl (1.552374) livr (1.545221) midi (1.483328) rais (1.423272) macaron (1.418960) yoga (1.337766) comput (1.335351) u (1.266495) chalkboard (1.217480) trick (1.182777) 
southern (1.626255) tub (1.560931) christma (1.531516) loin (1.496826) basket (1.417347) district (1.326656) doughnut (1.297925) mission (1.297413) packag (1.273120) roti (1.269397) 
cot (1.572333) cone (1.446895) root (1.346953) doit (1.340219) 10pm (1.337521) famous (1.310524) six (1.304467) blueberri (1.278969) glace (1.239752) mainten (1.232296) 
Error (train/valid/test) = 0.540799/1.209160/1.110233 (0.024801)
..................................................
energy after gradient step = 68601703.695884

Top words for each topic:
cat (1.848884) western (1.788606) amateur (1.552615) joe (1.536982) power (1.522123) tad (1.458829) hockey (1.456456) easier (1.414849) mouss (1.412894) moist (1.382288) 
princip (1.811680) bilingu (1.741681) descript (1.698296) tag (1.684979) messi (1.602548) fountain (1.593997) ignor (1.555116) sleep (1.527017) invent (1.473653) communal (1.470929) 
opportun (1.697224) lawrenc (1.561296) raspberri (1.539048) nail (1.514040) queen (1.477710) lait (1.428273) song (1.418146) ala (1.376002) island (1.368936) sen (1.361183) 
massiv (1.460777) quoi (1.458714) dy (1.444526) w (1.427228) loccas (1.407295) under (1.397299) tattoo (1.379922) viennoiseri (1.377197) replac (1.344200) count (1.326650) 
outlet (1.955102) henri (1.743111) gnocchi (1.673447) omg (1.589794) pepperoni (1.555133) ass (1.534516) ventur (1.518585) gym (1.419119) dream (1.414626) carnivor (1.370771) 
peruvian (1.752650) coeur (1.643455) thin (1.526172) pound (1.465057) cora (1.374243) ginger (1.353904) boisson (1.341131) tangi (1.335039) dlicieus (1.312561) starv (1.309475) 
lebanes (1.834702) tim (1.810212) passer (1.721162) cigar (1.685021) pdc (1.666831) comfi (1.589022) franc (1.567245) blame (1.558984) deer (1.549739) p (1.475870) 
u (1.673810) midi (1.634558) yoga (1.571684) livr (1.552736) exampl (1.546620) chunk (1.486451) furnitur (1.484538) macaron (1.479907) 21 (1.454124) tes (1.394158) 
tub (1.917009) doughnut (1.681720) loin (1.645919) bourbon (1.630583) southern (1.581879) california (1.483972) berri (1.444414) cupcak (1.413089) christma (1.397096) straight (1.365265) 
six (1.621789) 10pm (1.565700) cot (1.488103) doit (1.483910) cone (1.474119) hauteur (1.423954) glace (1.409266) asid (1.386358) selon (1.354474) mainten (1.353854) 
Error (train/valid/test) = 0.487496/1.222181/1.123158 (0.024636)
..................................................
energy after gradient step = 68516423.044336

Top words for each topic:
cat (2.183833) joe (1.864099) power (1.673713) amateur (1.633336) mouss (1.585359) mignon (1.576174) easier (1.569399) western (1.556270) hockey (1.507790) moist (1.478432) 
princip (2.003039) descript (1.837048) messi (1.761350) tag (1.659580) fountain (1.641729) bilingu (1.607159) jeantalon (1.570343) invent (1.559293) known (1.522761) sleep (1.503068) 
lawrenc (1.834104) raspberri (1.723356) opportun (1.698783) ya (1.665598) queen (1.623845) island (1.550484) lait (1.513078) song (1.502840) franai (1.502169) nail (1.495805) 
count (1.640743) along (1.616106) quoi (1.608361) galleri (1.608043) tattoo (1.513686) viennoiseri (1.511372) loccas (1.491501) hill (1.484244) karaok (1.430651) fridg (1.409451) 
outlet (2.062819) henri (1.986200) pepperoni (1.642770) omg (1.588505) address (1.551801) coat (1.494999) basil (1.490871) kazu (1.485320) marqu (1.471577) ventur (1.426925) 
peruvian (1.724526) thin (1.701769) pound (1.587188) boisson (1.566385) coeur (1.545831) cora (1.511742) 2012 (1.464433) froid (1.439110) eggplant (1.379879) min (1.370610) 
cigar (1.968997) lebanes (1.952310) tim (1.925997) pdc (1.787439) blame (1.670257) offert (1.553924) caught (1.520680) sip (1.507568) bison (1.507319) gift (1.506706) 
yoga (1.821042) livr (1.795170) u (1.746065) furnitur (1.719256) midi (1.683536) macaron (1.644300) lean (1.595309) 21 (1.590594) tes (1.476328) dj (1.453663) 
bourbon (1.817297) tub (1.805371) southern (1.767366) doughnut (1.660154) cupcak (1.641195) loin (1.606622) berri (1.587713) laid (1.508929) distanc (1.466497) california (1.456099) 
glace (1.714259) six (1.641756) potenti (1.616065) mainten (1.560131) doit (1.540924) cot (1.510254) cone (1.470327) appoint (1.467892) adoni (1.461194) hauteur (1.436012) 
Error (train/valid/test) = 0.451224/1.233432/1.141606 (0.025417)
..................................................
energy after gradient step = 68392965.404100

Top words for each topic:
cat (2.304381) souvlaki (1.858582) amateur (1.810829) joe (1.741098) mouss (1.726279) frill (1.715911) moist (1.641710) mexicain (1.564244) mignon (1.561943) hockey (1.557214) 
princip (2.097344) descript (2.012913) messi (1.705173) pretenti (1.622507) cupcak (1.620504) invent (1.620283) known (1.616847) jeantalon (1.548561) neat (1.527643) bilingu (1.523439) 
lawrenc (1.862564) island (1.790111) song (1.738458) opportun (1.711415) success (1.648873) raspberri (1.621594) nail (1.579053) queen (1.563867) ala (1.552662) shawarma (1.494006) 
tattoo (1.819657) viennoiseri (1.791508) loccas (1.742591) count (1.705278) quoi (1.690544) costco (1.676503) font (1.655380) dy (1.562243) allez (1.560178) travail (1.535462) 
omg (2.017447) henri (1.907979) pepperoni (1.877204) outlet (1.843220) piri (1.710338) blood (1.674993) coat (1.671718) gym (1.649301) address (1.647245) bus (1.607341) 
peruvian (1.854386) thin (1.816692) fairmount (1.777070) cevich (1.664534) sprinkl (1.650978) pound (1.635861) canard (1.564928) troubl (1.533261) eggplant (1.510874) min (1.509893) 
lebanes (2.246042) cigar (2.167578) pdc (1.987220) tim (1.921358) cabbag (1.783538) sy (1.718732) jazz (1.658871) church (1.655210) court (1.653090) bison (1.646141) 
yoga (2.102807) lean (1.949243) macaron (1.858617) livr (1.806817) midi (1.804204) u (1.789764) exhibit (1.668534) vintag (1.618985) qu (1.598682) 21 (1.554220) 
bourbon (2.068488) tub (1.984646) loin (1.955356) cupcak (1.872837) southern (1.861737) doughnut (1.793175) banquis (1.616845) omelet (1.533006) celeri (1.500564) squeez (1.486238) 
glace (2.037491) cot (1.865222) cone (1.779090) chic (1.708644) famous (1.705759) bouteill (1.603732) selon (1.571557) potenti (1.527350) doit (1.514597) massag (1.511574) 
Error (train/valid/test) = 0.416751/1.251850/1.156426 (0.025402)
..................................................
energy after gradient step = 68251525.625122

Top words for each topic:
cat (2.567666) amateur (1.915192) joe (1.881723) power (1.867754) souvlaki (1.826996) mignon (1.785036) moist (1.707880) theyv (1.688129) mexicain (1.685169) korean (1.667031) 
princip (2.211483) descript (2.007084) pretenti (1.756270) messi (1.712445) fountain (1.677120) natur (1.666829) 80 (1.626824) known (1.613940) invent (1.583133) sleep (1.576044) 
lawrenc (2.046043) island (1.886507) opportun (1.832226) queen (1.734322) raspberri (1.733962) song (1.655063) ala (1.558077) success (1.554450) donut (1.551135) anim (1.543878) 
tattoo (1.905764) viennoiseri (1.885094) costco (1.882310) allez (1.775623) font (1.728086) prendr (1.669498) travail (1.663963) lui (1.657470) count (1.645360) fondu (1.626992) 
omg (2.089379) henri (1.918791) pepperoni (1.859669) coat (1.855122) outlet (1.849075) bus (1.847857) gym (1.726662) piri (1.685416) ventur (1.668498) aka (1.611216) 
thin (1.934449) peruvian (1.910140) canard (1.765113) eggplant (1.749503) batter (1.702159) fairmount (1.642747) creme (1.635135) sprinkl (1.594498) pound (1.583453) cevich (1.572676) 
lebanes (2.321836) cigar (2.122760) court (2.003341) pdc (1.910602) pita (1.829693) jazz (1.812660) blue (1.791270) tim (1.773194) cabbag (1.752496) theatr (1.687372) 
yoga (2.205932) exhibit (2.086191) u (2.074951) macaron (2.073027) lean (1.992363) livr (1.870012) garden (1.743446) midi (1.724897) biodom (1.660597) vintag (1.654348) 
cupcak (2.243897) doughnut (2.115743) tub (2.109104) bourbon (2.105940) loin (1.823478) banquis (1.693337) southern (1.651678) squeez (1.598232) basket (1.583734) celeri (1.543839) 
glace (2.185568) cot (1.977405) cone (1.793828) chic (1.781711) bouteill (1.705469) famous (1.698426) mainten (1.671420) underground (1.669715) schwartz (1.658451) reuben (1.640931) 
Error (train/valid/test) = 0.408494/1.266461/1.173424 (0.025143)
..................................................
energy after gradient step = 68010736.646262

Top words for each topic:
cat (2.671025) souvlaki (1.963727) mignon (1.936227) joe (1.908353) moist (1.805860) power (1.767216) mexicain (1.752625) korean (1.705923) steakhous (1.687814) mild (1.680690) 
princip (2.085102) descript (2.012344) messi (1.811468) sleep (1.794782) known (1.731031) fountain (1.715101) natur (1.702551) tag (1.689646) bilingu (1.678624) polish (1.606876) 
lawrenc (2.305863) opportun (2.082438) island (1.978923) donut (1.849892) song (1.769550) raspberri (1.766837) ya (1.640619) ala (1.640026) orang (1.635834) queen (1.631767) 
tattoo (2.132502) viennoiseri (1.988652) font (1.983595) allez (1.976075) costco (1.968443) bire (1.876703) sauciss (1.844702) fondu (1.798333) quoi (1.740402) count (1.735844) 
omg (2.184044) henri (2.015021) pepperoni (1.971844) outlet (1.952831) coat (1.904665) bus (1.828639) piri (1.810571) gym (1.777624) ventur (1.698788) air (1.697434) 
thin (1.940649) fairmount (1.936079) peruvian (1.868995) pound (1.852217) eggplant (1.830607) dim (1.784799) batter (1.779287) sum (1.754455) dumpl (1.677160) cevich (1.666553) 
cigar (2.316850) lebanes (2.221065) jazz (2.044549) court (1.966597) pdc (1.938403) pita (1.876208) mi (1.865710) tim (1.818353) blue (1.817914) theatr (1.775974) 
yoga (2.414372) exhibit (2.177951) macaron (2.130897) livr (2.046641) u (2.032080) garden (2.001109) lean (1.906346) biodom (1.869933) tes (1.865910) studio (1.844900) 
cupcak (2.457745) doughnut (2.192937) bourbon (2.149091) tub (2.069174) loin (1.926137) banquis (1.868524) casino (1.816733) southern (1.805579) ambienc (1.717370) djeuner (1.699989) 
glace (2.242247) cot (2.150087) chic (2.109259) cone (1.903057) underground (1.849125) reuben (1.829186) bouteill (1.812360) schwartz (1.798660) bike (1.774658) famous (1.748341) 
Error (train/valid/test) = 0.391142/1.273385/1.175205 (0.026801)
..................................................
energy after gradient step = 67699470.252730

Top words for each topic:
cat (2.685312) joe (2.086972) moist (1.956746) souvlaki (1.943012) mignon (1.920196) korean (1.817118) power (1.794522) bun (1.734696) steakhous (1.727853) truck (1.719253) 
princip (2.014735) descript (2.008237) fountain (1.816675) sleep (1.808507) messi (1.796219) desk (1.783194) polish (1.770361) tag (1.741502) bilingu (1.706783) hubert (1.670165) 
lawrenc (2.281588) opportun (2.036819) island (1.931559) song (1.904978) donut (1.879101) nail (1.711966) upstair (1.675779) queen (1.637406) raspberri (1.629619) unpretenti (1.606159) 
font (2.206136) tattoo (2.186322) viennoiseri (2.130420) allez (2.119749) costco (2.076900) bire (2.055993) sauciss (2.031233) lui (1.989475) quartier (1.988624) quoi (1.963776) 
pepperoni (2.220424) omg (2.214285) outlet (2.035257) henri (2.009349) bus (2.009285) gym (1.973911) coat (1.929739) piri (1.895616) air (1.749262) arepa (1.692887) 
dumpl (1.968201) eggplant (1.963866) fairmount (1.913765) thin (1.898024) tofu (1.862938) peruvian (1.857744) pound (1.783746) thai (1.756285) chip (1.750827) cucumb (1.723608) 
cigar (2.362153) lebanes (2.259644) jazz (2.041366) pdc (2.036897) pita (1.991527) church (1.986458) mi (1.923346) pair (1.895330) court (1.878975) blame (1.811748) 
macaron (2.521951) yoga (2.455110) exhibit (2.429366) garden (2.150172) trouver (2.120268) u (2.118860) biodom (2.077485) livr (2.063071) tes (2.046911) vintag (1.984361) 
cupcak (2.707084) doughnut (2.201674) bourbon (2.188611) tub (2.060665) casino (2.052403) banquis (1.991102) southern (1.972198) loin (1.847812) ambienc (1.792530) djeuner (1.687561) 
glace (2.486808) cot (2.256098) chic (2.095873) schwartz (2.028493) massag (1.952313) bouteill (1.934799) mainten (1.912374) reuben (1.911517) cone (1.904652) underground (1.853870) 
Error (train/valid/test) = 0.386248/1.274944/1.181273 (0.026052)
..................................................
energy after gradient step = 67237697.314267

Top words for each topic:
cat (2.649547) joe (2.164866) korean (2.131929) souvlaki (1.939586) burrito (1.856841) mignon (1.817524) bun (1.804732) power (1.800525) carrot (1.793902) hockey (1.787578) 
sleep (2.109220) desk (2.098562) descript (1.992911) princip (1.902130) movi (1.894499) bed (1.869661) polish (1.836643) fountain (1.834272) bilingu (1.827832) messi (1.826599) 
lawrenc (2.197272) opportun (2.161459) donut (2.048561) island (2.037446) song (1.998449) raspberri (1.938401) upstair (1.845595) nail (1.823651) shawarma (1.672876) queen (1.670914) 
font (2.399373) viennoiseri (2.355881) quoi (2.315461) costco (2.291542) quartier (2.275886) bire (2.266819) plusieur (2.228364) lui (2.210751) allez (2.183054) semain (2.137740) 
omg (2.362365) pepperoni (2.286551) bus (2.280004) outlet (2.156421) piri (2.059421) henri (2.056563) coat (2.017760) gym (1.947884) air (1.911531) arepa (1.816588) 
dumpl (2.284799) batter (1.945579) thin (1.940898) fairmount (1.930033) thai (1.909463) eggplant (1.907311) sum (1.901548) dim (1.898084) chip (1.877797) bagel (1.823623) 
cigar (2.527661) lebanes (2.310918) pita (2.100254) pdc (2.071350) jazz (2.049504) church (2.047968) theatr (2.031430) court (1.963429) pair (1.900938) martini (1.876667) 
yoga (2.720538) macaron (2.634767) exhibit (2.617238) garden (2.393081) livr (2.365725) trouver (2.303503) biodom (2.225080) tes (2.189292) cour (2.132466) ainsi (2.092440) 
cupcak (2.959946) doughnut (2.366494) casino (2.261190) bourbon (2.109768) tub (2.096973) southern (2.030889) banquis (1.970092) ambienc (1.942963) omelet (1.877679) djeuner (1.856057) 
glace (2.624870) cot (2.287668) schwartz (2.253890) reuben (2.168362) chic (2.064081) massag (2.048892) cone (2.017911) sall (2.016957) mainten (1.994321) bouteill (1.974542) 
Error (train/valid/test) = 0.381728/1.278930/1.185670 (0.026221)
..................................................
energy after gradient step = 66603578.827364

Top words for each topic:
cat (2.682283) joe (2.253320) korean (2.140781) souvlaki (2.040852) bun (1.948695) mignon (1.917226) power (1.860419) burrito (1.828040) steakhous (1.808528) carrot (1.775806) 
bed (2.217772) sleep (2.134116) desk (2.083796) descript (2.036883) movi (1.917134) polish (1.915240) train (1.906350) princip (1.898759) fountain (1.869245) messi (1.851953) 
lawrenc (2.252547) island (2.169015) opportun (2.154944) donut (2.036851) song (2.014319) upstair (1.951595) raspberri (1.912475) nail (1.877057) shawarma (1.780117) outdoor (1.736946) 
bire (2.570948) viennoiseri (2.527316) plusieur (2.496398) quartier (2.472241) font (2.466362) costco (2.442919) quoi (2.438250) semain (2.370654) seul (2.368164) avoir (2.318037) 
bus (2.333597) omg (2.323905) pepperoni (2.239486) outlet (2.174167) piri (2.121899) gym (2.084406) henri (2.067514) coat (1.970831) air (1.924508) arepa (1.790095) 
dumpl (2.580783) bagel (2.149041) thai (2.042016) eggplant (1.959472) thin (1.927550) fairmount (1.915065) batter (1.905922) tofu (1.870845) sum (1.863951) dim (1.858149) 
cigar (2.662009) lebanes (2.365789) church (2.328295) pita (2.243723) jazz (2.193657) pdc (2.135636) theatr (2.055235) pair (2.053010) bison (2.028052) tim (1.980468) 
yoga (2.856538) exhibit (2.838820) macaron (2.835830) garden (2.695083) livr (2.530753) trouver (2.489693) parc (2.425032) biodom (2.340795) cour (2.266233) vintag (2.253835) 
cupcak (3.206174) doughnut (2.461919) casino (2.406069) tub (2.182416) bourbon (2.181044) banquis (2.154936) southern (2.072440) omelet (1.917187) crescent (1.910526) ambienc (1.862916) 
glace (2.681634) cot (2.383168) reuben (2.285821) schwartz (2.245321) mainten (2.226809) sall (2.158963) massag (2.120756) cone (2.108809) chic (2.010943) pein (2.009519) 
Error (train/valid/test) = 0.384476/1.281547/1.189013 (0.026249)
..................................................
energy after gradient step = 65688325.804883

Top words for each topic:
cat (2.735708) joe (2.399244) korean (2.265699) bun (2.044477) souvlaki (2.035821) mignon (2.009285) burrito (1.955819) steakhous (1.938906) hockey (1.883049) god (1.849387) 
desk (2.501061) bed (2.477071) sleep (2.408756) shower (2.280789) room (2.235981) movi (2.211951) candi (2.179061) descript (2.140387) train (2.133255) hotel (2.123937) 
lawrenc (2.462282) donut (2.381793) song (2.357126) opportun (2.224137) airport (2.210414) island (2.200999) raspberri (1.988591) nail (1.939648) upstair (1.911298) shawarma (1.880546) 
bire (2.821772) font (2.812455) viennoiseri (2.738429) pourquoi (2.722944) quartier (2.681008) quoi (2.630020) semain (2.610917) plusieur (2.608071) ell (2.541336) seul (2.532181) 
omg (2.495174) bus (2.480499) pepperoni (2.405262) outlet (2.377627) gym (2.360597) piri (2.201104) henri (2.154587) coat (2.137724) arepa (1.961558) air (1.932825) 
dumpl (2.930201) bagel (2.648641) thai (2.193721) sum (1.979157) batter (1.965316) curri (1.956915) dim (1.926083) eggplant (1.925401) fairmount (1.919553) chip (1.906938) 
cigar (2.776259) lebanes (2.570834) church (2.506794) jazz (2.396862) mi (2.370084) pita (2.362504) theatr (2.299274) pdc (2.274183) basilica (2.262181) bison (2.187516) 
yoga (3.074299) exhibit (3.035855) macaron (2.992185) livr (2.864001) garden (2.737739) biodom (2.700269) ths (2.604710) trouver (2.602021) parc (2.514137) cour (2.464198) 
cupcak (3.324899) casino (2.766737) doughnut (2.554099) banquis (2.420368) bourbon (2.409264) tub (2.337333) southern (2.137308) omelet (2.089917) crescent (2.042358) ambienc (2.003829) 
glace (2.834359) cot (2.600057) reuben (2.524406) cone (2.399440) vill (2.350677) sall (2.329407) ann (2.315859) vietnames (2.283674) schwartz (2.230649) massag (2.227856) 
Error (train/valid/test) = 0.378632/1.287764/1.193515 (0.027294)
..................................................
energy after gradient step = 64704587.144030

Top words for each topic:
cat (2.777569) joe (2.506355) korean (2.316045) bun (2.313001) burrito (2.155224) steakhous (2.072145) souvlaki (2.016117) bike (1.974807) mignon (1.953870) moist (1.921337) 
desk (2.923297) bed (2.859021) hotel (2.745882) shower (2.638833) sleep (2.624418) room (2.602782) movi (2.328334) candi (2.323619) train (2.279785) schwartz (2.227751) 
song (2.576568) airport (2.516539) donut (2.502354) lawrenc (2.472475) opportun (2.277468) island (2.261145) raspberri (2.205499) upstair (2.137019) nail (2.091140) unpretenti (2.033178) 
bire (3.128158) quartier (2.939182) semain (2.866611) ell (2.828336) plusieur (2.816969) achet (2.809115) quoi (2.800759) viennoiseri (2.776629) font (2.735121) seul (2.718838) 
bus (2.641310) gym (2.516695) outlet (2.459538) pepperoni (2.424103) omg (2.332750) coat (2.319220) piri (2.282259) henri (2.144467) air (2.042463) arepa (2.021235) 
dumpl (3.032191) bagel (2.932407) thai (2.187271) sum (2.025050) fish (2.014854) curri (2.004002) spici (2.000477) fairmount (1.977419) batter (1.962965) steam (1.931107) 
cigar (2.960122) church (2.795581) lebanes (2.694439) jazz (2.524708) pita (2.470427) mi (2.464511) pdc (2.452580) foie (2.355343) theatr (2.348791) pair (2.334119) 
exhibit (3.203851) yoga (3.134572) macaron (3.083235) livr (2.965797) trouver (2.926847) garden (2.871022) biodom (2.823169) depui (2.723074) parc (2.679046) tes (2.649838) 
cupcak (3.739986) casino (2.878570) doughnut (2.798638) bourbon (2.557313) banquis (2.550373) tub (2.464372) southern (2.320609) omelet (2.241839) myriad (2.135141) ambienc (2.012407) 
glace (2.940713) cot (2.711080) reuben (2.624795) vill (2.617585) sall (2.503794) mainten (2.480983) cone (2.450293) ann (2.444131) ont (2.340960) vaut (2.317612) 
Error (train/valid/test) = 0.380560/1.289508/1.194165 (0.026933)
..................................................
energy after gradient step = 63642009.803167

Top words for each topic:
cat (2.777180) joe (2.567611) korean (2.307398) bun (2.279984) burrito (2.231159) steakhous (2.179620) souvlaki (2.113395) bbq (2.013179) bike (1.998795) mignon (1.958814) 
bed (3.218702) desk (3.136644) hotel (3.058020) room (2.968981) shower (2.891434) sleep (2.704129) candi (2.511336) train (2.500834) movi (2.434373) bathroom (2.403413) 
donut (2.876794) airport (2.793210) song (2.661994) lawrenc (2.605846) opportun (2.431017) nail (2.341042) island (2.322075) upstair (2.275105) raspberri (2.269204) orang (2.215590) 
bire (3.205289) quartier (2.921019) semain (2.851895) font (2.830342) viennoiseri (2.824751) quoi (2.815052) ell (2.799973) achet (2.795153) apr (2.776187) seul (2.775620) 
bus (2.842346) gym (2.581822) outlet (2.577934) omg (2.557869) coat (2.513809) pepperoni (2.446586) piri (2.340577) air (2.304958) henri (2.245029) subway (2.169614) 
dumpl (3.073891) bagel (3.022420) thai (2.110318) fish (2.087435) spici (2.086707) fairmount (1.964202) dish (1.957925) curri (1.955504) sum (1.943654) steam (1.942974) 
cigar (3.184000) church (2.962104) lebanes (2.827293) jazz (2.713928) pdc (2.592747) pita (2.582880) foie (2.546872) mi (2.542453) pair (2.502841) pie (2.483280) 
exhibit (3.402417) yoga (3.224265) macaron (3.198719) garden (3.079428) livr (3.021209) biodom (2.906718) parc (2.880408) trouver (2.867478) depui (2.830982) des (2.824845) 
cupcak (3.824723) casino (3.123586) doughnut (2.950465) bourbon (2.679121) banquis (2.584018) tub (2.429495) myriad (2.384727) southern (2.373354) omelet (2.272140) crescent (2.089467) 
glace (3.082892) cot (2.908161) reuben (2.872137) vill (2.866659) ann (2.664712) sall (2.637757) cone (2.554590) vaut (2.548709) mainten (2.522355) aim (2.516456) 
Error (train/valid/test) = 0.385525/1.289821/1.192970 (0.026878)
..................................................
energy after gradient step = 62745081.043060

Top words for each topic:
cat (2.803453) joe (2.564427) korean (2.494404) burrito (2.393920) bun (2.391891) steakhous (2.199558) souvlaki (2.174663) bbq (2.106810) pho (2.101921) bike (2.073577) 
hotel (3.558048) bed (3.485303) room (3.392722) desk (3.361870) sleep (3.095143) shower (3.082369) stay (2.782262) bathroom (2.721608) lobbi (2.669424) candi (2.634293) 
airport (3.067596) donut (2.994579) lawrenc (2.799218) song (2.684300) nail (2.626287) massag (2.609058) raspberri (2.473578) island (2.457175) upstair (2.441100) opportun (2.431130) 
bire (3.260674) quartier (2.958673) semain (2.931283) je (2.887264) font (2.881975) caf (2.870465) quoi (2.863464) produit (2.835883) viennoiseri (2.833596) seul (2.794823) 
bus (3.084166) gym (2.771062) omg (2.588309) outlet (2.576617) pepperoni (2.555213) coat (2.538510) henri (2.393528) pintxo (2.382343) piri (2.381217) air (2.325134) 
dumpl (3.063711) bagel (3.055493) spici (2.170425) fish (2.126003) thai (2.121607) dish (2.092270) pork (2.073816) gras (2.024052) curri (2.012949) shrimp (1.987448) 
cigar (3.370036) church (3.238064) lebanes (3.028966) jazz (2.848651) foie (2.776518) basilica (2.755331) pdc (2.739103) mi (2.703448) bison (2.703380) pie (2.660314) 
exhibit (3.508982) yoga (3.485712) macaron (3.341662) livr (3.130182) garden (3.107207) trouver (3.039346) th (3.014197) biodom (3.012395) ths (2.966431) des (2.961225) 
cupcak (4.109589) casino (3.408201) doughnut (3.029443) banquis (2.867418) bourbon (2.774497) myriad (2.634963) southern (2.574036) tub (2.480315) omelet (2.435638) crescent (2.327598) 
glace (3.398346) reuben (3.215041) cot (3.061041) vill (2.994696) sall (2.862643) pendant (2.767066) bike (2.710264) ann (2.692037) aim (2.682991) na (2.671411) 
Error (train/valid/test) = 0.384769/1.292788/1.195436 (0.026867)
..................................................
energy after gradient step = 61907303.925514

Top words for each topic:
cat (2.841549) joe (2.632142) bun (2.460005) burrito (2.442937) korean (2.441597) steakhous (2.423612) pho (2.291066) souvlaki (2.281050) steak (2.251468) bike (2.197118) 
hotel (3.897062) room (3.765672) bed (3.722815) desk (3.553100) shower (3.342582) stay (3.231235) sleep (3.163407) lobbi (3.040702) bathroom (3.008407) schwartz (2.755279) 
airport (3.356910) donut (3.275090) lawrenc (3.133248) nail (3.022064) song (2.995273) massag (2.962147) upstair (2.625973) orang (2.604942) shawarma (2.555641) island (2.551159) 
bire (3.276394) quartier (3.040743) font (2.962246) caf (2.934038) je (2.929288) ell (2.893100) semain (2.877955) achet (2.871282) viennoiseri (2.864349) quoi (2.845813) 
bus (3.207798) pepperoni (2.770158) coat (2.736009) gym (2.626940) outlet (2.610907) pintxo (2.584163) henri (2.505594) piri (2.474129) omg (2.388268) itali (2.379844) 
bagel (3.095074) dumpl (3.049543) dish (2.241154) spici (2.226917) pork (2.174251) fish (2.161873) thai (2.134795) curri (2.046228) gras (2.045726) shrimp (2.032424) 
cigar (3.693390) church (3.542694) lebanes (3.293641) jazz (3.189914) foie (3.050556) pdc (3.023977) basilica (3.021099) bison (2.991983) pie (2.947719) gras (2.906203) 
exhibit (3.620048) macaron (3.486942) yoga (3.467997) livr (3.258184) garden (3.184192) biodom (3.121187) trouver (3.115957) depui (3.107462) ths (3.107003) cour (3.104801) 
cupcak (4.275993) casino (3.615206) doughnut (3.270060) banquis (3.002061) myriad (2.959497) bourbon (2.925732) southern (2.641516) omelet (2.531216) pastri (2.521029) tub (2.440471) 
glace (3.632039) reuben (3.324020) cot (3.224913) vill (3.004589) bike (2.882519) sall (2.865775) pendant (2.851580) ann (2.851263) cone (2.850952) pein (2.847543) 
Error (train/valid/test) = 0.380217/1.296040/1.196144 (0.026861)
..................................................
energy after gradient step = 61141981.972574

Top words for each topic:
cat (2.866908) joe (2.720251) burrito (2.529392) korean (2.513210) bun (2.503102) steak (2.448068) pho (2.439839) souvlaki (2.343319) steakhous (2.342798) bike (2.273481) 
hotel (4.282511) room (4.132737) bed (3.934843) desk (3.771428) stay (3.616404) shower (3.465290) sleep (3.283983) lobbi (3.207290) bathroom (3.167058) concierg (3.065528) 
airport (3.612599) donut (3.410136) massag (3.324705) lawrenc (3.275947) nail (3.178632) song (3.125874) upstair (2.853011) spa (2.827730) pizza (2.812277) starbuck (2.780922) 
bire (3.302502) quartier (3.107284) caf (3.012661) je (2.977597) semain (2.944009) quoi (2.914525) font (2.912203) viennoiseri (2.912101) slection (2.874647) une (2.848257) 
bus (3.444740) pepperoni (2.992419) outlet (2.834513) coat (2.799191) pintxo (2.763618) gym (2.742825) loung (2.601607) piri (2.597076) brew (2.555304) arepa (2.537031) 
bagel (3.156411) dumpl (3.057226) dish (2.364999) spici (2.261440) pork (2.254207) fish (2.197136) thai (2.164810) shrimp (2.082717) fri (2.075831) gras (2.054466) 
church (3.883859) cigar (3.752641) foie (3.393164) lebanes (3.359968) jazz (3.345924) pdc (3.257895) bison (3.256549) gras (3.240974) basilica (3.207140) pie (3.148262) 
exhibit (3.759963) yoga (3.574597) macaron (3.565363) livr (3.343610) ths (3.213617) trouver (3.212928) biodom (3.198898) garden (3.197751) th (3.181049) depui (3.163370) 
cupcak (4.485880) casino (3.709216) doughnut (3.530468) banquis (3.273561) myriad (3.175256) bourbon (2.908120) omelet (2.889955) pastri (2.818855) southern (2.635622) crescent (2.583350) 
reuben (3.686123) glace (3.641821) cot (3.395417) vill (3.141943) bike (3.038507) sall (3.024144) cone (3.013718) pendant (2.992382) problm (2.958263) aim (2.944358) 
Error (train/valid/test) = 0.377363/1.300122/1.200335 (0.027114)
..................................................
energy after gradient step = 60458133.702782

Top words for each topic:
cat (2.912632) joe (2.696600) pho (2.593734) steak (2.585306) burrito (2.584334) bun (2.569569) korean (2.543021) steakhous (2.418891) bike (2.413364) souvlaki (2.284697) 
hotel (4.627961) room (4.375114) bed (4.086159) stay (3.867678) desk (3.847336) shower (3.591757) lobbi (3.422876) sleep (3.382399) bathroom (3.329439) concierg (3.133616) 
airport (3.810640) donut (3.596859) massag (3.514996) lawrenc (3.439450) nail (3.325829) song (3.225420) spa (3.222726) pizza (3.102457) starbuck (2.961480) upstair (2.915752) 
bire (3.338524) caf (3.036921) je (2.998885) quartier (2.969512) ell (2.930189) semain (2.914107) viennoiseri (2.886583) font (2.878771) seul (2.878115) une (2.874370) 
bus (3.561274) outlet (3.028185) pintxo (3.022354) pepperoni (3.001075) coat (2.998593) pub (2.861881) loung (2.776732) bartend (2.752826) italian (2.738202) piri (2.717299) 
bagel (3.139005) dumpl (3.061793) dish (2.454024) spici (2.305610) pork (2.260582) fish (2.233600) thai (2.165203) fri (2.162149) shrimp (2.109991) meat (2.105069) 
church (4.005935) cigar (3.936462) foie (3.721986) lebanes (3.567274) gras (3.556037) bison (3.542453) pie (3.490944) jazz (3.416370) basilica (3.389299) pdc (3.377438) 
exhibit (3.850380) yoga (3.669100) macaron (3.658161) livr (3.467195) th (3.369068) garden (3.339000) ths (3.311206) enfant (3.261189) biodom (3.246868) trouver (3.243530) 
cupcak (4.663217) casino (3.908174) doughnut (3.524289) banquis (3.394142) myriad (3.380055) pastri (3.128009) omelet (3.085075) bourbon (2.919021) espresso (2.901383) chocol (2.853627) 
reuben (3.881190) glace (3.856159) cot (3.612894) vill (3.337427) pendant (3.170013) bike (3.138852) partag (3.134270) sall (3.129095) cone (3.120054) aim (3.082848) 
Error (train/valid/test) = 0.374374/1.303506/1.202248 (0.027226)
..................................................
energy after gradient step = 59869720.485801

Top words for each topic:
cat (2.970541) joe (2.852417) steak (2.737535) burrito (2.692690) pho (2.690327) bun (2.631015) steakhous (2.565770) bike (2.495767) korean (2.485116) souvlaki (2.393607) 
hotel (4.815282) room (4.566549) bed (4.175133) stay (4.026992) desk (3.914049) shower (3.648339) lobbi (3.489052) bathroom (3.456446) sleep (3.428450) concierg (3.210366) 
airport (3.929622) donut (3.839728) massag (3.754972) nail (3.601349) lawrenc (3.583124) song (3.408306) pizza (3.363449) spa (3.316050) starbuck (3.199327) upstair (3.116598) 
bire (3.347909) caf (3.053104) je (3.025002) quartier (3.020742) semain (2.984105) font (2.928181) une (2.911753) quil (2.890517) qui (2.885035) jai (2.872420) 
bus (3.712682) pepperoni (3.229845) pintxo (3.178344) outlet (3.173361) coat (3.048774) pub (3.028776) loung (2.988134) italian (2.977292) arepa (2.919935) pasta (2.914154) 
bagel (3.190260) dumpl (3.097436) dish (2.523354) pork (2.332342) spici (2.302694) fri (2.265430) fish (2.262834) meat (2.190216) thai (2.176604) chicken (2.170883) 
church (4.204364) cigar (4.103062) foie (3.944268) gras (3.824514) bison (3.772820) pie (3.737513) lebanes (3.727806) pdc (3.542781) basilica (3.542284) jazz (3.532805) 
exhibit (3.935764) yoga (3.798245) macaron (3.775598) livr (3.522197) garden (3.462181) ths (3.411873) th (3.407115) depui (3.400906) enfant (3.393076) trouver (3.339006) 
cupcak (4.812873) casino (4.063527) banquis (3.789232) doughnut (3.641335) myriad (3.468190) pastri (3.315112) espresso (3.196365) bourbon (3.174772) omelet (3.142856) chocol (3.068135) 
reuben (4.086746) glace (3.941667) cot (3.685536) vill (3.396879) partag (3.297534) aim (3.276277) cone (3.243200) pendant (3.213223) problm (3.211345) sall (3.145607) 
Error (train/valid/test) = 0.368872/1.309958/1.209608 (0.027348)
..................................................
energy after gradient step = 59343952.720879

Top words for each topic:
cat (3.096235) joe (2.889037) steak (2.871969) pho (2.852082) burrito (2.789281) korean (2.704271) steakhous (2.698032) bun (2.613679) souvlaki (2.555563) burger (2.550321) 
hotel (4.984210) room (4.714629) bed (4.261559) stay (4.199558) desk (4.026206) shower (3.750690) lobbi (3.601674) sleep (3.491459) bathroom (3.484405) tub (3.251740) 
airport (4.057272) massag (3.989252) donut (3.736069) pizza (3.719185) spa (3.718738) lawrenc (3.699445) nail (3.685308) song (3.499684) starbuck (3.461983) secur (3.242386) 
bire (3.368365) je (3.094215) semain (3.005057) caf (3.001547) une (2.993059) quil (2.983071) quartier (2.968988) il (2.953581) quoi (2.943115) viennoiseri (2.930710) 
bus (3.701226) pepperoni (3.460294) outlet (3.392555) pintxo (3.376588) pub (3.322159) coat (3.305819) bartend (3.246950) italian (3.194772) itali (3.165354) pasta (3.143474) 
bagel (3.229646) dumpl (3.118437) dish (2.673104) pork (2.437148) fri (2.403934) spici (2.389099) meat (2.368260) fish (2.361761) chicken (2.286462) beef (2.237234) 
church (4.399198) cigar (4.313810) foie (4.222568) gras (4.164470) cochon (4.004534) pie (3.985043) bison (3.901556) pdc (3.838773) lebanes (3.778454) basilica (3.671144) 
exhibit (4.049056) yoga (3.952524) macaron (3.911443) th (3.528517) garden (3.522400) livr (3.520061) ths (3.493134) vtement (3.479635) enfant (3.474275) cour (3.422548) 
cupcak (4.937639) casino (4.100655) banquis (3.895456) doughnut (3.755190) myriad (3.630181) pastri (3.564765) chocol (3.564696) espresso (3.482138) coffe (3.262547) latt (3.203230) 
reuben (4.249970) glace (4.112695) cot (3.875873) bike (3.508398) vill (3.485421) cone (3.429085) partag (3.400242) march (3.284384) problm (3.282475) pendant (3.275833) 
Error (train/valid/test) = 0.362570/1.316624/1.217189 (0.027526)
..................................................
energy after gradient step = 58884134.556544

Top words for each topic:
cat (3.130002) pho (2.978774) steak (2.970304) joe (2.938888) burrito (2.885710) burger (2.714441) steakhous (2.696567) bun (2.686274) korean (2.605765) bike (2.588704) 
hotel (5.070124) room (4.782235) bed (4.297890) stay (4.236115) desk (4.072826) shower (3.792292) lobbi (3.673384) bathroom (3.523025) sleep (3.487342) tub (3.359887) 
airport (4.141405) massag (4.120005) donut (4.059873) pizza (3.947922) lawrenc (3.792550) nail (3.762014) spa (3.756183) song (3.685033) starbuck (3.535474) gate (3.378703) 
bire (3.388269) je (3.085627) une (3.035973) quil (3.021494) semain (3.020718) leur (2.967824) quoi (2.961901) quartier (2.944954) ell (2.939280) caf (2.938148) 
bus (3.817845) pintxo (3.556326) pepperoni (3.532206) pub (3.498177) bartend (3.431172) outlet (3.407538) italian (3.379196) coat (3.342728) pasta (3.333884) itali (3.329336) 
bagel (3.270100) dumpl (3.165274) dish (2.797371) pork (2.521572) meat (2.506993) fri (2.500212) spici (2.461837) chicken (2.412977) fish (2.368289) order (2.349173) 
church (4.527780) foie (4.519874) gras (4.469696) cigar (4.370934) cochon (4.368649) pie (4.224939) bison (4.127263) lebanes (4.032925) pdc (3.974343) basilica (3.866466) 
exhibit (4.152519) yoga (4.082627) macaron (4.042870) livr (3.747287) th (3.638149) garden (3.621585) biodom (3.576164) vtement (3.571416) enfant (3.554074) ths (3.542185) 
cupcak (5.007036) casino (4.224057) chocol (4.003568) banquis (3.966842) pastri (3.789776) doughnut (3.761926) myriad (3.739220) espresso (3.691552) coffe (3.659282) latt (3.538591) 
reuben (4.306356) glace (4.188365) cot (3.996623) bike (3.579195) vill (3.563426) cone (3.538634) problm (3.471888) partag (3.450267) poutin (3.398060) march (3.392452) 
Error (train/valid/test) = 0.356402/1.322242/1.222193 (0.027585)
..................................................
energy after gradient step = 58498238.679464

Top words for each topic:
cat (3.247504) steak (3.173873) pho (3.072348) joe (3.040870) burrito (2.995869) burger (2.922243) steakhous (2.887857) bun (2.783639) bike (2.680020) korean (2.666354) 
hotel (5.128694) room (4.808596) bed (4.314971) stay (4.224787) desk (4.079706) shower (3.827774) lobbi (3.690707) bathroom (3.548999) sleep (3.520952) tub (3.341962) 
massag (4.277996) airport (4.153443) pizza (4.139846) donut (3.951535) lawrenc (3.928773) nail (3.892201) spa (3.806312) song (3.753169) starbuck (3.651622) gate (3.591820) 
bire (3.377676) je (3.159718) une (3.061275) quartier (3.047692) quil (3.026306) semain (3.018375) leur (3.013681) prendr (2.992489) jai (2.977957) slection (2.965277) 
bus (3.788503) pub (3.730138) pintxo (3.622152) itali (3.617212) arepa (3.580130) italian (3.574187) bartend (3.559976) pepperoni (3.540416) pasta (3.526332) coat (3.475517) 
bagel (3.301381) dumpl (3.212224) dish (2.893272) meat (2.658021) pork (2.614786) fri (2.585416) spici (2.534921) chicken (2.506862) order (2.489221) beef (2.426433) 
foie (4.831847) gras (4.752207) church (4.717022) cigar (4.573941) cochon (4.502899) pie (4.474597) pdc (4.254043) bison (4.248252) lebanes (4.115242) basilica (4.016983) 
exhibit (4.294586) macaron (4.139724) yoga (4.121977) livr (3.886890) th (3.798505) biodom (3.732437) garden (3.699404) vtement (3.678832) enfant (3.664950) ths (3.660094) 
cupcak (5.068214) casino (4.224328) chocol (4.211376) banquis (4.057727) coffe (3.943867) pastri (3.913159) espresso (3.830897) doughnut (3.822360) myriad (3.813877) latt (3.713099) 
reuben (4.569049) glace (4.291933) cot (3.943488) cone (3.743985) poutin (3.733209) bike (3.626003) vill (3.547813) adoni (3.532943) viand (3.525505) problm (3.488676) 
Error (train/valid/test) = 0.348799/1.328403/1.232168 (0.027795)
..................................................
energy after gradient step = 58149185.785689

Top words for each topic:
cat (3.319509) steak (3.276976) pho (3.174393) joe (3.162986) burrito (3.096901) burger (3.093035) steakhous (2.950037) bun (2.859697) bike (2.742335) souvlaki (2.739616) 
hotel (5.156192) room (4.785963) bed (4.329835) stay (4.222808) desk (4.131157) shower (3.850383) lobbi (3.743153) sleep (3.515369) bathroom (3.491256) tub (3.397570) 
massag (4.331990) pizza (4.261234) airport (4.174216) lawrenc (4.052508) donut (4.040247) spa (3.985606) song (3.953096) nail (3.917624) yarn (3.675338) starbuck (3.665802) 
bire (3.403721) je (3.175386) une (3.137105) semain (3.109596) quartier (3.063799) jai (3.053245) leur (3.045599) prendr (3.044328) quil (3.040606) sont (2.989779) 
pub (3.905389) pintxo (3.799543) bartend (3.780862) italian (3.727521) itali (3.711064) pizzeria (3.697552) pasta (3.679101) arepa (3.668839) pepperoni (3.655840) pizza (3.625387) 
bagel (3.369991) dumpl (3.235278) dish (3.012320) meat (2.797576) pork (2.702921) fri (2.685044) chicken (2.664496) spici (2.633626) order (2.549322) fish (2.477610) 
foie (5.205840) gras (5.131094) church (4.761827) cochon (4.738544) pie (4.669612) cigar (4.657832) bison (4.442372) pdc (4.429989) pig (4.189584) lebanes (4.168184) 
exhibit (4.389681) macaron (4.296153) yoga (4.259653) livr (4.005114) th (3.914652) ths (3.839356) vtement (3.829079) magasin (3.816860) enfant (3.772648) garden (3.756597) 
cupcak (5.118185) chocol (4.349921) casino (4.227378) coffe (4.204969) pastri (4.054770) banquis (4.008876) espresso (3.930170) bakeri (3.919735) latt (3.899849) croissant (3.880337) 
reuben (4.677541) glace (4.407873) poutin (4.213884) cot (4.082064) cone (3.961947) adoni (3.779725) bike (3.776606) vill (3.670962) viand (3.588776) smoke (3.542454) 
Error (train/valid/test) = 0.340601/1.337022/1.240545 (0.027994)
..................................................
energy after gradient step = 57820708.133085

Top words for each topic:
cat (3.394142) steak (3.383571) pho (3.310827) joe (3.295769) burger (3.295602) burrito (3.160348) steakhous (3.037348) bun (2.955645) bike (2.821008) gibbi (2.794975) 
hotel (5.188566) room (4.826570) bed (4.328867) stay (4.166781) desk (4.128975) shower (3.867750) lobbi (3.761335) sleep (3.592132) bathroom (3.489901) tub (3.376444) 
massag (4.420056) pizza (4.274383) airport (4.194202) donut (4.066639) nail (4.049312) lawrenc (4.013184) spa (3.973316) song (3.913560) yarn (3.718268) starbuck (3.703138) 
bire (3.403790) je (3.206223) une (3.180611) leur (3.108549) jai (3.081732) semain (3.068550) quil (3.063763) quartier (3.057793) sont (3.026785) ou (3.006196) 
pub (4.040600) bartend (3.948366) pintxo (3.876344) italian (3.868025) itali (3.840954) pizzeria (3.838446) pasta (3.778636) pizza (3.764160) arepa (3.763370) pepperoni (3.760795) 
bagel (3.401364) dumpl (3.275006) dish (3.129911) meat (2.856595) pork (2.756560) fri (2.747888) chicken (2.740296) spici (2.689050) order (2.635692) beef (2.555512) 
foie (5.499675) gras (5.422814) church (4.943908) cochon (4.879840) pie (4.828411) cigar (4.745493) pdc (4.489512) bison (4.466670) duck (4.393784) pig (4.342632) 
exhibit (4.543377) macaron (4.411480) yoga (4.398639) livr (4.069038) magasin (4.065361) th (4.030607) vtement (3.988464) garden (3.935528) biodom (3.874605) enfant (3.854758) 
cupcak (5.130009) chocol (4.401923) coffe (4.350615) casino (4.245012) pastri (4.157869) croissant (4.046991) latt (4.012516) espresso (4.012380) bakeri (3.999813) crepe (3.940721) 
reuben (4.757255) poutin (4.566435) glace (4.406286) cot (4.112290) cone (3.939057) adoni (3.873455) bike (3.854247) vill (3.758154) viand (3.691255) smoke (3.662067) 
Error (train/valid/test) = 0.333930/1.344967/1.246271 (0.028084)
..................................................
energy after gradient step = 57545822.679166

Top words for each topic:
burger (3.497469) pho (3.485543) steak (3.473807) cat (3.406544) joe (3.351686) burrito (3.295632) steakhous (3.132827) bun (2.952330) bike (2.931838) gibbi (2.868945) 
hotel (5.231946) room (4.798050) bed (4.325281) desk (4.159655) stay (4.155652) shower (3.890242) lobbi (3.794564) sleep (3.527258) tub (3.460320) bathroom (3.412268) 
massag (4.412345) pizza (4.349393) airport (4.159863) spa (4.049147) nail (4.036487) song (4.025085) lawrenc (4.004041) donut (3.970535) yarn (3.800337) gate (3.756580) 
bire (3.421903) une (3.247591) je (3.232849) leur (3.145532) jai (3.137771) quartier (3.126393) quil (3.097855) et (3.071676) qui (3.070504) moi (3.057789) 
pub (4.253760) italian (4.108310) arepa (4.108133) bartend (4.068177) pasta (3.968108) pintxo (3.957038) pizza (3.956105) pizzeria (3.895521) itali (3.892956) irish (3.747395) 
bagel (3.449064) dumpl (3.310863) dish (3.208377) meat (2.919293) chicken (2.849859) fri (2.833425) pork (2.833045) spici (2.726031) order (2.698811) beef (2.647662) 
foie (5.776237) gras (5.713297) cochon (5.020783) pie (4.993726) church (4.979460) cigar (4.775220) bison (4.722896) duck (4.665719) pdc (4.592313) tapa (4.460306) 
exhibit (4.671753) macaron (4.516063) yoga (4.486361) livr (4.267973) magasin (4.235699) th (4.171313) vtement (4.131913) ths (4.070574) garden (4.023842) biodom (4.012442) 
cupcak (5.097539) chocol (4.452805) coffe (4.448416) casino (4.253012) pastri (4.217778) croissant (4.175912) crepe (4.167352) latt (4.091078) bakeri (4.063435) breakfast (3.990699) 
poutin (4.886973) reuben (4.851466) glace (4.550450) cone (4.050130) cot (4.032602) adoni (3.977224) smoke (3.924272) viand (3.868560) meat (3.865233) bike (3.775880) 
Error (train/valid/test) = 0.326751/1.352235/1.252619 (0.028262)
..................................................
energy after gradient step = 57312123.752260

Top words for each topic:
burger (3.692096) pho (3.547045) steak (3.530658) cat (3.496628) joe (3.449934) burrito (3.389265) steakhous (3.217637) bun (3.041242) bike (3.016297) gibbi (2.939083) 
hotel (5.229069) room (4.747042) bed (4.305385) desk (4.147592) stay (4.092650) shower (3.899445) lobbi (3.795661) sleep (3.566967) tub (3.421172) bathroom (3.355533) 
massag (4.504129) pizza (4.366579) airport (4.210998) spa (4.012487) lawrenc (4.001186) nail (3.987409) song (3.959392) donut (3.867703) yarn (3.786918) starbuck (3.751927) 
bire (3.395075) une (3.266241) je (3.250161) quil (3.175853) jai (3.148710) leur (3.146147) sont (3.131668) qui (3.129005) que (3.114224) pas (3.102716) 
pub (4.409386) italian (4.240656) arepa (4.163087) bartend (4.156458) pasta (4.142437) itali (4.042567) pizza (4.013421) pintxo (4.003742) pizzeria (3.973226) cocktail (3.882178) 
bagel (3.481169) dumpl (3.341820) dish (3.238071) meat (2.965220) chicken (2.938456) fri (2.874815) pork (2.874149) spici (2.785168) order (2.727553) beef (2.715927) 
foie (5.912320) gras (5.906168) church (5.094751) cochon (5.089120) pie (5.079176) duck (4.874009) cigar (4.796650) bison (4.689118) pdc (4.680422) pig (4.578948) 
exhibit (4.718386) macaron (4.606218) yoga (4.600680) magasin (4.303445) livr (4.296746) th (4.204197) vtement (4.174462) ths (4.104485) biodom (4.081533) cour (4.080254) 
cupcak (5.114172) coffe (4.463409) chocol (4.374994) crepe (4.296832) croissant (4.249635) casino (4.227044) pastri (4.192018) latt (4.115859) bakeri (4.090421) breakfast (4.043858) 
poutin (5.178135) reuben (4.865970) glace (4.487580) smoke (4.190080) cot (4.077247) meat (4.048946) cone (4.047549) adoni (4.025840) viand (3.894746) bike (3.817256) 
Error (train/valid/test) = 0.320632/1.355965/1.256071 (0.028297)
..................................................
energy after gradient step = 57085642.685244

Top words for each topic:
burger (3.842219) pho (3.646866) steak (3.640769) cat (3.603471) joe (3.518504) burrito (3.479548) steakhous (3.306524) bun (3.161059) bike (3.093287) gibbi (3.075008) 
hotel (5.257100) room (4.751673) bed (4.282682) desk (4.177804) stay (4.066459) shower (3.934136) lobbi (3.839469) sleep (3.572283) tub (3.425565) bathroom (3.322046) 
massag (4.483721) pizza (4.378449) spa (4.077168) nail (4.069798) airport (4.061519) song (4.046714) lawrenc (4.042192) yarn (3.869928) bouncer (3.842633) gate (3.839929) 
bire (3.354866) je (3.277507) une (3.256456) jai (3.222261) quil (3.210034) que (3.160662) sont (3.148177) pas (3.139336) il (3.131882) quartier (3.122230) 
pub (4.493409) pasta (4.235730) italian (4.219951) arepa (4.214998) bartend (4.169582) pizza (4.134848) pizzeria (4.014448) pintxo (4.001735) cocktail (3.991948) itali (3.980271) 
bagel (3.501950) dumpl (3.379467) dish (3.298633) meat (2.997593) chicken (2.995297) pork (2.931483) fri (2.903797) spici (2.853374) order (2.776683) beef (2.775921) 
foie (6.085477) gras (6.074093) cochon (5.176180) pie (5.123738) duck (5.111714) church (5.095359) cigar (4.890125) bison (4.810291) pdc (4.716743) pig (4.606539) 
exhibit (4.866882) yoga (4.729893) macaron (4.631597) magasin (4.494548) livr (4.370380) vtement (4.343262) th (4.332171) biodom (4.230185) boutiqu (4.229561) produit (4.209708) 
cupcak (5.073245) coffe (4.471568) crepe (4.442937) chocol (4.337419) croissant (4.311276) pastri (4.210485) casino (4.190620) latt (4.164909) bakeri (4.132849) breakfast (4.098116) 
poutin (5.528589) reuben (4.960053) glace (4.471098) smoke (4.401820) meat (4.179837) adoni (4.126849) cone (4.053811) cot (3.980596) viand (3.849386) distilleri (3.805714) 
Error (train/valid/test) = 0.314320/1.362379/1.262739 (0.028423)
..................................................
energy after gradient step = 56907927.072191

Top words for each topic:
burger (4.009117) pho (3.733738) steak (3.709664) cat (3.643591) joe (3.616849) burrito (3.596101) steakhous (3.394174) bun (3.273770) bike (3.204537) gibbi (3.123323) 
hotel (5.274570) room (4.740191) bed (4.286157) desk (4.187023) stay (4.052860) shower (3.954344) lobbi (3.854243) sleep (3.575339) tub (3.470268) bathroom (3.286472) 
massag (4.556605) pizza (4.406996) airport (4.157318) song (4.037452) nail (4.034356) spa (4.015911) lawrenc (3.999221) bouncer (3.865336) gate (3.860493) yarn (3.860341) 
bire (3.331935) une (3.310425) je (3.280645) quil (3.269788) jai (3.217741) que (3.186624) sont (3.183510) il (3.177144) pas (3.173125) leur (3.170055) 
pub (4.498859) arepa (4.383031) pasta (4.301074) italian (4.294588) pizza (4.240547) itali (4.181203) bartend (4.144755) cocktail (4.094459) pintxo (4.078537) pizzeria (4.072242) 
bagel (3.537048) dumpl (3.403161) dish (3.326375) chicken (3.067873) meat (3.030319) pork (2.994820) fri (2.909353) spici (2.895250) order (2.868502) beef (2.856130) 
foie (6.177248) gras (6.153388) duck (5.271202) cochon (5.224837) church (5.179753) pie (5.179282) cigar (4.947969) bison (4.900667) pdc (4.803769) tapa (4.679368) 
exhibit (4.946316) yoga (4.770857) macaron (4.754917) magasin (4.583781) vtement (4.439196) livr (4.422043) ths (4.321445) th (4.305207) boutiqu (4.286419) produit (4.280564) 
cupcak (5.073532) crepe (4.540075) coffe (4.504640) croissant (4.375840) chocol (4.273273) pastri (4.213861) latt (4.171775) bakeri (4.169941) casino (4.163271) breakfast (4.133905) 
poutin (5.697427) reuben (5.010213) smoke (4.595910) glace (4.423962) meat (4.384192) adoni (4.184259) cone (4.115121) viand (4.046088) cot (3.992950) distilleri (3.945571) 
Error (train/valid/test) = 0.309112/1.370299/1.267446 (0.028505)
..................................................
energy after gradient step = 56766576.400180

Top words for each topic:
burger (4.143060) pho (3.839121) steak (3.746787) cat (3.679514) joe (3.651321) burrito (3.647880) steakhous (3.494446) bun (3.337369) bike (3.300080) gibbi (3.276614) 
hotel (5.298479) room (4.715635) bed (4.278902) desk (4.216499) stay (4.036707) shower (3.974403) lobbi (3.895466) sleep (3.572925) tub (3.444304) bathroom (3.283480) 
massag (4.518393) pizza (4.390974) airport (4.098430) nail (4.058516) spa (4.014261) song (3.951043) yarn (3.920760) lawrenc (3.907434) gate (3.872329) bouncer (3.869199) 
une (3.375109) quil (3.295842) bire (3.295839) je (3.290569) jai (3.270709) que (3.265122) sont (3.225843) pas (3.220424) leur (3.206371) et (3.199317) 
pub (4.533824) arepa (4.343512) pasta (4.340830) italian (4.335788) pizza (4.318330) cocktail (4.168155) bartend (4.147031) pizzeria (4.112941) jazz (4.057318) itali (4.049496) 
bagel (3.589047) dumpl (3.446165) dish (3.373428) chicken (3.112820) pork (3.062976) meat (3.038882) beef (2.945897) order (2.943086) fri (2.941566) spici (2.939674) 
foie (6.259980) gras (6.233803) duck (5.408051) cochon (5.299614) pie (5.238631) church (5.181884) cigar (4.984626) bison (4.923619) pdc (4.894470) tapa (4.720871) 
exhibit (5.039261) yoga (4.859809) macaron (4.812152) magasin (4.685497) vtement (4.572215) livr (4.488640) boutiqu (4.459223) th (4.415815) biodom (4.374092) ths (4.365965) 
cupcak (5.056866) crepe (4.643761) coffe (4.485882) croissant (4.430318) pastri (4.236229) latt (4.214720) chocol (4.209934) bakeri (4.189898) casino (4.123516) breakfast (4.093296) 
poutin (5.849672) reuben (5.071078) smoke (4.800607) meat (4.568373) glace (4.496961) gravi (4.470172) adoni (4.293927) cone (4.214500) distilleri (4.057687) viand (3.981120) 
Error (train/valid/test) = 0.301161/1.378430/1.274682 (0.028647)
..................................................
energy after gradient step = 56599789.626254

Top words for each topic:
burger (4.312698) pho (3.917922) cat (3.786244) steak (3.781178) joe (3.778660) burrito (3.733314) steakhous (3.608667) bun (3.406993) gibbi (3.307448) bike (3.253407) 
hotel (5.291205) room (4.689233) bed (4.269265) desk (4.234235) stay (4.018126) shower (3.982604) lobbi (3.905242) sleep (3.620449) tub (3.490045) bathroom (3.246994) 
massag (4.566056) pizza (4.380121) airport (4.119374) spa (4.044870) nail (4.036450) song (4.014181) lawrenc (3.978724) yarn (3.959723) bouncer (3.930251) gate (3.879257) 
une (3.415767) quil (3.331619) je (3.311369) jai (3.277716) que (3.269062) pas (3.242271) leur (3.230085) et (3.225821) sont (3.220513) bire (3.214150) 
pub (4.528736) pasta (4.346962) italian (4.346049) pizza (4.336595) arepa (4.335949) cocktail (4.225686) bartend (4.165619) pizzeria (4.139369) jazz (4.101036) itali (4.074955) 
bagel (3.590438) dumpl (3.471140) dish (3.370935) chicken (3.158873) pork (3.093243) meat (3.075632) spici (2.997506) beef (2.989063) fri (2.954660) order (2.935030) 
foie (6.310162) gras (6.278397) duck (5.491220) cochon (5.300905) pie (5.249589) church (5.211663) cigar (4.956338) bison (4.934208) pdc (4.911370) wine (4.757669) 
exhibit (5.110783) yoga (4.952236) macaron (4.883379) magasin (4.812685) vtement (4.653430) livr (4.597635) boutiqu (4.506933) biodom (4.475267) th (4.474265) produit (4.468906) 
cupcak (5.045427) crepe (4.685572) coffe (4.487128) croissant (4.468822) latt (4.254215) pastri (4.225026) chocol (4.214016) bakeri (4.196876) casino (4.119511) breakfast (4.070352) 
poutin (5.999207) reuben (5.107087) smoke (4.928892) gravi (4.784967) meat (4.729995) curd (4.495634) glace (4.428160) adoni (4.319043) cone (4.285398) distilleri (4.045643) 
Error (train/valid/test) = 0.295292/1.384828/1.280175 (0.028755)
..................................................
energy after gradient step = 56442092.332118

Top words for each topic:
burger (4.428075) pho (3.997939) burrito (3.827977) steak (3.822698) cat (3.820379) joe (3.747143) steakhous (3.654515) bun (3.439840) gibbi (3.387623) souvlaki (3.298882) 
hotel (5.305095) room (4.710457) bed (4.266411) desk (4.253177) shower (4.035728) stay (3.994954) lobbi (3.946908) sleep (3.577835) tub (3.515474) pool (3.315916) 
massag (4.583701) pizza (4.396397) airport (4.111033) nail (4.028634) spa (4.017924) song (4.015707) bouncer (4.003927) yarn (3.966555) gate (3.917805) karaok (3.897723) 
une (3.487753) je (3.344074) quil (3.336809) jai (3.334112) pas (3.290342) que (3.279142) et (3.266504) sont (3.252276) ce (3.248514) qui (3.237966) 
pub (4.571559) italian (4.381731) pizza (4.374518) arepa (4.335559) pasta (4.310620) cocktail (4.231021) bartend (4.191084) jazz (4.175649) pizzeria (4.070029) itali (4.038238) 
bagel (3.625573) dumpl (3.505670) dish (3.344095) chicken (3.204582) pork (3.124591) meat (3.112568) spici (3.033839) order (2.991954) beef (2.989566) fri (2.951958) 
foie (6.374793) gras (6.332223) duck (5.581135) cochon (5.349150) pie (5.268507) church (5.233878) bison (5.038586) cigar (5.004271) pdc (4.924373) wine (4.878903) 
exhibit (5.175822) yoga (5.058851) macaron (4.931940) magasin (4.894854) vtement (4.723306) livr (4.580060) boutiqu (4.576808) th (4.542016) ths (4.541960) biodom (4.527050) 
cupcak (5.051979) crepe (4.719561) croissant (4.495767) coffe (4.461639) latt (4.253771) bakeri (4.251285) pastri (4.221342) chocol (4.175212) caf (4.108838) breakfast (4.092224) 
poutin (6.077861) reuben (5.165449) smoke (5.065596) curd (4.990933) gravi (4.976779) meat (4.871925) glace (4.384679) adoni (4.333240) cone (4.312672) distilleri (4.089309) 
Error (train/valid/test) = 0.289734/1.388244/1.286517 (0.028864)
..................................................
energy after gradient step = 56321253.229278

Top words for each topic:
burger (4.563359) pho (4.101042) cat (3.890133) burrito (3.863736) steak (3.859275) joe (3.837363) steakhous (3.736704) bun (3.529521) gibbi (3.434294) souvlaki (3.327216) 
hotel (5.319198) room (4.692788) desk (4.267240) bed (4.239224) shower (4.031781) stay (4.004326) lobbi (3.963601) sleep (3.642362) tub (3.506368) pool (3.262035) 
massag (4.622062) pizza (4.353339) airport (4.054628) nail (4.036374) spa (4.035862) song (4.018591) bouncer (4.013350) yarn (3.976564) karaok (3.908516) gate (3.866919) 
une (3.552456) je (3.399362) jai (3.377106) quil (3.375553) ce (3.346053) que (3.343282) pas (3.325692) et (3.314635) qui (3.295433) sont (3.293122) 
pub (4.585086) pizza (4.432181) italian (4.368777) arepa (4.322444) pasta (4.269220) cocktail (4.223078) jazz (4.170543) bartend (4.102404) pizzeria (4.074805) itali (4.059081) 
bagel (3.627984) dumpl (3.531200) dish (3.345828) chicken (3.240988) pork (3.160873) meat (3.116804) spici (3.087787) beef (3.017128) order (3.006642) rice (2.976875) 
foie (6.414321) gras (6.350059) duck (5.673411) cochon (5.335414) pie (5.260597) church (5.234160) bison (4.989001) wine (4.965252) cigar (4.962448) pdc (4.929212) 
exhibit (5.264908) yoga (5.085946) macaron (4.954561) magasin (4.945168) vtement (4.782709) boutiqu (4.670112) biodom (4.608185) livr (4.588678) th (4.577476) produit (4.574788) 
cupcak (5.040316) crepe (4.744282) croissant (4.495809) coffe (4.398530) latt (4.265170) bakeri (4.265018) pastri (4.185984) chocol (4.162506) caf (4.119896) breakfast (4.081735) 
poutin (6.150633) smoke (5.219191) reuben (5.197087) gravi (5.079477) meat (5.038384) curd (5.001789) glace (4.380021) cone (4.372394) adoni (4.371165) distilleri (4.118199) 
Error (train/valid/test) = 0.284168/1.393626/1.290954 (0.029000)
..................................................
energy after gradient step = 56215218.037509

Top words for each topic:
burger (4.636241) pho (4.147261) cat (3.960978) burrito (3.953113) steak (3.879412) joe (3.859063) steakhous (3.793274) bun (3.566776) gibbi (3.544553) souvlaki (3.375428) 
hotel (5.331754) room (4.709047) desk (4.273499) bed (4.253981) shower (4.079536) stay (4.028201) lobbi (4.004429) sleep (3.608493) tub (3.550774) pool (3.307524) 
massag (4.641468) pizza (4.305637) airport (4.083823) spa (4.048800) bouncer (4.046832) song (4.040940) nail (4.023201) yarn (4.019362) karaok (3.928073) lawrenc (3.922178) 
une (3.588972) je (3.413033) que (3.402333) jai (3.400783) quil (3.398754) ce (3.355150) pas (3.350827) et (3.313016) ne (3.301018) qui (3.290202) 
pub (4.595348) pizza (4.480436) italian (4.363260) arepa (4.344584) pasta (4.248961) cocktail (4.233623) jazz (4.158565) bartend (4.106443) pizzeria (4.054605) irish (4.026819) 
bagel (3.665802) dumpl (3.553107) dish (3.358703) chicken (3.295607) pork (3.203772) meat (3.146836) spici (3.126177) beef (3.072096) order (3.058092) rice (3.000725) 
foie (6.466624) gras (6.384057) duck (5.738635) cochon (5.389815) pie (5.267471) church (5.208998) wine (5.030852) bison (5.023141) cigar (4.977605) pdc (4.961832) 
exhibit (5.362963) yoga (5.227107) magasin (5.061088) macaron (5.033975) vtement (4.913319) boutiqu (4.790012) biodom (4.692584) produit (4.671889) ths (4.656447) livr (4.633696) 
cupcak (5.056556) crepe (4.761414) croissant (4.541033) coffe (4.388933) bakeri (4.290374) latt (4.288784) pastri (4.188227) caf (4.156191) chocol (4.152480) breakfast (4.106597) 
poutin (6.205378) smoke (5.341567) reuben (5.205627) gravi (5.179264) meat (5.168338) curd (5.059904) schwartz (4.616520) adoni (4.402917) cone (4.340998) glace (4.243566) 
Error (train/valid/test) = 0.278585/1.399000/1.294789 (0.029046)
..................................................
energy after gradient step = 56111391.403373

Top words for each topic:
burger (4.767397) pho (4.228010) cat (3.992565) burrito (3.968062) joe (3.953077) steak (3.917049) steakhous (3.872674) bun (3.639922) gibbi (3.577192) souvlaki (3.325952) 
hotel (5.327283) room (4.699753) desk (4.317986) bed (4.214941) shower (4.088865) stay (4.003859) lobbi (4.003818) sleep (3.648410) tub (3.585695) pool (3.295363) 
massag (4.701075) pizza (4.287898) nail (4.101101) bouncer (4.083681) spa (4.074732) song (4.058316) yarn (4.028662) airport (3.981859) karaok (3.940828) gate (3.939716) 
une (3.624992) jai (3.466310) que (3.456464) je (3.438314) quil (3.426984) pas (3.411794) et (3.393855) ce (3.364054) leur (3.348335) qui (3.332375) 
pub (4.564916) pizza (4.525375) arepa (4.355249) italian (4.336821) cocktail (4.287231) pasta (4.244297) jazz (4.188207) pizzeria (4.073071) bartend (4.037349) modavi (3.968196) 
bagel (3.692432) dumpl (3.585314) dish (3.355765) chicken (3.353398) pork (3.213839) spici (3.171918) meat (3.144066) beef (3.087464) order (3.082794) rice (3.060090) 
foie (6.499811) gras (6.399731) duck (5.772009) cochon (5.375496) pie (5.267551) church (5.217207) wine (5.109853) bison (5.009636) pdc (4.982361) cigar (4.962089) 
exhibit (5.342693) yoga (5.189256) magasin (5.121198) macaron (5.071814) vtement (4.962399) boutiqu (4.847483) produit (4.730370) th (4.710718) biodom (4.701932) ths (4.694297) 
cupcak (5.069754) crepe (4.794287) croissant (4.570725) coffe (4.400114) latt (4.318793) bakeri (4.298199) pastri (4.223590) caf (4.185950) chocol (4.165116) breakfast (4.107335) 
poutin (6.266948) schwartz (5.551716) smoke (5.468651) meat (5.322906) reuben (5.235218) gravi (5.189405) curd (5.122702) adoni (4.413433) cone (4.316525) sandwich (4.228079) 
Error (train/valid/test) = 0.273037/1.405394/1.300437 (0.029177)
..................................................
energy after gradient step = 56013506.900654

Top words for each topic:
burger (4.836759) pho (4.296365) joe (4.068342) cat (4.026392) burrito (4.017417) steak (3.934463) steakhous (3.900496) gibbi (3.635506) bun (3.611778) souvlaki (3.366230) 
hotel (5.323617) room (4.709714) desk (4.311539) bed (4.204172) shower (4.112612) lobbi (4.044125) stay (3.993647) sleep (3.658890) tub (3.586007) bus (3.316005) 
massag (4.709263) pizza (4.250808) bouncer (4.171019) song (4.101338) spa (4.074686) yarn (4.057341) nail (4.042379) karaok (3.970604) airport (3.895963) gate (3.892633) 
une (3.643085) pas (3.501880) que (3.498869) je (3.488039) jai (3.461502) ce (3.430340) quil (3.424451) et (3.409745) qui (3.376394) il (3.360477) 
pub (4.549763) pizza (4.543108) arepa (4.357236) italian (4.306322) pasta (4.281624) cocktail (4.262796) jazz (4.088356) bartend (4.068799) pizzeria (4.054525) scotch (3.948421) 
bagel (3.691434) dumpl (3.610196) chicken (3.386622) dish (3.366220) pork (3.240552) spici (3.184063) beef (3.134497) meat (3.125650) order (3.118451) rice (3.103340) 
foie (6.510979) gras (6.389261) duck (5.767545) cochon (5.383909) pie (5.228902) church (5.196083) wine (5.146007) bison (5.090846) pdc (4.972032) cigar (4.970965) 
exhibit (5.485460) yoga (5.259774) magasin (5.130186) macaron (5.087266) vtement (5.033496) boutiqu (4.874900) produit (4.856946) biodom (4.781148) ths (4.771744) livr (4.725492) 
cupcak (5.056752) crepe (4.794688) croissant (4.582077) coffe (4.407621) bakeri (4.324902) latt (4.313793) pastri (4.219474) caf (4.193936) chocol (4.164641) breakfast (4.084706) 
poutin (6.315789) schwartz (5.787952) smoke (5.559371) meat (5.469725) reuben (5.228860) gravi (5.226502) curd (5.186216) adoni (4.401100) sandwich (4.337934) cone (4.292916) 
Error (train/valid/test) = 0.268552/1.409265/1.303997 (0.029209)
..................................................
energy after gradient step = 55929202.136117

Top words for each topic:
burger (4.939384) pho (4.380158) cat (4.103954) burrito (4.097487) joe (4.029767) steakhous (3.978396) steak (3.955971) bun (3.720357) gibbi (3.705011) souvlaki (3.451564) 
hotel (5.317125) room (4.698946) desk (4.337146) bed (4.210608) shower (4.137854) lobbi (4.039133) stay (3.960282) sleep (3.652049) tub (3.578873) bus (3.333569) 
massag (4.734192) pizza (4.229251) spa (4.215336) bouncer (4.131590) song (4.091375) yarn (4.085741) nail (4.083571) airport (4.067951) karaok (3.986802) gate (3.935937) 
une (3.678521) que (3.536489) je (3.526572) pas (3.513790) jai (3.479087) ce (3.462684) et (3.460216) quil (3.434376) mai (3.418963) qui (3.410757) 
pizza (4.554737) pub (4.549122) arepa (4.353301) italian (4.254362) cocktail (4.235848) pasta (4.228047) jazz (4.110219) bartend (4.051063) pizzeria (4.025468) modavi (3.922462) 
bagel (3.686452) dumpl (3.640504) chicken (3.418661) dish (3.378107) pork (3.271213) spici (3.218442) beef (3.159452) rice (3.145031) order (3.144936) meat (3.079731) 
foie (6.522730) gras (6.386735) duck (5.774625) cochon (5.394105) pie (5.202382) wine (5.166142) church (5.165706) pdc (4.980759) bison (4.980721) cigar (4.929747) 
exhibit (5.407670) yoga (5.301627) magasin (5.225826) macaron (5.129100) vtement (5.086946) boutiqu (4.896547) biodom (4.810401) produit (4.768598) ths (4.715709) exposit (4.678542) 
cupcak (5.084049) crepe (4.814050) croissant (4.615507) coffe (4.362437) latt (4.352359) bakeri (4.342051) pastri (4.222811) caf (4.205004) chocol (4.163125) breakfast (4.124268) 
poutin (6.363892) schwartz (5.876087) smoke (5.633763) meat (5.622187) gravi (5.319567) reuben (5.286351) curd (5.212533) banquis (4.805412) deli (4.764696) adoni (4.443754) 
Error (train/valid/test) = 0.263851/1.412583/1.309343 (0.029301)
..................................................
energy after gradient step = 55832066.328878

Top words for each topic:
burger (4.996738) pho (4.415422) burrito (4.167614) joe (4.155469) cat (4.132015) steakhous (4.033807) steak (3.983257) gibbi (3.794714) bun (3.703168) souvlaki (3.465018) 
hotel (5.307091) room (4.702951) desk (4.334733) bed (4.169622) shower (4.146134) lobbi (4.084759) stay (3.939954) sleep (3.673360) tub (3.587636) pool (3.349891) 
massag (4.790332) bouncer (4.208417) pizza (4.196002) spa (4.167460) airport (4.126586) yarn (4.088424) song (4.063349) nail (4.053055) karaok (4.026737) gate (3.964561) 
une (3.692180) que (3.592436) je (3.569291) pas (3.555867) jai (3.526978) ce (3.507002) et (3.484819) quil (3.475260) mai (3.457907) ne (3.419293) 
pizza (4.590605) pub (4.577202) arepa (4.282499) italian (4.267576) cocktail (4.259323) pasta (4.242974) pizzeria (4.058905) jazz (4.051111) bartend (4.023836) irish (3.961493) 
bagel (3.705578) dumpl (3.672156) chicken (3.476434) dish (3.406889) pork (3.294989) spici (3.248126) beef (3.198622) order (3.184624) rice (3.174706) noodl (3.088874) 
foie (6.541430) gras (6.387852) duck (5.789743) cochon (5.360778) wine (5.164754) church (5.153825) pie (5.141062) bison (5.050642) pdc (4.983414) cigar (4.897114) 
exhibit (5.595503) yoga (5.381400) magasin (5.266395) vtement (5.134012) macaron (5.111195) boutiqu (4.982732) produit (4.872369) biodom (4.836694) livr (4.767016) ths (4.758928) 
cupcak (5.082041) crepe (4.808138) croissant (4.614192) latt (4.366102) coffe (4.355860) bakeri (4.342027) caf (4.202907) pastri (4.197997) chocol (4.174055) breakfast (4.074149) 
poutin (6.384830) schwartz (5.924464) meat (5.776829) smoke (5.696149) gravi (5.386486) deli (5.314421) reuben (5.290403) banquis (5.288338) curd (5.236702) fri (4.571946) 
Error (train/valid/test) = 0.258855/1.417716/1.314307 (0.029398)
..................................................
energy after gradient step = 55753691.540127

Top words for each topic:
burger (5.045344) pho (4.530723) burrito (4.206832) joe (4.168124) cat (4.161496) steakhous (4.094708) steak (3.995008) gibbi (3.845081) bun (3.782589) souvlaki (3.517294) 
hotel (5.276982) room (4.704320) desk (4.356667) shower (4.162580) bed (4.161113) lobbi (4.089260) stay (3.945587) sleep (3.670646) tub (3.614899) bus (3.331044) 
massag (4.793553) bouncer (4.223303) spa (4.154157) pizza (4.119738) yarn (4.092888) nail (4.073380) karaok (4.055086) song (4.050411) airport (4.001267) gate (3.984986) 
une (3.731666) que (3.652985) je (3.596068) pas (3.591361) jai (3.553849) ce (3.542330) et (3.527975) quil (3.474841) mai (3.461656) qui (3.461236) 
pizza (4.578783) pub (4.529894) arepa (4.297635) italian (4.228317) cocktail (4.188047) pasta (4.164439) bartend (4.058365) jazz (4.049737) pizzeria (4.041967) irish (3.893081) 
bagel (3.711500) dumpl (3.698033) chicken (3.495011) dish (3.417463) pork (3.312691) spici (3.273938) rice (3.208279) beef (3.206978) order (3.178247) noodl (3.120366) 
foie (6.548031) gras (6.374231) duck (5.773356) cochon (5.380728) wine (5.172119) church (5.113387) pie (5.059170) bison (4.997036) pdc (4.973236) cigar (4.907873) 
exhibit (5.547518) yoga (5.394133) magasin (5.331304) vtement (5.174102) macaron (5.149333) boutiqu (5.011862) biodom (4.911795) produit (4.909285) exposit (4.789575) ths (4.785223) 
cupcak (5.073958) crepe (4.818741) croissant (4.634415) latt (4.377348) bakeri (4.370874) coffe (4.357060) caf (4.261764) pastri (4.231384) chocol (4.178792) breakfast (4.069407) 
poutin (6.382100) schwartz (5.980977) meat (5.885072) smoke (5.762245) gravi (5.360881) deli (5.333217) reuben (5.320284) curd (5.247480) banquis (5.168625) fri (4.683270) 
Error (train/valid/test) = 0.254659/1.423462/1.319269 (0.029491)
..................................................
energy after gradient step = 55673081.556375

Top words for each topic:
burger (5.109202) pho (4.551898) burrito (4.242885) cat (4.202630) joe (4.195383) steakhous (4.150175) steak (4.038678) gibbi (3.881874) bun (3.834068) souvlaki (3.559276) 
hotel (5.264476) room (4.673273) desk (4.349076) shower (4.181661) bed (4.178822) lobbi (4.099669) stay (3.932185) sleep (3.699816) tub (3.611303) bus (3.374043) 
massag (4.820481) bouncer (4.227204) spa (4.172110) yarn (4.104002) nail (4.099604) karaok (4.084279) song (4.074281) pizza (4.007151) gate (4.001721) airport (3.964229) 
une (3.767237) que (3.664998) je (3.611764) pas (3.609836) jai (3.583632) ce (3.555568) qui (3.520242) et (3.519444) mai (3.498829) quil (3.498600) 
pizza (4.590527) pub (4.509273) arepa (4.262042) italian (4.176831) cocktail (4.165685) pasta (4.142929) bartend (4.042170) jazz (4.023399) pizzeria (4.003142) irish (3.922730) 
bagel (3.725667) dumpl (3.712084) chicken (3.522313) dish (3.408180) pork (3.331131) spici (3.287302) rice (3.225705) beef (3.217999) order (3.178889) noodl (3.138702) 
foie (6.558938) gras (6.382106) duck (5.790245) cochon (5.354539) wine (5.160759) church (5.071562) pie (5.049513) bison (5.005409) pdc (4.963140) tartar (4.909101) 
exhibit (5.621951) yoga (5.442801) magasin (5.361188) vtement (5.212960) macaron (5.120718) boutiqu (5.055696) biodom (4.934737) produit (4.836710) exposit (4.805322) museum (4.799427) 
cupcak (5.105617) crepe (4.829000) croissant (4.667705) latt (4.384959) bakeri (4.380734) coffe (4.322078) caf (4.278398) pastri (4.236628) chocol (4.186688) egg (4.074571) 
poutin (6.426271) schwartz (5.992826) meat (5.946885) smoke (5.791243) gravi (5.418352) deli (5.357242) reuben (5.338270) banquis (5.315952) curd (5.312004) fri (4.762912) 
Error (train/valid/test) = 0.251870/1.426451/1.320655 (0.029551)
..................................................
energy after gradient step = 55617140.745298

Top words for each topic:
burger (5.163747) pho (4.629908) burrito (4.334043) joe (4.253411) cat (4.232729) steakhous (4.212953) steak (4.066750) gibbi (3.941056) bun (3.853787) souvlaki (3.568253) 
hotel (5.220091) room (4.661340) desk (4.348958) bed (4.199445) shower (4.192281) lobbi (4.106929) stay (3.901221) sleep (3.704045) tub (3.644816) bus (3.373370) 
massag (4.847529) bouncer (4.202171) spa (4.192865) yarn (4.146349) karaok (4.130797) song (4.129429) nail (4.120563) gate (4.021848) airport (4.017770) pizza (3.984439) 
une (3.780149) que (3.690094) je (3.627068) pas (3.616641) jai (3.595367) ce (3.571406) et (3.558191) mai (3.521375) quil (3.505424) qui (3.500479) 
pizza (4.566574) pub (4.496061) arepa (4.264834) italian (4.192552) cocktail (4.131594) pasta (4.108126) jazz (4.032824) pizzeria (4.013302) bartend (4.008162) scotch (3.900238) 
dumpl (3.729454) bagel (3.723050) chicken (3.538261) dish (3.419971) pork (3.350482) spici (3.310443) rice (3.244648) beef (3.227515) order (3.185329) noodl (3.153664) 
foie (6.548462) gras (6.358642) duck (5.772247) cochon (5.331528) wine (5.149791) church (5.062404) pie (4.964273) pdc (4.950856) bison (4.947135) tartar (4.907948) 
exhibit (5.629676) yoga (5.495546) magasin (5.379495) vtement (5.267020) macaron (5.182174) boutiqu (5.109850) biodom (4.980384) produit (4.913010) museum (4.905499) exposit (4.845294) 
cupcak (5.101355) crepe (4.845964) croissant (4.688145) latt (4.432116) bakeri (4.392899) coffe (4.317509) caf (4.294715) pastri (4.254100) chocol (4.221474) benedict (4.094157) 
poutin (6.423717) schwartz (6.040271) meat (6.015750) smoke (5.828040) gravi (5.456571) deli (5.401148) reuben (5.361730) banquis (5.322188) curd (5.319702) fri (4.833908) 
Error (train/valid/test) = 0.248540/1.429973/1.324202 (0.029629)
..................................................
energy after gradient step = 55552692.864455

Top words for each topic:
burger (5.249001) pho (4.650701) burrito (4.378336) joe (4.297080) cat (4.262495) steakhous (4.249449) steak (4.085138) gibbi (3.999036) bun (3.880754) patti (3.675543) 
hotel (5.201056) room (4.664720) desk (4.362429) shower (4.207899) bed (4.193056) lobbi (4.134675) stay (3.908295) sleep (3.678327) tub (3.632844) bus (3.360435) 
massag (4.864565) bouncer (4.279200) spa (4.216734) yarn (4.185080) karaok (4.153178) nail (4.143372) song (4.093915) gate (4.012313) pizza (3.948782) airport (3.931062) 
une (3.812047) que (3.714888) je (3.671872) pas (3.626965) jai (3.594580) et (3.582509) ce (3.579884) mai (3.547715) qui (3.540890) quil (3.522626) 
pizza (4.561724) pub (4.474444) arepa (4.230921) italian (4.199674) cocktail (4.167051) pasta (4.061711) bartend (4.039626) jazz (3.987327) pizzeria (3.967813) irish (3.870978) 
dumpl (3.743722) bagel (3.733729) chicken (3.581125) dish (3.432523) pork (3.377138) spici (3.322215) rice (3.268338) beef (3.250125) order (3.213226) noodl (3.175931) 
foie (6.542006) gras (6.340083) duck (5.757551) cochon (5.334180) wine (5.134526) church (5.013682) bison (4.965607) pdc (4.926775) pie (4.924067) tartar (4.907309) 
exhibit (5.659627) yoga (5.471702) magasin (5.398104) vtement (5.282622) macaron (5.171298) boutiqu (5.027228) biodom (5.007085) produit (4.972228) museum (4.948239) exposit (4.855799) 
cupcak (5.121626) crepe (4.852997) croissant (4.695233) latt (4.434108) bakeri (4.409737) caf (4.287304) coffe (4.280654) pastri (4.242576) chocol (4.214523) benedict (4.090817) 
poutin (6.409095) meat (6.081780) schwartz (6.046373) smoke (5.843548) gravi (5.491129) deli (5.428285) reuben (5.373560) banquis (5.336430) curd (5.309872) fri (4.888693) 
Error (train/valid/test) = 0.245279/1.432137/1.327765 (0.029718)
..................................................
energy after gradient step = 55503556.799810

Top words for each topic:
burger (5.294596) pho (4.736691) burrito (4.414107) cat (4.322422) joe (4.321733) steakhous (4.302158) steak (4.120508) gibbi (4.053851) bun (3.971779) souvlaki (3.613801) 
hotel (5.191250) room (4.659383) desk (4.374360) shower (4.195095) bed (4.157461) lobbi (4.133932) stay (3.895044) sleep (3.679394) tub (3.627791) bus (3.369544) 
massag (4.885836) bouncer (4.319372) spa (4.237094) yarn (4.205940) nail (4.143364) karaok (4.142694) song (4.075509) gate (4.036442) airport (3.968907) pizza (3.935742) 
une (3.843035) que (3.739559) je (3.651069) jai (3.623914) pas (3.616957) et (3.596012) ce (3.586565) mai (3.561536) qui (3.547281) ne (3.528501) 
pizza (4.558272) pub (4.451083) arepa (4.227821) italian (4.162864) cocktail (4.133390) pasta (4.074808) bartend (4.042915) jazz (4.034756) pizzeria (3.954480) irish (3.847046) 
dumpl (3.758886) bagel (3.737384) chicken (3.587923) dish (3.431940) pork (3.392950) spici (3.336441) rice (3.284412) beef (3.270321) order (3.199684) noodl (3.183818) 
foie (6.496074) gras (6.285096) duck (5.714745) cochon (5.293795) wine (5.119226) church (5.009399) bison (4.919581) pdc (4.915099) tartar (4.888402) pie (4.880004) 
exhibit (5.709935) yoga (5.506498) magasin (5.410644) vtement (5.315617) macaron (5.229708) boutiqu (5.105368) biodom (4.999496) produit (4.933603) museum (4.932967) exposit (4.887052) 
cupcak (5.126628) crepe (4.859937) croissant (4.715702) latt (4.458223) bakeri (4.399559) caf (4.333891) coffe (4.286983) pastri (4.254725) chocol (4.219854) benedict (4.128747) 
poutin (6.403738) meat (6.094765) schwartz (6.019352) smoke (5.838600) gravi (5.453671) deli (5.375146) banquis (5.361936) reuben (5.356833) curd (5.295198) fri (4.892878) 
Error (train/valid/test) = 0.242584/1.436226/1.331345 (0.029776)
..................................................
energy after gradient step = 55437342.087846

Top words for each topic:
burger (5.365983) pho (4.764152) burrito (4.501743) joe (4.373331) cat (4.359669) steakhous (4.348211) steak (4.192875) gibbi (4.100687) bun (4.061740) patti (3.728094) 
hotel (5.177254) room (4.672977) desk (4.378390) shower (4.231065) bed (4.173925) lobbi (4.147545) stay (3.879255) sleep (3.686439) tub (3.680062) bus (3.347062) 
massag (4.900792) bouncer (4.318232) spa (4.304436) yarn (4.215082) karaok (4.181333) nail (4.169384) song (4.099221) gate (4.045867) airport (4.010408) brewpub (3.892963) 
une (3.840717) que (3.769330) je (3.694016) jai (3.650563) pas (3.631613) et (3.619132) ce (3.611797) qui (3.577854) mai (3.558719) ne (3.550826) 
pizza (4.544498) pub (4.431042) arepa (4.237096) italian (4.165364) cocktail (4.148236) pasta (4.075525) bartend (4.044479) jazz (3.994142) pizzeria (3.959490) scotch (3.875765) 
dumpl (3.773941) bagel (3.733616) chicken (3.603698) dish (3.440421) pork (3.406467) spici (3.360233) rice (3.309671) beef (3.292866) order (3.223281) noodl (3.199402) 
foie (6.488663) gras (6.271163) duck (5.703857) cochon (5.265281) wine (5.113001) church (4.950945) bison (4.929973) pdc (4.894925) lobster (4.867433) tartar (4.854895) 
exhibit (5.724554) yoga (5.557456) magasin (5.469088) vtement (5.353016) macaron (5.178609) boutiqu (5.136180) museum (5.041074) produit (5.008078) biodom (5.007924) exposit (4.922397) 
cupcak (5.144381) crepe (4.862298) croissant (4.737034) latt (4.470984) bakeri (4.435569) caf (4.322931) coffe (4.300586) pastri (4.283974) chocol (4.227739) benedict (4.137117) 
poutin (6.441953) meat (6.139656) schwartz (6.088584) smoke (5.849868) gravi (5.477764) deli (5.448346) banquis (5.420948) curd (5.368460) reuben (5.366466) fri (4.906013) 
Error (train/valid/test) = 0.239264/1.440989/1.335466 (0.029862)
..................................................
energy after gradient step = 55390628.149265

Top words for each topic:
burger (5.389049) pho (4.843654) burrito (4.499645) joe (4.403749) steakhous (4.397496) cat (4.385990) steak (4.223668) gibbi (4.129750) bun (4.082841) patti (3.786631) 
hotel (5.151220) room (4.666366) desk (4.393696) shower (4.225535) lobbi (4.171223) bed (4.138491) stay (3.886237) sleep (3.700450) tub (3.670027) bus (3.381781) 
massag (4.934185) bouncer (4.341095) spa (4.330322) yarn (4.230625) karaok (4.172084) nail (4.141015) song (4.072914) gate (4.054194) airport (3.943626) brewpub (3.904365) 
une (3.870199) que (3.799693) je (3.735479) jai (3.671789) pas (3.655072) et (3.642343) ce (3.612175) mai (3.586387) qui (3.575432) ne (3.560484) 
pizza (4.548876) pub (4.438273) arepa (4.243375) italian (4.165000) cocktail (4.126906) jazz (4.016782) bartend (3.999077) pasta (3.960145) pizzeria (3.958882) scotch (3.894831) 
dumpl (3.788583) bagel (3.730314) chicken (3.603667) dish (3.433930) pork (3.411609) spici (3.372891) rice (3.326334) beef (3.292966) order (3.224231) noodl (3.213352) 
foie (6.466008) gras (6.238662) duck (5.684208) cochon (5.252989) wine (5.094205) church (4.934450) lobster (4.899174) bison (4.883870) pdc (4.882386) tartar (4.854186) 
exhibit (5.715989) yoga (5.563659) magasin (5.475781) vtement (5.378897) macaron (5.214452) boutiqu (5.153062) biodom (5.048106) museum (5.038596) produit (5.028174) exposit (4.956952) 
cupcak (5.157437) crepe (4.866248) croissant (4.730602) latt (4.482382) bakeri (4.446165) caf (4.325451) coffe (4.301319) pastri (4.290509) chocol (4.239152) benedict (4.126259) 
poutin (6.433624) meat (6.144719) schwartz (6.060859) smoke (5.826915) gravi (5.531213) deli (5.419836) banquis (5.399804) reuben (5.372390) curd (5.369431) fri (4.900702) 
Error (train/valid/test) = 0.236927/1.443946/1.337635 (0.029920)
..................................................
energy after gradient step = 55357218.264279

Top words for each topic:
burger (5.436724) pho (4.828135) burrito (4.537088) steakhous (4.425472) cat (4.402882) joe (4.396010) steak (4.257012) gibbi (4.171666) bun (4.145073) patti (3.788842) 
hotel (5.131969) room (4.661961) desk (4.384757) shower (4.247014) lobbi (4.172983) bed (4.167403) stay (3.898700) sleep (3.713813) tub (3.685762) bus (3.351507) 
massag (4.962330) bouncer (4.371523) spa (4.346510) yarn (4.242234) karaok (4.186359) nail (4.171368) gate (4.086231) song (4.082546) airport (3.954800) brewpub (3.908060) 
une (3.916826) que (3.800153) je (3.726439) jai (3.685792) pas (3.676827) et (3.664806) ce (3.638356) qui (3.605299) ne (3.569672) mai (3.567279) 
pizza (4.557060) pub (4.397903) arepa (4.208087) italian (4.165985) cocktail (4.055538) bartend (4.011208) pasta (4.009405) pizzeria (3.975858) jazz (3.951022) scotch (3.901959) 
dumpl (3.798843) bagel (3.726595) chicken (3.630978) dish (3.431663) pork (3.424811) spici (3.381173) rice (3.340594) beef (3.306737) noodl (3.229725) order (3.210033) 
foie (6.456012) gras (6.220721) duck (5.667707) cochon (5.236128) wine (5.101581) church (4.925357) lobster (4.892100) pdc (4.877429) bison (4.864931) dish (4.851132) 
exhibit (5.765029) yoga (5.597909) magasin (5.491443) vtement (5.407330) macaron (5.183253) boutiqu (5.136414) biodom (5.082834) museum (5.049095) produit (5.032726) exposit (4.990950) 
cupcak (5.142594) crepe (4.842389) croissant (4.746142) latt (4.461421) bakeri (4.439378) caf (4.323848) coffe (4.285314) pastri (4.248766) chocol (4.244900) benedict (4.164532) 
poutin (6.452009) meat (6.158502) schwartz (6.089717) smoke (5.845453) gravi (5.486629) deli (5.451992) banquis (5.450309) reuben (5.403279) curd (5.372035) fri (4.993826) 
Error (train/valid/test) = 0.234555/1.447054/1.340036 (0.029967)
..................................................
energy after gradient step = 55320718.786059

Top words for each topic:
burger (5.457639) pho (4.918894) burrito (4.580018) steakhous (4.459524) cat (4.412709) joe (4.356627) steak (4.287235) gibbi (4.190227) bun (4.090259) patti (3.842309) 
hotel (5.129730) room (4.675902) desk (4.401177) shower (4.245228) lobbi (4.182694) bed (4.129295) stay (3.870333) sleep (3.700186) tub (3.651418) bus (3.343931) 
massag (4.937945) bouncer (4.423977) spa (4.343178) yarn (4.278861) karaok (4.224328) nail (4.169252) song (4.083864) gate (4.068616) airport (4.024509) brewpub (3.940090) 
une (3.909990) que (3.822745) je (3.747370) jai (3.704080) pas (3.687486) et (3.660406) ce (3.639150) mai (3.622327) qui (3.611337) ne (3.578955) 
pizza (4.550220) pub (4.430586) arepa (4.188254) italian (4.158732) cocktail (4.136146) bartend (4.006918) pasta (3.997921) pizzeria (3.948789) jazz (3.922201) scotch (3.912526) 
dumpl (3.813818) bagel (3.721392) chicken (3.642054) pork (3.449571) dish (3.441301) spici (3.402157) rice (3.360012) beef (3.320387) noodl (3.247721) order (3.235208) 
foie (6.447645) gras (6.207151) duck (5.661035) cochon (5.228425) wine (5.063037) lobster (4.940819) dish (4.875169) pdc (4.860749) tartar (4.860306) church (4.847970) 
exhibit (5.791921) yoga (5.617054) magasin (5.532138) vtement (5.443527) macaron (5.245775) boutiqu (5.166274) biodom (5.128220) museum (5.065812) produit (5.031368) exposit (5.017924) 
cupcak (5.174211) crepe (4.844616) croissant (4.752838) latt (4.488046) bakeri (4.466174) caf (4.323806) coffe (4.281383) pastri (4.279623) chocol (4.252731) benedict (4.172037) 
poutin (6.421749) meat (6.164473) schwartz (6.069626) smoke (5.835644) gravi (5.546901) banquis (5.458349) deli (5.438131) reuben (5.388248) curd (5.362971) pastrami (5.022529) 
Error (train/valid/test) = 0.231888/1.450589/1.342577 (0.030045)
