corpus = data_edin.gz
latentReg = 0.000000
lambda = 4.000000
K = 5

nUsers = 3150, nItems = 2941, nRatings = 23780

Error w/ offset term only (train/valid/test) = 1.016008/1.045332/1.041079 (0.032906)
Error w/ offset and bias (train/valid/test) = 0.526098/0.875884/0.856607 (0.029552)

..................................................
energy after gradient step = 61000873.655126

Top words for each topic:
cannot (0.581073) mess (0.571220) entri (0.542247) du (0.538116) split (0.525358) layer (0.512347) utter (0.503934) que (0.493197) aspect (0.483547) attend (0.480809) 
million (0.605389) cave (0.534005) sock (0.528765) hangov (0.517893) queen (0.504119) petit (0.494983) microwav (0.492786) necklac (0.480777) blind (0.470709) galleri (0.445964) 
expert (0.614187) belt (0.549698) volum (0.532739) anywher (0.524853) earth (0.489598) awar (0.487676) cow (0.479138) chop (0.472952) heavi (0.464836) fool (0.453744) 
steep (0.578603) noisi (0.568121) measur (0.562595) detail (0.542429) drunken (0.471451) partial (0.469902) fillet (0.466623) breath (0.463002) villag (0.456249) vanilla (0.454734) 
tequila (0.475231) intimid (0.462399) luxuri (0.460155) basement (0.451167) jack (0.447150) russian (0.436062) realiti (0.431863) squeez (0.431840) ran (0.425054) satisfact (0.422882) 
Error (train/valid/test) = 0.793901/0.917057/0.893249 (0.030358)
..................................................
energy after gradient step = 60914225.733455

Top words for each topic:
biryani (1.105105) dodgi (1.048691) stream (0.994980) nicht (0.951102) haircut (0.897750) caffein (0.886050) statu (0.884681) firth (0.792000) wilt (0.774658) itison (0.770897) 
mex (1.035997) lifetim (0.939885) necklac (0.900690) plush (0.893666) toiletri (0.889958) nightclub (0.860813) perus (0.848759) el (0.831543) million (0.828550) rack (0.808944) 
physic (0.957543) tie (0.953657) peel (0.930306) groupon (0.884356) g (0.827044) starv (0.821169) suffer (0.818821) dive (0.811284) 23 (0.807566) leaf (0.803549) 
sake (1.038934) souvenir (0.949549) miso (0.872328) jalapeno (0.853239) golf (0.846262) halloween (0.841527) cucumb (0.819473) ace (0.815827) palat (0.809826) ravioli (0.801760) 
extent (1.011481) mid (0.998468) twenti (0.970523) upgrad (0.926710) mr (0.926443) snow (0.898506) balsam (0.889184) modest (0.848919) connoisseur (0.839099) tasteless (0.802865) 
Error (train/valid/test) = 0.652001/0.871746/0.838056 (0.029155)
..................................................
energy after gradient step = 60848415.778478

Top words for each topic:
plethora (1.253227) sage (1.191116) largest (1.127485) clerk (1.089578) nativ (1.070840) crawl (1.069527) dodgi (1.064469) nicht (1.053748) caff (1.053121) copi (1.050722) 
nightclub (1.395386) microwav (1.192564) million (1.192462) hide (1.149901) checkin (1.141434) southern (1.141028) petit (1.110190) lifetim (1.104866) scoop (1.089039) queensferri (1.079912) 
peel (1.311313) leaf (1.266651) grape (1.264470) nero (1.242108) trick (1.216287) masala (1.108906) aroma (1.092422) sich (1.050753) tie (1.037695) guac (1.026526) 
ravioli (1.289991) newsag (1.170453) sundri (1.125851) handbag (1.075667) pic (1.068157) juli (1.065112) shini (1.062396) halloween (1.036851) maxx (1.035214) henri (1.015408) 
upgrad (1.196940) hake (1.137704) modest (1.119476) rotat (1.112009) execut (1.109904) 19 (1.066858) splash (1.039847) thrill (1.035925) cockburn (1.033424) cooki (1.015689) 
Error (train/valid/test) = 0.591927/0.862176/0.829542 (0.029021)
..................................................
energy after gradient step = 60792561.184750

Top words for each topic:
dodgi (1.323643) clerk (1.301364) sage (1.241001) cocoa (1.208891) aussi (1.194347) largest (1.140942) william (1.135635) plethora (1.134456) dosa (1.126783) clock (1.122326) 
nightclub (1.418721) makeup (1.350518) missoni (1.190815) scoop (1.186830) tvs (1.183672) apologet (1.178812) million (1.155386) confid (1.152899) petit (1.151437) checkin (1.150462) 
peel (1.467832) costa (1.288635) greedi (1.263016) guac (1.255332) leaf (1.238794) grape (1.198163) cloister (1.186921) aroma (1.133287) chandeli (1.109395) lobster (1.099256) 
juli (1.462057) halloween (1.328946) shini (1.280693) ravioli (1.160828) pic (1.160234) social (1.158351) seri (1.157378) handbag (1.120715) function (1.120046) maxx (1.111023) 
execut (1.346342) travers (1.316310) upgrad (1.294380) splash (1.268829) 19 (1.233442) tent (1.223630) attach (1.198863) crab (1.178644) brais (1.160082) appli (1.126709) 
Error (train/valid/test) = 0.565563/0.863913/0.830718 (0.029176)
..................................................
energy after gradient step = 60740889.260154

Top words for each topic:
clerk (1.498561) clock (1.416961) dodgi (1.313640) mouthwat (1.287465) sexi (1.252277) therefor (1.249839) cigar (1.234337) employe (1.212620) layer (1.196091) david (1.194089) 
nightclub (1.479050) petit (1.350060) dissapoint (1.299583) piano (1.298897) ha (1.297352) unlimit (1.284393) mamma (1.274990) condiment (1.267281) expos (1.262069) el (1.258022) 
leaf (1.437530) grape (1.347737) peel (1.325872) costa (1.319395) guac (1.317517) lemongrass (1.313525) cloister (1.261191) tacki (1.255811) labyrinth (1.239379) expert (1.225089) 
juli (1.649522) henri (1.502897) halloween (1.347269) task (1.345383) devour (1.324881) spiral (1.300724) social (1.260750) shini (1.248595) specifi (1.243373) scotmid (1.225453) 
travers (1.494105) tent (1.424587) crab (1.399965) swedish (1.393022) upgrad (1.363556) brais (1.356236) resist (1.318396) cockburn (1.295872) jack (1.215994) song (1.208746) 
Error (train/valid/test) = 0.541248/0.870699/0.833759 (0.029432)
..................................................
energy after gradient step = 60688460.924372

Top words for each topic:
clock (1.618475) clerk (1.498705) dosa (1.422150) divers (1.410283) oink (1.333631) layer (1.308880) largest (1.308092) cigar (1.303047) bustl (1.301383) mouthwat (1.301380) 
makeup (1.532935) unlimit (1.521090) petit (1.488759) nightclub (1.419638) hippi (1.402365) mismatch (1.383685) player (1.336765) kirk (1.332337) missoni (1.320050) korma (1.309478) 
costa (1.596887) peel (1.510938) aroma (1.477037) tuk (1.313574) mosqu (1.309468) labyrinth (1.308550) switch (1.305143) expert (1.286217) lemongrass (1.278446) tacki (1.276052) 
task (1.671592) driver (1.455801) henri (1.414446) tonight (1.409068) dim (1.403440) devour (1.395138) googl (1.388010) biblo (1.355081) jalapeno (1.345253) tikka (1.338402) 
upgrad (1.560683) crab (1.528677) swedish (1.514902) tequila (1.360947) 35 (1.353620) discuss (1.328660) tent (1.324607) basement (1.318815) besid (1.310577) blow (1.292125) 
Error (train/valid/test) = 0.520167/0.879208/0.837280 (0.029531)
..................................................
energy after gradient step = 60633546.524185

Top words for each topic:
dosa (1.617361) clerk (1.528382) parmesan (1.518734) clock (1.490280) turf (1.439390) divers (1.404363) sub (1.402616) layer (1.383343) insist (1.359515) mouthwat (1.355371) 
unlimit (1.627661) caramelis (1.582134) nightclub (1.565453) makeup (1.532899) korma (1.490660) checkin (1.470848) plant (1.420014) england (1.385527) kirk (1.380721) grubbi (1.378493) 
costa (1.824846) tuk (1.533843) peel (1.524742) expert (1.509229) tacki (1.454959) demonstr (1.435305) toll (1.426706) au (1.410447) shes (1.399934) influenc (1.379414) 
task (1.670629) driver (1.620014) henri (1.609574) tonight (1.569547) dim (1.554992) juli (1.451353) jalapeno (1.419608) handbag (1.382876) linger (1.372585) googl (1.367239) 
upgrad (1.674459) crab (1.672550) travers (1.603676) tent (1.498245) jack (1.469902) discuss (1.469506) due (1.463688) kilt (1.440341) tequila (1.435405) greek (1.410647) 
Error (train/valid/test) = 0.504430/0.883812/0.844852 (0.029810)
..................................................
energy after gradient step = 60582186.536539

Top words for each topic:
dosa (1.601436) clerk (1.594212) stream (1.523374) clock (1.518208) layer (1.486876) canal (1.464496) mouthwat (1.430530) vin (1.422385) mayo (1.415400) parmesan (1.399670) 
makeup (1.687602) caramelis (1.664146) nightclub (1.608888) england (1.596533) earthi (1.564454) blind (1.547326) plush (1.535318) expos (1.521912) foam (1.520875) botan (1.504986) 
costa (2.010590) demonstr (1.625407) nando (1.621843) aroma (1.551099) tuk (1.546551) massag (1.539375) expert (1.516697) earth (1.514333) peel (1.494847) crime (1.486918) 
henri (1.716489) driver (1.654918) specifi (1.622079) dim (1.534752) tonight (1.530927) jalapeno (1.509590) linger (1.482949) task (1.448414) spark (1.445676) scotmid (1.444473) 
travers (1.663747) discuss (1.620575) crab (1.575938) kilt (1.540058) jack (1.525504) due (1.512846) broth (1.471338) russian (1.434242) upgrad (1.433433) tent (1.433089) 
Error (train/valid/test) = 0.491178/0.887558/0.853317 (0.030000)
..................................................
energy after gradient step = 60522190.185332

Top words for each topic:
cigar (1.752270) layer (1.622752) malon (1.596336) stream (1.549853) dosa (1.537193) clerk (1.486998) buddi (1.484891) canal (1.425256) towel (1.408807) dot (1.408106) 
hilton (1.699158) nightclub (1.641044) unlimit (1.640177) makeup (1.636331) korma (1.617887) botan (1.615684) plant (1.592403) tout (1.571767) blind (1.564084) hippi (1.550510) 
costa (2.189471) massag (1.771829) tuk (1.735339) chow (1.689026) urban (1.644129) aroma (1.634759) influenc (1.597750) peel (1.597452) leaf (1.576677) mosqu (1.560070) 
dim (1.809082) cat (1.785152) specifi (1.725247) henri (1.718751) tonight (1.663187) scotmid (1.648198) driver (1.634184) beam (1.542732) juli (1.523211) nichol (1.519104) 
travers (1.856595) crab (1.656494) execut (1.624754) discuss (1.607507) due (1.593266) kilt (1.582560) basement (1.570191) hmv (1.568067) tequila (1.544131) russian (1.533432) 
Error (train/valid/test) = 0.477596/0.894170/0.860048 (0.030396)
..................................................
energy after gradient step = 60449915.493162

Top words for each topic:
dosa (1.807978) cigar (1.750690) malon (1.721510) layer (1.688054) canal (1.606739) parmesan (1.579451) camp (1.566648) statu (1.556566) mayo (1.549306) clerk (1.539092) 
unlimit (1.862425) botan (1.756845) tout (1.745122) nightclub (1.729199) makeup (1.714803) england (1.688791) hilton (1.676172) mamma (1.673469) hippi (1.646516) mediocr (1.645448) 
costa (2.231334) tuk (1.934760) massag (1.900809) mosqu (1.736520) expert (1.699086) monkey (1.697598) chow (1.668952) peel (1.640473) urban (1.623690) nando (1.619976) 
henri (1.955939) cat (1.885902) driver (1.830695) dim (1.769757) specifi (1.742977) scotmid (1.688589) golf (1.647309) juli (1.606713) tonight (1.579627) haddock (1.556214) 
travers (1.911682) execut (1.750989) hmv (1.726827) kilt (1.689000) crab (1.688961) rack (1.663251) jack (1.629638) tie (1.616229) o (1.600852) inexpens (1.579125) 
Error (train/valid/test) = 0.467731/0.901486/0.864104 (0.030706)
..................................................
energy after gradient step = 60376401.196003

Top words for each topic:
cigar (1.908030) malon (1.834533) dosa (1.813749) canal (1.811636) parmesan (1.730553) layer (1.691511) oink (1.682789) stream (1.617461) burn (1.568959) statu (1.543332) 
makeup (1.910170) plant (1.782639) missoni (1.727123) botan (1.716725) yarn (1.694545) banger (1.679328) england (1.676332) hilton (1.664898) museum (1.657113) petit (1.647246) 
costa (2.313329) massag (2.051169) tuk (1.898486) mosqu (1.889412) monkey (1.866572) aroma (1.860489) chow (1.745232) influenc (1.655230) brass (1.649027) peel (1.623572) 
cat (2.131072) henri (2.031912) scotmid (1.872526) driver (1.858931) golf (1.854703) dim (1.757003) 9a (1.636744) shini (1.633744) haddock (1.633217) tonight (1.627235) 
travers (1.888148) crab (1.798484) tie (1.767741) due (1.754829) o (1.733836) hmv (1.676544) peanut (1.654400) scotsman (1.652513) basement (1.645223) pas (1.643551) 
Error (train/valid/test) = 0.458995/0.904314/0.868213 (0.030963)
..................................................
energy after gradient step = 60294126.258086

Top words for each topic:
cigar (2.086331) oink (1.847347) dosa (1.815366) malon (1.788572) statu (1.739414) layer (1.723071) record (1.710398) buddi (1.682317) canal (1.669855) buffalo (1.669420) 
botan (2.086566) makeup (1.948089) plant (1.900299) galleri (1.873546) yarn (1.873283) museum (1.845684) banger (1.825888) hippi (1.794586) missoni (1.786507) petit (1.741652) 
costa (2.400146) massag (2.182517) monkey (2.043189) tuk (2.030938) mosqu (1.948416) chow (1.762522) urban (1.759620) expert (1.709313) brass (1.692239) peel (1.691981) 
henri (2.092928) scotmid (2.001370) cat (1.979025) driver (1.918728) golf (1.884617) dim (1.840891) shini (1.735242) earring (1.667148) biblo (1.659409) haddock (1.655300) 
travers (1.978091) fudg (1.956242) hmv (1.903748) tour (1.835863) o (1.823512) pretend (1.804595) kilt (1.787692) pas (1.774290) tie (1.769676) les (1.733716) 
Error (train/valid/test) = 0.452612/0.910872/0.872796 (0.031133)
..................................................
energy after gradient step = 60202638.681053

Top words for each topic:
cigar (2.173786) record (1.906995) malon (1.888619) nail (1.881214) oink (1.842486) canal (1.808626) wing (1.775704) lavend (1.770922) dosa (1.729471) smith (1.694530) 
botan (2.135286) galleri (2.048257) plant (1.997481) museum (1.982819) yarn (1.881559) fool (1.851469) petit (1.838312) missoni (1.836346) tout (1.834177) dean (1.833039) 
costa (2.356045) massag (2.296618) monkey (2.034950) mosqu (2.022827) tuk (2.007523) hog (1.806865) brass (1.771619) leaf (1.762063) chow (1.741496) partak (1.711383) 
cat (2.178039) henri (2.092072) driver (2.050372) dim (2.010598) scotmid (1.979444) golf (1.915952) pumpkin (1.746933) earring (1.718065) pate (1.693962) handbag (1.681663) 
fudg (2.247544) tour (2.063058) travers (1.992262) hmv (1.976613) tie (1.939069) pas (1.888845) le (1.886825) pretend (1.861223) o (1.851810) nous (1.808371) 
Error (train/valid/test) = 0.446282/0.915027/0.876546 (0.031298)
..................................................
energy after gradient step = 60091553.533749

Top words for each topic:
cigar (2.198877) record (2.117143) oink (2.028778) malon (1.939943) nail (1.885593) wing (1.852743) cult (1.796197) canal (1.791551) bookshop (1.738707) smith (1.717606) 
galleri (2.345501) museum (2.203399) plant (2.097721) botan (2.096321) unlimit (1.947555) fool (1.940982) yarn (1.922816) yacht (1.886559) ikea (1.874150) dean (1.871152) 
costa (2.412916) massag (2.329979) monkey (2.140433) tuk (2.125196) mosqu (2.103781) thai (1.911025) hog (1.823128) brass (1.807156) nando (1.787930) kebab (1.769837) 
cat (2.274911) henri (2.184957) scotmid (2.181223) driver (2.071542) golf (1.984098) dim (1.962482) handbag (1.921493) crolla (1.828518) stationari (1.810954) biblo (1.765774) 
tour (2.458552) fudg (2.420379) nous (2.119838) le (2.111323) travers (1.989911) hmv (1.945848) pas (1.945289) et (1.944352) russian (1.928201) o (1.883920) 
Error (train/valid/test) = 0.441045/0.916566/0.881187 (0.031604)
..................................................
energy after gradient step = 59937738.380276

Top words for each topic:
cigar (2.278342) record (2.207992) oink (2.116999) wing (2.064408) nail (2.053413) malon (1.982481) canal (1.949228) bookshop (1.817825) cult (1.809752) na (1.728149) 
galleri (2.543366) museum (2.501419) plant (2.353624) botan (2.252993) fool (2.216549) bobbi (2.128427) makeup (2.094379) yacht (2.047710) nightclub (2.042369) knit (2.029261) 
massag (2.367693) costa (2.362529) mosqu (2.226713) monkey (2.194552) thai (2.121080) tuk (2.041540) curri (2.033625) brass (1.976549) kebab (1.923140) chow (1.864310) 
cat (2.407432) henri (2.272987) driver (2.248805) scotmid (2.169497) golf (2.070452) stationari (2.039430) vintag (2.024703) dim (1.997551) handbag (1.977816) pink (1.949008) 
tour (2.885715) fudg (2.564824) et (2.269161) nous (2.196112) le (2.190606) travers (2.145601) hmv (2.075215) russian (2.058111) underground (2.045517) pas (2.037265) 
Error (train/valid/test) = 0.434844/0.916052/0.884566 (0.031886)
..................................................
energy after gradient step = 59730306.265805

Top words for each topic:
cigar (2.457370) record (2.298160) oink (2.207210) nail (2.166322) wing (2.109246) canal (1.928981) malon (1.919138) bookshop (1.908527) crawl (1.874672) footbal (1.831481) 
museum (2.767772) galleri (2.758398) botan (2.476948) plant (2.393179) fool (2.189481) exhibit (2.188182) yarn (2.166649) makeup (2.144315) pitch (2.142006) yacht (2.114472) 
curri (2.451853) costa (2.394380) thai (2.359279) massag (2.335882) monkey (2.223367) mosqu (2.198447) kebab (2.134672) tuk (2.100493) naan (2.062015) brass (2.041267) 
cat (2.577475) henri (2.373303) scotmid (2.333865) driver (2.238429) golf (2.142833) stationari (2.083443) vintag (2.070805) tattoo (2.061140) jewelleri (2.053105) handbag (2.037720) 
tour (3.249495) fudg (2.745551) le (2.388532) et (2.326987) nous (2.282653) pas (2.244551) guid (2.232028) o (2.215443) travers (2.213646) underground (2.190025) 
Error (train/valid/test) = 0.430874/0.923287/0.889179 (0.032193)
..................................................
energy after gradient step = 59464529.549196

Top words for each topic:
cigar (2.460678) record (2.457837) wing (2.242520) oink (2.227243) nail (2.135105) malon (2.000869) smith (1.941504) canal (1.933769) footbal (1.908090) sport (1.907273) 
museum (2.995092) galleri (2.856768) botan (2.431463) plant (2.426091) exhibit (2.396851) unlimit (2.236931) mexican (2.225378) yarn (2.223879) pitch (2.201026) fool (2.195308) 
curri (2.660891) thai (2.557572) massag (2.516120) pizza (2.423617) costa (2.380932) mosqu (2.309654) monkey (2.248435) kebab (2.244637) naan (2.114242) tuk (2.100569) 
cat (2.559550) scotmid (2.410967) stationari (2.379261) driver (2.331768) henri (2.311196) jewelleri (2.283242) vintag (2.272158) golf (2.161732) crolla (2.116565) handbag (2.113923) 
tour (3.469191) fudg (2.862450) et (2.547368) le (2.475324) guid (2.417955) nous (2.409197) theatr (2.394531) russian (2.361077) underground (2.328250) hmv (2.282832) 
Error (train/valid/test) = 0.428815/0.923896/0.893088 (0.032409)
..................................................
energy after gradient step = 59149980.557623

Top words for each topic:
cigar (2.540346) wing (2.403889) record (2.293993) oink (2.273787) nail (2.168791) ale (2.140849) vodka (2.082451) malon (2.052632) sport (2.043587) lager (2.036073) 
museum (3.112097) galleri (3.026282) plant (2.620778) exhibit (2.599531) botan (2.470949) mexican (2.415743) bagel (2.371608) yarn (2.314265) bobbi (2.305649) unlimit (2.294060) 
curri (2.852773) pizza (2.755969) thai (2.730787) massag (2.479261) costa (2.388616) kebab (2.351703) monkey (2.301151) mosqu (2.263983) naan (2.236936) prawn (2.156534) 
cat (2.661326) jewelleri (2.507406) henri (2.451067) scotmid (2.438955) stationari (2.428801) driver (2.419512) vintag (2.347745) golf (2.254203) dim (2.170962) handbag (2.153012) 
tour (3.662417) fudg (2.963621) le (2.679194) guid (2.584958) theatr (2.529699) et (2.506324) nous (2.498323) les (2.455569) underground (2.455135) hmv (2.441820) 
Error (train/valid/test) = 0.426501/0.925121/0.896309 (0.032691)
..................................................
energy after gradient step = 58766588.389976

Top words for each topic:
cigar (2.512210) wing (2.429069) record (2.360163) ale (2.347233) oink (2.334077) whiski (2.266806) nail (2.194614) vodka (2.134044) footbal (2.095437) canal (2.070243) 
museum (3.306615) galleri (3.132768) exhibit (2.725663) plant (2.669089) mexican (2.603856) botan (2.547373) bagel (2.516975) burrito (2.422057) pitch (2.414363) toy (2.370092) 
curri (2.918168) pizza (2.861320) thai (2.809837) massag (2.470367) kebab (2.404743) costa (2.355482) mosqu (2.302039) indian (2.277752) prawn (2.241246) starter (2.213760) 
cat (2.687378) jewelleri (2.668760) stationari (2.517409) henri (2.499295) scotmid (2.457549) vintag (2.431727) shoe (2.418836) driver (2.371513) accessori (2.250080) handbag (2.223818) 
tour (3.762668) fudg (3.043078) theatr (2.741955) le (2.736575) et (2.712543) guid (2.669949) underground (2.567833) nous (2.559299) hmv (2.539401) les (2.509585) 
Error (train/valid/test) = 0.426803/0.927280/0.896365 (0.032671)
..................................................
energy after gradient step = 58298823.126326

Top words for each topic:
cigar (2.560250) ale (2.553912) pub (2.492965) whiski (2.451351) wing (2.446197) record (2.413419) oink (2.354203) vodka (2.206173) canal (2.189750) footbal (2.182803) 
museum (3.415206) galleri (3.204438) exhibit (2.903586) plant (2.738866) mexican (2.728283) botan (2.638870) bagel (2.635701) toy (2.566601) burrito (2.554830) pitch (2.521398) 
curri (3.015797) pizza (2.982740) thai (2.871653) kebab (2.509166) starter (2.466033) massag (2.461287) indian (2.416594) dish (2.348846) naan (2.338977) prawn (2.334816) 
jewelleri (2.797395) cat (2.774079) shoe (2.611338) stationari (2.572755) scotmid (2.540657) henri (2.461578) vintag (2.407695) accessori (2.393868) driver (2.390153) store (2.331968) 
tour (3.914909) fudg (3.171974) theatr (2.939485) le (2.848597) guid (2.788846) et (2.780451) nous (2.659779) underground (2.643787) les (2.639231) hill (2.602956) 
Error (train/valid/test) = 0.426661/0.930492/0.896350 (0.032740)
..................................................
energy after gradient step = 57752587.403754

Top words for each topic:
pub (2.842633) ale (2.711466) whiski (2.699927) cigar (2.613325) bar (2.532761) record (2.490156) beer (2.484265) pint (2.483413) wing (2.400215) vodka (2.340812) 
museum (3.628199) galleri (3.375083) exhibit (3.129338) mexican (2.940228) plant (2.916092) botan (2.858926) bagel (2.846362) pitch (2.751332) burrito (2.708409) bobbi (2.669734) 
pizza (3.168108) curri (3.126510) thai (2.928622) dish (2.926812) starter (2.694031) sauc (2.614178) indian (2.602180) chicken (2.578021) kebab (2.556130) chines (2.459205) 
jewelleri (2.959949) cat (2.810174) shoe (2.764869) stationari (2.755059) store (2.676991) henri (2.574093) vintag (2.574046) scotmid (2.572751) accessori (2.541618) sale (2.541500) 
tour (4.076715) fudg (3.310542) theatr (3.104834) le (3.024602) guid (2.947179) et (2.916251) underground (2.835668) nous (2.818197) hmv (2.757430) les (2.747134) 
Error (train/valid/test) = 0.424944/0.931643/0.897572 (0.032883)
..................................................
energy after gradient step = 57142825.999952

Top words for each topic:
pub (3.316539) ale (2.911271) whiski (2.886746) beer (2.765512) bar (2.745370) pint (2.716767) cigar (2.629461) record (2.569888) oink (2.450453) sport (2.413048) 
museum (3.795552) galleri (3.622375) exhibit (3.313025) mexican (3.162212) bagel (2.994916) plant (2.959223) botan (2.921755) pitch (2.834113) burrito (2.821827) bobbi (2.806322) 
pizza (3.268255) curri (3.174588) dish (3.143510) thai (3.020009) restaur (2.928893) sauc (2.874937) starter (2.838105) chicken (2.813308) indian (2.726701) rice (2.608618) 
jewelleri (3.163518) store (2.984678) shoe (2.964644) cat (2.949575) stationari (2.818963) sale (2.743532) stock (2.740773) shop (2.725039) accessori (2.718518) vintag (2.700660) 
tour (4.264174) fudg (3.486005) theatr (3.302421) le (3.145656) guid (3.067816) et (3.038531) underground (2.940219) nous (2.938538) hill (2.938461) les (2.938457) 
Error (train/valid/test) = 0.424673/0.930727/0.897278 (0.032890)
..................................................
energy after gradient step = 56578028.100617

Top words for each topic:
pub (3.580786) whiski (3.019736) beer (3.007114) ale (3.006694) bar (2.993730) pint (2.856784) cigar (2.653355) record (2.604240) vodka (2.513607) sport (2.461923) 
museum (4.013872) galleri (3.695425) exhibit (3.533957) mexican (3.381686) bagel (3.170375) plant (3.138138) burrito (3.089845) botan (2.997498) pitch (2.988764) bobbi (2.918876) 
dish (3.322518) pizza (3.311963) curri (3.228009) restaur (3.110247) thai (3.055898) starter (2.939566) sauc (2.907875) chicken (2.898949) indian (2.805452) rice (2.734762) 
jewelleri (3.269869) store (3.246967) shoe (3.072583) shop (3.036332) stock (2.921415) sale (2.916481) cat (2.889676) stationari (2.849745) bike (2.802297) vintag (2.780374) 
tour (4.364390) fudg (3.580771) theatr (3.425962) le (3.306246) guid (3.245221) et (3.178687) underground (3.058787) hill (3.053011) hmv (3.011829) que (3.000376) 
Error (train/valid/test) = 0.424154/0.932226/0.897569 (0.032925)
..................................................
energy after gradient step = 56065898.525111

Top words for each topic:
pub (3.780653) beer (3.230619) bar (3.227221) whiski (3.171329) ale (3.143675) pint (2.981059) cigar (2.705846) vodka (2.537866) record (2.530945) burger (2.499182) 
museum (4.186799) galleri (3.875390) exhibit (3.677102) mexican (3.521440) burrito (3.297584) plant (3.286784) bagel (3.251552) botan (3.205548) bobbi (3.114318) pitch (3.095305) 
dish (3.431171) pizza (3.324977) restaur (3.294346) curri (3.253714) thai (3.083759) starter (3.020009) sauc (3.004674) chicken (2.975504) meal (2.912181) indian (2.861112) 
store (3.520664) jewelleri (3.395568) shop (3.316201) shoe (3.291181) stock (3.087793) sale (3.028491) cat (3.012783) stationari (2.978058) bike (2.972530) accessori (2.951962) 
tour (4.486654) fudg (3.672588) theatr (3.594479) le (3.388509) guid (3.356868) underground (3.228528) et (3.220613) hill (3.195549) les (3.148232) hotel (3.107334) 
Error (train/valid/test) = 0.423836/0.931145/0.898409 (0.033123)
..................................................
energy after gradient step = 55606390.815945

Top words for each topic:
pub (3.928623) bar (3.449547) beer (3.375112) whiski (3.255608) ale (3.228521) pint (3.101613) cigar (2.747381) record (2.651130) burger (2.642074) vodka (2.620405) 
museum (4.350784) galleri (3.947848) exhibit (3.857538) mexican (3.574107) bagel (3.481301) burrito (3.426723) botan (3.347276) plant (3.309134) bobbi (3.234633) pitch (3.187912) 
dish (3.520203) restaur (3.393481) pizza (3.362292) curri (3.296445) sauc (3.116268) meal (3.097423) starter (3.081584) thai (3.081123) chicken (3.044300) menu (2.956349) 
store (3.702036) shop (3.580013) jewelleri (3.430277) shoe (3.419999) stock (3.189936) sale (3.171270) cloth (3.102878) bike (3.102630) cat (3.044335) stationari (3.029312) 
tour (4.635276) fudg (3.766629) theatr (3.718314) le (3.532437) guid (3.499329) et (3.420286) hotel (3.356915) underground (3.288662) hill (3.267236) hmv (3.242578) 
Error (train/valid/test) = 0.423056/0.932536/0.899409 (0.033261)
..................................................
energy after gradient step = 55199631.588483

Top words for each topic:
pub (4.036462) bar (3.627327) beer (3.449379) whiski (3.300968) ale (3.290412) pint (3.181779) cigar (2.727695) burger (2.727503) drink (2.717836) vodka (2.640331) 
museum (4.487066) galleri (4.115440) exhibit (4.015117) mexican (3.797507) burrito (3.633568) bagel (3.523166) plant (3.485802) botan (3.442689) bobbi (3.342024) pitch (3.305981) 
dish (3.570033) restaur (3.450529) pizza (3.405585) curri (3.332854) meal (3.168540) sauc (3.149882) starter (3.121744) chicken (3.105241) thai (3.097831) menu (3.086141) 
store (3.798451) shop (3.730858) jewelleri (3.500761) shoe (3.441225) stock (3.254764) cloth (3.218727) sale (3.183164) bike (3.163393) stationari (3.085827) accessori (3.075824) 
tour (4.718325) theatr (3.817992) fudg (3.797377) le (3.563810) guid (3.560552) hotel (3.476695) et (3.443492) hill (3.393712) underground (3.385188) les (3.329878) 
Error (train/valid/test) = 0.422297/0.933192/0.900595 (0.033359)
..................................................
energy after gradient step = 54871594.295561

Top words for each topic:
pub (4.123463) bar (3.866601) beer (3.516577) whiski (3.388138) ale (3.377987) pint (3.285944) burger (2.865939) drink (2.856047) vodka (2.737200) cigar (2.726720) 
museum (4.637966) galleri (4.260435) exhibit (4.177922) mexican (3.918446) burrito (3.860473) bagel (3.657495) plant (3.647366) botan (3.576131) pitch (3.551566) bobbi (3.464680) 
dish (3.676939) restaur (3.581427) pizza (3.473720) curri (3.379687) meal (3.322334) sauc (3.269091) chicken (3.249804) menu (3.231241) starter (3.199166) thai (3.133086) 
store (3.948674) shop (3.883780) jewelleri (3.583503) shoe (3.531967) cloth (3.351380) stock (3.341145) sale (3.256466) bike (3.237959) accessori (3.158840) brows (3.112669) 
tour (4.910283) fudg (3.925588) theatr (3.867545) hotel (3.768244) guid (3.712941) le (3.687303) hill (3.562104) et (3.524161) underground (3.392901) airport (3.390119) 
Error (train/valid/test) = 0.419786/0.934845/0.903821 (0.033517)
..................................................
energy after gradient step = 54554465.186042

Top words for each topic:
pub (4.226151) bar (4.041282) beer (3.601846) whiski (3.466699) ale (3.443808) pint (3.376300) drink (3.039132) burger (2.949221) vodka (2.743067) cigar (2.737827) 
museum (4.834772) galleri (4.401065) exhibit (4.364585) mexican (4.055732) burrito (3.926001) bagel (3.744012) botan (3.706281) pitch (3.668503) plant (3.653388) stadium (3.614550) 
dish (3.758760) restaur (3.657481) pizza (3.522100) meal (3.464586) curri (3.434024) sauc (3.390696) menu (3.362234) chicken (3.346473) starter (3.312849) thai (3.176537) 
store (4.122699) shop (4.028725) jewelleri (3.660952) shoe (3.569922) cloth (3.461937) stock (3.422958) sale (3.375750) bike (3.323282) accessori (3.264630) stationari (3.188762) 
tour (5.005297) theatr (4.018750) fudg (3.930995) hotel (3.873829) guid (3.780074) le (3.777238) hill (3.662412) et (3.587287) underground (3.582093) airport (3.544912) 
Error (train/valid/test) = 0.417617/0.938725/0.905102 (0.033622)
..................................................
energy after gradient step = 54328381.788961

Top words for each topic:
pub (4.289368) bar (4.151475) beer (3.707883) whiski (3.525351) ale (3.503866) pint (3.464118) drink (3.216337) burger (3.045097) vodka (2.826286) cigar (2.775660) 
museum (4.950605) exhibit (4.468581) galleri (4.463620) mexican (4.207104) burrito (4.124469) gym (3.927327) bagel (3.873269) botan (3.789216) pitch (3.781979) taco (3.778299) 
dish (3.849263) restaur (3.641767) pizza (3.578956) meal (3.532136) menu (3.499035) sauc (3.491939) curri (3.467293) chicken (3.429060) starter (3.381398) food (3.227133) 
store (4.244366) shop (4.130053) jewelleri (3.715144) shoe (3.607095) cloth (3.572249) stock (3.487584) sale (3.457571) bike (3.335324) accessori (3.302015) brows (3.249428) 
tour (5.075574) fudg (4.088321) theatr (4.019109) hotel (3.926390) guid (3.837328) le (3.780800) hill (3.753230) et (3.709245) airport (3.683523) castl (3.667971) 
Error (train/valid/test) = 0.414654/0.941099/0.906279 (0.033666)
..................................................
energy after gradient step = 54113619.726984

Top words for each topic:
pub (4.393747) bar (4.244619) beer (3.778880) whiski (3.613481) ale (3.571564) pint (3.493530) drink (3.361563) burger (3.142258) vodka (2.896416) cocktail (2.852047) 
museum (5.083475) exhibit (4.588137) galleri (4.552173) mexican (4.330787) burrito (4.274891) gym (4.101658) taco (3.998040) bagel (3.942647) botan (3.885514) stadium (3.849770) 
dish (3.945471) restaur (3.697945) pizza (3.651380) meal (3.625057) menu (3.605839) sauc (3.587755) curri (3.540608) chicken (3.535224) starter (3.460202) food (3.372352) 
store (4.365843) shop (4.207188) jewelleri (3.787477) shoe (3.689176) cloth (3.648323) stock (3.598750) sale (3.540634) bike (3.420857) accessori (3.392185) brows (3.360436) 
tour (5.187252) theatr (4.084135) fudg (4.080771) hotel (4.047686) castl (3.943790) guid (3.871427) hill (3.838646) et (3.773797) le (3.766406) airport (3.729228) 
Error (train/valid/test) = 0.411409/0.942674/0.907805 (0.033884)
..................................................
energy after gradient step = 53940656.423076

Top words for each topic:
pub (4.471617) bar (4.299188) beer (3.805275) ale (3.636703) whiski (3.634189) pint (3.573638) drink (3.475504) burger (3.183866) vodka (2.960279) music (2.934618) 
museum (5.212783) exhibit (4.728401) galleri (4.645697) burrito (4.452792) mexican (4.400366) gym (4.227869) taco (4.151946) botan (3.986137) stadium (3.969837) plant (3.957780) 
dish (4.011971) restaur (3.773389) meal (3.713480) pizza (3.708779) menu (3.706344) sauc (3.666810) chicken (3.661748) curri (3.596405) starter (3.530631) food (3.498207) 
store (4.426120) shop (4.339714) jewelleri (3.860042) shoe (3.756427) cloth (3.756083) stock (3.605968) sale (3.564496) bike (3.475020) accessori (3.446865) brows (3.444658) 
tour (5.263476) fudg (4.158647) hotel (4.156185) theatr (4.117192) castl (3.989593) guid (3.906054) le (3.871004) airport (3.861371) hill (3.854137) et (3.803801) 
Error (train/valid/test) = 0.408514/0.943924/0.910807 (0.034173)
..................................................
energy after gradient step = 53771242.028816

Top words for each topic:
pub (4.544348) bar (4.453062) beer (3.845447) pint (3.685064) whiski (3.670383) ale (3.641577) drink (3.538887) burger (3.187501) vodka (3.034819) cocktail (3.019906) 
museum (5.343390) exhibit (4.838281) galleri (4.769344) burrito (4.597199) mexican (4.576930) gym (4.392427) taco (4.352641) pitch (4.087554) stadium (4.038501) botan (3.993218) 
dish (4.158388) meal (3.881379) restaur (3.834959) menu (3.810419) sauc (3.810367) pizza (3.787744) chicken (3.785436) curri (3.686203) starter (3.642687) food (3.612441) 
store (4.541361) shop (4.454990) jewelleri (3.940827) cloth (3.914337) shoe (3.822490) stock (3.625753) sale (3.582028) bike (3.556902) accessori (3.503212) brows (3.445351) 
tour (5.314811) hotel (4.290326) castl (4.240467) fudg (4.146269) theatr (4.086640) le (4.003156) airport (3.996471) guid (3.994670) hill (3.933357) et (3.933229) 
Error (train/valid/test) = 0.404360/0.945978/0.914675 (0.034492)
..................................................
energy after gradient step = 53616604.165632

Top words for each topic:
pub (4.658510) bar (4.511533) beer (3.965772) pint (3.742761) ale (3.710632) whiski (3.643457) drink (3.582503) burger (3.229146) cocktail (3.096009) music (3.069127) 
museum (5.472763) exhibit (5.029480) galleri (4.817512) burrito (4.687877) mexican (4.658166) taco (4.496413) gym (4.469145) botan (4.140561) pitch (4.109187) cineworld (4.105500) 
dish (4.245778) meal (3.967559) menu (3.911576) chicken (3.909431) sauc (3.882131) restaur (3.838005) pizza (3.833110) curri (3.747101) starter (3.710911) food (3.631739) 
store (4.627546) shop (4.471577) jewelleri (4.026945) cloth (3.930573) shoe (3.910643) sale (3.629115) stock (3.624051) bike (3.590972) accessori (3.587761) brows (3.565874) 
tour (5.384219) hotel (4.321503) castl (4.246880) fudg (4.220092) theatr (4.183984) airport (4.084539) guid (4.023131) le (3.973184) monument (3.965327) hill (3.926123) 
Error (train/valid/test) = 0.401053/0.948627/0.919072 (0.034546)
..................................................
energy after gradient step = 53500102.475386

Top words for each topic:
pub (4.712167) bar (4.564184) beer (3.986668) pint (3.832688) ale (3.777347) drink (3.661838) whiski (3.659550) burger (3.272018) cocktail (3.196451) music (3.159071) 
museum (5.502840) exhibit (5.118987) galleri (4.858147) burrito (4.805934) mexican (4.711280) gym (4.596464) taco (4.539278) stadium (4.209382) cineworld (4.192647) bobbi (4.190082) 
dish (4.356682) meal (4.031095) sauc (4.000587) chicken (3.997488) menu (3.990374) pizza (3.909357) curri (3.856835) restaur (3.846511) starter (3.743284) food (3.726660) 
store (4.755392) shop (4.233637) jewelleri (4.089537) cloth (4.017288) shoe (3.911092) stock (3.753748) brows (3.725628) sale (3.679993) accessori (3.632318) bike (3.616827) 
tour (5.491495) hotel (4.457272) castl (4.439497) theatr (4.275275) fudg (4.260797) airport (4.184609) le (4.033747) monument (4.029129) guid (4.020687) les (4.017434) 
Error (train/valid/test) = 0.396092/0.950206/0.925157 (0.034840)
..................................................
energy after gradient step = 53378321.410176

Top words for each topic:
pub (4.776477) bar (4.667600) beer (4.009710) pint (3.867308) ale (3.852633) drink (3.757665) whiski (3.666705) burger (3.303523) cocktail (3.278786) music (3.207266) 
museum (5.640453) exhibit (5.191559) galleri (4.926677) burrito (4.852944) mexican (4.729932) taco (4.721989) gym (4.708059) cineworld (4.246927) stadium (4.238991) cinema (4.232979) 
dish (4.421252) meal (4.127332) sauc (4.093098) chicken (4.082509) menu (4.001020) pizza (3.956916) curri (3.941059) food (3.804391) starter (3.804069) restaur (3.765436) 
store (4.870635) shop (4.285677) jewelleri (4.166283) cloth (4.073933) shoe (3.951228) brows (3.777685) sale (3.775154) accessori (3.729718) stock (3.719608) bike (3.657971) 
tour (5.537484) hotel (4.562952) castl (4.502779) theatr (4.272329) fudg (4.234208) airport (4.206828) monument (4.122623) guid (4.103602) les (4.065209) le (4.018967) 
Error (train/valid/test) = 0.391623/0.955273/0.927121 (0.034843)
..................................................
energy after gradient step = 53314016.527991

Top words for each topic:
pub (4.854930) bar (4.758526) beer (4.024110) ale (3.924381) pint (3.885472) drink (3.797067) whiski (3.695411) cocktail (3.346047) burger (3.296444) music (3.255452) 
museum (5.677559) exhibit (5.263690) galleri (5.025480) burrito (4.970834) gym (4.769060) taco (4.747744) mexican (4.745396) cinema (4.448731) bobbi (4.315476) stadium (4.304999) 
dish (4.520112) sauc (4.182247) chicken (4.162102) meal (4.160502) pizza (4.042801) menu (4.031882) curri (4.025210) starter (3.874045) food (3.849777) tasti (3.770303) 
store (4.953277) shop (4.366278) jewelleri (4.246059) cloth (4.164097) shoe (3.940878) sale (3.850039) accessori (3.802374) brows (3.749951) stock (3.740224) bike (3.685234) 
tour (5.593496) hotel (4.634792) castl (4.621506) airport (4.303457) theatr (4.277371) monument (4.227398) fudg (4.223954) les (4.143144) guid (4.113455) hill (4.091557) 
Error (train/valid/test) = 0.388312/0.958415/0.929424 (0.034793)
..................................................
energy after gradient step = 53268757.635164

Top words for each topic:
pub (4.948138) bar (4.735749) beer (4.135074) ale (4.000548) pint (3.995249) drink (3.904522) whiski (3.730824) cocktail (3.481486) burger (3.340974) music (3.333504) 
museum (5.751512) exhibit (5.305607) galleri (5.035816) burrito (5.013809) taco (4.909254) mexican (4.871652) gym (4.756556) stadium (4.473112) cinema (4.417567) potter (4.380297) 
dish (4.629891) sauc (4.307473) chicken (4.213784) meal (4.195562) curri (4.122196) menu (4.064697) pizza (4.057589) food (3.962869) starter (3.953350) dessert (3.886734) 
store (5.007627) shop (4.434209) jewelleri (4.316903) cloth (4.227757) shoe (3.927643) accessori (3.897176) sale (3.869094) brows (3.863639) stock (3.816855) stationari (3.695312) 
tour (5.658847) hotel (4.786046) castl (4.707298) airport (4.352540) monument (4.321180) theatr (4.264387) les (4.182334) hill (4.182323) fudg (4.181091) nous (4.101308) 
Error (train/valid/test) = 0.383630/0.968778/0.936218 (0.035121)
..................................................
energy after gradient step = 53151429.222505

Top words for each topic:
pub (4.982687) bar (4.806037) beer (4.160621) ale (4.055663) pint (4.049483) drink (3.953571) whiski (3.749991) cocktail (3.574079) music (3.498457) burger (3.330192) 
museum (5.862215) exhibit (5.399024) galleri (5.121788) burrito (5.097569) taco (5.009356) mexican (4.985061) gym (4.827919) cinema (4.502917) yoga (4.453732) bobbi (4.437049) 
dish (4.718655) sauc (4.371331) chicken (4.300369) meal (4.245814) curri (4.192391) menu (4.128035) pizza (4.054160) food (4.039911) starter (4.003556) dessert (3.959292) 
store (5.099787) shop (4.405260) jewelleri (4.383104) cloth (4.257422) accessori (3.951824) shoe (3.946035) stock (3.940437) brows (3.908700) sale (3.885212) bike (3.724977) 
tour (5.729511) hotel (4.898894) castl (4.754660) airport (4.424541) monument (4.402914) theatr (4.324139) les (4.292499) fudg (4.195331) hill (4.163127) nous (4.157403) 
Error (train/valid/test) = 0.379641/0.972484/0.940792 (0.035416)
..................................................
energy after gradient step = 53086974.231430

Top words for each topic:
pub (5.044698) bar (4.879179) beer (4.236999) pint (4.116474) ale (4.106313) drink (4.001670) whiski (3.778253) cocktail (3.605854) music (3.563568) burger (3.341532) 
museum (5.878260) exhibit (5.465494) galleri (5.151250) mexican (5.138269) burrito (5.102690) taco (5.026910) gym (4.876189) cinema (4.553711) cineworld (4.524476) stadium (4.509878) 
dish (4.752216) sauc (4.441186) chicken (4.364213) meal (4.270096) curri (4.234584) menu (4.203580) pizza (4.085408) food (4.046334) dessert (4.025596) starter (4.001448) 
store (5.097824) shop (4.558566) jewelleri (4.446636) cloth (4.264691) accessori (4.008783) stock (3.972691) brows (3.967002) shoe (3.901901) sale (3.838478) gift (3.797277) 
tour (5.784326) hotel (4.900867) castl (4.755973) airport (4.509537) monument (4.435996) les (4.353825) theatr (4.267734) nous (4.192277) hill (4.175930) guid (4.128748) 
Error (train/valid/test) = 0.375225/0.977121/0.947459 (0.035687)
..................................................
energy after gradient step = 53037246.020651

Top words for each topic:
pub (5.088364) bar (4.964777) beer (4.284788) ale (4.155134) pint (4.137818) drink (4.023604) whiski (3.789204) cocktail (3.629329) music (3.595997) club (3.364436) 
museum (5.936212) exhibit (5.511751) burrito (5.188869) galleri (5.169986) mexican (5.132793) taco (5.068343) gym (4.845427) cinema (4.602957) bobbi (4.567488) stadium (4.536702) 
dish (4.836099) sauc (4.502232) chicken (4.397764) meal (4.319925) curri (4.286073) menu (4.237240) pizza (4.141526) food (4.087154) dessert (4.060294) rice (4.041229) 
store (5.148209) shop (4.644148) jewelleri (4.503121) cloth (4.312705) accessori (4.072951) stock (4.024417) brows (3.965457) shoe (3.904264) sale (3.843475) stationari (3.821928) 
tour (5.825668) hotel (4.935069) castl (4.845262) airport (4.562951) monument (4.475204) les (4.406629) nous (4.282825) theatr (4.217040) guid (4.191372) hill (4.166098) 
Error (train/valid/test) = 0.371920/0.976802/0.950673 (0.035905)
..................................................
energy after gradient step = 52994816.581843

Top words for each topic:
pub (5.116346) bar (5.036803) beer (4.309654) ale (4.198373) pint (4.183734) drink (4.030548) whiski (3.783970) cocktail (3.649746) music (3.635641) burger (3.402911) 
museum (5.982627) exhibit (5.563961) burrito (5.244702) galleri (5.185542) taco (5.096252) mexican (5.095193) gym (4.893699) cinema (4.704864) bobbi (4.603756) cineworld (4.596313) 
dish (4.902836) sauc (4.558245) chicken (4.408267) meal (4.384041) curri (4.322433) menu (4.279151) pizza (4.152822) food (4.104682) dessert (4.093920) rice (4.083309) 
store (5.151195) jewelleri (4.552384) shop (4.538535) cloth (4.314352) accessori (4.085222) stock (4.033383) brows (3.980424) shoe (3.894413) stationari (3.858576) bookshop (3.815476) 
tour (5.833578) hotel (5.003732) castl (4.893429) airport (4.631875) monument (4.522149) les (4.449489) nous (4.275872) guid (4.247166) theatr (4.240448) vous (4.190590) 
Error (train/valid/test) = 0.367854/0.982902/0.955053 (0.036142)
..................................................
energy after gradient step = 52956622.108815

Top words for each topic:
pub (5.164702) bar (5.102610) beer (4.348065) pint (4.236771) ale (4.216154) drink (4.094797) whiski (3.806131) cocktail (3.709200) music (3.629439) burger (3.458426) 
museum (6.005064) exhibit (5.565394) burrito (5.313867) galleri (5.215520) taco (5.175035) mexican (5.098291) cinema (4.874547) gym (4.873872) bobbi (4.689985) potter (4.626711) 
dish (4.944673) sauc (4.590038) chicken (4.443956) curri (4.360477) meal (4.334941) menu (4.315596) pizza (4.200992) food (4.139917) dessert (4.116575) rice (4.116092) 
store (5.246249) jewelleri (4.600588) shop (4.385061) cloth (4.308464) accessori (4.146548) stock (4.069265) brows (4.004056) stationari (3.903687) bookshop (3.839762) cupcak (3.813751) 
tour (5.839427) hotel (5.006121) castl (4.953058) airport (4.674392) monument (4.585317) les (4.435349) nous (4.328375) guid (4.248188) des (4.231639) hostel (4.228266) 
Error (train/valid/test) = 0.364723/0.988200/0.959235 (0.036516)
..................................................
energy after gradient step = 52906793.491422

Top words for each topic:
bar (5.202529) pub (5.151401) beer (4.358826) ale (4.263269) pint (4.250814) drink (4.118749) whiski (3.800161) cocktail (3.728987) music (3.707331) club (3.522845) 
museum (6.019988) exhibit (5.614182) burrito (5.342268) galleri (5.243844) taco (5.202425) mexican (5.109047) gym (4.895929) cinema (4.844599) potter (4.684526) das (4.662277) 
dish (4.986868) sauc (4.631121) chicken (4.450209) meal (4.423812) curri (4.396155) menu (4.333935) pizza (4.244945) rice (4.184370) food (4.162916) dessert (4.160751) 
store (5.212576) jewelleri (4.647739) shop (4.371992) cloth (4.334998) accessori (4.187009) brows (4.079116) stock (4.066557) stationari (3.947440) bookshop (3.899750) gift (3.894591) 
tour (5.895517) hotel (5.013316) castl (4.985326) airport (4.728249) monument (4.640560) les (4.507489) nous (4.396234) theatr (4.301488) des (4.286538) vous (4.279464) 
Error (train/valid/test) = 0.361120/0.992866/0.965395 (0.037028)
..................................................
energy after gradient step = 52886359.247238

Top words for each topic:
bar (5.261333) pub (5.209102) beer (4.422289) ale (4.277529) pint (4.267029) drink (4.189504) whiski (3.909824) music (3.787560) cocktail (3.771167) club (3.562837) 
museum (6.066376) exhibit (5.658501) burrito (5.356068) galleri (5.254936) taco (5.252764) mexican (5.141060) gym (4.907962) cinema (4.840557) bobbi (4.786540) cineworld (4.744196) 
dish (5.039895) sauc (4.650988) chicken (4.498708) curri (4.432194) meal (4.403186) menu (4.367284) pizza (4.313081) rice (4.248913) food (4.204336) dessert (4.190130) 
store (5.240025) jewelleri (4.690892) cloth (4.351261) accessori (4.236700) shop (4.201824) stock (4.107645) brows (4.077155) stationari (3.982507) bookshop (3.957245) gift (3.877743) 
tour (5.930553) hotel (5.012417) castl (5.006036) airport (4.758987) monument (4.689531) les (4.530923) nous (4.346182) hostel (4.289304) lobbi (4.273008) vous (4.264551) 
Error (train/valid/test) = 0.358144/1.000272/0.970127 (0.037520)
..................................................
energy after gradient step = 52851087.098413

Top words for each topic:
bar (5.290629) pub (5.227019) beer (4.456588) ale (4.310958) pint (4.297464) drink (4.223806) whiski (3.895171) cocktail (3.822726) music (3.813716) club (3.654883) 
museum (6.094283) exhibit (5.659325) burrito (5.392494) taco (5.273052) galleri (5.264874) mexican (5.194083) cinema (4.928339) gym (4.844789) und (4.814883) das (4.801343) 
dish (5.093421) sauc (4.701926) chicken (4.547523) curri (4.472880) menu (4.394539) pizza (4.320169) meal (4.310450) rice (4.302148) starter (4.225738) dessert (4.213735) 
store (5.273185) jewelleri (4.728596) cloth (4.407735) accessori (4.265113) shop (4.141365) stock (4.130059) brows (4.124018) stationari (4.014219) bookshop (4.001758) gift (3.952582) 
tour (5.946590) hotel (5.113456) castl (5.058969) airport (4.786620) monument (4.729828) les (4.578049) nous (4.410700) hostel (4.367803) des (4.321827) vous (4.320287) 
Error (train/valid/test) = 0.355704/1.004874/0.974727 (0.037754)
..................................................
energy after gradient step = 52811238.124595

Top words for each topic:
bar (5.281559) pub (5.249068) beer (4.445798) ale (4.358197) pint (4.281604) drink (4.238466) whiski (3.950190) cocktail (3.900652) music (3.746537) club (3.708143) 
museum (6.138966) exhibit (5.698949) burrito (5.483765) taco (5.275839) galleri (5.256085) mexican (5.220210) cinema (4.999256) und (4.978693) das (4.875004) der (4.833612) 
dish (5.124945) sauc (4.754085) chicken (4.598711) curri (4.478872) menu (4.438281) pizza (4.370846) rice (4.334242) meal (4.243900) starter (4.229434) food (4.228301) 
store (5.336773) jewelleri (4.757970) cloth (4.401493) accessori (4.273476) shop (4.206544) stock (4.158152) brows (4.123357) stationari (4.055909) bookshop (4.038490) gift (3.891537) 
tour (5.894045) hotel (5.102933) castl (5.022979) airport (4.836856) monument (4.789002) les (4.570179) nous (4.457579) hostel (4.376993) vous (4.376982) des (4.364861) 
Error (train/valid/test) = 0.353206/1.008614/0.981667 (0.038157)
..................................................
energy after gradient step = 52784911.503692

Top words for each topic:
bar (5.313867) pub (5.254426) beer (4.441905) pint (4.334148) ale (4.331479) drink (4.286761) whiski (3.960356) cocktail (3.948044) club (3.735011) music (3.685175) 
museum (6.143816) exhibit (5.720105) burrito (5.522140) taco (5.292673) galleri (5.241676) mexican (5.239268) und (5.056367) cinema (4.977077) das (4.940811) der (4.911792) 
dish (5.141448) sauc (4.795630) chicken (4.596022) curri (4.519770) menu (4.457722) pizza (4.405564) rice (4.387268) starter (4.279824) thai (4.256884) dessert (4.251508) 
store (5.362476) jewelleri (4.795162) cloth (4.442164) accessori (4.320821) shop (4.198127) brows (4.166710) stock (4.144783) bookshop (4.086070) stationari (4.085573) gift (3.992394) 
tour (5.913590) hotel (5.105886) castl (4.998537) airport (4.868743) monument (4.747096) les (4.599169) nous (4.469256) vous (4.390653) des (4.387677) lobbi (4.321424) 
Error (train/valid/test) = 0.350818/1.016625/0.989405 (0.038330)
..................................................
energy after gradient step = 52765338.686815

Top words for each topic:
bar (5.410756) pub (5.274597) beer (4.518983) pint (4.382290) ale (4.369791) drink (4.304149) cocktail (4.018290) whiski (3.977089) club (3.709869) music (3.706216) 
museum (6.177477) exhibit (5.717431) burrito (5.530794) taco (5.349862) galleri (5.247273) mexican (5.218514) und (5.098033) das (5.017809) cinema (4.960289) der (4.935571) 
dish (5.185689) sauc (4.853350) chicken (4.661847) curri (4.539965) menu (4.460846) rice (4.417894) pizza (4.390142) starter (4.307250) thai (4.294027) dessert (4.290464) 
store (5.373460) jewelleri (4.828302) cloth (4.474572) accessori (4.360552) shop (4.188534) stock (4.164107) brows (4.159776) stationari (4.116689) bookshop (4.092261) gift (4.024522) 
tour (5.974716) castl (5.099509) hotel (5.091187) airport (4.832461) monument (4.766310) les (4.584981) nous (4.499138) hostel (4.440828) vous (4.373662) lobbi (4.355017) 
Error (train/valid/test) = 0.348301/1.021979/0.993373 (0.038448)
..................................................
energy after gradient step = 52758033.318611

Top words for each topic:
bar (5.414567) pub (5.310935) beer (4.532229) pint (4.425423) ale (4.384252) drink (4.308068) cocktail (4.016788) whiski (3.960228) club (3.762350) music (3.758661) 
museum (6.166270) exhibit (5.746602) burrito (5.497513) taco (5.337255) galleri (5.240057) mexican (5.216927) und (5.169488) das (5.016620) cinema (4.942602) ein (4.904281) 
dish (5.231316) sauc (4.907767) chicken (4.699043) curri (4.552010) menu (4.470398) rice (4.451361) pizza (4.404725) thai (4.335283) dessert (4.318549) starter (4.289871) 
store (5.370230) jewelleri (4.860249) cloth (4.462589) accessori (4.395642) stock (4.194979) stationari (4.141440) bookshop (4.138843) brows (4.126264) gift (4.047793) shop (4.040287) 
tour (5.959726) castl (5.131785) hotel (5.116091) airport (4.843156) monument (4.752946) les (4.631948) nous (4.511746) hostel (4.445940) vous (4.439005) des (4.429809) 
Error (train/valid/test) = 0.345927/1.024662/0.997540 (0.038601)
..................................................
energy after gradient step = 52746301.590188

Top words for each topic:
bar (5.434573) pub (5.307227) beer (4.544453) pint (4.463890) ale (4.383731) drink (4.355439) cocktail (4.041194) whiski (4.019221) music (3.839896) club (3.786449) 
museum (6.205781) exhibit (5.787569) burrito (5.472209) taco (5.304015) und (5.279699) mexican (5.252906) galleri (5.203926) das (5.091777) der (5.004208) cinema (4.885074) 
dish (5.275640) sauc (4.963130) chicken (4.722993) curri (4.575808) rice (4.484582) menu (4.466623) pizza (4.364886) thai (4.348424) starter (4.338597) dessert (4.321110) 
store (5.337579) jewelleri (4.868789) cloth (4.499495) accessori (4.437064) stock (4.222843) brows (4.185494) bookshop (4.181879) stationari (4.175608) gift (3.975994) shop (3.906251) 
tour (5.959753) castl (5.160031) hotel (5.138587) airport (4.890059) monument (4.821087) les (4.626352) nous (4.544873) hostel (4.484537) vous (4.457536) lobbi (4.428281) 
Error (train/valid/test) = 0.343686/1.030206/1.000594 (0.038744)
