corpus = data_all.gz
latentReg = 0.000000
lambda = 4.000000
K = 5
...............
nUsers = 366715, nItems = 60785, nRatings = 1569264
...............
Error w/ offset term only (train/valid/test) = 1.720149/1.719236/1.719047 (0.005429)
Error w/ offset and bias (train/valid/test) = 0.892007/1.419859/1.428757 (0.005472)
............
..................................................
energy after gradient step = 3220431404.906229
............
Top words for each topic:
skill (0.082647) earlier (0.081989) hidden (0.078231) forc (0.074283) wouldv (0.072992) built (0.071318) ultim (0.070840) alright (0.068730) bubbl (0.066869) cannot (0.065087) 
major (0.095234) char (0.086604) multipl (0.084689) miso (0.082939) bc (0.078051) ravioli (0.069843) omg (0.069824) budget (0.065467) fulli (0.065071) festiv (0.064822) 
describ (0.085564) dj (0.081103) complex (0.069077) confer (0.066484) communiti (0.065640) prix (0.064138) oz (0.063783) catch (0.063440) version (0.062221) starter (0.062212) 
hawaiian (0.080731) track (0.076016) upset (0.074360) specialti (0.073055) chicago (0.072492) ranch (0.069283) wood (0.069027) difficult (0.066487) caus (0.063635) steep (0.063539) 
popcorn (0.093539) disgust (0.076759) mussel (0.075076) hospit (0.075021) couch (0.074579) 16 (0.067799) wander (0.066301) bare (0.066249) croissant (0.063942) email (0.063049) 
Error (train/valid/test) = 1.669106/1.671983/1.671479 (0.005433)
..................................................
energy after gradient step = 3217794864.398224
............
Top words for each topic:
built (0.152185) favourit (0.140354) aria (0.140153) cheer (0.121126) xs (0.120303) skill (0.120008) breez (0.114768) soak (0.114464) al (0.111182) overlook (0.110213) 
chile (0.163377) iron (0.149014) prevent (0.120802) adventur (0.116175) remark (0.112866) reward (0.111428) noon (0.111138) char (0.110689) silli (0.110277) manicur (0.109340) 
mozzarella (0.137738) rub (0.125472) confer (0.113926) complex (0.113143) content (0.112268) memori (0.110256) describ (0.104926) holi (0.101647) score (0.100601) address (0.100165) 
news (0.144255) aka (0.133298) power (0.130275) attach (0.128995) track (0.121125) wonton (0.119734) tangi (0.115270) insan (0.112439) lemonad (0.109570) footbal (0.106256) 
wander (0.137122) wick (0.125381) upscal (0.120290) tattoo (0.118398) tartar (0.116594) 16 (0.115878) tall (0.108599) throw (0.106417) third (0.105932) togo (0.103122) 
Error (train/valid/test) = 1.622283/1.630374/1.629899 (0.005247)
..................................................
energy after gradient step = 3217000067.399006
............
Top words for each topic:
aria (0.244348) favourit (0.213002) plant (0.196385) pedi (0.190430) overlook (0.184687) 7th (0.168981) flow (0.160828) curtain (0.160068) categori (0.155058) sexi (0.153843) 
bon (0.227617) iron (0.200201) inexpens (0.192792) kevin (0.176796) chile (0.163989) d (0.161746) yuck (0.153405) brian (0.151947) subtl (0.150991) miso (0.150815) 
tropicana (0.176209) tot (0.166765) nugget (0.159479) headach (0.153059) describ (0.151389) succul (0.145888) hipster (0.144732) led (0.143931) barista (0.143417) 500 (0.142625) 
fondu (0.194449) news (0.187521) human (0.170560) mechan (0.167393) wave (0.158871) slaw (0.154528) dryer (0.153620) hookah (0.152009) 1000 (0.150713) nous (0.146543) 
wick (0.267850) jeff (0.169306) wander (0.167591) scari (0.165316) mi (0.153543) sooooo (0.147119) physic (0.147006) queen (0.145035) tall (0.141721) togo (0.140081) 
Error (train/valid/test) = 1.575078/1.590811/1.590726 (0.005182)
..................................................
energy after gradient step = 3216463742.506366
............
Top words for each topic:
aria (0.379656) curtain (0.232715) aspect (0.216459) panel (0.215175) utter (0.210180) bubbl (0.209914) favourit (0.203130) cuban (0.199466) teach (0.194610) al (0.191223) 
china (0.234773) mon (0.226963) bon (0.222091) unabl (0.221789) killer (0.220224) cuz (0.219182) brian (0.205902) prevent (0.205684) bouchon (0.199791) skillet (0.196904) 
tavern (0.203644) unlv (0.201123) newest (0.199024) locker (0.196437) sampler (0.193716) ka (0.190633) smore (0.187515) sprinkl (0.187436) prawn (0.186811) shit (0.183414) 
fondu (0.271807) news (0.262553) tangi (0.229648) drawback (0.229068) sehr (0.219805) mechan (0.207086) tiramisu (0.205266) hookah (0.204318) satay (0.191593) dryer (0.191360) 
wick (0.410398) scari (0.235551) 5th (0.229892) cigar (0.221480) educ (0.214663) proud (0.209373) 34 (0.208569) aria (0.205528) wateri (0.205026) wasabi (0.199550) 
Error (train/valid/test) = 1.537917/1.561511/1.561564 (0.005129)
..................................................
energy after gradient step = 3215932909.523185
............
Top words for each topic:
aria (0.506112) curtain (0.321247) skeptic (0.254233) panel (0.244077) aspect (0.233121) remot (0.232170) cuban (0.227402) 7th (0.221238) bubbl (0.216763) teach (0.213879) 
cuz (0.290979) bouchon (0.274539) mon (0.256934) file (0.256394) ami (0.254794) prevent (0.250784) brian (0.248120) skillet (0.243410) urban (0.222838) saute (0.219069) 
prawn (0.264830) ka (0.260265) sampler (0.235371) locker (0.224293) bacchan (0.219154) unlv (0.216458) stun (0.214849) lux (0.211169) verd (0.210440) concess (0.205443) 
fondu (0.312805) tiramisu (0.290737) drawback (0.281490) nous (0.263479) human (0.261791) mon (0.255258) everywher (0.253263) hookah (0.249808) 1000 (0.247095) almond (0.241427) 
wick (0.472266) educ (0.307271) cigar (0.293665) aria (0.257924) zu (0.256413) ein (0.254289) shift (0.253813) wasabi (0.251017) ich (0.242301) topnotch (0.237676) 
Error (train/valid/test) = 1.512112/1.542229/1.542337 (0.005096)
..................................................
energy after gradient step = 3215424549.076365
............
Top words for each topic:
aria (0.648184) curtain (0.402021) panel (0.353170) skeptic (0.335186) goodi (0.311640) aspect (0.276434) blind (0.272118) gin (0.261716) bubbl (0.252420) incid (0.246992) 
cuz (0.346948) ami (0.316131) bouchon (0.314752) mon (0.307339) file (0.266220) prevent (0.264781) resolv (0.251184) mold (0.251003) gabi (0.250339) skillet (0.246434) 
sampler (0.304177) prawn (0.283238) stun (0.270395) bacchan (0.260636) plumb (0.257692) ka (0.256499) scotch (0.246061) andor (0.244667) blackjack (0.243472) haunt (0.243090) 
hookah (0.314386) mechan (0.301437) fondu (0.287012) gabi (0.272712) mon (0.271490) news (0.265753) snap (0.263896) nous (0.259385) human (0.258583) pic (0.258350) 
wick (0.545003) ich (0.383185) fr (0.378205) ein (0.374816) zu (0.332107) cigar (0.323481) topnotch (0.314567) aria (0.303848) auch (0.303753) ist (0.291111) 
Error (train/valid/test) = 1.488702/1.525477/1.525622 (0.005069)
..................................................
energy after gradient step = 3214899692.304431
............
Top words for each topic:
aria (0.755456) curtain (0.479039) panel (0.403304) skeptic (0.349553) blind (0.341316) goodi (0.311077) cuban (0.291054) poutin (0.278673) remot (0.265582) mug (0.263637) 
ami (0.434314) bouchon (0.396119) mon (0.340242) gabi (0.326042) falafel (0.324386) cuz (0.302761) prevent (0.277349) storm (0.277317) homey (0.276366) mat (0.273604) 
prawn (0.325230) bacchan (0.322413) sampler (0.307016) delay (0.291548) royal (0.290834) blackjack (0.287970) cow (0.278695) pasti (0.270409) ka (0.266903) ocean (0.257840) 
hookah (0.395695) mon (0.362899) gabi (0.353392) fondu (0.331807) mechan (0.319014) auch (0.296787) insan (0.296181) human (0.295541) chai (0.286957) pride (0.279351) 
wick (0.673341) ich (0.588264) ein (0.577677) nicht (0.519188) fr (0.496036) ist (0.473211) zu (0.467141) auch (0.462812) und (0.417949) war (0.393639) 
Error (train/valid/test) = 1.469200/1.512097/1.512282 (0.005053)
..................................................
energy after gradient step = 3214369680.969819
............
Top words for each topic:
aria (0.880452) curtain (0.579362) panel (0.433096) cuban (0.373115) blind (0.367148) goodi (0.324902) poutin (0.315930) skeptic (0.314389) remot (0.307595) sont (0.300473) 
bouchon (0.497678) ami (0.449028) mon (0.396799) gabi (0.371354) bouch (0.364205) falafel (0.349469) cuz (0.347803) file (0.347074) flew (0.333092) brian (0.319137) 
bacchan (0.340630) lo (0.340265) pasti (0.334655) cultur (0.317538) mochi (0.313643) haunt (0.300485) sampler (0.297301) prawn (0.294262) blackjack (0.292439) cow (0.290904) 
fondu (0.444912) hookah (0.428533) mon (0.417099) auch (0.408299) chai (0.347074) mechan (0.341274) gabi (0.335339) distract (0.321348) field (0.318443) dull (0.315945) 
ich (0.925205) ein (0.878477) wick (0.760310) nicht (0.737753) zu (0.737225) ist (0.731048) auch (0.665631) fr (0.660736) und (0.632670) der (0.617964) 
Error (train/valid/test) = 1.450627/1.499835/1.500053 (0.005033)
..................................................
energy after gradient step = 3213744121.702823
............
Top words for each topic:
aria (0.955518) curtain (0.714053) panel (0.507612) remot (0.412963) skeptic (0.379705) architectur (0.370442) cuban (0.363817) button (0.354521) blind (0.353403) sont (0.322336) 
bouchon (0.542967) ami (0.522310) mon (0.465171) falafel (0.397393) bouch (0.393748) gabi (0.391691) frite (0.381302) file (0.375946) cuz (0.356480) flew (0.347194) 
bacchan (0.386437) lo (0.375652) lux (0.363423) haunt (0.353595) dental (0.348182) royal (0.347847) april (0.323245) mochi (0.319218) naan (0.313045) roller (0.309528) 
hookah (0.463260) auch (0.463154) mon (0.456149) und (0.444502) fondu (0.424771) gabi (0.407340) der (0.389113) pride (0.382921) ist (0.380229) distract (0.358634) 
ich (1.323043) ein (1.232250) nicht (1.160309) zu (1.153703) ist (1.106377) auch (1.083673) fr (1.035026) der (1.014269) mit (0.983767) und (0.979158) 
Error (train/valid/test) = 1.435502/1.490206/1.490449 (0.005013)
..................................................
energy after gradient step = 3213031728.636650
............
Top words for each topic:
aria (1.018579) curtain (0.785706) panel (0.532239) architectur (0.468657) remot (0.414319) aussi (0.402063) cuban (0.396803) skeptic (0.381506) cox (0.374020) chick (0.368733) 
bouchon (0.671479) ami (0.574011) mon (0.532241) falafel (0.421752) frite (0.416096) gabi (0.412020) file (0.411017) across (0.392868) bouch (0.370125) mat (0.355922) 
bacchan (0.480646) mochi (0.399173) lo (0.378256) glutenfre (0.360068) dental (0.358526) ka (0.356927) royal (0.353246) april (0.351441) pasti (0.348385) locker (0.347774) 
und (0.595972) hookah (0.591301) gabi (0.548000) mon (0.523522) fondu (0.442393) chai (0.404006) sui (0.398031) pride (0.396891) der (0.396167) prici (0.377076) 
ich (1.846479) ein (1.705120) nicht (1.662546) zu (1.659137) auch (1.613191) ist (1.611602) und (1.588364) fr (1.539540) das (1.539423) der (1.539315) 
Error (train/valid/test) = 1.421243/1.481647/1.482141 (0.005090)
..................................................
energy after gradient step = 3212153687.035085
............
Top words for each topic:
aria (1.118601) curtain (0.877897) panel (0.550553) remot (0.540481) architectur (0.488157) cuban (0.484502) sont (0.459749) cox (0.439556) housekeep (0.435271) avec (0.426806) 
bouchon (0.753171) ami (0.675354) mon (0.586223) gabi (0.470448) falafel (0.465650) frite (0.439267) file (0.419572) across (0.416381) mat (0.403270) bouch (0.401208) 
bacchan (0.530622) pasti (0.465618) dental (0.419876) lo (0.400287) ka (0.398967) glutenfre (0.380800) royal (0.378105) locker (0.369880) lisa (0.364735) mochi (0.358212) 
hookah (0.652056) mon (0.623134) gabi (0.604090) fondu (0.516358) chai (0.465075) frite (0.454956) ami (0.417741) barbecu (0.409409) sui (0.400062) mechan (0.399572) 
und (2.364213) ich (2.292678) ein (2.141193) ist (2.137400) nicht (2.111801) der (2.108492) auch (2.103012) das (2.078911) zu (2.056724) mit (1.945781) 
Error (train/valid/test) = 1.408485/1.473836/1.474226 (0.005016)
..................................................
energy after gradient step = 3211219043.043398
............
Top words for each topic:
aria (1.217349) curtain (0.995126) sont (0.588088) panel (0.580742) remot (0.559309) cuban (0.541191) housekeep (0.519333) cox (0.509645) avec (0.506294) architectur (0.488445) 
bouchon (0.910752) ami (0.750496) mon (0.658569) gabi (0.588123) falafel (0.511220) frite (0.508452) file (0.442592) escargot (0.440160) cheat (0.438703) croqu (0.431101) 
bacchan (0.583906) pasti (0.534572) dental (0.500794) zoo (0.464030) filipino (0.436021) lisa (0.426190) dentist (0.413839) royal (0.398124) lo (0.395140) glutenfre (0.388950) 
hookah (0.776412) mon (0.691216) gabi (0.639606) fondu (0.577612) sui (0.509027) frite (0.479045) chai (0.477922) barbecu (0.477847) ami (0.456372) librari (0.437747) 
und (2.970983) ich (2.683469) der (2.647163) das (2.568156) ist (2.556652) ein (2.526636) nicht (2.509671) auch (2.467166) zu (2.367536) es (2.341295) 
Error (train/valid/test) = 1.396562/1.466917/1.467320 (0.004993)
..................................................
energy after gradient step = 3210270101.744534
............
Top words for each topic:
aria (1.366898) curtain (1.155049) sont (0.645976) panel (0.611991) avec (0.599984) vous (0.599884) housekeep (0.590160) ce (0.577533) remot (0.573873) cox (0.560615) 
bouchon (1.048876) ami (0.821445) mon (0.688781) gabi (0.644131) frite (0.560118) croqu (0.525638) falafel (0.508974) escargot (0.495153) bon (0.485621) file (0.477485) 
bacchan (0.674450) pasti (0.643591) dental (0.540470) zoo (0.531246) locker (0.462224) lisa (0.462018) filipino (0.450001) lo (0.441566) april (0.436950) ace (0.428031) 
hookah (0.959962) mon (0.714059) gabi (0.713811) fondu (0.621296) frite (0.551999) barbecu (0.538820) sui (0.526686) chai (0.505265) pizzeria (0.488202) ami (0.486278) 
und (3.304035) der (3.002470) ich (2.958979) das (2.922319) ist (2.870487) ein (2.837611) nicht (2.792010) auch (2.758349) es (2.638102) zu (2.623491) 
Error (train/valid/test) = 1.385622/1.460763/1.461207 (0.004981)
..................................................
energy after gradient step = 3209165685.876290
............
Top words for each topic:
aria (1.493076) curtain (1.208599) vous (0.856499) sont (0.780305) avec (0.717364) housekeep (0.717225) ce (0.707641) qui (0.707033) pas (0.697243) panel (0.666316) 
bouchon (1.128957) ami (0.938935) mon (0.759380) gabi (0.684894) frite (0.606932) falafel (0.605094) croqu (0.596945) escargot (0.566597) endroit (0.539788) bon (0.536996) 
bacchan (0.751925) pasti (0.742183) dental (0.649581) zoo (0.618848) locker (0.565416) lisa (0.538983) filipino (0.538056) roller (0.519521) dentist (0.516049) elvi (0.511304) 
hookah (1.102799) mon (0.798743) gabi (0.741383) fondu (0.696661) frite (0.644303) cone (0.593805) sui (0.589425) barbecu (0.578232) pizzeria (0.555751) chai (0.523309) 
und (3.551545) der (3.256200) ich (3.169002) das (3.165247) ist (3.118230) ein (3.059461) nicht (3.004059) auch (2.954997) es (2.857306) zu (2.813384) 
Error (train/valid/test) = 1.375701/1.455336/1.455822 (0.004971)
..................................................
energy after gradient step = 3207815059.812634
............
Top words for each topic:
aria (1.631065) curtain (1.281487) vous (1.026873) sont (0.989042) qui (0.898894) avec (0.897493) ce (0.879927) pas (0.856748) housekeep (0.842395) une (0.832420) 
bouchon (1.216053) ami (1.000056) mon (0.856616) gabi (0.734055) croqu (0.725382) falafel (0.721404) frite (0.713278) keller (0.614811) endroit (0.614244) escargot (0.588446) 
pasti (0.796517) bacchan (0.758634) dental (0.747737) zoo (0.741163) tint (0.648351) dentist (0.600609) filipino (0.584419) elvi (0.575405) locker (0.572288) acrobat (0.552575) 
hookah (1.258225) mon (0.819019) gabi (0.807636) fondu (0.763817) frite (0.671993) pizzeria (0.640691) barbecu (0.628582) cone (0.622133) sui (0.579994) peruvian (0.573767) 
und (3.714404) der (3.416140) das (3.329351) ich (3.323404) ist (3.275278) ein (3.223370) nicht (3.154441) auch (3.108265) es (3.005197) zu (2.952014) 
Error (train/valid/test) = 1.367426/1.450921/1.451461 (0.004968)
..................................................
energy after gradient step = 3206152556.071309
............
Top words for each topic:
aria (1.763650) curtain (1.375355) sont (1.203812) vous (1.175905) qui (1.141000) avec (1.133701) ce (1.105579) une (1.087930) pas (1.047047) tout (1.004636) 
bouchon (1.301389) ami (1.042371) mon (0.914358) frite (0.854998) falafel (0.818878) gabi (0.806721) croqu (0.773208) escargot (0.667936) keller (0.632943) et (0.624237) 
zoo (0.917598) pasti (0.859027) dental (0.841660) dentist (0.787437) tint (0.779694) bacchan (0.746504) acrobat (0.668162) filipino (0.667429) elvi (0.640943) locker (0.627987) 
hookah (1.380040) mon (0.863490) fondu (0.858854) gabi (0.837106) peruvian (0.718151) boba (0.688784) frite (0.685487) barbecu (0.678081) pizzeria (0.657157) sui (0.636085) 
und (3.857086) der (3.553811) das (3.469607) ich (3.455260) ist (3.409745) ein (3.354393) nicht (3.285873) auch (3.235903) es (3.151302) zu (3.077501) 
Error (train/valid/test) = 1.359951/1.447019/1.447605 (0.004964)
..................................................
energy after gradient step = 3203874447.049168
............
Top words for each topic:
aria (1.918934) curtain (1.443002) vous (1.380857) qui (1.367081) sont (1.352040) une (1.331266) avec (1.321516) ce (1.310618) et (1.263908) pas (1.253851) 
bouchon (1.389664) ami (1.160958) mon (0.970562) frite (0.936693) falafel (0.896237) croqu (0.854848) gabi (0.846711) et (0.759607) escargot (0.746913) keller (0.687400) 
zoo (1.062390) pasti (1.008825) dental (0.971748) dentist (0.941352) tint (0.835649) acrobat (0.775092) bacchan (0.769191) elvi (0.726747) exam (0.707705) medic (0.703478) 
hookah (1.509386) fondu (0.924848) mon (0.893039) gabi (0.865926) boba (0.842301) peruvian (0.828928) barbecu (0.813507) frite (0.763637) pizzeria (0.688077) brisket (0.676205) 
und (3.967805) der (3.663503) das (3.584554) ich (3.559296) ist (3.520288) ein (3.462064) nicht (3.386377) auch (3.333015) es (3.258499) zu (3.163635) 
Error (train/valid/test) = 1.354025/1.443987/1.444609 (0.004961)
..................................................
energy after gradient step = 3200570815.223157
............
Top words for each topic:
aria (2.067885) qui (1.636362) vous (1.628400) et (1.616675) sont (1.608440) une (1.607260) avec (1.555196) ce (1.552919) curtain (1.539165) pas (1.510797) 
bouchon (1.472121) ami (1.228848) falafel (1.035076) frite (1.020637) mon (0.974258) croqu (0.967837) gabi (0.854102) et (0.838791) escargot (0.813448) keller (0.804497) 
zoo (1.197289) pasti (1.119759) dentist (1.119296) dental (1.107527) acrobat (0.918408) tint (0.916723) vet (0.860048) haircut (0.826409) locker (0.796255) exam (0.792076) 
hookah (1.616289) fondu (1.047450) boba (1.020168) barbecu (0.945273) mon (0.907503) gabi (0.899477) peruvian (0.843352) frite (0.825582) brisket (0.825086) crawfish (0.780928) 
und (4.067910) der (3.759401) das (3.677655) ich (3.653937) ist (3.620427) ein (3.561541) nicht (3.482291) auch (3.426915) es (3.360609) zu (3.258986) 
Error (train/valid/test) = 1.348567/1.441240/1.441896 (0.004959)
..................................................
energy after gradient step = 3195596065.654580
............
Top words for each topic:
aria (2.204039) et (1.978148) une (1.925697) vous (1.915664) qui (1.889896) sont (1.839136) avec (1.815341) pas (1.813512) je (1.803334) le (1.801932) 
bouchon (1.596501) ami (1.286795) frite (1.132740) falafel (1.081526) croqu (1.025503) mon (0.946660) gabi (0.880095) keller (0.866213) escargot (0.857092) eyebrow (0.848302) 
zoo (1.325388) dentist (1.286064) pasti (1.258839) dental (1.188676) tint (1.109960) haircut (1.022419) acrobat (1.015684) vet (1.001829) exam (0.921002) cirqu (0.902405) 
hookah (1.719962) boba (1.240553) fondu (1.105073) barbecu (1.059529) brisket (1.039563) gabi (0.950251) mon (0.930996) crawfish (0.908103) slaw (0.886994) peruvian (0.875897) 
und (4.158423) der (3.853127) das (3.769038) ich (3.745860) ist (3.716741) ein (3.652397) nicht (3.571862) auch (3.516413) es (3.447356) zu (3.348079) 
Error (train/valid/test) = 1.343923/1.438939/1.439626 (0.004956)
..................................................
energy after gradient step = 3187950551.704826
............
Top words for each topic:
et (2.398493) aria (2.371051) une (2.256833) qui (2.188613) le (2.145789) vous (2.143146) les (2.141682) pas (2.126086) je (2.121182) est (2.117795) 
bouchon (1.693637) ami (1.314698) frite (1.180398) falafel (1.173916) croqu (1.115701) ramen (0.991724) keller (0.979856) croissant (0.961331) benedict (0.932615) eyebrow (0.930651) 
zoo (1.485763) dentist (1.434056) pasti (1.404669) dental (1.338963) tint (1.265234) haircut (1.215179) acrobat (1.177976) vet (1.155211) cirqu (1.088406) exam (1.074282) 
hookah (1.783348) boba (1.466719) brisket (1.264186) barbecu (1.232206) fondu (1.185204) crawfish (1.059161) slaw (1.049900) thai (1.049592) bbq (1.000423) foie (0.985193) 
und (4.240071) der (3.947856) das (3.865196) ich (3.836430) ist (3.808133) ein (3.737054) nicht (3.659233) auch (3.606854) es (3.539038) zu (3.433553) 
Error (train/valid/test) = 1.339942/1.436995/1.437706 (0.004955)
..................................................
energy after gradient step = 3176138891.096959
............
Top words for each topic:
et (2.784977) le (2.528834) aria (2.523314) une (2.519883) les (2.475989) est (2.435331) qui (2.423145) pas (2.416852) je (2.400911) que (2.380561) 
bouchon (1.791146) ami (1.334370) falafel (1.293995) frite (1.228947) croqu (1.201224) ramen (1.195151) croissant (1.071956) keller (1.047226) benedict (1.025679) eyebrow (1.019874) 
dentist (1.614990) zoo (1.588300) pasti (1.509935) dental (1.504625) haircut (1.442119) tint (1.432173) acrobat (1.336491) cirqu (1.309503) hair (1.282402) vet (1.278085) 
hookah (1.839987) boba (1.643196) brisket (1.483475) thai (1.370059) barbecu (1.347536) bbq (1.306132) fondu (1.274039) slaw (1.218918) crawfish (1.194344) foie (1.113247) 
und (4.326207) der (4.040231) das (3.953989) ich (3.924292) ist (3.899131) ein (3.825299) nicht (3.748451) auch (3.688826) es (3.621157) zu (3.514379) 
Error (train/valid/test) = 1.336619/1.435391/1.436122 (0.004953)
..................................................
energy after gradient step = 3158667531.214685
............
Top words for each topic:
et (3.111455) le (2.867413) les (2.784825) une (2.772001) est (2.716137) pas (2.676454) aria (2.664924) je (2.633740) que (2.632813) qui (2.619828) 
bouchon (1.894320) ramen (1.448975) falafel (1.384694) ami (1.330157) croqu (1.254513) frite (1.252915) croissant (1.206767) bagel (1.169241) benedict (1.131851) keller (1.114665) 
dentist (1.752090) zoo (1.704752) haircut (1.704560) dental (1.635460) hair (1.603665) pasti (1.592428) tint (1.559006) cirqu (1.534114) stylist (1.500828) acrobat (1.491714) 
hookah (1.870313) boba (1.827702) thai (1.743689) brisket (1.682856) bbq (1.655980) barbecu (1.461518) slaw (1.403921) fondu (1.356678) crawfish (1.308281) pud (1.305565) 
und (4.425073) der (4.138771) das (4.048146) ich (4.019092) ist (3.993614) ein (3.919208) nicht (3.836926) auch (3.778245) es (3.717799) zu (3.600948) 
Error (train/valid/test) = 1.333835/1.434057/1.434805 (0.004952)
..................................................
energy after gradient step = 3134172249.977826
............
Top words for each topic:
et (3.376656) le (3.151640) les (3.044564) une (2.974662) est (2.950906) pas (2.891412) que (2.871447) je (2.850537) aria (2.828471) qui (2.807868) 
bouchon (1.959796) ramen (1.720938) falafel (1.515071) bagel (1.403747) croissant (1.346400) ami (1.344147) croqu (1.295418) frite (1.271157) keller (1.201305) gyro (1.200582) 
haircut (1.953702) hair (1.947521) dentist (1.917377) zoo (1.832060) dental (1.795575) stylist (1.774712) cirqu (1.773904) tint (1.726308) pasti (1.707220) acrobat (1.682213) 
thai (2.121420) bbq (1.968561) boba (1.946299) hookah (1.876682) brisket (1.857282) rib (1.623611) onion (1.542961) slaw (1.537841) pork (1.508855) barbecu (1.504203) 
und (4.526935) der (4.233435) das (4.145277) ich (4.111468) ist (4.085487) ein (4.013633) nicht (3.928731) auch (3.869040) es (3.804173) zu (3.689074) 
Error (train/valid/test) = 1.331454/1.432921/1.433687 (0.004952)
..................................................
energy after gradient step = 3102783410.674877
............
Top words for each topic:
et (3.572353) le (3.363857) les (3.267930) une (3.157963) est (3.146400) hotel (3.132804) pas (3.079041) que (3.055781) je (3.030583) qui (2.975964) 
bouchon (2.017403) ramen (1.974216) bagel (1.647176) falafel (1.625391) croissant (1.468461) gyro (1.384792) ami (1.378324) croqu (1.351903) french (1.309586) pho (1.308047) 
hair (2.293745) haircut (2.189737) dentist (2.094587) stylist (2.054791) cirqu (1.992795) zoo (1.945195) dental (1.919035) dr (1.912221) tint (1.887525) barber (1.849390) 
thai (2.432083) bbq (2.181824) boba (2.018291) brisket (1.957507) burger (1.915108) rib (1.879965) pork (1.877469) hookah (1.868783) dish (1.833309) spici (1.803716) 
und (4.626764) der (4.327544) das (4.233569) ich (4.199436) ist (4.176181) ein (4.101351) nicht (4.015679) auch (3.952241) es (3.894108) zu (3.769282) 
Error (train/valid/test) = 1.329522/1.431999/1.432781 (0.004951)
..................................................
energy after gradient step = 3067352770.696363
............
Top words for each topic:
et (3.752750) le (3.555899) hotel (3.504135) les (3.473262) est (3.333517) une (3.329738) pas (3.269414) que (3.250789) je (3.195048) en (3.144202) 
ramen (2.249083) bouchon (2.107584) bagel (1.898411) falafel (1.750782) croissant (1.630236) gyro (1.572646) french (1.436278) miso (1.430862) broth (1.422344) steak (1.415936) 
hair (2.618289) haircut (2.412025) stylist (2.310050) dentist (2.294711) cirqu (2.210686) dr (2.162998) dental (2.095493) zoo (2.067314) barber (2.043940) tint (2.017059) 
thai (2.630364) bbq (2.355857) burger (2.296394) dish (2.249215) sauc (2.221141) pork (2.186824) fri (2.146891) spici (2.138340) shrimp (2.108639) rib (2.097627) 
und (4.719587) der (4.420203) das (4.323551) ich (4.289357) ist (4.266152) ein (4.189407) nicht (4.104416) auch (4.044760) es (3.971815) zu (3.858153) 
Error (train/valid/test) = 1.327729/1.431147/1.431942 (0.004950)
..................................................
energy after gradient step = 3030902547.890450
............
Top words for each topic:
et (3.935189) hotel (3.879524) le (3.738125) les (3.645576) est (3.491786) une (3.482445) pas (3.414045) que (3.398927) room (3.356237) pool (3.355241) 
ramen (2.504922) bouchon (2.192971) bagel (2.178750) falafel (1.867570) croissant (1.744231) gyro (1.717501) sandwich (1.638112) bakeri (1.587148) steak (1.564603) bread (1.555008) 
hair (2.933269) haircut (2.597739) stylist (2.513034) dentist (2.454845) dr (2.417776) cirqu (2.394580) dental (2.248452) barber (2.213667) zoo (2.182878) doctor (2.181774) 
thai (2.767656) dish (2.550722) burger (2.544398) sauc (2.539863) fri (2.500946) bbq (2.492204) pork (2.421073) spici (2.409334) chicken (2.402218) rice (2.380789) 
und (4.808032) der (4.503262) das (4.408827) ich (4.371683) ist (4.351573) ein (4.275285) nicht (4.185379) auch (4.123445) es (4.051250) zu (3.937338) 
Error (train/valid/test) = 1.326102/1.430379/1.431185 (0.004950)
..................................................
energy after gradient step = 2996981383.142358
............
Top words for each topic:
hotel (4.179921) et (4.088989) le (3.889587) les (3.783593) room (3.689303) pool (3.651970) est (3.618631) une (3.599221) casino (3.559989) pas (3.540593) 
ramen (2.702420) bagel (2.441421) bouchon (2.258819) falafel (1.946363) croissant (1.894928) gyro (1.887834) sandwich (1.815247) bakeri (1.783776) bread (1.667133) monta (1.661029) 
hair (3.180599) haircut (2.744387) stylist (2.684137) dr (2.671655) dentist (2.623522) cirqu (2.542168) doctor (2.387080) appoint (2.372233) dental (2.366198) barber (2.349605) 
thai (2.861746) dish (2.782923) sauc (2.761498) burger (2.743560) fri (2.733155) chicken (2.676393) pork (2.606780) rice (2.601934) spici (2.586947) bbq (2.585883) 
und (4.893836) der (4.589573) das (4.488214) ich (4.453582) ist (4.428431) ein (4.352012) nicht (4.261788) auch (4.205251) es (4.125630) zu (4.010453) 
Error (train/valid/test) = 1.324640/1.429694/1.430511 (0.004949)
..................................................
energy after gradient step = 2967542987.173201
............
Top words for each topic:
hotel (4.411089) et (4.207257) le (4.011883) room (3.997458) les (3.884891) pool (3.864856) casino (3.743793) est (3.714008) une (3.700176) stay (3.664205) 
ramen (2.872721) bagel (2.654346) bouchon (2.318641) croissant (2.057429) gyro (2.030457) falafel (2.012773) cupcak (2.012571) bakeri (2.011478) sandwich (1.955601) latt (1.817316) 
hair (3.363975) dr (2.896717) haircut (2.859728) stylist (2.812547) dentist (2.738056) cirqu (2.636270) massag (2.587046) salon (2.580211) doctor (2.577231) appoint (2.573022) 
dish (2.980584) sauc (2.962896) thai (2.929938) fri (2.923366) burger (2.915342) chicken (2.881390) rice (2.763573) pork (2.729881) spici (2.721236) flavor (2.721047) 
und (4.969110) der (4.663851) das (4.565438) ich (4.529850) ist (4.507008) ein (4.431570) nicht (4.338629) auch (4.280672) es (4.190350) zu (4.086149) 
Error (train/valid/test) = 1.323316/1.429079/1.429906 (0.004949)
..................................................
energy after gradient step = 2942656388.072459
............
Top words for each topic:
hotel (4.622013) et (4.299613) room (4.229587) le (4.103444) pool (4.030936) les (3.964098) casino (3.887688) stay (3.862915) est (3.790140) une (3.777468) 
ramen (3.011913) bagel (2.846332) bouchon (2.373209) cupcak (2.323557) bakeri (2.204023) gyro (2.189614) croissant (2.177091) falafel (2.077774) sandwich (2.069372) latt (2.009246) 
hair (3.501157) dr (3.100937) haircut (2.946441) stylist (2.905589) dentist (2.821751) massag (2.805194) salon (2.785299) appoint (2.764526) doctor (2.753718) cirqu (2.719782) 
sauc (3.135368) dish (3.131715) fri (3.111972) chicken (3.069808) burger (3.069483) thai (2.979477) food (2.913149) rice (2.869549) flavor (2.864440) menu (2.859341) 
und (5.052839) der (4.742752) das (4.643557) ich (4.608357) ist (4.584668) ein (4.504767) nicht (4.417173) auch (4.358364) es (4.263654) zu (4.160430) 
Error (train/valid/test) = 1.322108/1.428521/1.429353 (0.004948)
..................................................
energy after gradient step = 2921460718.968965
............
Top words for each topic:
hotel (4.740649) room (4.391167) et (4.360509) le (4.167253) pool (4.142483) les (4.019135) stay (3.983831) casino (3.982394) est (3.848813) une (3.827858) 
ramen (3.127438) bagel (2.993300) cupcak (2.582734) bouchon (2.409739) bakeri (2.379086) gyro (2.325835) croissant (2.315239) latt (2.167519) sandwich (2.156103) falafel (2.136958) 
hair (3.592401) dr (3.239814) haircut (3.003191) massag (2.972912) stylist (2.968835) appoint (2.931583) salon (2.922123) dentist (2.897503) doctor (2.869965) cirqu (2.769723) 
sauc (3.260902) fri (3.249273) dish (3.246437) chicken (3.224333) burger (3.184004) food (3.072108) thai (3.016765) menu (2.994077) flavor (2.975790) rice (2.969075) 
und (5.129789) der (4.820932) das (4.718016) ich (4.686416) ist (4.658795) ein (4.581356) nicht (4.490751) auch (4.428674) es (4.332797) zu (4.231967) 
Error (train/valid/test) = 1.321050/1.428032/1.428874 (0.004948)
..................................................
energy after gradient step = 2904139777.538400
............
Top words for each topic:
hotel (4.849005) room (4.486236) et (4.417286) pool (4.248346) le (4.225523) les (4.076076) casino (4.066316) stay (4.057561) est (3.893819) bed (3.891970) 
ramen (3.242147) bagel (3.136524) cupcak (2.813912) bakeri (2.539911) gyro (2.489088) bouchon (2.469826) croissant (2.450018) coffe (2.331343) pastri (2.328010) latt (2.317145) 
hair (3.675537) dr (3.371100) massag (3.116234) appoint (3.085360) haircut (3.063092) salon (3.045106) stylist (3.035353) doctor (2.987213) dentist (2.949943) cirqu (2.823260) 
sauc (3.383924) fri (3.381274) chicken (3.377538) dish (3.347830) burger (3.286983) food (3.180345) menu (3.131701) flavor (3.070908) thai (3.064647) salad (3.057151) 
und (5.221652) der (4.904782) das (4.805033) ich (4.774792) ist (4.748372) ein (4.669129) nicht (4.578304) auch (4.514500) es (4.409286) zu (4.313253) 
Error (train/valid/test) = 1.319901/1.427507/1.428354 (0.004948)
..................................................
energy after gradient step = 2889612076.664011
............
Top words for each topic:
hotel (4.922372) room (4.532101) et (4.460556) pool (4.326842) le (4.270385) casino (4.132637) les (4.114316) stay (4.087697) bed (3.944259) est (3.939910) 
ramen (3.326483) bagel (3.242142) cupcak (2.979427) bakeri (2.660703) coffe (2.650658) gyro (2.611911) croissant (2.554776) bouchon (2.502907) pastri (2.501682) latt (2.447262) 
hair (3.737582) dr (3.461642) massag (3.217630) appoint (3.195392) salon (3.137214) haircut (3.098600) stylist (3.075919) doctor (3.062435) dentist (2.991956) cirqu (2.857383) 
chicken (3.484780) fri (3.480148) sauc (3.471575) dish (3.422017) burger (3.362228) food (3.260321) menu (3.246385) salad (3.157066) flavor (3.149658) delici (3.126941) 
und (5.285595) der (4.979103) das (4.873311) ich (4.845459) ist (4.819049) ein (4.737221) nicht (4.647938) auch (4.589024) es (4.477211) zu (4.386706) 
Error (train/valid/test) = 1.318873/1.427041/1.427893 (0.004947)
..................................................
energy after gradient step = 2877743148.580837
............
Top words for each topic:
hotel (4.988059) room (4.545269) et (4.500975) pool (4.396355) le (4.310653) casino (4.189800) les (4.155709) stay (4.074238) bed (3.987497) est (3.975254) 
ramen (3.402504) bagel (3.350185) cupcak (3.131538) coffe (2.951146) bakeri (2.777037) gyro (2.723268) pastri (2.652104) croissant (2.643655) latt (2.559045) cooki (2.544198) 
hair (3.790864) dr (3.533982) massag (3.304409) appoint (3.283134) salon (3.209989) haircut (3.134498) doctor (3.127767) stylist (3.119371) dentist (3.029599) cirqu (2.888861) 
chicken (3.577890) fri (3.571898) sauc (3.554053) dish (3.493796) burger (3.428880) menu (3.347330) food (3.345749) salad (3.245782) flavor (3.224073) meal (3.213916) 
und (5.370522) der (5.056966) das (4.951306) ich (4.923345) ist (4.895450) ein (4.815685) nicht (4.725844) auch (4.668748) es (4.544093) zu (4.461889) 
Error (train/valid/test) = 1.317821/1.426564/1.427422 (0.004947)
..................................................
energy after gradient step = 2867704198.210845
............
Top words for each topic:
hotel (5.036895) room (4.537682) et (4.531052) pool (4.454258) le (4.343775) casino (4.233872) les (4.186364) stay (4.037017) bed (4.010947) est (4.000651) 
ramen (3.453461) bagel (3.418423) cupcak (3.245381) coffe (3.175658) bakeri (2.872401) gyro (2.825543) pastri (2.778378) croissant (2.719211) cooki (2.684675) latt (2.638526) 
hair (3.827532) dr (3.580288) massag (3.366026) appoint (3.350290) salon (3.267844) doctor (3.172386) haircut (3.162563) stylist (3.144227) dentist (3.055936) cirqu (2.901985) 
chicken (3.657010) fri (3.646665) sauc (3.621490) dish (3.552523) burger (3.482043) food (3.425544) menu (3.418743) salad (3.323611) meal (3.292278) flavor (3.275808) 
und (5.436858) der (5.126821) das (5.017451) ich (4.994658) ist (4.964438) ein (4.885948) nicht (4.795487) auch (4.737497) es (4.609532) zu (4.528137) 
Error (train/valid/test) = 1.316892/1.426147/1.427009 (0.004947)
..................................................
energy after gradient step = 2859069722.793894
............
Top words for each topic:
hotel (5.073125) et (4.555503) room (4.502551) pool (4.498451) le (4.363632) casino (4.269587) les (4.210017) est (4.026923) bed (4.023569) une (4.007004) 
ramen (3.493136) bagel (3.471221) cupcak (3.318807) coffe (3.317848) bakeri (2.938851) gyro (2.896384) pastri (2.858002) cooki (2.789351) croissant (2.761829) latt (2.716557) 
hair (3.849875) dr (3.618833) massag (3.411087) appoint (3.400944) salon (3.311143) doctor (3.216161) haircut (3.179077) stylist (3.168063) dentist (3.070272) cirqu (2.918766) 
chicken (3.721473) fri (3.705817) sauc (3.673692) dish (3.604630) burger (3.528566) food (3.492483) menu (3.474277) salad (3.391035) meal (3.351411) chees (3.325261) 
und (5.503205) der (5.192042) das (5.079066) ich (5.060735) ist (5.032033) ein (4.953092) nicht (4.858426) auch (4.802534) es (4.661756) zu (4.590511) 
Error (train/valid/test) = 1.316062/1.425775/1.426643 (0.004947)
..................................................
energy after gradient step = 2851689652.146287
............
Top words for each topic:
hotel (5.105246) et (4.578346) pool (4.540339) room (4.440851) le (4.387596) casino (4.302092) les (4.230065) est (4.051399) une (4.034030) bed (4.031487) 
ramen (3.521247) bagel (3.517273) coffe (3.433855) cupcak (3.389327) bakeri (2.991121) gyro (2.970653) pastri (2.921532) cooki (2.883188) cake (2.837574) chocol (2.834611) 
hair (3.872689) dr (3.646711) massag (3.449558) appoint (3.446958) salon (3.343067) doctor (3.242036) haircut (3.200907) stylist (3.186514) dentist (3.084711) cirqu (2.930749) 
chicken (3.781896) fri (3.763617) sauc (3.729560) dish (3.654017) burger (3.576637) food (3.555056) menu (3.533267) salad (3.454054) meal (3.415253) chees (3.377658) 
und (5.574924) der (5.264144) das (5.148294) ich (5.129376) ist (5.097525) ein (5.022654) nicht (4.926871) auch (4.872822) es (4.721906) zu (4.658583) 
Error (train/valid/test) = 1.315212/1.425396/1.426266 (0.004946)
..................................................
energy after gradient step = 2845234412.791152
............
Top words for each topic:
hotel (5.131097) et (4.600906) pool (4.575082) le (4.403325) room (4.375654) casino (4.331176) les (4.258295) est (4.072324) une (4.050684) bed (4.036803) 
bagel (3.550610) ramen (3.549353) coffe (3.513891) cupcak (3.444284) bakeri (3.042335) gyro (3.022447) pastri (2.979063) chocol (2.959606) cake (2.952154) cooki (2.941310) 
hair (3.886678) dr (3.674469) massag (3.485687) appoint (3.483191) salon (3.377585) doctor (3.273340) haircut (3.216957) stylist (3.206765) dentist (3.098128) cirqu (2.941076) 
chicken (3.837128) fri (3.816608) sauc (3.776543) dish (3.700897) burger (3.620025) food (3.599461) menu (3.580011) salad (3.509275) meal (3.466277) chees (3.413937) 
und (5.633408) der (5.325366) das (5.207447) ich (5.191938) ist (5.157165) ein (5.080682) nicht (4.989698) auch (4.932886) es (4.772160) zu (4.718730) 
Error (train/valid/test) = 1.314438/1.425053/1.425926 (0.004946)
..................................................
energy after gradient step = 2839685057.486090
............
Top words for each topic:
hotel (5.155197) et (4.618080) pool (4.603535) le (4.429576) casino (4.356614) room (4.298790) les (4.272339) est (4.092344) une (4.072872) bed (4.034229) 
coffe (3.579975) bagel (3.574528) ramen (3.557797) cupcak (3.489542) bakeri (3.080841) gyro (3.078442) chocol (3.062231) cake (3.049162) pastri (3.020831) cooki (2.999793) 
hair (3.900664) dr (3.698931) massag (3.523175) appoint (3.510943) salon (3.399090) doctor (3.291740) haircut (3.232713) stylist (3.219250) dentist (3.111643) cirqu (2.954782) 
chicken (3.888715) fri (3.865502) sauc (3.823892) dish (3.741403) burger (3.663343) food (3.635898) menu (3.625828) salad (3.558716) meal (3.513593) chees (3.457172) 
und (5.691748) der (5.385492) das (5.265026) ich (5.251167) ist (5.216598) ein (5.138327) nicht (5.048930) auch (4.995372) es (4.826561) zu (4.776484) 
Error (train/valid/test) = 1.313687/1.424720/1.425596 (0.004946)
..................................................
energy after gradient step = 2834586586.089446
............
Top words for each topic:
hotel (5.173486) et (4.637329) pool (4.627436) le (4.439694) casino (4.376189) les (4.293145) room (4.220547) est (4.108677) une (4.091834) bed (4.027151) 
coffe (3.629335) bagel (3.597040) ramen (3.577625) cupcak (3.518500) chocol (3.156913) cake (3.112303) gyro (3.109806) bakeri (3.106387) pastri (3.051552) cooki (3.047277) 
hair (3.906242) dr (3.714203) massag (3.541511) appoint (3.532134) salon (3.423443) doctor (3.310407) haircut (3.241244) stylist (3.232681) dentist (3.120042) cirqu (2.957400) 
chicken (3.928427) fri (3.906820) sauc (3.865109) dish (3.778446) burger (3.696124) menu (3.657695) food (3.652092) salad (3.593434) meal (3.551748) chees (3.484851) 
und (5.745488) der (5.435622) das (5.316180) ich (5.301399) ist (5.267487) ein (5.190379) nicht (5.098660) auch (5.045601) es (4.865858) zu (4.826654) 
Error (train/valid/test) = 1.313057/1.424442/1.425321 (0.004946)
..................................................
energy after gradient step = 2830167005.604928
............
Top words for each topic:
hotel (5.188427) et (4.651148) pool (4.646944) le (4.457550) casino (4.393353) les (4.309237) room (4.148335) est (4.125503) une (4.105040) bed (4.021321) 
coffe (3.669583) bagel (3.607490) ramen (3.575757) cupcak (3.542977) chocol (3.241519) cake (3.155963) gyro (3.138294) bakeri (3.124674) sandwich (3.080461) cooki (3.074727) 
hair (3.906767) dr (3.727308) massag (3.557584) appoint (3.548578) salon (3.439363) doctor (3.319563) haircut (3.250865) stylist (3.240260) dentist (3.124130) cirqu (2.962615) 
chicken (3.963286) fri (3.942134) sauc (3.900062) dish (3.807529) burger (3.724650) menu (3.686774) food (3.662834) salad (3.628123) meal (3.585826) rice (3.507223) 
und (5.790918) der (5.483251) das (5.361927) ich (5.349192) ist (5.314192) ein (5.236793) nicht (5.144252) auch (5.092495) es (4.909041) zu (4.871689) 
Error (train/valid/test) = 1.312507/1.424197/1.425081 (0.004946)
..................................................
energy after gradient step = 2826032763.849007
............
Top words for each topic:
hotel (5.200976) pool (4.666800) et (4.666084) le (4.469504) casino (4.409876) les (4.320938) est (4.140291) une (4.121659) room (4.071200) pas (4.029487) 
coffe (3.701661) bagel (3.622062) ramen (3.587220) cupcak (3.566415) chocol (3.308702) cake (3.179065) sandwich (3.163911) gyro (3.158921) bakeri (3.150153) cooki (3.096464) 
hair (3.908965) dr (3.734346) massag (3.576170) appoint (3.563815) salon (3.454775) doctor (3.332682) haircut (3.254991) stylist (3.246820) dentist (3.125712) cirqu (2.965189) 
chicken (3.997635) fri (3.973302) sauc (3.932422) dish (3.836600) burger (3.753557) menu (3.719566) salad (3.661751) food (3.658441) meal (3.615972) rice (3.535768) 
und (5.841319) der (5.531059) das (5.408810) ich (5.398662) ist (5.361412) ein (5.284368) nicht (5.191963) auch (5.139604) es (4.946799) zu (4.916733) 
Error (train/valid/test) = 1.311971/1.423962/1.424849 (0.004945)
..................................................
energy after gradient step = 2822125266.130389
............
Top words for each topic:
hotel (5.212702) pool (4.684077) et (4.680079) le (4.482309) casino (4.423956) les (4.338428) est (4.149424) une (4.134753) pas (4.037996) room (4.005508) 
coffe (3.725095) bagel (3.632056) cupcak (3.583746) ramen (3.582634) chocol (3.353060) sandwich (3.232223) cake (3.195825) gyro (3.180453) bakeri (3.159444) cooki (3.121588) 
hair (3.909814) dr (3.743746) massag (3.584835) appoint (3.577485) salon (3.468539) doctor (3.332839) haircut (3.259173) stylist (3.252758) dentist (3.128609) cirqu (2.970880) 
chicken (4.023573) fri (4.003000) sauc (3.962223) dish (3.861024) burger (3.779027) menu (3.740812) salad (3.686859) food (3.650149) meal (3.640729) rice (3.565803) 
und (5.887646) der (5.579945) das (5.452543) ich (5.445808) ist (5.407962) ein (5.331694) nicht (5.236658) auch (5.185878) es (4.987628) zu (4.959427) 
Error (train/valid/test) = 1.311460/1.423738/1.424625 (0.004945)
..................................................
energy after gradient step = 2818574849.609304
............
Top words for each topic:
hotel (5.222413) pool (4.700704) et (4.692775) le (4.495103) casino (4.438153) les (4.351331) est (4.165743) une (4.147747) pas (4.048844) que (4.003927) 
coffe (3.745314) bagel (3.643513) cupcak (3.604115) ramen (3.589998) chocol (3.385958) sandwich (3.287473) cake (3.199481) gyro (3.198924) bakeri (3.179171) cooki (3.137334) 
hair (3.911902) dr (3.749939) massag (3.598835) appoint (3.585556) salon (3.479211) doctor (3.342029) haircut (3.262737) stylist (3.257200) dentist (3.131340) nail (3.003975) 
chicken (4.052134) fri (4.028935) sauc (3.987310) dish (3.885968) burger (3.800764) menu (3.758365) salad (3.710471) meal (3.665523) food (3.636088) rice (3.590881) 
und (5.925787) der (5.619591) das (5.492115) ich (5.487061) ist (5.447971) ein (5.372721) nicht (5.277435) auch (5.226411) es (5.020958) zu (5.000342) 
Error (train/valid/test) = 1.310991/1.423533/1.424422 (0.004945)
..................................................
energy after gradient step = 2815205259.844829
............
Top words for each topic:
hotel (5.232037) pool (4.714975) et (4.706456) le (4.506222) casino (4.446603) les (4.365995) est (4.177632) une (4.162827) pas (4.057967) que (4.013300) 
coffe (3.765537) bagel (3.654109) cupcak (3.620843) ramen (3.596537) chocol (3.413009) sandwich (3.349314) gyro (3.224092) cake (3.203143) bakeri (3.196361) crepe (3.166855) 
hair (3.909779) dr (3.753809) massag (3.603873) appoint (3.596071) salon (3.492780) doctor (3.343999) haircut (3.267507) stylist (3.260451) dentist (3.131410) nail (3.078143) 
chicken (4.074739) fri (4.053470) sauc (4.010584) dish (3.906973) burger (3.820561) menu (3.773310) salad (3.731129) meal (3.685902) food (3.619233) rice (3.615707) 
und (5.965527) der (5.657708) das (5.529159) ich (5.525283) ist (5.484757) ein (5.412610) nicht (5.316756) auch (5.266458) es (5.054468) zu (5.039657) 
Error (train/valid/test) = 1.310544/1.423338/1.424230 (0.004945)
..................................................
energy after gradient step = 2811688715.160400
............
Top words for each topic:
hotel (5.240467) pool (4.728289) et (4.716988) le (4.517840) casino (4.451616) les (4.378832) est (4.188457) une (4.173904) pas (4.071302) que (4.022329) 
coffe (3.784085) bagel (3.667888) cupcak (3.640405) ramen (3.602488) chocol (3.435460) sandwich (3.417293) gyro (3.239613) bakeri (3.209094) cake (3.207491) crepe (3.205544) 
hair (3.909117) dr (3.757639) massag (3.614077) appoint (3.601427) salon (3.502205) doctor (3.348889) haircut (3.269949) stylist (3.262084) nail (3.148847) dentist (3.129957) 
chicken (4.096276) fri (4.072241) sauc (4.034184) dish (3.925338) burger (3.839378) menu (3.786175) salad (3.751645) meal (3.704756) rice (3.638891) food (3.600002) 
und (6.004103) der (5.695950) das (5.566410) ich (5.564092) ist (5.523135) ein (5.450225) nicht (5.355285) auch (5.305632) es (5.086261) zu (5.076801) 
Error (train/valid/test) = 1.310112/1.423151/1.424045 (0.004945)
..................................................
energy after gradient step = 2808546877.590671
............
Top words for each topic:
hotel (5.247195) pool (4.739888) et (4.728809) le (4.527804) casino (4.462069) les (4.390107) est (4.199488) une (4.186527) pas (4.081843) que (4.030941) 
coffe (3.799752) bagel (3.681224) cupcak (3.657612) ramen (3.607404) sandwich (3.467958) chocol (3.444683) gyro (3.255362) crepe (3.233565) bakeri (3.226623) donut (3.225889) 
hair (3.907041) dr (3.761671) massag (3.618337) appoint (3.610497) salon (3.509173) doctor (3.349665) haircut (3.270068) stylist (3.265146) nail (3.202144) dentist (3.128908) 
chicken (4.115083) fri (4.091419) sauc (4.053756) dish (3.944567) burger (3.856847) menu (3.793963) salad (3.770772) meal (3.721130) rice (3.658812) food (3.581708) 
und (6.034268) der (5.728885) das (5.601003) ich (5.598786) ist (5.557357) ein (5.484424) nicht (5.390380) auch (5.341560) es (5.116273) zu (5.112138) 
Error (train/valid/test) = 1.309706/1.422973/1.423870 (0.004945)
..................................................
energy after gradient step = 2805418296.964637
............
Top words for each topic:
hotel (5.251922) pool (4.753411) et (4.740890) le (4.536293) casino (4.470338) les (4.402439) est (4.211825) une (4.197357) pas (4.088661) que (4.036717) 
coffe (3.813372) bagel (3.694233) cupcak (3.676307) ramen (3.611083) sandwich (3.533002) chocol (3.446243) gyro (3.275325) crepe (3.262332) donut (3.259583) bakeri (3.245016) 
hair (3.903256) dr (3.762502) massag (3.626967) appoint (3.613653) salon (3.517070) doctor (3.350508) haircut (3.271645) stylist (3.266957) nail (3.249031) dentist (3.128243) 
chicken (4.129812) fri (4.107445) sauc (4.071906) dish (3.958291) burger (3.869795) menu (3.802105) salad (3.784774) meal (3.733892) rice (3.677982) pork (3.576782) 
und (6.066005) der (5.760233) ich (5.631652) das (5.630224) ist (5.588619) ein (5.516683) nicht (5.422099) auch (5.373019) zu (5.143491) es (5.142388) 
Error (train/valid/test) = 1.309320/1.422806/1.423705 (0.004945)
..................................................
energy after gradient step = 2802482043.507567
............
Top words for each topic:
hotel (5.255676) pool (4.764309) et (4.751903) le (4.546508) casino (4.476738) les (4.414761) est (4.224381) une (4.208975) pas (4.099854) que (4.047285) 
coffe (3.828465) bagel (3.710607) cupcak (3.698565) ramen (3.620155) sandwich (3.582242) chocol (3.459213) crepe (3.297744) gyro (3.296795) donut (3.285309) bakeri (3.267135) 
hair (3.901009) dr (3.765920) massag (3.630398) appoint (3.620756) salon (3.521722) doctor (3.352710) nail (3.294224) haircut (3.271883) stylist (3.266268) dentist (3.124680) 
chicken (4.148179) fri (4.124111) sauc (4.089187) dish (3.975598) burger (3.885294) menu (3.811546) salad (3.800182) meal (3.749680) rice (3.695672) pork (3.595207) 
und (6.098272) der (5.793408) ich (5.665239) das (5.660955) ist (5.621950) ein (5.549012) nicht (5.456539) auch (5.406016) zu (5.177585) es (5.172727) 
Error (train/valid/test) = 1.308899/1.422622/1.423525 (0.004944)
..................................................
energy after gradient step = 2799829429.667650
............
Top words for each topic:
hotel (5.260470) pool (4.777329) et (4.764545) le (4.555895) casino (4.485203) les (4.426665) est (4.237132) une (4.220899) pas (4.109844) que (4.054245) 
coffe (3.843399) bagel (3.729092) cupcak (3.719631) sandwich (3.637795) ramen (3.635193) chocol (3.463411) crepe (3.323510) donut (3.316008) gyro (3.315882) bakeri (3.282049) 
hair (3.899969) dr (3.766246) massag (3.639154) appoint (3.624820) salon (3.529409) doctor (3.355090) nail (3.331083) haircut (3.272519) stylist (3.268882) dentist (3.122724) 
chicken (4.159737) fri (4.138115) sauc (4.106110) dish (3.989126) burger (3.897314) menu (3.814049) salad (3.812962) meal (3.762576) rice (3.712596) pork (3.612596) 
und (6.122760) der (5.819280) ich (5.692548) das (5.686425) ist (5.648492) ein (5.577669) nicht (5.483873) auch (5.435042) zu (5.208068) es (5.196256) 
Error (train/valid/test) = 1.308509/1.422454/1.423359 (0.004944)
..................................................
energy after gradient step = 2796952079.601025
............
Top words for each topic:
hotel (5.264611) pool (4.783108) et (4.771372) le (4.563082) casino (4.489703) les (4.436592) est (4.246691) une (4.232138) pas (4.117573) que (4.061418) 
coffe (3.861397) bagel (3.745937) cupcak (3.739475) sandwich (3.690987) ramen (3.643769) chocol (3.471627) crepe (3.350691) donut (3.346986) gyro (3.340451) bakeri (3.304875) 
hair (3.894141) dr (3.768629) massag (3.640011) appoint (3.627791) salon (3.533789) nail (3.358708) doctor (3.353445) haircut (3.273213) stylist (3.270585) dentist (3.122300) 
chicken (4.171049) fri (4.149859) sauc (4.119238) dish (4.000638) burger (3.907137) salad (3.820731) menu (3.816722) meal (3.771369) rice (3.726462) pork (3.625572) 
und (6.141861) der (5.842262) ich (5.715884) das (5.707755) ist (5.670288) ein (5.600046) nicht (5.506264) auch (5.459085) zu (5.230422) es (5.216057) 
Error (train/valid/test) = 1.308171/1.422307/1.423216 (0.004944)
