corpus = data_urbana.gz
latentReg = 0.000000
lambda = 3.500000
K = 10

nUsers = 3920, nItems = 627, nRatings = 12124

Error w/ offset term only (train/valid/test) = 1.678461/1.715130/1.655072 (0.057648)
Error w/ offset and bias (train/valid/test) = 0.781319/1.418887/1.462505 (0.059712)

..................................................
energy after gradient step = 21883207.581913

Top words for each topic:
chai (1.344297) casserol (1.177216) quarter (1.149175) packag (1.060991) comment (0.943696) medium (0.943695) pickl (0.919116) bomb (0.905432) favor (0.871510) boltini (0.866430) 
die (1.032196) bagel (1.007087) health (0.997470) hey (0.989597) pan (0.987891) basil (0.977827) appar (0.934557) bacaro (0.926773) lower (0.900340) 45 (0.855859) 
memori (0.961917) compet (0.947474) secret (0.929161) quantiti (0.902231) candi (0.882449) waffl (0.833428) spoke (0.812921) luna (0.811956) gem (0.803875) gift (0.799445) 
distanc (1.210617) ass (1.157543) switch (1.075722) grove (0.998739) stylist (0.993309) crane (0.942904) barbecu (0.933160) accompani (0.932463) rotat (0.893188) andor (0.888695) 
healthi (1.288658) caught (1.093309) par (0.984792) myself (0.957476) photo (0.921736) rare (0.898896) mess (0.861191) forc (0.858975) decis (0.838905) tire (0.835008) 
pickl (1.088710) california (1.066178) sampler (0.994563) constant (0.971084) ground (0.931734) patti (0.923360) overcook (0.905247) orang (0.870169) sent (0.865616) proper (0.861835) 
secret (1.058919) frost (0.991641) forev (0.987704) underwhelm (0.981292) true (0.955855) bonus (0.951009) vodka (0.943930) medic (0.906405) charm (0.904823) pure (0.899979) 
heavi (1.201398) modern (1.145653) pound (0.947792) brand (0.935924) hall (0.888071) inattent (0.883381) access (0.858298) bakeri (0.857736) cocktail (0.849417) 2nd (0.848983) 
p (1.005530) peak (0.995924) mango (0.985333) kimchi (0.982542) ps (0.936360) forgot (0.931707) tv (0.927696) vegan (0.906742) known (0.900125) rotat (0.889651) 
lettuc (1.130210) forev (1.082405) major (1.062511) result (1.060705) schedul (1.024642) dirti (1.004461) estim (0.985150) break (0.973151) biggest (0.958037) bento (0.947365) 
Error (train/valid/test) = 1.064706/1.448591/1.442000 (0.049801)
..................................................
energy after gradient step = 21798281.373066

Top words for each topic:
lacklust (1.723900) lit (1.722470) pint (1.666885) masala (1.644494) chai (1.541506) scream (1.451885) complimentari (1.423144) respect (1.372071) toro (1.370699) amigo (1.354210) 
hey (1.823951) stapl (1.598838) booz (1.555133) beet (1.551163) health (1.548894) amigo (1.533828) express (1.517863) cigar (1.508578) evid (1.446913) equal (1.417852) 
appropri (1.625911) respons (1.618055) nonetheless (1.600679) homecom (1.529654) stress (1.525183) trendi (1.498777) everybodi (1.497734) miso (1.490995) waffl (1.429706) mayo (1.415810) 
ass (1.717096) 14 (1.563381) stare (1.487124) ruin (1.447942) skip (1.445541) lo (1.441281) search (1.434557) packet (1.394496) tamal (1.390544) omelett (1.373900) 
torta (1.607873) escobar (1.580098) yell (1.509223) rip (1.494443) fav (1.444639) liquor (1.418491) enchilada (1.405198) array (1.382967) healthi (1.375599) necessari (1.368834) 
screen (1.627352) delish (1.612819) fillet (1.573179) peep (1.450895) le (1.434557) devil (1.399226) feta (1.387986) chic (1.374051) allergi (1.318552) jalapeno (1.317086) 
exclus (1.887796) rough (1.872175) pure (1.588575) intend (1.556188) bison (1.543630) ceil (1.541140) nut (1.523050) undergrad (1.513621) browni (1.504565) 23 (1.504341) 
eventu (1.775536) hipster (1.694708) pound (1.676279) express (1.574358) lose (1.563146) recept (1.524436) yellow (1.518959) refund (1.513203) equip (1.473666) hamburg (1.465468) 
remark (1.872166) ps (1.793101) bang (1.634669) commit (1.612643) fool (1.574646) trade (1.560245) cowork (1.544201) hasnt (1.460478) scene (1.436595) demand (1.431852) 
needless (1.748671) subpar (1.586311) peak (1.579791) nois (1.577561) timpon (1.512965) 300 (1.496818) schedul (1.492310) basement (1.484415) scrambl (1.454937) retail (1.452441) 
Error (train/valid/test) = 0.690441/1.430817/1.407165 (0.057993)
..................................................
energy after gradient step = 21729851.027213

Top words for each topic:
lit (2.245383) lacklust (2.062107) awar (2.051649) chai (2.019557) skip (1.971069) vet (1.955130) soooo (1.832380) moist (1.825518) harvest (1.821958) stix (1.821323) 
connect (2.318822) cigar (2.262866) amigo (2.239652) hey (2.187619) nigiri (2.036326) amtrak (1.986823) remodel (1.953135) stapl (1.891929) upsid (1.885082) express (1.881722) 
screw (2.104418) period (2.043938) dust (1.945623) nonetheless (1.940878) marin (1.930734) homecom (1.862192) scallop (1.846807) stack (1.839452) cheapest (1.823653) public (1.811167) 
ravioli (2.158678) carpet (2.098525) stylist (1.986739) stare (1.959061) ass (1.929932) stomach (1.895241) remov (1.868030) upscal (1.866951) ah (1.854199) d (1.811806) 
yell (2.147416) favor (2.051919) breweri (2.007106) pretenti (1.998579) muffin (1.991365) rip (1.957947) swiss (1.923275) tikka (1.887782) thrown (1.845505) par (1.836588) 
peep (2.166000) mixtur (2.022285) overcook (2.013850) appetit (1.999939) fajita (1.994623) nostalgia (1.910049) english (1.819876) compet (1.800613) leak (1.772775) dealership (1.762659) 
began (2.236084) nut (2.167104) rough (2.053692) exclus (2.035496) beyond (1.985113) southern (1.966454) ceil (1.867976) record (1.820494) adequ (1.795337) score (1.791917) 
pound (2.040584) loung (1.923423) howev (1.874296) crunch (1.836556) giant (1.826256) recept (1.817243) tech (1.815248) raw (1.787018) hall (1.755634) eventu (1.747010) 
demand (2.174335) instruct (1.951011) threw (1.879481) remark (1.829515) test (1.825722) temperatur (1.797707) fool (1.777174) trade (1.722003) hash (1.719293) checkout (1.688364) 
divin (2.277206) construct (2.065055) hire (2.009160) butteri (1.994620) merri (1.981426) schedul (1.970946) closet (1.965316) fiesta (1.938878) scrambl (1.923883) basement (1.830097) 
Error (train/valid/test) = 0.474536/1.547974/1.498327 (0.063501)
..................................................
energy after gradient step = 21681082.042251

Top words for each topic:
vet (2.459317) lit (2.365110) stix (2.229250) lacklust (2.147573) stapl (2.140554) skip (2.058172) chop (2.003224) larger (1.994517) complimentari (1.974503) soooo (1.920933) 
connect (2.321141) express (2.311670) cigar (2.307681) amigo (2.262012) between (2.165032) hey (2.057403) remodel (2.055781) amtrak (2.018695) pickup (1.985365) million (1.954602) 
nonetheless (2.259128) marin (2.242116) period (2.156372) ined (2.060450) aroma (2.030067) doodl (1.986139) rental (1.982674) public (1.945921) paradiso (1.917822) screw (1.895766) 
stare (2.150213) mash (2.073751) ass (2.062831) packet (2.053345) cab (2.048046) easier (2.020262) ah (2.014286) ravioli (1.983604) quaint (1.949312) remov (1.900492) 
yell (2.475312) pretenti (2.317797) social (2.240706) rip (2.020515) memor (1.998195) par (1.915580) tequila (1.904911) muffin (1.861160) tough (1.851231) winner (1.837230) 
leak (2.365995) peep (2.346267) compet (2.169694) appetit (2.064484) paradiso (2.011959) screen (2.000003) fajita (1.979852) devil (1.960899) nostalgia (1.883448) dear (1.853541) 
southern (2.512561) exclus (2.484179) nut (2.384663) pure (2.263389) adequ (2.171796) rough (2.117148) undergrad (2.102986) ceil (2.073733) record (2.040371) attend (1.981607) 
loung (2.267278) earlier (2.078631) raw (2.074031) bulk (2.064993) sleep (2.064348) resid (2.026301) common (2.003065) pound (1.918912) distanc (1.903585) eventu (1.893861) 
remark (2.159221) threw (2.079208) instruct (1.987799) test (1.978861) trade (1.921233) ribey (1.863360) tasteless (1.847599) flight (1.794959) recip (1.778129) scene (1.776068) 
divin (2.447964) needless (2.241337) fiesta (2.064397) schedul (2.010552) central (2.007342) insur (1.981632) medic (1.978898) mother (1.959366) meant (1.945271) stew (1.939075) 
Error (train/valid/test) = 0.397882/1.652364/1.546338 (0.067144)
..................................................
energy after gradient step = 21629442.132293

Top words for each topic:
stix (2.661120) lacklust (2.652144) lit (2.276713) vet (2.275887) stapl (2.234651) hurri (2.172758) soooo (2.133856) regret (2.108445) prairi (2.083515) senior (2.078172) 
connect (2.571034) moder (2.405640) express (2.391549) fridg (2.302312) n (2.216473) pleasur (2.202071) amigo (2.150371) meatbal (2.140016) hey (2.130780) ticket (2.100246) 
secret (2.637898) rental (2.494735) nonetheless (2.371884) complement (2.368875) marin (2.354184) tour (2.227488) aroma (2.157256) creme (2.114693) screw (2.101713) period (2.101015) 
benefit (2.416802) joe (2.403533) ass (2.395153) stare (2.366010) purpos (2.281530) rangoon (2.266964) mash (2.197548) industri (2.153145) cab (2.092154) packet (2.084145) 
yell (2.347969) swiss (2.316685) thrown (2.276572) pretenti (2.275275) memor (2.227466) breweri (2.223907) tequila (2.121668) enchilada (2.077913) jimmi (2.049104) par (2.023117) 
peep (2.440017) devil (2.433351) compet (2.219161) leak (2.137337) shave (2.118983) dear (2.104538) overcook (2.082994) dealership (2.079554) featur (2.077989) eyebrow (2.064644) 
southern (2.524357) nut (2.417822) vodka (2.312736) began (2.296096) program (2.199361) score (2.146646) substitut (2.136124) rough (2.112554) hostess (2.103961) togeth (2.066737) 
bulk (2.503289) tech (2.400469) sum (2.260274) sleep (2.247017) crunch (2.246491) earlier (2.168621) consum (2.159704) fashion (2.158134) resid (2.150347) pound (2.087907) 
instruct (2.327533) form (2.196324) unprofession (2.126630) ribey (2.111480) test (2.076533) scene (2.058330) steam (2.018717) label (1.975993) remark (1.972034) fool (1.971964) 
needless (2.480746) surgeri (2.267226) eclect (2.212513) crane (2.197242) divin (2.189404) medic (2.160528) ranch (2.156230) deserv (2.121977) insur (2.111729) central (2.064311) 
Error (train/valid/test) = 0.290652/1.738428/1.622605 (0.067466)
..................................................
energy after gradient step = 21597341.020268

Top words for each topic:
vet (2.596654) lacklust (2.594467) stix (2.542933) lit (2.418854) stapl (2.379617) complimentari (2.338565) prairi (2.201963) soooo (2.188748) skip (2.177955) bagel (2.145924) 
pickup (2.551978) express (2.413013) hey (2.339426) luck (2.333486) georgia (2.300382) connect (2.290681) amigo (2.255476) utter (2.249570) million (2.234685) hospit (2.224145) 
lincoln (2.381003) secret (2.360748) rental (2.354307) aroma (2.293218) period (2.226239) wipe (2.188093) nonetheless (2.152842) complement (2.123025) footbal (2.089202) marin (2.086199) 
mash (2.414527) cab (2.349232) joe (2.273274) purpos (2.264786) benefit (2.231729) ass (2.205901) accept (2.112713) stare (2.109638) annoy (2.092435) invit (2.068012) 
yell (2.372129) rip (2.330122) enchilada (2.300770) pretenti (2.295523) spirit (2.270987) breweri (2.246788) memor (2.225820) hash (2.204969) swiss (2.194190) cucumb (2.190474) 
peep (2.708882) royal (2.480527) river (2.421498) devil (2.334864) dear (2.309243) eyebrow (2.219581) vanilla (2.218323) leak (2.195816) strip (2.174154) ground (2.117632) 
southern (2.654489) nut (2.410813) decad (2.289912) ceil (2.176027) coat (2.172138) score (2.167933) field (2.145758) substitut (2.112021) record (2.104152) undergrad (2.065927) 
bulk (2.581636) distanc (2.566534) raw (2.462855) tech (2.401215) sum (2.382354) kopi (2.365466) resid (2.349261) fashion (2.278240) charact (2.234287) hipster (2.174223) 
test (2.404078) ribey (2.400639) known (2.185201) naan (2.159360) form (2.148879) situat (2.144353) bike (2.129431) scene (2.124467) threw (2.089626) compliment (2.087611) 
needless (2.583381) ranch (2.574526) deserv (2.532353) divin (2.421858) le (2.296313) stew (2.285137) higher (2.269942) jazz (2.179291) human (2.170211) grape (2.126455) 
Error (train/valid/test) = 0.262525/1.755954/1.642695 (0.069436)
..................................................
energy after gradient step = 21550193.222134

Top words for each topic:
vet (3.023378) stapl (2.673215) bagel (2.668472) lacklust (2.644655) lit (2.631059) complimentari (2.624580) stix (2.487385) cannot (2.422236) occupi (2.402543) senior (2.358949) 
express (2.708275) amigo (2.622184) yesterday (2.435863) luck (2.396264) jack (2.370868) sirloin (2.367896) amtrak (2.366676) harsh (2.320199) apolog (2.299670) martini (2.297399) 
aroma (2.569141) doodl (2.417702) secret (2.373432) screw (2.362339) wipe (2.351247) tour (2.344800) track (2.331215) nonetheless (2.228737) haha (2.195426) period (2.193116) 
mash (2.554847) stare (2.533369) joe (2.450219) accept (2.449562) bewar (2.390435) cab (2.381294) ass (2.341931) upscal (2.274542) packet (2.264273) nowher (2.263988) 
rip (2.556541) tequila (2.529839) memor (2.524334) thrown (2.494487) cucumb (2.490669) yell (2.481124) enchilada (2.440011) major (2.436206) winner (2.400119) met (2.395198) 
paradiso (2.621181) dear (2.440214) river (2.439274) peep (2.429198) featur (2.404276) royal (2.403843) carmon (2.393491) strip (2.368658) doctor (2.319425) appetit (2.265743) 
southern (2.738704) stale (2.461542) nut (2.460064) record (2.456805) rough (2.444244) ceil (2.384142) experienc (2.310575) substitut (2.305646) succeed (2.229775) score (2.225351) 
sum (2.782814) bulk (2.582925) although (2.464284) rentertain (2.433869) pound (2.412972) resid (2.406931) charact (2.400859) tempura (2.387561) fashion (2.356844) sleep (2.322583) 
ribey (2.896031) remark (2.431211) bike (2.421699) yellowfin (2.405931) situat (2.376337) test (2.294697) mouth (2.294367) snob (2.285089) naan (2.262863) threw (2.253347) 
pita (2.722220) deserv (2.522061) film (2.453307) divin (2.400280) human (2.389135) needless (2.372158) ranch (2.365706) central (2.352145) le (2.347313) crane (2.307129) 
Error (train/valid/test) = 0.252694/1.818116/1.684351 (0.072023)
..................................................
energy after gradient step = 21496449.030190

Top words for each topic:
vet (2.939528) bagel (2.798796) stix (2.679763) lacklust (2.647360) stapl (2.592453) complimentari (2.551680) 45 (2.548394) lit (2.530686) senior (2.372477) prairi (2.335427) 
express (2.493697) sirloin (2.490056) amigo (2.486379) jack (2.362006) georgia (2.361414) amtrak (2.353185) martini (2.306598) luck (2.264199) row (2.254026) pickup (2.166809) 
aroma (2.545334) secret (2.419133) tour (2.354695) rental (2.339322) nonetheless (2.330839) wipe (2.315477) period (2.297372) bother (2.221856) doodl (2.217434) dough (2.160923) 
cab (2.509488) stare (2.507822) accept (2.498003) joe (2.445021) upscal (2.421169) extens (2.392658) bewar (2.357628) lens (2.355210) shes (2.316693) ass (2.278451) 
memor (2.776831) cucumb (2.699977) major (2.659220) breweri (2.516334) thrown (2.456258) jimmi (2.415381) alcohol (2.407871) gyro (2.392197) met (2.374008) pretenti (2.364591) 
peep (2.777140) crepe (2.526019) royal (2.419801) eyebrow (2.412688) river (2.409488) nois (2.362658) carmon (2.352760) dear (2.330413) ground (2.328891) featur (2.269356) 
nut (2.673343) southern (2.515145) record (2.480615) field (2.444346) undergrad (2.375139) stale (2.352253) rough (2.346694) compani (2.264277) ceil (2.260913) succeed (2.250650) 
sum (2.888954) bulk (2.805608) kopi (2.740454) resid (2.585421) although (2.569185) rentertain (2.490413) charact (2.484716) tempura (2.411912) velvet (2.411515) 301 (2.362242) 
bike (2.851138) ribey (2.707167) threw (2.517605) ramen (2.393155) test (2.330926) snob (2.308870) remark (2.295213) antonio (2.253638) taiwanes (2.244387) curd (2.234700) 
film (2.699745) ranch (2.613443) deserv (2.547357) needless (2.520636) higher (2.452139) hummus (2.445033) divin (2.416494) le (2.324324) human (2.303970) chipotl (2.271796) 
Error (train/valid/test) = 0.242545/1.821670/1.718546 (0.074175)
..................................................
energy after gradient step = 21446631.484573

Top words for each topic:
vet (3.052310) bagel (3.017180) lacklust (2.908511) stix (2.763257) lit (2.622114) banh (2.583686) 45 (2.551184) gym (2.549607) complimentari (2.504246) stapl (2.485017) 
express (2.635965) amtrak (2.537641) amigo (2.494639) sirloin (2.418724) georgia (2.398466) martini (2.338710) cigar (2.279731) hey (2.236376) between (2.221501) row (2.193669) 
aroma (2.724555) secret (2.482429) rental (2.436915) italian (2.408122) nonetheless (2.362222) tour (2.291532) lincoln (2.283313) pho (2.260989) everybodi (2.213298) wipe (2.193236) 
accept (2.666433) frame (2.574250) mash (2.550491) lens (2.504369) cab (2.430735) stare (2.389556) ass (2.350806) extens (2.339652) joe (2.319274) upscal (2.269200) 
major (2.674532) jimmi (2.659790) gyro (2.605516) cucumb (2.509954) thrown (2.498074) memor (2.491204) enchilada (2.471265) breweri (2.463221) pretenti (2.458444) met (2.445293) 
peep (2.793350) eyebrow (2.578939) crepe (2.568886) insur (2.521360) ground (2.467664) vanilla (2.441125) appetit (2.377164) strip (2.306770) compet (2.286022) paradiso (2.283332) 
nut (2.734177) southern (2.713909) ceil (2.416906) field (2.412676) compani (2.408845) stale (2.379510) entertain (2.349195) undergrad (2.336067) record (2.318749) healthi (2.289971) 
kopi (2.917684) sum (2.869643) bulk (2.767536) resid (2.628711) raw (2.563518) velvet (2.560356) 301 (2.546093) rentertain (2.510806) pound (2.510535) custard (2.507130) 
bike (2.900552) ribey (2.770484) ramen (2.700439) naan (2.681246) situat (2.413830) threw (2.339074) japanes (2.337358) teriyaki (2.334092) remark (2.327282) bunch (2.304918) 
ranch (2.684942) chipotl (2.647289) needless (2.637324) juici (2.558529) higher (2.549194) deserv (2.534816) film (2.518736) hummus (2.497252) patti (2.444501) crane (2.420965) 
Error (train/valid/test) = 0.237339/1.857275/1.748922 (0.075665)
..................................................
energy after gradient step = 21393144.672865

Top words for each topic:
vet (3.181545) banh (2.894265) lacklust (2.863420) bagel (2.836138) stix (2.797355) 45 (2.736197) gym (2.659739) lit (2.599695) stapl (2.546011) delay (2.467673) 
amigo (2.623099) express (2.584223) georgia (2.471498) martini (2.401084) amtrak (2.399841) cigar (2.377653) between (2.355547) sirloin (2.353410) lai (2.322847) n (2.260504) 
aroma (2.825007) rental (2.572981) secret (2.486707) pho (2.483409) italian (2.480654) wipe (2.285327) wok (2.258747) nonetheless (2.254068) tour (2.205893) comment (2.200214) 
accept (2.680712) frame (2.675315) cab (2.666482) shoe (2.616735) lens (2.542010) mash (2.417986) extens (2.385589) ass (2.368437) rosati (2.332988) packet (2.313720) 
gyro (2.914201) jimmi (2.641769) memor (2.598023) pretenti (2.597744) met (2.555439) major (2.544957) cucumb (2.536205) enchilada (2.492573) thrown (2.462671) hash (2.396082) 
crepe (2.888293) peep (2.635702) ground (2.618404) eyebrow (2.605575) insur (2.564301) carmon (2.512773) paradiso (2.401170) featur (2.379961) vanilla (2.357971) strip (2.314393) 
nut (2.662909) vegan (2.627582) southern (2.536954) healthi (2.498560) field (2.487269) ceil (2.384275) entertain (2.360971) coat (2.348797) compani (2.337589) record (2.336546) 
kopi (2.958672) sum (2.910059) custard (2.806152) bulk (2.773840) pound (2.687432) raw (2.679852) rentertain (2.630411) tempura (2.620930) 301 (2.594256) resid (2.559222) 
bike (3.003389) ramen (2.854530) ribey (2.847630) naan (2.801791) taiwanes (2.416855) yellowfin (2.397277) threw (2.390499) japanes (2.380258) test (2.376853) situat (2.356042) 
pita (2.749904) chipotl (2.746259) crane (2.682500) hummus (2.676152) deserv (2.671965) ranch (2.563423) needless (2.550537) juici (2.548358) film (2.475620) higher (2.435348) 
Error (train/valid/test) = 0.223425/1.828986/1.757526 (0.074556)
..................................................
energy after gradient step = 21341344.654008

Top words for each topic:
bagel (3.237822) vet (3.120578) banh (3.085733) stix (2.795745) lacklust (2.693023) 45 (2.627678) larger (2.588679) sport (2.518533) gym (2.483728) lit (2.448865) 
express (2.702512) martini (2.507620) cigar (2.470380) amtrak (2.429127) amigo (2.427027) lemon (2.413543) georgia (2.405551) lai (2.349981) pickup (2.331823) bulgogi (2.311344) 
pho (2.817321) aroma (2.797816) rental (2.720973) italian (2.719741) secret (2.540851) period (2.501550) tour (2.403966) bill (2.387343) nonetheless (2.358647) cooki (2.307686) 
shoe (3.036661) frame (2.744289) mash (2.680073) cab (2.641413) lens (2.637789) ass (2.559905) haircut (2.525491) accept (2.503427) extens (2.429862) rosati (2.372569) 
gyro (3.217550) jimmi (2.945283) enchilada (2.699565) memor (2.655767) breweri (2.523453) diner (2.514547) met (2.478224) major (2.468484) cucumb (2.445276) carri (2.441449) 
crepe (2.899617) vanilla (2.753200) eyebrow (2.651922) peep (2.649376) carmon (2.613255) insur (2.523641) devil (2.518101) ground (2.506137) strip (2.489936) rather (2.460074) 
field (2.710145) vegan (2.603944) southern (2.517337) nut (2.514174) coat (2.462084) compani (2.460010) hostess (2.431393) record (2.403358) entertain (2.397696) coop (2.382761) 
custard (3.159020) sum (3.075318) bulk (2.974613) kopi (2.953040) raw (2.854177) although (2.785337) rentertain (2.769909) tempura (2.710254) distanc (2.703863) movi (2.621930) 
bike (3.202659) ramen (3.101915) naan (2.901794) ribey (2.859003) brisket (2.535943) taiwanes (2.529116) teriyaki (2.493240) remark (2.407715) threw (2.396993) situat (2.386088) 
chipotl (2.828415) crane (2.684136) pita (2.680899) patti (2.675486) hummus (2.663871) ranch (2.626424) theater (2.619742) film (2.527813) juici (2.522557) deserv (2.505607) 
Error (train/valid/test) = 0.232138/1.844457/1.783228 (0.074443)
..................................................
energy after gradient step = 21264720.219485

Top words for each topic:
bagel (3.423982) vet (3.278477) banh (3.087868) stix (2.940491) 45 (2.764603) gym (2.685567) mi (2.628344) starbuck (2.606091) stapl (2.563932) lacklust (2.559098) 
amigo (2.801659) cigar (2.516445) express (2.496991) martini (2.433342) amtrak (2.426947) waitstaff (2.371184) lemon (2.365645) georgia (2.365389) maiz (2.357768) sirloin (2.350125) 
rental (2.821611) italian (2.785852) pho (2.683006) aroma (2.626217) secret (2.574968) wok (2.522216) cooki (2.510355) tour (2.499028) bill (2.388034) deliveri (2.358979) 
frame (2.897607) shoe (2.774010) lens (2.767881) cab (2.690933) mash (2.667689) haircut (2.541382) extens (2.522305) ass (2.512300) accept (2.450434) rosati (2.424273) 
gyro (3.385969) enchilada (2.906218) diner (2.733742) jimmi (2.727046) major (2.611625) memor (2.508619) rip (2.416464) guacamol (2.388819) breweri (2.371024) cucumb (2.370032) 
crepe (3.050259) eyebrow (2.723958) peep (2.605233) ground (2.569402) carmon (2.549888) vanilla (2.532755) appetit (2.460756) strip (2.429303) insur (2.363463) fajita (2.338867) 
vegan (2.763900) coop (2.696743) nut (2.672715) field (2.618778) record (2.597643) jean (2.529634) hostess (2.492739) southern (2.475909) compani (2.470361) began (2.457020) 
custard (3.441417) sum (3.123058) kopi (3.007441) bulk (2.944036) raw (2.896027) tempura (2.865219) rentertain (2.790281) movi (2.767890) distanc (2.763474) cloth (2.730257) 
bike (3.272145) ramen (3.205307) ribey (2.975218) naan (2.955464) brisket (2.625561) japanes (2.539214) tire (2.472919) truck (2.451697) taiwanes (2.406472) test (2.398876) 
chipotl (3.001378) crane (2.808851) patti (2.783833) hummus (2.778205) pita (2.660717) alley (2.648222) film (2.646263) deserv (2.587551) ranch (2.585594) juici (2.577129) 
Error (train/valid/test) = 0.255079/1.912839/1.804250 (0.079704)
..................................................
energy after gradient step = 21176818.514560

Top words for each topic:
bagel (3.465424) vet (3.380923) banh (3.330097) stix (3.056742) pokey (2.926313) gym (2.915762) mi (2.911173) 45 (2.758459) starbuck (2.663205) murphi (2.569771) 
amigo (2.691080) martini (2.585257) lai (2.535636) express (2.519108) cigar (2.504798) georgia (2.477668) korean (2.433510) lemon (2.420979) maiz (2.417606) sirloin (2.349492) 
rental (2.906477) italian (2.826860) pho (2.795716) aroma (2.749927) bill (2.694583) secret (2.573159) wok (2.559543) cooki (2.517821) tour (2.428643) track (2.402576) 
shoe (3.033040) frame (2.922360) haircut (2.919425) lens (2.848816) accept (2.819377) barber (2.713349) cab (2.704430) mash (2.622007) extens (2.580610) rosati (2.556390) 
gyro (3.526785) diner (2.992470) jimmi (2.860141) enchilada (2.854837) breweri (2.643434) guacamol (2.618946) memor (2.532053) alcohol (2.518034) rip (2.511069) major (2.508592) 
crepe (3.061598) peep (2.792490) carmon (2.743965) eyebrow (2.703955) vanilla (2.649449) insur (2.509366) appetit (2.477842) nois (2.460555) curri (2.444118) ground (2.429498) 
vegan (3.017907) field (2.822845) record (2.774256) nut (2.728022) coop (2.639150) hostess (2.588535) undergrad (2.579783) cafe (2.568228) race (2.534285) healthi (2.521089) 
custard (3.621452) kopi (3.353726) tempura (3.154916) sum (3.143110) movi (3.057879) bulk (2.974505) raw (2.930881) cloth (2.922303) rentertain (2.908999) distanc (2.862677) 
ramen (3.406923) bike (3.233664) naan (3.033463) brisket (2.927879) ribey (2.849835) cupcak (2.678485) truck (2.671322) japanes (2.603519) tire (2.516486) indian (2.481083) 
crane (2.934476) chipotl (2.917189) pita (2.777987) ranch (2.761940) needless (2.717358) boltini (2.680666) hummus (2.641117) alley (2.639755) theater (2.632328) juici (2.591171) 
Error (train/valid/test) = 0.223122/1.865386/1.785845 (0.076523)
..................................................
energy after gradient step = 21084156.028021

Top words for each topic:
bagel (3.709975) vet (3.573115) banh (3.284389) stix (3.226270) pokey (3.194903) starbuck (3.010593) mi (2.977867) gym (2.884460) 45 (2.879340) hotel (2.874912) 
amigo (2.808555) lai (2.761237) korean (2.665633) maiz (2.592732) express (2.571951) cigar (2.535807) martini (2.470911) guest (2.419736) georgia (2.391146) n (2.352976) 
pho (3.059485) rental (3.043095) italian (2.887150) cooki (2.795347) aroma (2.719197) deep (2.689699) wok (2.661235) bill (2.614125) nonetheless (2.503867) secret (2.500030) 
shoe (3.131241) frame (3.122931) haircut (3.017287) barber (2.999355) cab (2.854260) lens (2.809349) stylist (2.747283) accept (2.731248) hair (2.709504) extens (2.631109) 
gyro (3.656470) diner (3.120592) enchilada (2.986437) jimmi (2.875784) hash (2.674812) waffl (2.665100) breweri (2.662835) major (2.620392) met (2.613503) push (2.566523) 
crepe (3.155756) peep (2.729432) carmon (2.684783) eyebrow (2.596141) curri (2.586018) shrimp (2.514767) thai (2.459446) insur (2.457027) bacaro (2.415088) appetit (2.401837) 
vegan (3.020515) record (2.988001) nut (2.871922) cafe (2.840088) coop (2.813247) field (2.796055) espresso (2.751594) race (2.662141) ceil (2.654503) pad (2.592324) 
custard (3.755490) kopi (3.283977) tempura (3.121299) movi (3.100042) sum (3.093845) yogurt (3.093142) bulk (3.046616) cloth (3.026005) raw (2.981014) velvet (2.890260) 
bike (3.452207) ramen (3.392043) naan (3.184357) ribey (2.955134) brisket (2.887492) cupcak (2.734062) japanes (2.635662) indian (2.579456) yellowfin (2.573745) test (2.547633) 
chipotl (3.086059) crane (2.988184) alley (2.771878) theater (2.738405) boltini (2.660803) hummus (2.657481) pita (2.644040) needless (2.638204) ranch (2.634638) patti (2.625048) 
Error (train/valid/test) = 0.225264/1.863794/1.803155 (0.077804)
..................................................
energy after gradient step = 20947833.852333

Top words for each topic:
bagel (3.852508) vet (3.579769) banh (3.571503) pokey (3.451456) stix (3.428314) starbuck (3.195107) mi (3.180211) hotel (3.044697) xinh (3.021657) book (2.919174) 
korean (2.954770) maiz (2.895705) amigo (2.841200) cigar (2.761635) lai (2.706029) empanada (2.678802) martini (2.666026) bulgogi (2.648704) chorizo (2.531009) n (2.496706) 
pho (3.077066) italian (2.941910) rental (2.920709) cooki (2.907449) deep (2.857395) aroma (2.845697) farmer (2.757034) bill (2.712382) maria (2.705513) dough (2.593548) 
haircut (3.393946) frame (3.286059) shoe (3.168130) barber (3.146084) cab (3.016517) stylist (2.998920) hair (2.997935) lens (2.985463) salon (2.965336) rosati (2.962205) 
gyro (3.878522) diner (3.219552) enchilada (3.193241) breweri (2.943622) jimmi (2.907498) stack (2.836288) rip (2.832897) dos (2.818203) merryann (2.787349) niro (2.738303) 
crepe (3.282393) curri (2.847992) carmon (2.815438) thai (2.806330) shrimp (2.654628) ground (2.586577) eyebrow (2.563473) vanilla (2.525647) peep (2.512391) buffet (2.511712) 
cafe (3.173586) field (3.113295) vegan (3.094642) espresso (2.863621) librari (2.831187) pad (2.818928) coop (2.814233) healthi (2.806258) southern (2.773845) record (2.768128) 
custard (4.072179) kopi (3.485506) yogurt (3.329713) tempura (3.301419) bento (3.211535) velvet (3.188471) movi (3.183270) rentertain (3.171759) sum (3.128783) raw (3.107088) 
ramen (3.650187) bike (3.575748) naan (3.381875) brisket (3.137832) ribey (3.038316) cupcak (2.952164) yellowfin (2.920190) indian (2.865320) sushi (2.864430) japanes (2.814905) 
chipotl (3.158166) crane (3.132233) pita (2.849060) dog (2.842563) ranch (2.791903) alley (2.784639) patti (2.770163) nail (2.768470) juici (2.708744) divin (2.645881) 
Error (train/valid/test) = 0.221257/1.917925/1.820680 (0.081471)
..................................................
energy after gradient step = 20807905.529831

Top words for each topic:
bagel (4.028288) vet (3.762486) banh (3.711226) pokey (3.636449) stix (3.459119) hotel (3.291287) mi (3.275464) starbuck (3.224194) gym (3.199727) book (3.180573) 
korean (3.083466) lai (2.930340) maiz (2.913186) amigo (2.848485) bulgogi (2.788977) martini (2.741928) cigar (2.696176) empanada (2.588247) carn (2.565432) express (2.472141) 
italian (3.110045) papa (3.086146) deep (3.039559) cooki (3.035690) rental (3.008723) pho (2.974176) maria (2.811539) aroma (2.762022) dough (2.737654) bill (2.726979) 
haircut (3.797688) shoe (3.433629) frame (3.392311) hair (3.353303) barber (3.321405) salon (3.158227) cab (3.120899) stylist (3.096002) lens (3.026331) wax (2.902718) 
gyro (4.052979) diner (3.389691) enchilada (3.282074) jimmi (3.199503) breweri (3.018484) merryann (2.944242) dos (2.902295) niro (2.880319) rip (2.827024) tequila (2.790932) 
crepe (3.216952) curri (2.974660) thai (2.953035) carmon (2.859826) shrimp (2.758968) pickl (2.669255) eyebrow (2.640341) peep (2.636705) bacaro (2.533593) bombay (2.486983) 
cafe (3.257084) librari (3.238752) vegan (3.237952) field (3.114250) espresso (3.096516) coop (3.083474) record (3.047197) race (3.027897) pad (3.017462) healthi (3.014649) 
custard (4.263730) movi (3.640642) yogurt (3.539169) kopi (3.467381) tempura (3.386723) cloth (3.306016) velvet (3.295934) rentertain (3.268708) sum (3.233418) bento (3.143321) 
ramen (3.713675) bike (3.561478) naan (3.429967) brisket (3.400296) sushi (3.173723) cupcak (3.139986) ribey (3.012552) japanes (2.982589) tire (2.965711) indian (2.913549) 
chipotl (3.285362) crane (3.195687) alley (3.147688) dog (3.003557) pita (2.928908) nail (2.922556) patti (2.819450) ranch (2.810274) boltini (2.790255) juici (2.718977) 
Error (train/valid/test) = 0.215576/1.887352/1.815496 (0.079753)
..................................................
energy after gradient step = 20674271.895211

Top words for each topic:
bagel (4.100811) vet (3.787740) pokey (3.705891) banh (3.685356) stix (3.536366) mi (3.460728) hotel (3.456232) starbuck (3.381324) book (3.359268) xinh (3.284980) 
korean (3.112737) amigo (2.944937) maiz (2.875743) lai (2.790042) bulgogi (2.685840) martini (2.679706) mexican (2.662857) chines (2.639656) cigar (2.638516) empanada (2.572421) 
italian (3.267352) deep (3.254403) cooki (3.203342) papa (3.172096) pho (3.151815) rental (3.069784) maria (3.019359) aroma (2.874766) wok (2.800987) farmer (2.787409) 
haircut (3.761141) hair (3.697240) shoe (3.508599) frame (3.414999) barber (3.325087) salon (3.272379) stylist (3.148528) cab (3.114742) lens (3.059156) cut (3.042211) 
gyro (4.161177) diner (3.551903) enchilada (3.232483) jimmi (3.208147) dos (3.002254) merryann (2.968692) breweri (2.938856) niro (2.923006) huarach (2.888510) stack (2.833160) 
crepe (3.239869) thai (3.057963) curri (2.967432) carmon (2.775994) shrimp (2.728338) peep (2.594984) pickl (2.557783) eyebrow (2.516300) courier (2.515087) bombay (2.503393) 
cafe (3.547824) vegan (3.405086) espresso (3.227023) field (3.208234) librari (3.186747) pad (3.158025) coop (3.082507) record (3.043478) race (3.024565) healthi (2.965607) 
custard (4.384302) kopi (3.735106) yogurt (3.734449) movi (3.687354) tempura (3.571878) cloth (3.444372) velvet (3.312744) froyo (3.294075) sum (3.288883) film (3.257056) 
ramen (3.818376) bike (3.665960) brisket (3.450003) naan (3.434371) cupcak (3.303634) sushi (3.275888) ribey (3.089377) indian (3.087536) japanes (3.075656) burnt (2.993032) 
crane (3.246960) chipotl (3.202416) dog (3.131954) pita (3.033059) alley (3.005504) nail (2.987341) patti (2.904345) boltini (2.868879) ranch (2.672979) hummus (2.660589) 
Error (train/valid/test) = 0.231871/1.869411/1.837951 (0.079456)
..................................................
energy after gradient step = 20502926.904964

Top words for each topic:
bagel (4.161111) vet (3.859074) banh (3.830544) pokey (3.784547) stix (3.606192) hotel (3.563164) book (3.557763) mi (3.545192) starbuck (3.505969) xinh (3.435101) 
korean (3.202068) maiz (2.917068) amigo (2.910494) mexican (2.822127) bulgogi (2.802293) lai (2.788261) chines (2.734200) martini (2.695997) cigar (2.659841) taco (2.656164) 
papa (3.390166) deep (3.303045) italian (3.253070) pho (3.198759) rental (3.168393) cooki (3.139656) crust (2.989726) maria (2.945482) bill (2.827433) aroma (2.819486) 
haircut (3.878092) hair (3.721667) shoe (3.572210) frame (3.530462) barber (3.470874) salon (3.309143) stylist (3.267925) dress (3.181213) cab (3.141807) cut (3.109066) 
gyro (4.240154) diner (3.575800) enchilada (3.383919) jimmi (3.260220) dos (3.136985) merryann (3.104637) huarach (2.967722) niro (2.948651) breweri (2.929160) gravi (2.917127) 
crepe (3.188025) thai (3.055263) curri (2.862069) carmon (2.732505) shrimp (2.603189) peep (2.584757) rice (2.537964) pickl (2.532767) courier (2.509291) bombay (2.497144) 
cafe (3.654331) vegan (3.513623) espresso (3.395273) field (3.345607) librari (3.331364) coop (3.123848) race (3.098590) record (3.091030) healthi (3.045522) pad (3.031413) 
custard (4.488995) movi (3.776891) yogurt (3.759381) kopi (3.746262) tempura (3.571404) cloth (3.455025) film (3.369344) froyo (3.369201) bento (3.357791) snowstorm (3.339165) 
ramen (3.850172) bike (3.625246) brisket (3.495567) naan (3.440123) sushi (3.386517) cupcak (3.276275) ribey (3.129530) burnt (3.079362) japanes (3.064827) bbq (3.059305) 
chipotl (3.268980) dog (3.253537) crane (3.207106) alley (3.045132) nail (3.017991) pita (2.968312) patti (2.893117) boltini (2.845436) pool (2.760438) hummus (2.758586) 
Error (train/valid/test) = 0.222489/1.856841/1.818951 (0.079868)
..................................................
energy after gradient step = 20342232.862461

Top words for each topic:
bagel (4.313620) vet (4.044462) banh (4.037326) pokey (3.894612) mi (3.741456) stix (3.694528) book (3.687505) hotel (3.659838) starbuck (3.638921) xinh (3.627567) 
korean (3.285887) mexican (2.985677) lai (2.950300) maiz (2.905314) amigo (2.845423) chines (2.841229) taco (2.817768) bulgogi (2.741147) cigar (2.714307) empanada (2.669945) 
papa (3.557105) italian (3.397818) deep (3.378982) cooki (3.301719) rental (3.226967) crust (3.144263) pho (3.110408) maria (3.019231) deliveri (2.954534) farmer (2.914158) 
haircut (4.045321) hair (3.915648) shoe (3.694610) frame (3.614070) barber (3.527708) salon (3.448035) cut (3.351848) stylist (3.341847) cab (3.320974) dress (3.232177) 
gyro (4.378413) diner (3.626445) enchilada (3.443033) jimmi (3.363251) merryann (3.333711) dos (3.190245) stack (3.157076) niro (3.073382) tequila (3.030058) gravi (2.947166) 
thai (3.199573) crepe (3.192721) curri (2.975451) shrimp (2.678578) rice (2.625285) carmon (2.623106) peep (2.591700) buffet (2.536745) eyebrow (2.484444) pickl (2.483384) 
cafe (3.773936) espresso (3.545732) field (3.502390) vegan (3.486053) librari (3.485519) coop (3.307112) record (3.222057) basil (3.220274) product (3.156228) race (3.125974) 
custard (4.577461) yogurt (4.020898) movi (3.991305) kopi (3.807447) tempura (3.730582) film (3.602289) cloth (3.545825) velvet (3.480833) snowstorm (3.474648) froyo (3.472166) 
ramen (3.869614) bike (3.727128) sushi (3.648116) brisket (3.519612) naan (3.510457) cupcak (3.381154) bbq (3.227781) burnt (3.149798) ribey (3.102275) japanes (3.085423) 
dog (3.349817) chipotl (3.314790) crane (3.238971) alley (3.139245) nail (3.025917) pita (2.937054) patti (2.913574) boltini (2.884894) theater (2.832823) hummus (2.792529) 
Error (train/valid/test) = 0.224550/1.860103/1.840100 (0.081038)
..................................................
energy after gradient step = 20177965.121103

Top words for each topic:
bagel (4.503948) banh (4.157076) pokey (4.123494) vet (4.100709) stix (3.904108) mi (3.866163) starbuck (3.849686) book (3.810639) hotel (3.775962) xinh (3.771344) 
korean (3.410983) mexican (3.179858) chines (3.096570) taco (3.048123) maiz (2.939924) lai (2.917986) amigo (2.890191) salsa (2.683887) empanada (2.640371) bulgogi (2.617747) 
papa (3.620021) deep (3.589875) pizza (3.453034) rental (3.383792) italian (3.382645) cooki (3.361086) crust (3.352426) pho (3.247060) maria (3.212831) deliveri (3.093370) 
hair (4.091340) haircut (4.044191) shoe (3.822647) frame (3.781510) barber (3.594584) salon (3.493801) cut (3.490465) appoint (3.416840) cab (3.373334) lens (3.336995) 
gyro (4.485197) diner (3.772471) jimmi (3.624753) merryann (3.473116) enchilada (3.464561) stack (3.347349) gravi (3.336162) dos (3.329434) niro (3.301282) hash (3.258284) 
thai (3.352006) crepe (3.143227) curri (3.031353) rice (2.709628) shrimp (2.704328) carmon (2.683741) peep (2.628502) egg (2.595454) courier (2.593202) entre (2.503453) 
cafe (3.890292) librari (3.848421) espresso (3.770246) vegan (3.679801) coop (3.562415) field (3.499527) race (3.414362) record (3.295704) basil (3.285683) organ (3.240417) 
custard (4.711069) yogurt (4.100305) kopi (4.010764) tempura (3.931560) movi (3.891038) film (3.861226) velvet (3.789209) froyo (3.757259) snowstorm (3.749258) cloth (3.670566) 
sushi (4.116435) ramen (3.993580) bike (3.682678) brisket (3.666149) naan (3.550235) cupcak (3.548332) bbq (3.495009) burnt (3.352265) roll (3.274716) indian (3.244402) 
dog (3.536809) alley (3.306692) crane (3.273531) chipotl (3.272107) pita (3.115395) nail (3.101200) boltini (2.955194) patti (2.901103) burger (2.899370) tap (2.898122) 
Error (train/valid/test) = 0.228499/1.895535/1.834500 (0.080817)
..................................................
energy after gradient step = 20030714.011716

Top words for each topic:
bagel (4.552049) vet (4.211360) banh (4.206502) pokey (4.185808) book (4.035799) mi (4.023650) hotel (4.009233) stix (3.951285) starbuck (3.847254) xinh (3.812320) 
korean (3.311110) mexican (3.284324) chines (3.219012) taco (3.119105) maiz (2.934735) amigo (2.869703) lai (2.853709) bulgogi (2.798439) salsa (2.754802) empanada (2.698406) 
papa (3.884291) crust (3.740053) pizza (3.708434) deep (3.687128) italian (3.509822) cooki (3.484728) rental (3.450279) maria (3.293971) car (3.219894) dough (3.160380) 
haircut (4.199341) hair (4.126922) shoe (3.790248) frame (3.789785) barber (3.672012) salon (3.621548) cab (3.406085) cut (3.403065) stylist (3.398235) wax (3.396646) 
gyro (4.666934) diner (3.921123) jimmi (3.550038) merryann (3.514187) enchilada (3.496402) stack (3.452025) dos (3.446811) niro (3.268518) gravi (3.250689) ann (3.249191) 
thai (3.361993) crepe (3.148518) curri (2.910055) rice (2.764680) shrimp (2.666952) carmon (2.640044) buffet (2.625698) egg (2.608913) entre (2.539987) peep (2.526220) 
cafe (4.144891) espresso (3.859930) librari (3.755754) vegan (3.733753) field (3.683747) coop (3.600158) tea (3.503402) basil (3.429891) race (3.423445) latt (3.393645) 
custard (4.802866) yogurt (4.247084) movi (4.096150) kopi (4.039360) film (3.937678) tempura (3.904275) velvet (3.800099) froyo (3.779286) snowstorm (3.744190) cloth (3.688694) 
sushi (4.213360) ramen (4.010581) bike (3.775442) bbq (3.678509) brisket (3.672176) cupcak (3.595775) naan (3.588603) burnt (3.434354) roll (3.432168) rib (3.213212) 
dog (3.618652) chipotl (3.456115) crane (3.310827) alley (3.178235) nail (3.152110) pita (3.090919) burger (3.004178) bartend (2.991258) beer (2.985611) patti (2.936958) 
Error (train/valid/test) = 0.266627/1.883202/1.870550 (0.079875)
..................................................
energy after gradient step = 19871324.268931

Top words for each topic:
bagel (4.650008) vet (4.374979) pokey (4.354115) banh (4.339808) mi (4.131213) hotel (4.125436) starbuck (4.017777) book (4.005404) stix (4.002423) xinh (3.932476) 
mexican (3.402568) korean (3.380564) chines (3.322513) taco (3.221037) lai (2.981069) maiz (2.946792) amigo (2.893640) bulgogi (2.822561) salsa (2.738499) authent (2.644128) 
pizza (4.356312) papa (3.897601) deep (3.859078) crust (3.781831) italian (3.535433) rental (3.529829) cooki (3.515208) car (3.389406) del (3.291912) deliveri (3.280634) 
hair (4.243683) haircut (4.216490) shoe (3.859090) frame (3.725851) barber (3.707861) salon (3.682570) cut (3.547491) stylist (3.507947) wax (3.498707) appoint (3.485710) 
gyro (4.709862) diner (4.009505) jimmi (3.671315) enchilada (3.646391) merryann (3.549701) dos (3.531994) stack (3.527276) ann (3.491138) gravi (3.434175) niro (3.343553) 
thai (3.426519) crepe (3.100363) curri (2.981570) rice (2.823577) shrimp (2.704632) pad (2.626627) egg (2.625624) carmon (2.565170) entre (2.557582) courier (2.499105) 
cafe (4.194536) librari (3.885696) espresso (3.881487) field (3.769095) vegan (3.748205) coop (3.713469) latt (3.602424) basil (3.565796) coffe (3.563093) tea (3.556928) 
custard (4.858575) yogurt (4.302243) movi (4.180085) kopi (4.160651) film (4.019454) tempura (3.934073) velvet (3.864224) snowstorm (3.842599) cloth (3.833363) royal (3.764953) 
sushi (4.352426) ramen (4.072652) bbq (3.787272) brisket (3.786837) bike (3.730854) cupcak (3.627934) roll (3.611372) naan (3.586754) japanes (3.421208) burnt (3.405354) 
dog (3.671590) crane (3.388850) chipotl (3.379646) beer (3.337320) alley (3.214151) nail (3.183466) pita (3.138744) burger (3.093080) patti (3.079214) boltini (3.076691) 
Error (train/valid/test) = 0.267604/1.882937/1.876721 (0.079778)
..................................................
energy after gradient step = 19741978.393755

Top words for each topic:
bagel (4.783714) banh (4.402203) pokey (4.399409) vet (4.390952) hotel (4.257876) book (4.181303) mi (4.100618) stix (4.083805) xinh (4.062127) gym (3.927401) 
mexican (3.472144) chines (3.444916) korean (3.308906) taco (3.301576) maiz (3.019241) salsa (2.955744) lai (2.937327) amigo (2.862481) bulgogi (2.777311) chip (2.767078) 
pizza (4.768177) papa (4.160039) deep (3.914121) crust (3.868795) del (3.700823) rental (3.620835) italian (3.544884) cooki (3.534612) car (3.518445) deliveri (3.351970) 
hair (4.294658) haircut (4.255229) shoe (3.933999) frame (3.852797) barber (3.778981) salon (3.756647) wax (3.609647) appoint (3.551970) cut (3.516698) stylist (3.514160) 
gyro (4.830342) diner (4.038185) merryann (3.735533) dos (3.721590) jimmi (3.692868) enchilada (3.649002) stack (3.618941) gravi (3.591661) ann (3.530218) niro (3.409777) 
thai (3.462550) crepe (3.148880) curri (2.980010) rice (2.884663) pad (2.707273) shrimp (2.668098) egg (2.664973) carmon (2.621015) burger (2.540221) peep (2.529300) 
cafe (4.307397) espresso (4.147535) librari (3.962530) coop (3.859367) field (3.821548) vegan (3.768151) latt (3.755351) coffe (3.642687) tea (3.615135) organ (3.566479) 
custard (5.026935) yogurt (4.457996) kopi (4.272767) film (4.249016) movi (4.222922) tempura (3.946777) snowstorm (3.936150) froyo (3.933387) cloth (3.892083) royal (3.880531) 
sushi (4.466920) ramen (4.114285) bbq (3.849065) brisket (3.818905) bike (3.817480) cupcak (3.730277) naan (3.705274) roll (3.664659) burnt (3.565312) rib (3.475103) 
dog (3.738169) beer (3.549770) chipotl (3.452840) crane (3.384690) alley (3.353502) burger (3.212383) bartend (3.182849) tap (3.113243) nail (3.096901) pita (3.022573) 
Error (train/valid/test) = 0.232626/1.868830/1.824733 (0.078558)
..................................................
energy after gradient step = 19622201.799925

Top words for each topic:
bagel (4.795298) banh (4.487322) pokey (4.458965) vet (4.452880) hotel (4.356029) mi (4.299387) book (4.215017) stix (4.123891) pho (4.082863) xinh (4.077598) 
mexican (3.512839) chines (3.498217) korean (3.457551) taco (3.345892) salsa (3.089017) lai (2.996365) maiz (2.943680) chip (2.935127) amigo (2.901101) bulgogi (2.826215) 
pizza (5.024384) papa (4.088255) crust (4.047373) deep (3.922067) rental (3.734585) del (3.708369) italian (3.619831) car (3.593975) cooki (3.455814) deliveri (3.376440) 
hair (4.318057) haircut (4.294172) shoe (3.951200) frame (3.839937) barber (3.791725) salon (3.781380) wax (3.598960) appoint (3.571370) cut (3.567870) stylist (3.567001) 
gyro (4.928821) diner (4.162028) jimmi (3.902790) merryann (3.881190) gravi (3.685218) dos (3.665261) stack (3.657658) ann (3.631119) enchilada (3.520807) hash (3.519045) 
thai (3.459006) crepe (3.136867) curri (2.911339) rice (2.879372) pad (2.735520) shrimp (2.673126) egg (2.672187) courier (2.630713) dinner (2.629929) dessert (2.626555) 
cafe (4.394031) espresso (4.096645) librari (4.022944) coffe (3.977136) field (3.933346) vegan (3.890555) coop (3.871537) latt (3.764394) organ (3.682165) tea (3.653595) 
custard (4.999046) yogurt (4.566865) kopi (4.308958) film (4.233654) movi (4.214748) snowstorm (4.088454) froyo (4.045886) tempura (4.037423) velvet (3.932758) royal (3.830189) 
sushi (4.613923) ramen (4.135469) bbq (3.912597) brisket (3.863041) roll (3.819930) bike (3.815389) cupcak (3.775721) naan (3.681994) burnt (3.535757) rib (3.476223) 
beer (3.958862) dog (3.773747) chipotl (3.462260) crane (3.400584) burger (3.356320) alley (3.335603) bar (3.272548) bartend (3.241113) nail (3.197107) tap (3.174297) 
Error (train/valid/test) = 0.237004/1.903330/1.840527 (0.080759)
..................................................
energy after gradient step = 19509467.338967

Top words for each topic:
bagel (4.939798) pokey (4.630045) banh (4.621111) vet (4.607270) hotel (4.410836) mi (4.301546) book (4.242579) stix (4.242125) xinh (4.233870) gym (4.157397) 
mexican (3.592028) chines (3.575912) korean (3.491055) taco (3.433210) salsa (3.191970) maiz (3.060156) chip (3.022657) authent (2.905725) amigo (2.893317) lai (2.852823) 
pizza (5.255700) papa (4.313365) crust (4.178627) deep (4.066419) del (3.917519) rental (3.743296) car (3.669174) deliveri (3.508102) cooki (3.493257) italian (3.458303) 
hair (4.366059) haircut (4.332274) shoe (3.925097) frame (3.846556) salon (3.807013) barber (3.786366) appoint (3.760719) wax (3.632275) stylist (3.625795) cut (3.533085) 
gyro (4.963437) diner (4.240947) jimmi (4.009842) merryann (3.977523) ann (3.827941) dos (3.797171) stack (3.792844) gravi (3.705941) niro (3.646940) enchilada (3.495301) 
thai (3.532377) crepe (3.151970) curri (3.027982) rice (2.911505) pad (2.844420) dinner (2.774108) egg (2.724734) dessert (2.713841) shrimp (2.713140) food (2.709775) 
cafe (4.439520) coffe (4.345747) espresso (4.233159) field (4.027065) latt (3.989048) librari (3.969579) coop (3.922897) vegan (3.902234) organ (3.855726) tea (3.758265) 
custard (5.110536) yogurt (4.634720) movi (4.341581) kopi (4.335022) film (4.280721) royal (4.154052) froyo (4.145802) snowstorm (4.080144) velvet (4.051284) cloth (3.966312) 
sushi (4.717019) ramen (4.178654) bbq (3.996797) brisket (3.940182) roll (3.919784) bike (3.865440) cupcak (3.855377) naan (3.829411) burnt (3.630053) rib (3.562503) 
beer (4.141643) dog (3.863298) chipotl (3.520327) crane (3.488223) bar (3.467953) burger (3.446197) alley (3.405634) bartend (3.368734) pita (3.254695) tap (3.244098) 
Error (train/valid/test) = 0.233887/1.907570/1.871521 (0.082972)
..................................................
energy after gradient step = 19404564.524548

Top words for each topic:
bagel (4.910546) pokey (4.689110) banh (4.663740) vet (4.598863) mi (4.527938) hotel (4.500462) pho (4.394441) xinh (4.313473) book (4.302514) stix (4.284050) 
mexican (3.693346) chines (3.562295) taco (3.549563) korean (3.514345) salsa (3.294629) chip (3.078760) maiz (3.024779) lai (3.012011) authent (3.009662) burrito (2.926538) 
pizza (5.471484) papa (4.404210) crust (4.300770) deep (4.119942) del (4.082059) rental (3.820372) car (3.817249) deliveri (3.663443) dough (3.536547) italian (3.457983) 
hair (4.406888) haircut (4.348342) shoe (4.048145) frame (3.858804) salon (3.846905) barber (3.840932) appoint (3.721238) wax (3.640421) stylist (3.604904) cut (3.506050) 
gyro (5.109321) diner (4.225095) merryann (4.130956) jimmi (4.024196) stack (3.937341) dos (3.917534) gravi (3.869435) ann (3.867810) niro (3.684657) hash (3.669071) 
thai (3.599787) crepe (3.234631) curri (3.062376) dinner (2.963599) rice (2.955573) pad (2.878111) food (2.850231) dessert (2.822630) shrimp (2.786681) egg (2.784569) 
coffe (4.647930) cafe (4.478362) espresso (4.341472) librari (4.145648) field (4.022530) coop (3.990695) latt (3.966905) vegan (3.898025) organ (3.841547) tea (3.804499) 
custard (5.188913) yogurt (4.645292) film (4.527348) kopi (4.431342) movi (4.404649) snowstorm (4.280893) froyo (4.272033) velvet (4.180772) tempura (4.089597) rentertain (4.001168) 
sushi (4.874304) ramen (4.224972) bbq (4.127099) roll (3.991127) brisket (3.976801) cupcak (3.928138) bike (3.852371) naan (3.800877) burnt (3.668081) rib (3.624617) 
beer (4.283017) dog (3.886031) burger (3.682139) bar (3.574414) crane (3.548425) chipotl (3.519101) bartend (3.436930) alley (3.426536) tap (3.333697) pool (3.286555) 
Error (train/valid/test) = 0.228789/1.911912/1.891056 (0.083856)
..................................................
energy after gradient step = 19326062.728928

Top words for each topic:
bagel (5.036815) pokey (4.762951) banh (4.753249) vet (4.708486) hotel (4.691665) mi (4.539122) xinh (4.396055) stix (4.388754) pho (4.382730) book (4.344483) 
mexican (3.775546) chines (3.668069) taco (3.615934) korean (3.532550) salsa (3.355716) chip (3.157521) authent (3.109497) maiz (3.094965) burrito (3.073383) lai (3.000152) 
pizza (5.569848) papa (4.442237) crust (4.388502) del (4.095239) deep (4.094059) car (3.915314) rental (3.868585) deliveri (3.709870) italian (3.559241) dough (3.516150) 
hair (4.438599) haircut (4.389663) shoe (3.984019) frame (3.918762) salon (3.897314) barber (3.829343) appoint (3.783509) eyebrow (3.705298) wax (3.657870) stylist (3.632425) 
gyro (5.230947) diner (4.306220) merryann (4.212573) jimmi (4.161449) ann (3.996748) gravi (3.926000) dos (3.908595) stack (3.896986) hash (3.859890) niro (3.795959) 
thai (3.628079) crepe (3.263556) curri (3.110390) dinner (2.984851) rice (2.980621) food (2.921217) pad (2.918968) restaur (2.889759) dessert (2.881451) shrimp (2.827442) 
coffe (4.775910) cafe (4.550686) espresso (4.396944) librari (4.153284) latt (4.128254) coop (4.075575) field (4.031127) organ (4.017503) vegan (3.960864) tea (3.851385) 
custard (5.266037) yogurt (4.847984) movi (4.524879) film (4.499828) kopi (4.444669) snowstorm (4.368423) froyo (4.306927) velvet (4.226768) royal (4.120385) rentertain (4.087462) 
sushi (4.911054) ramen (4.248251) bbq (4.196241) roll (4.074078) brisket (4.022093) cupcak (3.988021) naan (3.880391) bike (3.879152) burnt (3.733124) rib (3.700490) 
beer (4.413490) dog (3.885800) burger (3.744227) bar (3.741436) crane (3.555461) bartend (3.527549) chipotl (3.474706) alley (3.454523) tap (3.419997) pool (3.271488) 
Error (train/valid/test) = 0.219875/1.903499/1.892677 (0.083600)
..................................................
energy after gradient step = 19230684.124305

Top words for each topic:
bagel (5.130462) pokey (4.821431) banh (4.798869) hotel (4.780822) vet (4.770606) mi (4.628356) pho (4.561419) xinh (4.531599) stix (4.446436) gym (4.442098) 
mexican (3.858867) chines (3.725392) taco (3.718410) korean (3.563229) salsa (3.416386) chip (3.229236) authent (3.149516) burrito (3.133172) maiz (3.121717) lai (2.974532) 
pizza (5.685185) papa (4.516434) crust (4.486829) del (4.213041) deep (4.072945) car (4.008911) rental (3.991018) deliveri (3.760844) chicagostyl (3.557626) dough (3.433740) 
hair (4.479732) haircut (4.388312) shoe (4.089867) salon (3.903070) frame (3.901076) barber (3.839588) appoint (3.741379) wax (3.696048) stylist (3.672952) eyebrow (3.661702) 
gyro (5.354717) jimmi (4.356946) merryann (4.228400) diner (4.184398) stack (4.085737) ann (4.080359) dos (3.936461) niro (3.923193) gravi (3.917369) comic (3.877226) 
thai (3.692666) crepe (3.264086) curri (3.175899) dinner (3.089795) food (3.043179) rice (3.004294) restaur (3.003645) pad (2.978872) dessert (2.938847) shrimp (2.875771) 
coffe (4.921878) cafe (4.619884) espresso (4.549458) latt (4.270686) librari (4.267232) coop (4.108787) field (4.025286) organ (3.971878) vegan (3.913314) race (3.894819) 
custard (5.318061) yogurt (4.808396) film (4.650951) kopi (4.642243) movi (4.487282) snowstorm (4.452737) froyo (4.381201) royal (4.291136) velvet (4.188374) rentertain (4.145018) 
sushi (5.000233) ramen (4.334341) bbq (4.278896) roll (4.197936) brisket (4.063310) cupcak (4.030341) bike (3.916461) rib (3.815441) indian (3.808753) naan (3.782417) 
beer (4.511678) dog (3.906339) bar (3.892619) burger (3.858264) bartend (3.657528) crane (3.620193) chipotl (3.586578) tap (3.520066) alley (3.483784) boltini (3.386990) 
Error (train/valid/test) = 0.217664/1.913682/1.933013 (0.086008)
..................................................
energy after gradient step = 19132707.800139

Top words for each topic:
bagel (5.150860) hotel (4.962793) banh (4.947332) pokey (4.916030) vet (4.821956) mi (4.781566) pho (4.612604) xinh (4.591685) stix (4.463012) gym (4.427953) 
mexican (3.918023) chines (3.801123) taco (3.784071) korean (3.567196) salsa (3.476374) chip (3.270111) burrito (3.257689) authent (3.168853) maiz (3.134456) lai (3.087184) 
pizza (5.787535) papa (4.588213) crust (4.565132) del (4.263795) deep (4.069731) car (4.069079) rental (3.934623) deliveri (3.779173) chicagostyl (3.594114) pepperoni (3.492691) 
hair (4.521269) haircut (4.455808) shoe (3.990155) salon (3.967748) frame (3.908387) appoint (3.906901) eyebrow (3.868590) barber (3.867635) nail (3.782719) wax (3.749409) 
gyro (5.436297) diner (4.413070) merryann (4.372599) jimmi (4.319193) ann (4.225791) zorba (4.098822) stack (4.093687) niro (4.042165) comic (3.990106) dos (3.941950) 
thai (3.743939) crepe (3.280535) curri (3.204892) food (3.122445) dinner (3.105699) pad (3.022888) rice (3.016162) restaur (3.011943) dessert (2.971061) shrimp (2.918162) 
coffe (4.996635) cafe (4.731032) espresso (4.601710) latt (4.253624) librari (4.249506) coop (4.196350) field (4.128015) organ (4.045012) vegan (3.965010) tea (3.925707) 
custard (5.400292) yogurt (5.010852) film (4.686349) movi (4.659197) kopi (4.533742) snowstorm (4.526252) froyo (4.518913) royal (4.473412) velvet (4.364489) rentertain (4.239638) 
sushi (5.056056) bbq (4.337733) ramen (4.330231) roll (4.275637) brisket (4.153018) cupcak (4.083483) naan (3.993093) bike (3.987989) indian (3.863657) rib (3.842968) 
beer (4.633291) bar (4.025321) dog (3.922366) burger (3.920628) bartend (3.740168) crane (3.640939) alley (3.615699) chipotl (3.610632) tap (3.537437) pool (3.373825) 
Error (train/valid/test) = 0.216838/1.933909/1.940965 (0.087750)
..................................................
energy after gradient step = 19058470.477602

Top words for each topic:
bagel (5.250514) hotel (5.024602) banh (4.956799) pokey (4.924995) vet (4.894420) pho (4.791840) xinh (4.639277) mi (4.637623) gym (4.567052) stix (4.500222) 
mexican (3.990956) chines (3.869738) taco (3.846938) korean (3.612875) salsa (3.510363) burrito (3.321634) chip (3.280134) authent (3.211248) maiz (3.160514) food (3.089515) 
pizza (5.856005) crust (4.605673) papa (4.582205) del (4.374524) car (4.130994) deep (4.096825) rental (3.958068) deliveri (3.729666) chicagostyl (3.596070) pepperoni (3.524436) 
hair (4.501716) haircut (4.450231) shoe (4.053362) frame (3.992935) salon (3.962739) barber (3.906413) appoint (3.807915) wax (3.754528) eyebrow (3.750695) stylist (3.713930) 
gyro (5.541292) merryann (4.464773) jimmi (4.435912) zorba (4.411069) ann (4.361613) niro (4.175669) diner (4.158757) comic (4.150775) stack (4.150171) hash (4.109063) 
thai (3.778783) crepe (3.326366) curri (3.295286) food (3.156291) dinner (3.147481) restaur (3.086588) pad (3.038874) rice (3.034784) dessert (3.004041) entre (2.962802) 
coffe (5.101389) cafe (4.750814) espresso (4.617593) latt (4.377808) librari (4.349768) coop (4.169986) field (4.138528) organ (4.067831) tea (3.998962) vegan (3.927054) 
custard (5.408335) yogurt (4.934762) film (4.734783) snowstorm (4.651467) kopi (4.619666) froyo (4.566199) movi (4.505939) velvet (4.425678) jarl (4.388079) sleep (4.239649) 
sushi (5.125509) bbq (4.404104) ramen (4.403602) roll (4.332123) brisket (4.167128) cupcak (4.153990) bike (4.012084) indian (3.920328) rib (3.901293) burnt (3.883822) 
beer (4.693917) bar (4.061852) burger (4.014562) dog (3.923407) bartend (3.814640) crane (3.664114) chipotl (3.630662) tap (3.572428) alley (3.526101) boltini (3.508889) 
Error (train/valid/test) = 0.216351/1.935637/1.958440 (0.087674)
..................................................
energy after gradient step = 18996418.729205

Top words for each topic:
bagel (5.197871) hotel (5.157531) banh (5.034370) pokey (5.016065) vet (4.971409) mi (4.962909) pho (4.799368) xinh (4.623609) stix (4.612258) gym (4.609474) 
mexican (4.020253) chines (3.917902) taco (3.898240) korean (3.625387) salsa (3.564644) burrito (3.353630) chip (3.348044) authent (3.220449) food (3.188536) maiz (3.167467) 
pizza (5.949672) papa (4.645081) crust (4.630209) del (4.335916) car (4.185446) rental (4.047956) deep (4.031161) deliveri (3.829856) chicagostyl (3.680843) obrien (3.522033) 
hair (4.546910) haircut (4.478976) shoe (4.137154) frame (4.038722) salon (4.036103) appoint (4.009808) eyebrow (3.954376) barber (3.935864) nail (3.909802) wax (3.835902) 
gyro (5.552784) merryann (4.553455) ann (4.433115) zorba (4.408153) jimmi (4.405120) diner (4.275311) comic (4.222580) niro (4.186841) stack (4.151947) subway (4.078059) 
thai (3.810281) crepe (3.327863) curri (3.326962) food (3.221926) dinner (3.210734) restaur (3.155579) pad (3.130893) dessert (3.060374) rice (3.050011) dish (3.010361) 
coffe (5.130061) cafe (4.806405) espresso (4.752333) latt (4.371877) librari (4.338608) coop (4.311121) field (4.171628) vegan (4.073989) organ (4.040137) tea (4.038158) 
custard (5.511530) yogurt (5.051926) film (4.822880) movi (4.699014) snowstorm (4.652818) froyo (4.591968) kopi (4.528782) velvet (4.516979) jarl (4.332122) rentertain (4.301712) 
sushi (5.185734) bbq (4.482806) ramen (4.425069) roll (4.401235) brisket (4.231312) cupcak (4.153452) bike (4.039086) naan (4.039072) indian (3.941688) burnt (3.933331) 
beer (4.821638) burger (4.163651) bar (4.109889) bartend (3.897791) dog (3.892726) alley (3.719637) crane (3.702830) tap (3.684520) chipotl (3.614838) boltini (3.426810) 
Error (train/valid/test) = 0.208519/1.942132/1.963215 (0.089636)
..................................................
energy after gradient step = 18933599.320660

Top words for each topic:
bagel (5.308082) hotel (5.179400) banh (5.050465) pokey (5.045110) pho (5.026250) vet (4.931362) mi (4.827834) xinh (4.726967) gym (4.645137) stix (4.570937) 
mexican (4.064348) chines (3.964369) taco (3.945494) korean (3.686179) salsa (3.608479) burrito (3.396209) chip (3.389462) authent (3.225025) food (3.222891) maiz (3.200659) 
pizza (5.990944) crust (4.720848) papa (4.667536) del (4.471463) car (4.213599) deep (4.090009) rental (3.990487) deliveri (3.825726) chicagostyl (3.709259) pepperoni (3.574476) 
hair (4.569868) haircut (4.515962) shoe (4.171064) salon (4.028710) frame (3.960448) barber (3.952767) appoint (3.929030) nail (3.925292) eyebrow (3.864274) wax (3.858290) 
gyro (5.619948) merryann (4.630091) jimmi (4.535081) zorba (4.524651) ann (4.434563) diner (4.296783) niro (4.281212) comic (4.243121) gravi (4.210605) hash (4.186532) 
thai (3.869633) crepe (3.463633) curri (3.380689) food (3.313349) dinner (3.255158) restaur (3.224524) pad (3.162841) dessert (3.141132) entre (3.071955) egg (3.070542) 
coffe (5.212326) cafe (4.794830) espresso (4.713007) latt (4.490366) librari (4.431343) coop (4.262211) field (4.224851) organ (4.087201) vegan (4.028312) barista (4.023198) 
custard (5.540388) yogurt (5.060568) kopi (4.750946) film (4.746918) snowstorm (4.741911) froyo (4.678480) movi (4.572830) velvet (4.557866) jarl (4.543998) rentertain (4.355797) 
sushi (5.221738) bbq (4.504106) roll (4.468685) ramen (4.446611) brisket (4.178137) cupcak (4.164556) rib (3.972841) bike (3.970517) burnt (3.963922) naan (3.959685) 
beer (4.893381) burger (4.247700) bar (4.190996) dog (3.940783) bartend (3.938857) crane (3.767169) tap (3.697297) alley (3.650865) boltini (3.537827) pool (3.455037) 
Error (train/valid/test) = 0.204831/1.959868/1.958257 (0.088725)
..................................................
energy after gradient step = 18874467.338076

Top words for each topic:
bagel (5.326940) hotel (5.222849) pokey (5.120925) banh (5.105475) pho (5.004799) vet (4.989724) mi (4.986351) xinh (4.805979) gym (4.634792) stix (4.620864) 
mexican (4.096735) chines (3.997632) taco (3.956673) korean (3.701750) salsa (3.665082) chip (3.464180) burrito (3.419772) food (3.329232) authent (3.262927) maiz (3.144573) 
pizza (6.082142) papa (4.725593) crust (4.707712) del (4.468070) car (4.232876) deep (4.107598) rental (4.072515) deliveri (3.909254) chicagostyl (3.716518) obrien (3.596909) 
hair (4.628749) haircut (4.522974) shoe (4.129677) frame (4.038985) salon (4.038557) eyebrow (4.028209) nail (3.996190) appoint (3.981425) barber (3.980112) wax (3.820770) 
gyro (5.667309) zorba (4.635485) merryann (4.614945) jimmi (4.549486) ann (4.470767) diner (4.303533) comic (4.287602) niro (4.272878) subway (4.244912) hash (4.207198) 
thai (3.948127) curri (3.435019) food (3.414870) crepe (3.401880) dinner (3.294082) restaur (3.284136) pad (3.177424) dessert (3.176405) egg (3.119385) meal (3.092019) 
coffe (5.253976) cafe (4.828007) espresso (4.781043) latt (4.494464) librari (4.397239) coop (4.362012) field (4.278265) barista (4.073313) tea (4.065345) starbuck (4.054459) 
custard (5.607818) yogurt (5.163647) snowstorm (4.857181) film (4.845815) movi (4.766619) froyo (4.743075) velvet (4.662900) kopi (4.612968) jarl (4.521624) sleep (4.386244) 
sushi (5.272129) bbq (4.582020) roll (4.500761) ramen (4.468295) brisket (4.270771) cupcak (4.173414) naan (4.017284) indian (4.015503) bike (4.005051) rib (3.969940) 
beer (4.950384) burger (4.398510) bar (4.255548) bartend (4.018565) dog (3.960690) crane (3.819845) tap (3.799898) alley (3.745040) chipotl (3.625386) pool (3.621101) 
Error (train/valid/test) = 0.201322/1.974978/1.985133 (0.092133)
..................................................
energy after gradient step = 18813064.425213

Top words for each topic:
bagel (5.356059) hotel (5.229673) banh (5.181592) pokey (5.117349) vet (5.001569) pho (4.991168) mi (4.936239) xinh (4.783271) gym (4.737121) stix (4.677884) 
mexican (4.116073) chines (4.041146) taco (3.962119) salsa (3.695168) korean (3.670423) chip (3.483788) burrito (3.438222) food (3.405181) authent (3.257939) maiz (3.229704) 
pizza (6.156181) papa (4.776775) crust (4.734840) del (4.548922) car (4.237613) rental (4.043926) deep (3.951412) deliveri (3.861191) chicagostyl (3.775732) pepperoni (3.678621) 
hair (4.597503) haircut (4.596574) shoe (4.224924) salon (4.142294) appoint (4.049888) frame (4.023975) barber (4.009047) eyebrow (3.996388) nail (3.970888) wax (3.957575) 
gyro (5.721747) merryann (4.664425) zorba (4.635385) jimmi (4.627202) ann (4.522200) niro (4.332562) subway (4.303168) comic (4.300843) gravi (4.295781) diner (4.276235) 
thai (3.995225) crepe (3.534724) curri (3.457935) food (3.451814) dinner (3.360618) restaur (3.293395) pad (3.254088) dessert (3.220059) egg (3.206281) shrimp (3.164243) 
coffe (5.280789) cafe (4.851781) espresso (4.797680) latt (4.552688) coop (4.356257) librari (4.302887) organ (4.161622) starbuck (4.154622) field (4.151800) barista (4.096368) 
custard (5.724166) yogurt (5.231677) film (4.902669) snowstorm (4.900723) froyo (4.847088) movi (4.718091) velvet (4.698542) jarl (4.626024) kopi (4.577948) fudg (4.431215) 
sushi (5.291074) bbq (4.595670) roll (4.539734) ramen (4.475348) brisket (4.247657) cupcak (4.215349) rib (4.014256) bike (4.001820) indian (3.993150) burnt (3.972388) 
beer (5.059272) burger (4.531497) bar (4.347991) bartend (4.107531) dog (3.986458) tap (3.885096) crane (3.822397) alley (3.742172) boltini (3.659739) pool (3.607763) 
Error (train/valid/test) = 0.196780/1.984060/1.998914 (0.094292)
..................................................
energy after gradient step = 18760285.433002

Top words for each topic:
bagel (5.364175) hotel (5.291288) pho (5.162649) banh (5.159688) pokey (5.126408) vet (5.101774) mi (4.976597) xinh (4.859855) gym (4.677329) stix (4.664324) 
mexican (4.162188) chines (4.081821) taco (4.018357) salsa (3.737676) korean (3.716411) chip (3.552219) food (3.517168) burrito (3.501935) authent (3.301034) maiz (3.228190) 
pizza (6.229602) papa (4.833841) crust (4.779509) del (4.614786) car (4.289134) rental (4.182036) deep (4.051172) deliveri (3.909354) chicagostyl (3.786648) pepperoni (3.712778) 
hair (4.659375) haircut (4.604856) shoe (4.162310) salon (4.136336) appoint (4.135018) nail (4.113139) frame (4.094475) eyebrow (4.085704) barber (4.039764) wax (3.917578) 
gyro (5.743167) merryann (4.752837) jimmi (4.732109) zorba (4.724022) ann (4.607209) subway (4.514486) niro (4.429238) comic (4.420485) hash (4.293447) diner (4.279031) 
thai (4.055738) food (3.532025) curri (3.523568) crepe (3.478995) dinner (3.377006) restaur (3.353219) pad (3.288083) egg (3.264649) shrimp (3.250600) dessert (3.240527) 
coffe (5.320835) cafe (4.893616) espresso (4.827707) latt (4.562159) librari (4.483890) coop (4.403946) field (4.234015) organ (4.196490) tea (4.108362) barista (4.103628) 
custard (5.739264) yogurt (5.222052) snowstorm (5.007464) film (4.966369) froyo (4.925759) movi (4.852649) velvet (4.819470) jarl (4.776021) kopi (4.643514) sleep (4.514607) 
sushi (5.335907) bbq (4.631042) roll (4.537236) ramen (4.499649) brisket (4.307054) cupcak (4.245546) indian (4.046757) rib (4.010157) burnt (3.999443) naan (3.995926) 
beer (5.101807) burger (4.584941) bar (4.372939) bartend (4.130369) dog (4.023333) crane (3.970112) tap (3.889854) alley (3.861271) boltini (3.694751) pool (3.636814) 
Error (train/valid/test) = 0.193153/2.003348/2.011941 (0.095647)
..................................................
energy after gradient step = 18691380.907032

Top words for each topic:
bagel (5.432930) hotel (5.364883) banh (5.219273) pokey (5.161248) vet (5.104360) pho (5.076752) mi (5.018065) xinh (4.909989) gym (4.706740) stix (4.655685) 
mexican (4.182598) chines (4.110167) taco (4.027218) salsa (3.749679) korean (3.731877) chip (3.566181) food (3.545789) burrito (3.531454) authent (3.314812) maiz (3.250316) 
pizza (6.288350) papa (4.855746) crust (4.831632) del (4.626205) car (4.310252) rental (4.168884) deep (3.985737) deliveri (3.919462) chicagostyl (3.810739) pepperoni (3.748552) 
hair (4.660106) haircut (4.649327) shoe (4.232105) salon (4.172508) appoint (4.136577) nail (4.116999) eyebrow (4.070848) frame (4.070096) barber (4.061519) wax (3.959356) 
gyro (5.769968) zorba (4.797321) merryann (4.729595) jimmi (4.679195) ann (4.627550) subway (4.540480) niro (4.438700) comic (4.373919) hash (4.330245) gravi (4.328307) 
thai (4.078965) food (3.556707) crepe (3.555383) curri (3.542994) dinner (3.387041) restaur (3.375664) pad (3.318757) egg (3.302175) dessert (3.255100) shrimp (3.245296) 
coffe (5.363831) cafe (4.926007) espresso (4.869852) latt (4.631309) librari (4.425711) coop (4.380442) field (4.287816) starbuck (4.230138) pastri (4.126888) barista (4.112430) 
custard (5.819120) yogurt (5.383799) snowstorm (5.057983) film (5.008849) froyo (4.985888) movi (4.840318) velvet (4.839736) jarl (4.813553) rentertain (4.559724) taxi (4.516122) 
sushi (5.366684) bbq (4.666450) roll (4.556424) ramen (4.511739) brisket (4.311622) cupcak (4.246666) indian (4.090688) naan (4.071623) rib (4.056040) burnt (4.034175) 
beer (5.152822) burger (4.678726) bar (4.455908) bartend (4.193898) dog (4.038367) tap (3.975377) crane (3.943307) alley (3.835434) boltini (3.780510) slider (3.649987) 
Error (train/valid/test) = 0.190582/2.002708/2.032733 (0.097462)
..................................................
energy after gradient step = 18648086.257408

Top words for each topic:
hotel (5.377767) bagel (5.362328) banh (5.283250) pokey (5.221011) pho (5.188642) mi (5.143034) vet (5.041314) xinh (4.926730) gym (4.849904) stix (4.763812) 
chines (4.200282) mexican (4.151918) taco (3.999289) salsa (3.821420) korean (3.804992) food (3.635628) burrito (3.630554) chip (3.468105) authent (3.436496) dish (3.309075) 
pizza (6.390486) papa (4.927450) crust (4.924981) del (4.656091) car (4.368711) rental (4.110613) deep (3.995871) chicagostyl (3.909096) deliveri (3.839592) pepperoni (3.812331) 
haircut (4.704267) hair (4.698942) salon (4.223872) shoe (4.217744) eyebrow (4.209077) nail (4.163244) appoint (4.155161) frame (4.127011) barber (4.110761) wax (4.036210) 
gyro (5.768837) jimmi (4.886503) zorba (4.878869) merryann (4.809026) subway (4.597610) ann (4.576370) niro (4.532793) comic (4.530909) stack (4.318302) diner (4.311474) 
thai (4.226459) food (3.676950) crepe (3.615811) curri (3.608341) egg (3.489048) restaur (3.444456) dinner (3.387327) pad (3.364581) dessert (3.339407) entre (3.326852) 
coffe (5.424614) cafe (4.991500) espresso (4.902765) latt (4.642807) coop (4.468509) librari (4.416136) starbuck (4.199721) pastri (4.173817) barista (4.166282) bakeri (4.159302) 
custard (5.834601) yogurt (5.383984) snowstorm (5.192745) froyo (5.089606) film (5.077911) velvet (5.013520) movi (4.934632) jarl (4.866663) taxi (4.710604) rentertain (4.676102) 
sushi (5.454009) bbq (4.724687) ramen (4.588718) roll (4.577395) brisket (4.393239) cupcak (4.320329) rib (4.152642) indian (4.151383) burnt (4.079480) naan (4.030802) 
beer (5.198627) burger (4.780664) bar (4.457275) bartend (4.295855) dog (4.032532) crane (4.012508) tap (3.955425) alley (3.929170) slider (3.814981) boltini (3.765644) 
Error (train/valid/test) = 0.190695/2.019746/2.069948 (0.102766)
..................................................
energy after gradient step = 18621114.321613

Top words for each topic:
hotel (5.421049) bagel (5.380014) pho (5.308560) pokey (5.207668) banh (5.203852) vet (5.192612) mi (5.109790) xinh (4.934644) stix (4.766081) gym (4.764313) 
chines (4.249786) mexican (4.187783) taco (4.030679) salsa (3.836794) korean (3.781955) food (3.714230) burrito (3.662247) chip (3.488380) authent (3.460856) dish (3.322760) 
pizza (6.413894) crust (4.940213) papa (4.934255) del (4.741515) car (4.406314) rental (4.201162) deep (3.962605) chicagostyl (3.890826) deliveri (3.866308) pepperoni (3.843384) 
haircut (4.733225) hair (4.719871) salon (4.278206) shoe (4.262647) nail (4.249047) appoint (4.243345) eyebrow (4.172189) barber (4.138828) frame (4.130809) wax (4.052351) 
gyro (5.842305) zorba (4.892619) merryann (4.824514) jimmi (4.808472) subway (4.718673) ann (4.646494) niro (4.523196) comic (4.501689) diner (4.434221) gravi (4.379856) 
thai (4.263638) food (3.720980) crepe (3.689507) curri (3.682380) egg (3.499493) restaur (3.495988) pad (3.423125) dinner (3.393653) brunch (3.385106) entre (3.361069) 
coffe (5.471480) cafe (4.981576) espresso (4.901610) latt (4.683487) librari (4.494285) coop (4.447078) starbuck (4.287497) pastri (4.261962) field (4.252168) kopi (4.214940) 
custard (5.939121) yogurt (5.472525) snowstorm (5.220979) film (5.124425) froyo (5.123708) jarl (4.985166) velvet (4.978525) movi (4.956670) taxi (4.740553) rentertain (4.720618) 
sushi (5.484594) bbq (4.749661) ramen (4.613587) roll (4.564322) brisket (4.422397) cupcak (4.352610) rib (4.177041) indian (4.159262) naan (4.105192) burnt (4.104660) 
beer (5.306351) burger (4.859649) bar (4.507508) bartend (4.374469) crane (4.055153) dog (4.032660) tap (4.007481) slider (3.960200) alley (3.905521) boltini (3.873197) 
Error (train/valid/test) = 0.186889/2.017906/2.082490 (0.103620)
..................................................
energy after gradient step = 18547197.161846

Top words for each topic:
banh (5.420481) hotel (5.403942) pho (5.393012) pokey (5.334914) bagel (5.316719) mi (5.215192) vet (5.149853) xinh (4.990508) gym (4.815897) stix (4.706177) 
chines (4.330662) mexican (4.261625) taco (4.125060) salsa (3.906061) korean (3.816196) food (3.777212) burrito (3.745698) chip (3.523722) authent (3.484487) dish (3.433368) 
pizza (6.500020) papa (4.977926) crust (4.972409) del (4.755443) car (4.357286) rental (4.269636) deep (4.018658) chicagostyl (3.932157) pepperoni (3.930710) deliveri (3.838819) 
hair (4.751892) haircut (4.746593) shoe (4.339401) salon (4.279386) nail (4.271929) appoint (4.263198) eyebrow (4.228211) barber (4.166932) frame (4.156284) wax (4.094968) 
gyro (5.858384) zorba (4.984564) merryann (4.930666) ann (4.896533) jimmi (4.893006) subway (4.787893) niro (4.619900) diner (4.591572) comic (4.560674) arc (4.391064) 
thai (4.335919) curri (3.733213) food (3.720890) crepe (3.710921) restaur (3.574795) entre (3.491347) egg (3.487279) pad (3.477357) dinner (3.462821) brunch (3.451261) 
coffe (5.512491) espresso (4.996059) cafe (4.981918) latt (4.718813) coop (4.511670) librari (4.418534) kopi (4.346780) pastri (4.322374) starbuck (4.293052) bakeri (4.265682) 
custard (5.937820) yogurt (5.429498) snowstorm (5.321201) froyo (5.214642) velvet (5.202030) film (5.041542) jarl (5.026967) movi (4.970094) fudg (4.772239) cocomero (4.754858) 
sushi (5.536571) bbq (4.801515) ramen (4.640197) roll (4.638941) brisket (4.477233) cupcak (4.389373) indian (4.226808) rib (4.210769) naan (4.137617) burnt (4.111562) 
beer (5.353407) burger (4.917757) bar (4.547838) bartend (4.411992) crane (4.117849) alley (4.065397) tap (4.056379) slider (4.053883) dog (4.036218) boltini (3.962488) 
Error (train/valid/test) = 0.180246/2.066492/2.092317 (0.105008)
..................................................
energy after gradient step = 18484712.736397

Top words for each topic:
hotel (5.462382) pho (5.419004) bagel (5.376929) banh (5.308944) vet (5.230414) mi (5.213867) pokey (5.188461) xinh (5.030028) stix (4.822859) gym (4.817523) 
chines (4.363918) mexican (4.301030) taco (4.159799) salsa (3.942665) korean (3.879941) food (3.830348) burrito (3.759340) chip (3.564425) authent (3.517962) dish (3.511355) 
pizza (6.547843) papa (5.054138) crust (5.014561) del (4.831454) car (4.416179) rental (4.267521) deep (4.138765) chicagostyl (3.932688) deliveri (3.889935) calzon (3.882889) 
haircut (4.771785) hair (4.757892) shoe (4.377046) salon (4.368069) appoint (4.359961) nail (4.258872) eyebrow (4.249442) barber (4.204946) frame (4.148264) wax (4.100220) 
gyro (5.937139) zorba (5.051451) merryann (4.947779) jimmi (4.870434) subway (4.826563) ann (4.737174) niro (4.608630) comic (4.550635) arc (4.379759) hash (4.379317) 
thai (4.376382) curri (3.839358) crepe (3.786667) food (3.760553) restaur (3.621754) entre (3.553859) brunch (3.544571) dinner (3.522141) pad (3.512880) egg (3.490989) 
coffe (5.576425) espresso (5.041589) cafe (4.984015) latt (4.829455) librari (4.582200) coop (4.494048) kopi (4.493853) pastri (4.475557) starbuck (4.442560) bakeri (4.396820) 
custard (6.036735) yogurt (5.613414) snowstorm (5.431702) froyo (5.318895) film (5.294821) jarl (5.173805) velvet (5.171434) movi (4.914120) taxi (4.911947) rentertain (4.835588) 
sushi (5.577622) bbq (4.864673) roll (4.703248) ramen (4.643616) brisket (4.500931) cupcak (4.427578) rib (4.237215) indian (4.233857) naan (4.146233) burnt (4.132554) 
beer (5.388327) burger (5.013483) bar (4.535910) bartend (4.485861) crane (4.202855) slider (4.131194) tap (4.094169) alley (4.029622) boltini (4.021364) pool (3.999675) 
Error (train/valid/test) = 0.177733/2.073179/2.107018 (0.104238)
..................................................
energy after gradient step = 18445345.258385

Top words for each topic:
pho (5.564263) hotel (5.503990) banh (5.484683) pokey (5.479676) bagel (5.354703) mi (5.280039) vet (5.208242) xinh (5.139222) gym (4.904389) stix (4.720709) 
chines (4.381624) mexican (4.315824) taco (4.172811) salsa (3.950696) food (3.887154) korean (3.874642) burrito (3.769653) dish (3.616319) chip (3.579742) authent (3.536789) 
pizza (6.611742) papa (5.082886) crust (5.009263) del (4.838364) car (4.426900) rental (4.243249) deep (4.072520) pepperoni (4.065146) chicagostyl (4.007582) empanada (3.994507) 
haircut (4.795531) hair (4.705219) salon (4.341104) shoe (4.324381) nail (4.312937) appoint (4.292809) eyebrow (4.270540) barber (4.216215) wax (4.161473) frame (4.104028) 
gyro (5.941666) zorba (5.098024) jimmi (4.971599) merryann (4.955992) subway (4.915902) ann (4.840287) niro (4.688367) comic (4.590107) diner (4.560437) hash (4.530772) 
thai (4.453675) curri (3.914244) crepe (3.862665) food (3.799951) restaur (3.719678) brunch (3.620390) entre (3.607744) dinner (3.595869) pad (3.594744) menu (3.560794) 
coffe (5.602394) espresso (5.066032) cafe (4.979743) latt (4.820351) kopi (4.589724) coop (4.585009) pastri (4.532131) paradiso (4.380245) librari (4.373500) bakeri (4.356296) 
custard (6.018684) yogurt (5.528077) snowstorm (5.394842) froyo (5.350082) film (5.247329) velvet (5.212832) jarl (5.159313) movi (5.072604) rentertain (4.932086) taxi (4.851523) 
sushi (5.600403) bbq (4.902820) roll (4.751523) ramen (4.675107) brisket (4.519976) cupcak (4.428887) rib (4.264617) indian (4.250642) naan (4.175237) burnt (4.163388) 
beer (5.378427) burger (5.063353) bartend (4.548394) bar (4.516018) slider (4.243369) crane (4.236157) tap (4.189904) alley (4.149854) boltini (4.085374) pool (4.029696) 
Error (train/valid/test) = 0.175870/2.083768/2.119665 (0.105636)
..................................................
energy after gradient step = 18399096.900537

Top words for each topic:
pho (5.650019) hotel (5.516832) banh (5.417392) vet (5.313482) bagel (5.310568) pokey (5.306952) mi (5.286605) xinh (5.077216) gym (4.983502) stix (4.776090) 
chines (4.398193) mexican (4.311893) taco (4.183041) salsa (3.947326) food (3.910461) korean (3.845025) burrito (3.764579) dish (3.563671) chip (3.545163) authent (3.543632) 
pizza (6.649311) papa (5.137002) crust (5.041952) del (4.868354) car (4.422862) rental (4.345365) deep (4.131628) chicagostyl (4.063504) pepperoni (4.049265) calzon (3.939953) 
haircut (4.831963) hair (4.746877) salon (4.424382) shoe (4.365811) nail (4.353648) appoint (4.351456) eyebrow (4.327041) frame (4.268043) barber (4.249315) wax (4.194380) 
gyro (5.964251) zorba (5.118193) merryann (5.059022) jimmi (4.968807) subway (4.909558) ann (4.886752) niro (4.686121) comic (4.547290) arc (4.484520) john (4.402695) 
thai (4.497998) curri (3.989027) crepe (3.889975) food (3.826860) restaur (3.772641) brunch (3.714191) entre (3.636391) dinner (3.629421) pad (3.609490) courier (3.568599) 
coffe (5.587803) espresso (5.124946) cafe (4.908122) latt (4.869891) librari (4.618476) coop (4.600767) kopi (4.593906) pastri (4.557791) bakeri (4.483178) royal (4.452143) 
custard (6.095322) yogurt (5.581875) snowstorm (5.524207) film (5.402016) froyo (5.382072) jarl (5.256156) velvet (5.250553) movi (5.027984) taxi (4.978135) rentertain (4.932724) 
sushi (5.641367) bbq (4.905481) roll (4.808273) ramen (4.687560) brisket (4.556355) cupcak (4.426149) rib (4.295663) indian (4.275916) naan (4.223536) burnt (4.185812) 
beer (5.422881) burger (5.127668) bartend (4.579542) bar (4.494099) crane (4.203848) slider (4.194668) tap (4.129178) boltini (4.094047) alley (4.093806) dog (4.010307) 
Error (train/valid/test) = 0.173244/2.089452/2.123839 (0.106536)
..................................................
energy after gradient step = 18352089.284284

Top words for each topic:
pho (5.662791) hotel (5.544665) banh (5.543831) pokey (5.490384) mi (5.393243) vet (5.318104) bagel (5.302300) xinh (5.219200) gym (4.943728) stix (4.806613) 
chines (4.435958) mexican (4.323397) taco (4.197785) salsa (3.962869) food (3.880665) korean (3.867418) burrito (3.803450) dish (3.683355) chip (3.562680) authent (3.514826) 
pizza (6.718950) papa (5.173300) crust (5.096339) del (4.947710) car (4.537964) rental (4.317547) pepperoni (4.144348) deep (4.137578) chicagostyl (4.115135) calzon (4.108631) 
haircut (4.874511) hair (4.780915) salon (4.446592) appoint (4.421188) shoe (4.410703) bike (4.400634) nail (4.400076) eyebrow (4.334129) barber (4.290458) frame (4.235352) 
gyro (5.982519) zorba (5.130937) subway (5.048806) merryann (4.962847) jimmi (4.901331) ann (4.879161) niro (4.711232) comic (4.700462) arc (4.527038) diner (4.512900) 
thai (4.611022) curri (4.061717) crepe (3.950223) restaur (3.880616) food (3.792787) brunch (3.770684) entre (3.716432) dinner (3.670492) pad (3.668878) courier (3.589969) 
coffe (5.576944) espresso (5.114611) cafe (4.949779) latt (4.935872) kopi (4.657888) coop (4.592864) pastri (4.579434) librari (4.547389) bakeri (4.465799) starbuck (4.463868) 
custard (6.117516) yogurt (5.617319) snowstorm (5.547373) froyo (5.488061) film (5.350712) velvet (5.345778) jarl (5.265092) movi (5.077316) taxi (5.036952) rentertain (5.033466) 
sushi (5.691838) bbq (4.937715) roll (4.865105) ramen (4.732814) brisket (4.592647) cupcak (4.480750) rib (4.329223) indian (4.328805) naan (4.256761) burnt (4.229618) 
beer (5.499955) burger (5.206723) bartend (4.621580) bar (4.493290) crane (4.331556) slider (4.304642) alley (4.229710) tap (4.205939) boltini (4.192347) dog (4.094657) 
Error (train/valid/test) = 0.169154/2.124608/2.165125 (0.110174)
..................................................
energy after gradient step = 18307433.213993

Top words for each topic:
pho (5.761853) hotel (5.580558) banh (5.528420) mi (5.431269) pokey (5.430392) vet (5.366161) bagel (5.307428) xinh (5.231008) gym (5.046767) stix (4.781570) 
chines (4.503068) mexican (4.364742) taco (4.246136) salsa (4.003388) food (3.932074) korean (3.854274) burrito (3.841920) dish (3.730897) authent (3.592898) chip (3.586336) 
pizza (6.825764) papa (5.223237) crust (5.092488) del (5.006349) car (4.498297) rental (4.416382) pepperoni (4.219176) chicagostyl (4.191613) deep (4.132913) calzon (4.079975) 
haircut (4.895667) hair (4.807872) bike (4.543711) salon (4.489271) nail (4.457778) appoint (4.414644) shoe (4.389762) eyebrow (4.372111) barber (4.313568) wax (4.286461) 
gyro (6.025369) zorba (5.217842) merryann (5.166462) subway (5.149319) jimmi (5.032901) ann (4.966699) niro (4.824055) comic (4.667615) hash (4.617691) diner (4.596360) 
thai (4.670141) curri (4.134079) crepe (4.010552) restaur (3.872797) brunch (3.866774) food (3.814053) pad (3.738656) dinner (3.648654) entre (3.646059) destihl (3.628866) 
coffe (5.569098) espresso (5.195429) cafe (4.990466) latt (4.979545) kopi (4.781391) coop (4.703262) pastri (4.685253) librari (4.635838) bakeri (4.619715) starbuck (4.597740) 
custard (6.136076) yogurt (5.628571) snowstorm (5.607540) froyo (5.531059) film (5.433130) velvet (5.421855) jarl (5.377679) rentertain (5.142618) movi (5.110632) taxi (5.099670) 
sushi (5.762881) bbq (5.027289) roll (4.860645) ramen (4.795931) brisket (4.649521) cupcak (4.511935) rib (4.368712) indian (4.347344) naan (4.311951) burnt (4.287755) 
beer (5.566713) burger (5.256857) bartend (4.693032) bar (4.446926) slider (4.409042) crane (4.341923) tap (4.311649) alley (4.272908) boltini (4.243734) pub (4.134260) 
Error (train/valid/test) = 0.163742/2.144573/2.194508 (0.112181)
..................................................
energy after gradient step = 18256926.890630

Top words for each topic:
pho (5.784808) banh (5.607040) pokey (5.558638) hotel (5.556596) mi (5.493302) vet (5.392554) xinh (5.302218) bagel (5.283074) stix (4.906768) gym (4.894603) 
chines (4.459987) mexican (4.356869) taco (4.236149) salsa (4.028347) food (3.961461) korean (3.871432) burrito (3.863951) dish (3.737106) authent (3.590448) chip (3.578057) 
pizza (6.907921) papa (5.273765) crust (5.149448) del (5.049261) car (4.475986) rental (4.370741) calzon (4.285338) chicagostyl (4.184811) empanada (4.177100) pepperoni (4.175953) 
haircut (4.948537) hair (4.844754) bike (4.637603) salon (4.528702) nail (4.476111) appoint (4.476057) shoe (4.399803) eyebrow (4.369798) barber (4.347912) wax (4.282048) 
gyro (6.027186) zorba (5.294033) merryann (5.125578) subway (5.118429) jimmi (5.051690) ann (5.028796) niro (4.797087) diner (4.706432) hash (4.673361) comic (4.671844) 
thai (4.774167) curri (4.172298) crepe (4.062823) restaur (3.949323) brunch (3.915747) food (3.879027) dinner (3.761968) pad (3.750330) courier (3.721504) entre (3.720837) 
coffe (5.587091) espresso (5.217907) latt (5.059361) cafe (5.026582) kopi (4.833362) pastri (4.738317) bakeri (4.691568) coop (4.689862) starbuck (4.668422) librari (4.607633) 
custard (6.169308) snowstorm (5.697205) yogurt (5.655583) froyo (5.618893) velvet (5.520210) film (5.427390) jarl (5.413704) taxi (5.158803) cocomero (5.081590) movi (5.051030) 
sushi (5.807462) bbq (5.047889) roll (4.933020) ramen (4.822928) brisket (4.678060) cupcak (4.553169) rib (4.423042) indian (4.358482) naan (4.339923) burnt (4.295520) 
beer (5.564151) burger (5.340472) bartend (4.754863) bar (4.494591) slider (4.480662) crane (4.418857) tap (4.342630) alley (4.291614) boltini (4.284265) pub (4.152986) 
Error (train/valid/test) = 0.159604/2.154665/2.200000 (0.111912)
..................................................
energy after gradient step = 18205039.980633

Top words for each topic:
pho (5.848626) banh (5.627072) hotel (5.613576) mi (5.536829) pokey (5.499482) vet (5.398437) xinh (5.335742) bagel (5.297574) gym (5.061110) stix (4.818689) 
chines (4.521931) mexican (4.410116) taco (4.307360) salsa (4.020683) food (3.907645) korean (3.882333) burrito (3.879993) dish (3.756325) authent (3.650801) chip (3.603002) 
pizza (6.924351) papa (5.318408) crust (5.210388) del (5.083343) car (4.530482) rental (4.463074) pepperoni (4.320748) chicagostyl (4.282385) calzon (4.247980) deep (4.185015) 
haircut (4.949455) hair (4.785255) bike (4.681087) salon (4.544868) nail (4.496245) appoint (4.492101) eyebrow (4.409937) shoe (4.383800) barber (4.360945) wax (4.285715) 
gyro (6.089210) zorba (5.363340) subway (5.228016) merryann (5.223595) jimmi (5.126456) ann (4.991872) niro (4.856342) comic (4.767246) arc (4.666755) diner (4.603423) 
thai (4.829330) curri (4.244861) crepe (4.157967) brunch (4.058094) restaur (3.993972) pad (3.862777) food (3.823836) appet (3.805609) destihl (3.781219) entre (3.779162) 
coffe (5.573703) espresso (5.282001) latt (5.133057) cafe (5.028369) kopi (4.927598) coop (4.811606) pastri (4.738392) bakeri (4.717003) librari (4.698832) starbuck (4.682468) 
custard (6.219129) snowstorm (5.716320) yogurt (5.672485) froyo (5.608155) film (5.523516) velvet (5.475188) jarl (5.452549) taxi (5.188570) rentertain (5.135694) cocomero (5.097345) 
sushi (5.853918) bbq (5.065362) roll (4.995145) ramen (4.858057) brisket (4.711420) cupcak (4.591201) rib (4.405278) indian (4.381595) naan (4.358263) burnt (4.274539) 
beer (5.522515) burger (5.378921) bartend (4.846060) slider (4.553243) bar (4.524811) crane (4.479308) tap (4.395926) boltini (4.339220) alley (4.317929) pub (4.298200) 
Error (train/valid/test) = 0.155581/2.178718/2.212316 (0.112613)
..................................................
energy after gradient step = 18162375.172644

Top words for each topic:
pho (5.874854) banh (5.720932) hotel (5.641381) pokey (5.624097) mi (5.601739) vet (5.483138) xinh (5.372639) bagel (5.241641) gym (5.128190) stix (4.860138) 
chines (4.513868) mexican (4.402836) taco (4.290672) salsa (4.032217) food (3.935496) burrito (3.908191) korean (3.903250) dish (3.765661) authent (3.707297) chip (3.560577) 
pizza (7.002895) papa (5.338392) crust (5.232280) del (5.134276) car (4.541245) calzon (4.381687) rental (4.371756) chicagostyl (4.299278) pepperoni (4.266649) empanada (4.223303) 
haircut (4.975887) hair (4.781124) bike (4.713372) salon (4.582979) nail (4.524894) appoint (4.472895) shoe (4.455746) eyebrow (4.392910) barber (4.391627) wax (4.373389) 
gyro (6.144964) zorba (5.415785) subway (5.299961) merryann (5.249511) jimmi (5.187399) ann (5.170063) niro (4.945352) comic (4.740053) arc (4.708345) hash (4.660563) 
thai (4.899884) curri (4.259260) crepe (4.249300) brunch (4.111769) restaur (4.017399) destihl (3.895242) courier (3.889362) pad (3.879978) food (3.829537) dinner (3.827743) 
coffe (5.516405) espresso (5.311892) latt (5.173380) cafe (4.953148) kopi (4.937682) coop (4.808011) bakeri (4.771288) pastri (4.765542) starbuck (4.741209) librari (4.694936) 
custard (6.236945) snowstorm (5.813322) froyo (5.717820) yogurt (5.716079) velvet (5.600471) jarl (5.500318) film (5.467942) taxi (5.275024) rentertain (5.207529) cocomero (5.146743) 
sushi (5.902872) bbq (5.120736) roll (5.033945) ramen (4.885987) brisket (4.744305) cupcak (4.633517) rib (4.463856) indian (4.431051) naan (4.424883) burnt (4.333057) 
burger (5.438174) beer (5.411788) bartend (4.866435) slider (4.594036) crane (4.512790) bar (4.468781) tap (4.451715) alley (4.417806) boltini (4.399073) pub (4.311823) 
Error (train/valid/test) = 0.153060/2.197151/2.235277 (0.115189)
..................................................
energy after gradient step = 18124551.443101

Top words for each topic:
pho (5.915399) banh (5.745034) hotel (5.644957) pokey (5.641066) mi (5.588978) vet (5.460146) xinh (5.421406) bagel (5.383961) gym (5.093252) pet (4.878336) 
chines (4.548366) mexican (4.451121) taco (4.327066) salsa (4.068150) food (4.031367) korean (3.956578) burrito (3.953157) dish (3.815356) authent (3.729932) chip (3.592156) 
pizza (7.021858) papa (5.368883) crust (5.219093) del (5.155909) rental (4.608085) car (4.573599) pepperoni (4.374574) calzon (4.361707) empanada (4.307188) chicagostyl (4.261759) 
haircut (5.001600) hair (4.767638) bike (4.765829) salon (4.611873) appoint (4.560719) nail (4.552734) eyebrow (4.464151) barber (4.416898) wax (4.337907) shoe (4.335114) 
gyro (6.182773) zorba (5.498432) subway (5.400704) merryann (5.279920) jimmi (5.213075) ann (5.086572) niro (5.005268) comic (4.852204) diner (4.794528) gravi (4.729733) 
thai (4.969665) curri (4.312668) crepe (4.292033) brunch (4.169375) restaur (4.048873) courier (3.962522) destihl (3.948390) food (3.876235) pad (3.875902) steak (3.865799) 
coffe (5.471295) espresso (5.341260) latt (5.179693) kopi (5.005819) cafe (4.887993) coop (4.835567) bakeri (4.826912) pastri (4.786312) librari (4.765442) royal (4.744678) 
custard (6.290430) snowstorm (5.823664) froyo (5.743652) yogurt (5.738642) velvet (5.651469) film (5.605801) jarl (5.554573) taxi (5.272754) rentertain (5.255771) cocomero (5.197458) 
sushi (5.927868) bbq (5.106891) roll (5.059445) ramen (4.923377) brisket (4.776701) cupcak (4.652912) rib (4.490852) indian (4.438893) naan (4.414821) burnt (4.375581) 
beer (5.467112) burger (5.463901) bartend (4.898139) slider (4.634650) bar (4.525438) crane (4.493850) tap (4.453797) boltini (4.433719) alley (4.397078) pub (4.389705) 
Error (train/valid/test) = 0.151113/2.224430/2.269196 (0.117288)
..................................................
energy after gradient step = 18053862.460350

Top words for each topic:
pho (5.942409) banh (5.803362) mi (5.707382) pokey (5.668486) hotel (5.635477) vet (5.553911) xinh (5.473549) bagel (5.334728) gym (5.123418) hilton (4.797834) 
chines (4.574879) mexican (4.459942) taco (4.330636) salsa (4.087483) food (4.079575) burrito (3.975462) korean (3.963284) dish (3.858915) authent (3.767264) tofu (3.615712) 
pizza (7.035943) papa (5.415842) crust (5.266569) del (5.217659) car (4.522666) calzon (4.475810) pepperoni (4.445911) rental (4.415200) chicagostyl (4.323149) dealership (4.286044) 
haircut (5.036435) bike (4.807501) hair (4.790660) salon (4.656725) appoint (4.594907) nail (4.589663) eyebrow (4.464174) barber (4.454830) shoe (4.433348) wax (4.419637) 
gyro (6.199864) zorba (5.543221) subway (5.390224) merryann (5.330520) jimmi (5.232268) ann (5.097956) niro (4.949002) hash (4.899789) gravi (4.858203) comic (4.822428) 
thai (5.016702) curri (4.351294) crepe (4.331324) brunch (4.220484) restaur (4.096735) destihl (4.034933) courier (4.006378) steak (3.958019) food (3.902536) pad (3.894274) 
coffe (5.413273) espresso (5.385347) latt (5.229686) kopi (5.029615) coop (4.933296) cafe (4.874446) bakeri (4.837652) pastri (4.821475) starbuck (4.815743) librari (4.768330) 
custard (6.280920) snowstorm (5.895840) froyo (5.811087) yogurt (5.710203) velvet (5.671645) jarl (5.583762) film (5.569256) taxi (5.336788) rentertain (5.301737) amtrak (5.203081) 
sushi (5.947343) bbq (5.146904) roll (5.114674) ramen (4.956705) brisket (4.806766) cupcak (4.668203) rib (4.521270) indian (4.481381) naan (4.470203) burnt (4.376863) 
burger (5.478431) beer (5.468262) bartend (4.927511) slider (4.640709) crane (4.558303) bar (4.510990) alley (4.495503) tap (4.476803) boltini (4.458308) pub (4.427809) 
Error (train/valid/test) = 0.146403/2.240758/2.279123 (0.116050)
..................................................
energy after gradient step = 18010498.880933

Top words for each topic:
pho (5.979484) banh (5.856885) pokey (5.755361) mi (5.728658) hotel (5.645321) vet (5.563455) xinh (5.498640) bagel (5.429631) gym (5.112662) shower (4.929677) 
chines (4.567680) mexican (4.470048) taco (4.332992) food (4.107093) salsa (4.079537) burrito (3.987812) korean (3.939855) dish (3.914801) authent (3.766827) tofu (3.643382) 
pizza (7.062592) papa (5.460927) crust (5.295488) del (5.256312) rental (4.686842) car (4.532687) calzon (4.514999) pepperoni (4.482261) chicagostyl (4.386040) empanada (4.362008) 
haircut (5.087617) bike (4.833864) hair (4.784038) salon (4.696013) nail (4.626263) appoint (4.590675) barber (4.487992) eyebrow (4.484898) shoe (4.457381) wax (4.455980) 
gyro (6.238924) zorba (5.598700) subway (5.520912) merryann (5.307174) jimmi (5.266142) ann (5.184435) niro (5.103090) diner (4.834207) arc (4.827647) merri (4.817888) 
thai (5.069598) curri (4.458742) crepe (4.423343) brunch (4.295432) destihl (4.136455) restaur (4.135220) courier (4.107811) steak (4.072206) pad (3.941233) appet (3.936327) 
espresso (5.427203) coffe (5.396077) latt (5.314902) kopi (5.101792) coop (4.958419) bakeri (4.933081) cafe (4.892711) pastri (4.843537) paradiso (4.821369) librari (4.803973) 
custard (6.327209) snowstorm (5.918480) froyo (5.839299) velvet (5.763988) yogurt (5.720266) jarl (5.621238) film (5.573412) taxi (5.446017) rentertain (5.334687) cocomero (5.281697) 
sushi (5.985458) roll (5.186015) bbq (5.167346) ramen (4.998715) brisket (4.846775) cupcak (4.721510) rib (4.568519) indian (4.522249) naan (4.469165) burnt (4.414897) 
burger (5.492706) beer (5.408649) bartend (4.991159) slider (4.710302) crane (4.581606) boltini (4.555236) bar (4.518716) tap (4.514602) pub (4.502192) alley (4.502067) 
Error (train/valid/test) = 0.142947/2.249243/2.289551 (0.117078)
