corpus = data_urbana.gz
latentReg = 0.000000
lambda = 4.500000
K = 10

nUsers = 3920, nItems = 627, nRatings = 12124

Error w/ offset term only (train/valid/test) = 1.678461/1.715130/1.655072 (0.057648)
Error w/ offset and bias (train/valid/test) = 0.781319/1.418887/1.462505 (0.059712)

..................................................
energy after gradient step = 28321349.618674

Top words for each topic:
solid (0.897729) sound (0.880126) wont (0.734290) consist (0.710832) chai (0.694092) type (0.625375) breakfast (0.621954) again (0.621072) entre (0.619792) casserol (0.614773) 
game (0.889576) dine (0.769998) happen (0.747150) kid (0.712994) basil (0.710885) easi (0.708774) appar (0.695318) die (0.692640) summer (0.687325) such (0.666440) 
prefer (0.836564) both (0.765016) solid (0.666454) mix (0.637428) exact (0.634194) season (0.623714) his (0.603564) pleas (0.581952) memori (0.576169) doesnt (0.567998) 
market (0.825538) terribl (0.820287) style (0.742212) consid (0.732817) everi (0.711383) box (0.701777) bottl (0.675851) veget (0.653768) believ (0.651748) distanc (0.645242) 
healthi (0.831260) ever (0.773129) brisket (0.725149) chef (0.697375) husband (0.691414) earli (0.683611) taco (0.681932) rare (0.673108) pull (0.638811) extra (0.638435) 
choos (0.840607) parti (0.761730) orang (0.708970) california (0.687370) pickl (0.665989) spot (0.646881) poor (0.646132) ago (0.598436) final (0.597739) sinc (0.596547) 
curri (0.778272) tap (0.777441) goe (0.759289) bake (0.692858) sign (0.668583) main (0.657773) downtown (0.629109) greasi (0.624738) true (0.611132) avoid (0.605835) 
12 (0.888433) wouldnt (0.827315) sausag (0.772019) idea (0.739794) heavi (0.738645) certain (0.724266) ton (0.715137) modern (0.686901) anoth (0.649517) ate (0.638381) 
suggest (0.885266) tap (0.776869) bike (0.714091) salt (0.671777) type (0.622201) kid (0.618264) sausag (0.610934) card (0.607400) complet (0.603565) these (0.589500) 
twice (0.821487) lettuc (0.810741) rude (0.804837) okay (0.764853) impress (0.730078) dirti (0.706204) major (0.646895) buck (0.645119) averag (0.633968) famili (0.627035) 
Error (train/valid/test) = 1.724131/1.919575/1.990995 (0.050338)
..................................................
energy after gradient step = 28107848.502435

Top words for each topic:
immedi (1.402199) annoy (1.288456) sound (1.210729) provid (1.203844) wed (1.201697) singl (1.174335) masala (1.124553) afternoon (1.104613) delight (1.080569) countri (1.049051) 
die (1.313977) health (1.264751) imagin (1.243261) hold (1.228301) appoint (1.192413) chili (1.190547) opinion (1.145884) patron (1.126086) hey (1.097715) basil (1.097654) 
chipotl (1.299935) roast (1.195966) pleas (1.175219) rang (1.101958) luna (1.097341) italian (1.087422) wife (1.087310) answer (1.085560) miso (1.082584) profession (1.076028) 
extens (1.263241) appear (1.242068) vibe (1.179213) barbecu (1.155990) ruin (1.071249) ass (1.060024) upscal (1.052041) bottl (1.036497) import (1.024708) market (1.006864) 
ever (1.312298) healthi (1.299548) cute (1.130863) brisket (1.113211) taken (1.107324) tough (1.089994) monday (1.084904) enchilada (0.994169) alright (0.991707) rare (0.964477) 
orang (1.488476) stori (1.266038) suppos (1.122463) rest (1.116336) screen (1.102007) paid (1.054665) spice (1.053627) sent (1.049009) vanilla (1.046002) ground (1.038975) 
welcom (1.284735) wax (1.176004) daughter (1.122366) easili (1.088654) giant (1.088285) tap (1.086720) asparagus (1.071594) featur (1.049354) knew (1.044531) pure (1.025163) 
heavi (1.456590) accommod (1.339493) ton (1.328721) singl (1.254183) hipster (1.214831) tradit (1.148166) fanci (1.088651) 12 (1.077988) howev (1.072109) yellow (1.059280) 
crepe (1.283915) despit (1.100647) onlin (1.091884) crisp (1.070614) ps (1.069507) pesto (1.057537) frozen (1.055628) bunch (1.041210) bare (1.023761) 100 (1.022947) 
lettuc (1.505329) deserv (1.230645) forev (1.224051) needless (1.167904) dirti (1.146923) major (1.115149) avoid (1.110874) squar (1.095023) case (1.030694) weird (1.030513) 
Error (train/valid/test) = 1.041933/1.423449/1.403270 (0.053652)
..................................................
energy after gradient step = 28014121.405627

Top words for each topic:
chop (1.708696) wed (1.549658) immedi (1.398550) larger (1.384192) posit (1.343568) appl (1.314786) pho (1.292357) sound (1.287636) provid (1.237791) masala (1.225152) 
die (1.709061) patron (1.588336) separ (1.454140) stapl (1.394752) ladi (1.366992) hey (1.350447) salti (1.349453) amigo (1.341344) frame (1.275445) equal (1.256039) 
monday (1.546996) stack (1.519055) bill (1.498580) roast (1.497473) wok (1.439145) italian (1.371185) chipotl (1.367980) bottl (1.362332) profession (1.356638) luna (1.339562) 
upscal (1.731870) bottl (1.410289) ass (1.396709) extens (1.373014) diner (1.361449) vibe (1.293406) market (1.272463) stylist (1.197884) relax (1.189754) mustard (1.165610) 
brisket (1.509732) winner (1.450762) healthi (1.417592) alright (1.363137) monday (1.339866) enchilada (1.327163) pretenti (1.300317) homemad (1.273072) bright (1.262469) forc (1.252128) 
orang (1.755904) california (1.534154) vanilla (1.438442) sens (1.377128) found (1.376251) overcook (1.349982) creami (1.347058) constant (1.311091) credit (1.276622) establish (1.254496) 
giant (1.714323) welcom (1.520147) daughter (1.468597) nut (1.443696) wax (1.437288) conveni (1.413932) longer (1.337487) goe (1.305871) eggplant (1.205018) italian (1.195209) 
heavi (1.850749) howev (1.797279) ton (1.552229) fanci (1.442603) accommod (1.431317) deep (1.369264) brunch (1.358321) yellow (1.256447) hair (1.236802) pound (1.231108) 
despit (1.719908) forgot (1.620629) teriyaki (1.307140) vari (1.304691) crepe (1.295810) steam (1.253481) chipotl (1.247680) onlin (1.229781) 100 (1.220563) pesto (1.220019) 
dirti (1.601794) lettuc (1.572456) needless (1.477494) deserv (1.410194) major (1.370182) accept (1.368305) del (1.294964) merri (1.226872) forev (1.219145) finger (1.202460) 
Error (train/valid/test) = 0.951279/1.411933/1.405833 (0.053802)
..................................................
energy after gradient step = 27977495.358097

Top words for each topic:
chop (1.878592) sound (1.773382) complimentari (1.703826) annoy (1.600955) larger (1.594508) brown (1.524378) wed (1.509053) falafel (1.471655) lit (1.462485) immedi (1.457810) 
die (1.916346) salti (1.839894) cute (1.577418) rush (1.539373) overwhelm (1.466746) stapl (1.452533) amigo (1.451974) hey (1.435093) whi (1.417319) yesterday (1.398116) 
answer (1.788192) monday (1.635830) rang (1.624976) prefer (1.612237) profession (1.585475) screw (1.583728) except (1.561789) scallop (1.559343) unlik (1.520844) funni (1.512130) 
extens (1.859973) upscal (1.734253) sometim (1.597154) kitchen (1.557541) mustard (1.549178) diner (1.454571) request (1.423120) bottl (1.375713) possibl (1.306898) ass (1.305773) 
yell (1.797023) tough (1.589340) pretenti (1.536016) werent (1.523336) par (1.506714) tequila (1.494648) scene (1.487928) enchilada (1.479657) man (1.432121) joke (1.429939) 
vanilla (1.768670) pickl (1.640234) spice (1.639805) sent (1.563169) orang (1.517317) constant (1.432557) tonight (1.380432) crispi (1.363888) sens (1.355819) credit (1.343704) 
southern (1.776562) giant (1.751404) nut (1.704412) daughter (1.661726) undergrad (1.658375) eggplant (1.612966) conveni (1.558393) wax (1.515773) main (1.485470) compet (1.449564) 
straight (1.750820) common (1.720499) fanci (1.708943) heavi (1.696375) howev (1.666840) bulk (1.657143) suppos (1.596193) yellow (1.535902) simpli (1.515235) ton (1.510823) 
forgot (1.651748) despit (1.623571) appear (1.550786) generous (1.522955) pair (1.502641) complain (1.485427) threw (1.461749) crepe (1.457906) teriyaki (1.454727) bike (1.442113) 
needless (1.850994) central (1.840635) dirti (1.798596) major (1.745662) deserv (1.715929) higher (1.683791) insur (1.641352) soggi (1.575574) accept (1.560112) hummus (1.490211) 
Error (train/valid/test) = 0.893740/1.412420/1.406139 (0.056617)
..................................................
energy after gradient step = 27942653.998815

Top words for each topic:
chop (1.855105) falafel (1.800199) wed (1.731816) complimentari (1.576737) lit (1.546587) bite (1.537247) larger (1.521932) posit (1.493182) brown (1.484156) hole (1.480535) 
die (1.833181) salti (1.724221) overwhelm (1.640650) whi (1.600911) amigo (1.564114) n (1.522621) hey (1.508827) cute (1.507298) kept (1.464270) yesterday (1.440060) 
satisfi (1.785539) answer (1.731888) comment (1.713589) screw (1.680667) rang (1.677183) bill (1.668436) waffl (1.634465) prefer (1.616357) scallop (1.597071) italian (1.580037) 
extens (1.945371) bottl (1.818364) upscal (1.750760) kitchen (1.672324) market (1.640551) annoy (1.535001) ass (1.533517) sometim (1.510791) request (1.492785) 15 (1.491763) 
yell (1.771122) par (1.564004) tequila (1.509351) pretenti (1.503135) tough (1.483137) enchilada (1.459549) werent (1.440177) scene (1.404522) joke (1.402065) man (1.393655) 
vanilla (1.710824) spice (1.649836) consist (1.614017) ground (1.551403) orang (1.526772) establish (1.506918) pickl (1.498553) sens (1.490758) corn (1.488216) overcook (1.468019) 
southern (1.905723) nut (1.883585) giant (1.849173) wax (1.702937) featur (1.602767) eggplant (1.546666) daughter (1.522579) undergrad (1.508310) wow (1.502482) asparagus (1.482507) 
fanci (1.798364) bulk (1.786264) straight (1.700515) howev (1.687028) heavi (1.675055) simpli (1.596662) sum (1.590936) front (1.570486) ton (1.559050) common (1.555097) 
date (1.673183) form (1.571018) forgot (1.529827) despit (1.522195) crepe (1.484957) threw (1.483159) generous (1.463819) afternoon (1.462078) pesto (1.456511) complain (1.445370) 
needless (1.995501) higher (1.990741) major (1.795590) deserv (1.730089) okay (1.706158) insur (1.699030) central (1.657315) dirti (1.577689) hummus (1.576127) turkey (1.575322) 
Error (train/valid/test) = 0.868766/1.411327/1.422429 (0.055951)
..................................................
energy after gradient step = 27903050.794429

Top words for each topic:
complimentari (2.097308) chop (1.905291) lit (1.886904) immedi (1.869782) falafel (1.825099) wed (1.802688) 45 (1.786611) pho (1.747913) larger (1.652021) pickl (1.624866) 
hey (1.888448) appar (1.766127) salti (1.737987) somewhat (1.706789) refresh (1.659013) yesterday (1.657634) kept (1.657430) luck (1.651843) daili (1.626792) overwhelm (1.599254) 
prefer (1.869492) rang (1.833499) scallop (1.748029) salon (1.688237) imagin (1.668550) chipotl (1.659030) screw (1.652678) st (1.652372) satisfi (1.639651) bill (1.630443) 
upscal (2.037048) bottl (1.890309) annoy (1.849740) 15 (1.801419) sometim (1.793914) dress (1.672985) kitchen (1.650822) odd (1.635702) extens (1.609871) believ (1.593689) 
man (1.851278) winner (1.807598) monday (1.804647) werent (1.795901) yell (1.779980) goe (1.762914) scene (1.711250) convers (1.669131) tequila (1.653882) alright (1.653382) 
tonight (1.939595) royal (1.888576) vanilla (1.788229) tortilla (1.748493) sens (1.729722) establish (1.713546) afford (1.653572) constant (1.624984) credit (1.604394) ground (1.599594) 
southern (1.972867) undergrad (1.950303) giant (1.905469) wax (1.863966) nut (1.772100) wow (1.707028) phenomen (1.538697) cost (1.487766) tvs (1.487541) asparagus (1.485327) 
howev (1.922526) fanci (1.921782) distanc (1.914780) bulk (1.882132) common (1.791944) sum (1.713873) loud (1.631432) ton (1.630403) yellow (1.603021) hear (1.597632) 
naan (1.881910) crepe (1.873078) teriyaki (1.871453) japanes (1.865608) chair (1.856294) complain (1.796809) despit (1.740565) test (1.734794) bunch (1.715067) generous (1.672983) 
higher (2.382981) deserv (2.208296) needless (1.970433) okay (1.835827) grow (1.812038) dirti (1.802851) central (1.758124) either (1.729223) hummus (1.699290) mom (1.679575) 
Error (train/valid/test) = 0.807060/1.416562/1.436594 (0.060061)
..................................................
energy after gradient step = 27860569.420818

Top words for each topic:
complimentari (2.290783) wed (2.024266) lit (1.983709) hidden (1.842939) chop (1.834917) pickl (1.781839) 45 (1.781551) pho (1.774710) hes (1.733229) falafel (1.728979) 
yesterday (1.888005) appar (1.880750) stapl (1.773406) salti (1.769253) hey (1.703784) luck (1.654802) kept (1.615814) melt (1.599224) chat (1.596843) latt (1.586094) 
rang (1.988053) prefer (1.900335) screw (1.871626) alley (1.840969) comment (1.823643) bother (1.815141) st (1.762719) opinion (1.707547) crab (1.653551) bottl (1.640617) 
upscal (2.180945) 15 (2.064798) annoy (2.010380) sometim (1.920565) extens (1.860248) believ (1.803065) odd (1.774242) mustard (1.677661) ass (1.654551) dress (1.607847) 
monday (1.972481) yell (1.878807) winner (1.876764) scene (1.851387) earli (1.841073) man (1.639150) cucumb (1.614261) goe (1.594634) werent (1.574231) tequila (1.568625) 
sens (1.931785) tonight (1.829178) royal (1.784163) vanilla (1.776015) consist (1.761254) ago (1.752709) tortilla (1.732401) credit (1.727314) poor (1.709959) constant (1.673040) 
giant (2.018670) undergrad (2.003400) southern (1.997442) wax (1.832787) wow (1.796844) cute (1.707998) nut (1.703999) experienc (1.687551) tvs (1.628513) appreci (1.608610) 
fanci (2.043522) howev (1.887841) ton (1.793248) pound (1.792881) distanc (1.762210) straight (1.739131) sum (1.710712) simpli (1.710430) internet (1.649894) describ (1.640312) 
mango (2.001813) teriyaki (1.948550) despit (1.948516) remark (1.903628) pesto (1.901545) bunch (1.812346) complain (1.793007) afternoon (1.742635) crepe (1.717115) chair (1.710377) 
higher (2.274366) deserv (2.216809) turkey (2.169854) needless (1.974843) grow (1.926924) okay (1.853353) central (1.852918) dirti (1.836910) hummus (1.744889) particular (1.669142) 
Error (train/valid/test) = 0.776339/1.428415/1.477594 (0.062512)
..................................................
energy after gradient step = 27830641.248399

Top words for each topic:
complimentari (2.253806) falafel (2.097109) wed (2.093109) 45 (2.005236) pickl (1.964768) lit (1.891797) pho (1.875175) larger (1.851937) posit (1.834973) chop (1.745432) 
appar (2.046793) stapl (1.885946) salti (1.830506) inexpens (1.796675) whi (1.791764) hey (1.781423) pleasant (1.762384) die (1.754826) nigiri (1.739529) salsa (1.702165) 
bottl (2.040028) rang (2.018652) alley (1.954000) bother (1.953561) italian (1.940586) contact (1.881278) prefer (1.860818) imagin (1.788524) comment (1.751553) mom (1.728953) 
upscal (2.417174) sometim (2.218060) annoy (2.213044) 15 (2.172904) extens (1.959832) dress (1.861144) often (1.860402) odd (1.842751) believ (1.840110) benefit (1.696439) 
polish (1.966052) monday (1.956261) man (1.885524) today (1.865483) scene (1.801165) cucumb (1.789569) yell (1.773807) winner (1.771680) goe (1.735682) werent (1.721017) 
spice (2.015463) shrimp (1.839916) consist (1.780405) establish (1.763365) il (1.748595) poor (1.719902) credit (1.685588) mushroom (1.658635) tortilla (1.650859) royal (1.638118) 
undergrad (2.209211) giant (2.008799) compani (1.871731) nut (1.823538) club (1.816126) wax (1.789013) appl (1.783983) main (1.780721) appreci (1.752486) southern (1.748104) 
fanci (2.248821) howev (2.136079) sum (2.099420) simpli (1.989950) bell (1.954648) batter (1.897259) opt (1.823491) bulk (1.812981) describ (1.803600) wide (1.796290) 
afternoon (2.148039) despit (1.973957) rotat (1.966301) mango (1.961380) remark (1.919729) smoke (1.875878) ramen (1.864579) threw (1.833166) build (1.811130) bunch (1.785281) 
higher (2.466227) deserv (2.197653) hummus (2.074979) grow (2.059954) needless (1.944064) dirti (1.890094) turkey (1.803715) anyon (1.795947) avoid (1.777580) famili (1.761560) 
Error (train/valid/test) = 0.724001/1.461307/1.492636 (0.072535)
..................................................
energy after gradient step = 27802557.753351

Top words for each topic:
falafel (2.177954) complimentari (2.170176) 45 (2.040254) larger (2.032079) posit (1.977707) wed (1.913532) drop (1.867406) pho (1.841667) hidden (1.813935) pickl (1.788395) 
appar (2.055004) salti (1.987455) whi (1.895743) hey (1.809391) kept (1.755736) 7 (1.751661) inexpens (1.736773) keep (1.726852) stapl (1.722968) pleasant (1.705689) 
prefer (2.061406) rang (1.978157) bottl (1.949923) italian (1.944777) 20 (1.930872) alley (1.862157) imagin (1.829123) mom (1.808500) bother (1.785501) except (1.776213) 
upscal (2.396211) 15 (2.147767) annoy (2.109433) sometim (2.052509) mustard (1.935689) extens (1.911984) pull (1.911065) dress (1.882817) market (1.858393) odd (1.847264) 
monday (2.057888) scene (1.955052) polish (1.847250) healthi (1.840796) cucumb (1.811110) today (1.807473) pretenti (1.807404) werent (1.765647) taken (1.742470) winner (1.736071) 
shrimp (2.020771) ago (1.867581) tonight (1.783208) spice (1.771331) vanilla (1.755977) tortilla (1.710721) consist (1.705966) yummi (1.689217) vegan (1.660239) mushroom (1.641524) 
undergrad (2.150676) giant (2.066402) compani (2.047416) wax (1.950773) appreci (1.849444) nut (1.846965) band (1.759475) warn (1.757081) compet (1.740827) club (1.739354) 
fanci (2.244596) howev (2.066828) batter (1.997286) sum (1.980950) distanc (1.894435) bell (1.880187) ton (1.831086) bulk (1.812690) term (1.762749) loud (1.752836) 
despit (2.040472) afternoon (2.036018) bunch (1.986589) ramen (1.969785) remark (1.904852) mango (1.899797) rotat (1.850748) basic (1.842946) brisket (1.815289) wast (1.782839) 
higher (2.499453) deserv (2.241680) dirti (2.237332) hummus (2.115874) grow (1.937653) needless (1.924871) soggi (1.901227) turkey (1.823176) avoid (1.751350) particular (1.748962) 
Error (train/valid/test) = 0.678520/1.441168/1.513892 (0.075403)
..................................................
energy after gradient step = 27767406.804582

Top words for each topic:
falafel (2.291797) 45 (2.204886) patio (2.091574) brew (1.987700) drop (1.984739) complimentari (1.976052) larger (1.954516) delay (1.932079) chop (1.878495) skip (1.824453) 
appar (2.136141) chat (1.967129) pleasant (1.894952) stapl (1.855049) moist (1.819772) 7 (1.815502) keep (1.814577) inexpens (1.806717) patron (1.772590) cornbread (1.766300) 
rang (2.413322) prefer (2.191097) italian (1.987695) except (1.918712) comment (1.889081) mean (1.830193) bottl (1.769861) 20 (1.765576) alley (1.743966) bother (1.704838) 
15 (2.322152) upscal (2.173331) sometim (2.138444) annoy (2.125152) extens (2.031830) mustard (2.029531) pull (1.857894) often (1.847166) market (1.835052) believ (1.803758) 
today (1.954078) pad (1.936907) scene (1.899070) man (1.881187) werent (1.863584) refus (1.818336) cucumb (1.810421) pretenti (1.806537) gyro (1.803120) winner (1.757927) 
vegan (2.379141) shrimp (2.071163) toast (1.926141) vanilla (1.875653) tortilla (1.850708) spice (1.841947) ago (1.830972) tonight (1.783008) mushroom (1.747450) consist (1.734322) 
giant (2.153551) compani (2.048462) club (2.045651) band (2.035270) undergrad (2.034216) wax (1.967716) appreci (1.959647) possibl (1.903224) nut (1.886850) warn (1.871082) 
fanci (2.050893) deep (2.021059) simpli (2.011730) howev (2.007792) poor (1.978933) sum (1.907744) pound (1.902517) loud (1.897925) knowledg (1.858118) anoth (1.846862) 
brisket (2.226703) smoke (2.090701) despit (1.993168) rotat (1.986763) ramen (1.973000) fall (1.898453) remark (1.892636) basic (1.877841) into (1.836063) afternoon (1.821571) 
higher (2.437046) deserv (2.336786) hummus (2.301371) dirti (2.239706) soggi (2.023186) each (1.848175) creami (1.845662) friday (1.845443) needless (1.786936) either (1.775559) 
Error (train/valid/test) = 0.700211/1.517959/1.649939 (0.088879)
..................................................
energy after gradient step = 27721573.315833

Top words for each topic:
falafel (2.284579) pool (2.184787) patio (2.113493) drop (2.037334) larger (2.017443) anyon (2.016763) complimentari (1.993425) lack (1.968462) frozen (1.960704) 45 (1.957063) 
inexpens (2.190687) appar (2.048386) stapl (1.990773) chat (1.979555) pleasant (1.964362) keep (1.949784) salsa (1.898335) kept (1.844382) 7 (1.833653) georgia (1.819175) 
rang (2.549183) prefer (2.214949) bill (2.200142) italian (2.070391) imagin (2.028189) brand (1.949437) except (1.908027) havent (1.903965) lemon (1.828998) mean (1.790689) 
upscal (2.401356) 15 (2.307611) countri (2.170640) avocado (2.150076) annoy (2.133908) sometim (2.104273) extens (2.073226) bottl (1.998412) market (1.993922) ah (1.877049) 
today (2.182905) joke (2.101854) block (2.001296) luna (1.973374) memor (1.959440) tough (1.935065) cucumb (1.916380) man (1.914189) spent (1.886303) scene (1.879151) 
tortilla (2.239576) vanilla (2.109671) vegan (2.107080) ago (2.057525) pickl (2.032495) greet (2.006686) theyll (1.996363) glad (1.934230) shrimp (1.930022) real (1.924161) 
wax (2.401329) undergrad (2.163764) club (2.149568) compani (2.052798) rent (2.029984) appreci (2.001577) nut (1.935493) band (1.919453) eggplant (1.889056) compet (1.860485) 
sum (2.297461) fanci (2.212309) although (2.176942) distanc (2.107147) batter (2.065765) yellow (1.994961) internet (1.982408) within (1.964248) poor (1.937855) simpli (1.932901) 
brisket (2.551586) bunch (2.161736) ramen (2.132279) smoke (2.125025) threw (2.027023) basic (2.011432) paid (2.008484) despit (1.992919) remark (1.986407) send (1.911610) 
higher (2.535420) hummus (2.234328) patti (2.224838) dirti (2.200364) shape (2.156826) deserv (2.146996) particular (1.927606) stew (1.923778) friday (1.903285) del (1.864618) 
Error (train/valid/test) = 0.536696/1.497311/1.622231 (0.108982)
..................................................
energy after gradient step = 27694337.065593

Top words for each topic:
anyon (2.426544) falafel (2.403594) patio (2.137291) complimentari (2.068754) lack (2.060587) down (2.034266) wed (2.034224) pool (2.009938) 45 (2.006062) larger (1.975901) 
stapl (2.096458) kept (2.038648) abl (2.033687) weve (2.029488) chat (1.954375) appar (1.953747) georgia (1.944551) keep (1.937329) vet (1.896110) salsa (1.878617) 
rang (2.541963) prefer (2.209682) except (2.166725) imagin (2.141795) havent (2.002950) mean (1.992575) italian (1.969834) season (1.945463) bill (1.921635) stack (1.920000) 
upscal (2.345692) extens (2.245540) annoy (2.149757) 15 (2.142218) avocado (2.123204) cocktail (2.078936) sometim (2.077272) gave (2.066679) bbq (2.025944) request (1.958858) 
today (2.064194) rich (2.012473) monday (1.993371) push (1.969120) werent (1.907180) cucumb (1.906123) winner (1.905698) scene (1.894596) asid (1.887572) man (1.880486) 
greet (2.175235) vegan (2.134888) ago (2.128033) real (2.099148) tortilla (2.070236) shrimp (2.042450) credit (1.986080) tip (1.984425) mushroom (1.958801) women (1.949898) 
eggplant (2.340571) wax (2.311869) band (2.209721) jean (2.163927) compani (2.119968) club (2.119077) rent (2.066534) possibl (2.045144) undergrad (2.007273) appreci (1.950270) 
sum (2.295171) poor (2.257630) distanc (2.147069) batter (2.122804) folk (1.995992) internet (1.995305) although (1.995175) knowledg (1.986860) deep (1.978743) simpli (1.973136) 
brisket (2.802601) smoke (2.614813) bbq (2.147400) burnt (2.131232) 30 (2.121961) bunch (2.099591) cornbread (2.093452) ramen (2.063408) into (2.001225) despit (1.980939) 
patti (2.550233) higher (2.409833) hummus (2.346769) deserv (2.283420) friday (2.230036) dirti (2.221303) insur (2.123094) felt (2.100814) onion (2.062876) particular (1.949319) 
Error (train/valid/test) = 0.499028/1.511910/1.632913 (0.111312)
..................................................
energy after gradient step = 27641230.775474

Top words for each topic:
falafel (2.528210) anyon (2.297579) complimentari (2.250054) frozen (2.202592) down (2.182230) pool (2.086402) calzon (2.073769) skip (2.064687) lack (2.055149) patio (2.044566) 
kept (2.277774) chat (2.203298) georgia (2.168547) altern (2.154087) rush (2.060805) weve (2.057634) tomato (1.997888) those (1.985542) luck (1.948778) salsa (1.946425) 
rang (2.763780) prefer (2.315394) bill (2.301307) brand (2.072134) contact (2.066754) mean (2.038467) except (2.031400) unlik (1.958522) imagin (1.923697) lemon (1.869834) 
upscal (2.317424) 15 (2.241965) extens (2.239576) request (2.224827) sometim (2.216240) bottl (2.171140) annoy (2.151645) bbq (2.065858) gave (2.065806) countri (2.060647) 
goe (2.205428) block (2.109001) joke (2.107674) soft (2.060070) asid (2.053247) push (2.051238) winner (2.009315) monday (2.000523) memor (1.991935) scene (1.984325) 
vegan (2.580806) tonight (2.243890) greet (2.200906) women (2.191273) credit (2.184709) corn (2.127213) shrimp (2.112540) tip (2.110207) ago (2.093538) tortilla (2.081045) 
wax (2.483346) undergrad (2.361979) eggplant (2.276710) appreci (2.249144) club (2.192408) began (2.143376) band (2.094924) record (2.068509) cours (2.054815) jean (2.050442) 
distanc (2.279636) batter (2.231873) papa (2.221521) fanci (2.192696) greatest (2.163151) internet (2.121777) sum (2.100068) common (2.087547) poor (2.072551) folk (2.044096) 
brisket (3.005253) smoke (2.800711) burnt (2.523834) bbq (2.310732) into (2.252697) slaw (2.192491) cornbread (2.141437) bunch (2.136359) parti (2.075207) steam (2.064669) 
higher (2.489785) needless (2.370051) patti (2.292645) dirti (2.236535) hummus (2.234565) friday (2.221750) deserv (2.189109) felt (2.145563) particular (2.074771) ranch (2.071783) 
Error (train/valid/test) = 0.448761/1.520699/1.616309 (0.099199)
..................................................
energy after gradient step = 27598914.386349

Top words for each topic:
falafel (2.604532) skip (2.401153) patio (2.318505) anyon (2.283674) complimentari (2.280913) 45 (2.250759) frozen (2.083310) email (2.072645) calzon (2.044325) lack (2.044118) 
kept (2.342175) stapl (2.224779) chat (2.174450) those (2.169985) georgia (2.071567) rush (2.045561) salsa (2.025289) nigiri (1.984936) weve (1.974516) tomato (1.943006) 
rang (2.682328) bill (2.308122) unlik (2.238873) except (2.159987) havent (2.122926) contact (2.110599) mean (2.110388) prefer (2.003650) brand (1.951360) imagin (1.930149) 
extens (2.488873) 15 (2.265464) upscal (2.222341) gave (2.212815) tender (2.194558) often (2.176856) request (2.147567) sometim (2.102018) annoy (2.080253) ah (2.055233) 
block (2.217299) winner (2.185540) goe (2.167127) push (2.131614) asid (2.092221) pad (2.004113) muffin (1.987917) memor (1.937261) rich (1.935785) cheeseburg (1.924871) 
vegan (2.309711) shrimp (2.301204) credit (2.271011) tip (2.214058) mushroom (2.194319) glad (2.166185) tortilla (2.151340) women (2.121312) tonight (2.083599) sent (2.056677) 
wax (2.464842) eggplant (2.441372) club (2.400151) record (2.369584) appreci (2.352552) nut (2.245357) undergrad (2.195658) began (2.183521) cours (2.119958) possibl (2.115995) 
batter (2.344598) papa (2.311845) folk (2.303307) distanc (2.283234) sum (2.179179) fanci (2.159258) although (2.154905) howev (2.115767) deep (2.083129) common (2.051311) 
brisket (3.183690) smoke (2.902697) burnt (2.816106) cornbread (2.616325) bbq (2.568909) bunch (2.481069) rib (2.443544) slaw (2.337362) peach (2.296369) parti (2.178036) 
higher (2.759446) patti (2.534004) dirti (2.434490) particular (2.303825) broccoli (2.250128) friday (2.248845) needless (2.246501) deserv (2.216355) felt (2.194423) hummus (2.191481) 
Error (train/valid/test) = 0.427201/1.517239/1.574531 (0.079682)
..................................................
energy after gradient step = 27540406.440250

Top words for each topic:
falafel (2.468594) patio (2.418460) frozen (2.415943) skip (2.413064) anyon (2.363789) afternoon (2.342719) complimentari (2.291831) down (2.191801) email (2.157034) pool (2.150761) 
kept (2.313681) those (2.142312) chat (2.123340) salsa (2.086928) tomato (2.084815) rush (2.067756) eaten (2.064596) nigiri (2.059199) stapl (2.036191) abl (1.969294) 
rang (2.864557) bottl (2.362120) bill (2.352679) contact (2.290532) mean (2.145561) singl (2.137780) havent (2.126553) brand (2.068321) imagin (2.047197) prefer (2.032878) 
upscal (2.436589) 15 (2.359704) annoy (2.255843) tender (2.212191) sometim (2.207129) extens (2.155803) often (2.149807) gave (2.130130) cocktail (2.063664) subpar (2.030629) 
gyro (2.340948) goe (2.336562) push (2.246619) step (2.204546) joke (2.190131) enchilada (2.161583) block (2.138627) scene (2.109848) muffin (2.084292) employe (2.022894) 
shrimp (2.338964) tip (2.328655) vegan (2.279972) yum (2.274170) corn (2.159059) tortilla (2.120884) tonight (2.114847) greet (2.102990) concern (2.065701) glad (2.050714) 
wax (2.546319) eggplant (2.503897) band (2.476014) club (2.241324) possibl (2.219919) experienc (2.170086) began (2.127773) cute (2.098081) giant (2.061046) record (2.049488) 
papa (2.435083) batter (2.414137) distanc (2.356644) simpli (2.352847) folk (2.325437) common (2.262970) internet (2.199126) bell (2.197129) greatest (2.149405) own (2.144911) 
brisket (3.343527) smoke (3.064699) burnt (2.999611) cornbread (2.821478) bbq (2.587361) slaw (2.571085) rib (2.532769) bunch (2.410071) barbecu (2.263586) earli (2.247655) 
dirti (2.637105) higher (2.522981) patti (2.431162) mall (2.422941) insur (2.347340) needless (2.235062) broccoli (2.212294) friday (2.210253) hummus (2.152791) biggest (2.151963) 
Error (train/valid/test) = 0.418666/1.510087/1.550077 (0.065879)
..................................................
energy after gradient step = 27463650.277055

Top words for each topic:
falafel (2.775811) anyon (2.539012) patio (2.458463) frozen (2.412852) down (2.407720) afternoon (2.333392) wed (2.319103) skip (2.308855) bagel (2.251876) complimentari (2.233288) 
kept (2.299960) lai (2.222175) rush (2.187292) salsa (2.174805) tomato (2.145666) host (2.131639) latt (2.045323) abl (1.993429) chorizo (1.974521) disappear (1.973017) 
rang (2.676268) except (2.575495) bill (2.496176) bottl (2.269542) contact (2.238187) kam (2.226313) mean (2.216156) havent (2.185547) prefer (2.105213) brand (2.096649) 
tender (2.422383) often (2.358205) sometim (2.331294) 15 (2.309471) annoy (2.266979) extens (2.259251) cupcak (2.214864) gave (2.214040) upscal (2.207369) bbq (2.061630) 
block (2.609993) enchilada (2.435484) gyro (2.384086) step (2.305008) scene (2.275576) push (2.259620) goe (2.246094) asid (2.209204) joke (2.163845) cashier (2.138802) 
vegan (2.493984) shrimp (2.452314) tip (2.418479) custard (2.257064) glad (2.216673) corn (2.199790) tortilla (2.050032) bowl (2.041743) tonight (2.022852) ago (2.019947) 
wax (2.534398) eggplant (2.460075) club (2.419721) repair (2.326116) part (2.325310) band (2.312160) record (2.288689) compani (2.202909) entre (2.184846) possibl (2.164364) 
folk (2.657339) distanc (2.455825) papa (2.431436) deep (2.416247) although (2.342958) within (2.259856) own (2.243820) greatest (2.221325) batter (2.215178) bell (2.213312) 
brisket (3.546717) burnt (3.337909) smoke (3.229960) cornbread (2.959294) rib (2.948784) bbq (2.817276) slaw (2.809961) pull (2.582463) peach (2.520591) 30 (2.444943) 
needless (2.645180) dirti (2.537072) insur (2.534315) higher (2.529995) broccoli (2.483954) crane (2.371237) ranch (2.325870) friday (2.317979) patti (2.254593) stew (2.231160) 
Error (train/valid/test) = 0.415509/1.543107/1.561765 (0.065405)
..................................................
energy after gradient step = 27389491.387876

Top words for each topic:
falafel (2.746665) pool (2.648770) wed (2.583002) frozen (2.581442) bagel (2.424285) anyon (2.414247) complimentari (2.407167) hall (2.367877) down (2.358783) trip (2.346142) 
tomato (2.472789) kept (2.335940) lai (2.230311) those (2.198199) salsa (2.155181) chorizo (2.098671) abl (2.067593) pepper (2.060920) mess (2.059373) wall (2.047405) 
rang (2.865389) contact (2.514983) bill (2.471939) bottl (2.368128) except (2.356571) havent (2.247882) prefer (2.187940) imagin (2.185748) mean (2.142268) 7 (2.099525) 
sometim (2.591886) often (2.587778) tender (2.374201) annoy (2.338425) 15 (2.301022) cupcak (2.291151) grab (2.272148) frost (2.271504) extens (2.220389) upscal (2.210826) 
gyro (2.649229) goe (2.596397) block (2.488706) librari (2.477822) state (2.363346) step (2.312359) asid (2.269330) yogurt (2.233119) enchilada (2.225427) recent (2.193599) 
vegan (2.548290) tip (2.519061) shrimp (2.489846) custard (2.384692) corn (2.329349) glad (2.178979) tonight (2.135663) toast (2.074690) tortilla (2.070766) concern (2.056582) 
wax (2.606715) club (2.339908) compani (2.279910) rent (2.259145) brew (2.256717) cute (2.239734) possibl (2.224675) eggplant (2.206967) cost (2.180808) repair (2.157724) 
papa (2.702107) folk (2.514768) distanc (2.417885) own (2.396749) bell (2.393909) deep (2.377142) batter (2.358190) although (2.244900) fanci (2.232793) within (2.200265) 
brisket (3.702114) burnt (3.507744) smoke (3.338260) rib (3.222760) cornbread (3.128841) bbq (3.083429) pull (2.994324) black (2.863060) slaw (2.861207) georgia (2.746793) 
broccoli (2.674804) insur (2.637115) patti (2.608678) dirti (2.607725) higher (2.577867) needless (2.461818) mall (2.414373) guacamol (2.336049) hummus (2.311851) ranch (2.257393) 
Error (train/valid/test) = 0.422026/1.541461/1.566105 (0.064957)
..................................................
energy after gradient step = 27276319.617992

Top words for each topic:
falafel (2.865822) frozen (2.769084) wed (2.766043) bagel (2.765688) anyon (2.714244) stick (2.567646) pool (2.530818) hall (2.512273) trip (2.485476) calzon (2.446083) 
tomato (2.516225) kept (2.366459) salsa (2.339826) those (2.237999) moist (2.200662) pepper (2.164583) wall (2.150202) pleasant (2.131033) chorizo (2.109711) crust (2.096762) 
rang (2.741650) bill (2.557951) except (2.516180) bottl (2.425139) prefer (2.397137) havent (2.299311) kam (2.279909) imagin (2.234156) section (2.204922) brand (2.152262) 
often (2.595062) cupcak (2.582608) sometim (2.566909) annoy (2.419277) upscal (2.403675) tender (2.382965) extens (2.354814) 15 (2.255008) gave (2.139050) grab (2.041206) 
gyro (2.944963) librari (2.679606) goe (2.608214) pad (2.581574) block (2.545061) enchilada (2.542737) scene (2.460301) heart (2.381264) offic (2.281696) step (2.264847) 
tip (2.654028) custard (2.578443) shrimp (2.512355) tortilla (2.439891) vegan (2.398667) corn (2.354175) glad (2.264878) greet (2.161755) tofu (2.140977) toast (2.082339) 
wax (2.808634) eggplant (2.795544) club (2.670114) cute (2.529621) band (2.451645) giant (2.412754) compani (2.372293) repair (2.344063) suppli (2.318182) rent (2.302358) 
papa (2.855050) deep (2.697917) folk (2.668232) own (2.489786) women (2.466109) distanc (2.335767) within (2.250055) batter (2.199108) hair (2.188738) although (2.186004) 
brisket (3.808391) burnt (3.694529) smoke (3.523636) rib (3.397105) cornbread (3.394604) bbq (3.370188) pull (3.225120) black (3.077116) georgia (3.057482) slaw (2.977827) 
insur (2.839451) higher (2.666753) patti (2.610324) broccoli (2.595754) hummus (2.587310) mall (2.583245) dirti (2.582766) needless (2.441024) nail (2.409574) ranch (2.281934) 
Error (train/valid/test) = 0.422995/1.556100/1.589128 (0.066358)
..................................................
energy after gradient step = 27151115.323606

Top words for each topic:
pool (3.004308) wed (2.903592) frozen (2.898580) anyon (2.893745) falafel (2.847678) hall (2.799556) bike (2.798379) bagel (2.679934) calzon (2.668489) down (2.541289) 
tomato (2.588376) kept (2.480035) lai (2.365455) salsa (2.336267) rush (2.262725) pepper (2.220609) pleasant (2.178873) those (2.134054) crust (2.119490) chat (2.093522) 
except (2.734547) rang (2.692548) section (2.497489) kam (2.469543) bill (2.457650) havent (2.385668) bottl (2.355736) flat (2.340764) dress (2.280703) prefer (2.250219) 
cupcak (2.788602) tender (2.491551) sometim (2.472597) often (2.460079) grab (2.312354) annoy (2.309289) extens (2.301968) upscal (2.250114) frost (2.228389) gave (2.172368) 
gyro (3.214102) librari (2.974016) pad (2.778100) goe (2.770386) block (2.613326) offic (2.600390) yogurt (2.587477) thai (2.516879) step (2.508827) scene (2.503422) 
tip (2.690069) shrimp (2.486227) corn (2.482149) custard (2.368731) tofu (2.309851) bowl (2.274383) salmon (2.258924) vegan (2.238353) toast (2.219904) glad (2.176817) 
wax (2.888558) band (2.651960) eggplant (2.651311) cute (2.570185) record (2.536385) compani (2.494958) club (2.472442) brew (2.360833) hilton (2.346788) giant (2.318833) 
papa (2.979055) deep (2.628534) folk (2.586484) own (2.544370) women (2.483391) amount (2.475505) distanc (2.323833) bore (2.258705) batter (2.254313) although (2.225403) 
brisket (3.859344) burnt (3.829346) smoke (3.660346) rib (3.578898) bbq (3.519029) pull (3.339920) barbecu (3.329010) cornbread (3.319570) black (3.225723) georgia (2.977543) 
insur (2.917943) mall (2.797011) higher (2.774231) nail (2.753603) dirti (2.723336) needless (2.715595) patti (2.660697) hummus (2.655042) type (2.460042) massag (2.391946) 
Error (train/valid/test) = 0.416669/1.555114/1.604418 (0.065646)
..................................................
energy after gradient step = 27008410.360419

Top words for each topic:
falafel (3.401893) bagel (3.313194) bike (3.123799) anyon (2.972040) calzon (2.944648) wed (2.936875) stick (2.934393) pool (2.925958) frozen (2.826192) pokey (2.816154) 
lai (2.567287) tomato (2.449076) crust (2.414303) pepper (2.271182) salsa (2.270440) kept (2.261164) overwhelm (2.213117) pleasant (2.193246) rush (2.178594) those (2.176942) 
rang (2.814558) section (2.676235) except (2.668949) havent (2.632200) bill (2.502663) pancak (2.471783) flat (2.451218) kam (2.417819) dress (2.363631) bottl (2.355685) 
cupcak (2.994804) sometim (2.511229) extens (2.443218) often (2.430110) tender (2.414987) courier (2.334074) frost (2.307358) 15 (2.208622) slider (2.196994) grab (2.196403) 
librari (3.445579) gyro (3.402294) pad (3.138567) yogurt (3.120711) block (2.962140) offic (2.896378) goe (2.862813) thai (2.842049) enchilada (2.661894) easi (2.589683) 
tip (2.707093) custard (2.578337) shrimp (2.547668) tofu (2.381453) bowl (2.379258) vegan (2.292317) tortilla (2.237955) salmon (2.202991) glad (2.175031) yum (2.171845) 
wax (2.996193) eggplant (2.752264) record (2.572632) compani (2.567848) cute (2.563124) band (2.525718) giant (2.464519) club (2.448285) repair (2.422313) suppli (2.417271) 
deep (2.933483) papa (2.798627) folk (2.630170) hair (2.570734) own (2.564428) women (2.451972) distanc (2.403448) merri (2.387084) bore (2.382165) uiuc (2.358539) 
brisket (3.974660) burnt (3.937765) smoke (3.747733) rib (3.709896) bbq (3.670789) pull (3.514805) cornbread (3.482702) black (3.423947) slaw (3.065152) pork (3.057626) 
insur (3.005171) mall (2.897082) nail (2.792905) dirti (2.707962) higher (2.677949) patti (2.672556) rental (2.662483) schedul (2.586125) needless (2.568558) guacamol (2.561749) 
Error (train/valid/test) = 0.405786/1.578393/1.602789 (0.065725)
..................................................
energy after gradient step = 26841352.366348

Top words for each topic:
bike (3.375715) bagel (3.335330) falafel (3.310651) calzon (3.233830) pool (3.178904) pokey (3.112750) frozen (3.057277) anyon (3.022548) wed (2.981745) hall (2.931798) 
tomato (2.575973) crust (2.507834) pepper (2.442906) lai (2.387095) empanada (2.384044) kept (2.346620) salsa (2.325003) appet (2.253451) those (2.209968) rush (2.197958) 
except (2.917958) rang (2.736236) havent (2.710609) luna (2.705046) section (2.664613) pancak (2.644206) bill (2.642342) film (2.595138) kam (2.573293) dress (2.483367) 
cupcak (3.136289) sometim (2.609804) often (2.518239) frost (2.506617) extens (2.468966) tender (2.425164) courier (2.415222) velvet (2.330036) slider (2.285770) upscal (2.261255) 
gyro (3.732900) pad (3.422061) librari (3.383288) yogurt (3.366781) step (3.075477) thai (3.060743) block (3.044733) offic (2.962676) easi (2.786483) goe (2.678552) 
tip (2.721141) custard (2.596132) tofu (2.582288) shrimp (2.575307) bowl (2.502803) vegan (2.392378) salmon (2.347850) corn (2.231510) tortilla (2.206707) toast (2.194269) 
wax (3.048444) club (2.726537) record (2.716219) daughter (2.690054) band (2.677664) cute (2.582419) rent (2.558873) compani (2.538324) hilton (2.510970) repair (2.482259) 
deep (3.047083) papa (2.919576) hair (2.765955) folk (2.742266) women (2.615140) uiuc (2.555512) hipster (2.492350) own (2.460369) bore (2.459233) straight (2.444657) 
bbq (4.169731) burnt (4.023338) brisket (4.015692) smoke (3.807600) rib (3.781885) pull (3.602988) black (3.580228) cornbread (3.444688) dog (3.291492) barbecu (3.267044) 
nail (3.304240) mall (3.068783) insur (3.040181) rental (3.014459) massag (2.769457) schedul (2.687450) hummus (2.677906) dirti (2.626848) truck (2.623875) higher (2.622017) 
Error (train/valid/test) = 0.404868/1.625045/1.623914 (0.068211)
..................................................
energy after gradient step = 26655168.925724

Top words for each topic:
bagel (3.725937) bike (3.724710) pokey (3.580103) calzon (3.552213) falafel (3.470027) wed (3.299911) frozen (3.283266) hall (3.259934) pool (3.242408) stick (3.173761) 
lai (2.809796) crust (2.648864) tomato (2.607065) pepper (2.514716) rush (2.410036) salsa (2.399312) kept (2.364600) appet (2.277697) empanada (2.262172) korean (2.222659) 
bill (2.869097) section (2.798941) kam (2.769436) rang (2.746837) except (2.717521) dress (2.670009) film (2.656639) luna (2.636979) pancak (2.609945) cooki (2.581406) 
cupcak (3.298106) courier (2.627618) frost (2.589161) extens (2.570755) often (2.532985) sometim (2.476864) tender (2.438399) velvet (2.374281) slider (2.353441) annoy (2.341927) 
gyro (4.012266) pad (3.807531) librari (3.698102) yogurt (3.662077) offic (3.469234) block (3.281987) thai (3.202916) step (2.881325) enchilada (2.788031) easi (2.742307) 
tip (2.757089) tofu (2.714177) shrimp (2.671795) bowl (2.604046) custard (2.526401) rice (2.395091) toast (2.370842) salmon (2.328893) brunch (2.203117) tortilla (2.199956) 
wax (3.248246) record (2.921622) compani (2.861515) band (2.771055) club (2.749258) daughter (2.684729) groceri (2.661647) rent (2.650245) hilton (2.647924) repair (2.611359) 
deep (3.249514) papa (3.046887) hair (2.923993) folk (2.790772) uiuc (2.604302) women (2.554773) bell (2.510977) common (2.486037) own (2.485739) bore (2.457486) 
bbq (4.248437) brisket (4.062085) burnt (4.050210) smoke (3.851444) rib (3.846175) pull (3.661701) black (3.610905) dog (3.559343) cornbread (3.520994) barbecu (3.409805) 
insur (3.468185) nail (3.448128) massag (3.059155) mall (3.028059) rental (3.004381) truck (2.901266) dirti (2.837626) schedul (2.835592) patient (2.795758) needless (2.781086) 
Error (train/valid/test) = 0.387223/1.629023/1.623856 (0.066512)
..................................................
energy after gradient step = 26453185.471408

Top words for each topic:
bagel (3.932914) bike (3.886856) pokey (3.633303) calzon (3.561766) falafel (3.433835) frozen (3.415430) hall (3.359897) hotel (3.358971) bed (3.356740) wed (3.327102) 
tomato (2.651597) crust (2.649757) lai (2.558581) pepper (2.531208) salsa (2.479232) empanada (2.456207) rush (2.386939) korean (2.317068) ate (2.266540) appet (2.258441) 
kam (3.109502) film (2.987189) except (2.959443) bill (2.897294) luna (2.851102) rang (2.845493) cooki (2.826121) art (2.795993) dress (2.780448) section (2.770933) 
cupcak (3.482475) frost (2.684807) courier (2.654855) sometim (2.570490) slider (2.556614) extens (2.526756) often (2.450689) annoy (2.414993) grab (2.326989) 15 (2.317611) 
gyro (4.231803) pad (4.154774) yogurt (3.872766) librari (3.838904) thai (3.536599) offic (3.329038) block (3.325566) step (3.014575) shop (2.876016) cashier (2.856714) 
tofu (2.738418) tip (2.687460) bowl (2.596123) shrimp (2.585882) rice (2.514947) custard (2.499151) salmon (2.470868) brunch (2.381085) sushi (2.360796) toast (2.318598) 
wax (3.360450) club (2.981989) compani (2.943597) record (2.914367) repair (2.855455) hilton (2.847373) groceri (2.827639) part (2.795953) band (2.772108) cute (2.733126) 
deep (3.362969) papa (3.203152) hair (2.997396) folk (2.775629) women (2.761008) own (2.564701) uiuc (2.516720) cafe (2.510062) bell (2.484901) common (2.467549) 
bbq (4.315932) brisket (4.090346) burnt (4.031924) rib (3.861566) smoke (3.789616) pull (3.731738) black (3.720878) dog (3.697614) cornbread (3.548038) pork (3.400300) 
insur (3.481912) nail (3.461283) rental (3.247641) mall (3.241510) massag (3.071537) truck (3.056569) schedul (2.932024) dirti (2.870537) suit (2.866406) major (2.859050) 
Error (train/valid/test) = 0.386122/1.637344/1.622532 (0.067738)
..................................................
energy after gradient step = 26235190.856260

Top words for each topic:
bike (4.125538) bagel (4.076423) pokey (3.894692) calzon (3.731337) hotel (3.676769) hall (3.545564) frozen (3.519146) bed (3.486784) falafel (3.456492) pool (3.437491) 
lai (2.838479) tomato (2.766341) salsa (2.711974) crust (2.645146) pepper (2.631566) chorizo (2.443685) korean (2.441619) ate (2.423509) chines (2.401732) taco (2.359404) 
film (3.196538) kam (3.162432) cooki (2.970565) section (2.966483) bill (2.944914) art (2.928351) pancak (2.893764) except (2.878512) luna (2.861796) rang (2.842999) 
cupcak (3.707055) courier (2.900924) frost (2.592197) sometim (2.565649) often (2.474498) vibe (2.464625) velvet (2.455023) breakfast (2.431329) cake (2.420036) grab (2.399382) 
gyro (4.402869) pad (4.395162) thai (4.147635) yogurt (4.127483) librari (4.018777) offic (3.512352) block (3.364175) step (3.139081) shop (3.062662) basil (2.859526) 
tofu (2.873324) rice (2.712394) sushi (2.665291) bowl (2.646758) shrimp (2.576507) tip (2.566871) salmon (2.546688) brunch (2.508228) egg (2.452798) toast (2.411709) 
wax (3.430819) record (3.235510) hilton (3.075449) groceri (3.058867) repair (3.056398) club (3.052654) band (2.975819) compani (2.881819) rent (2.861784) lock (2.817664) 
deep (3.461119) papa (3.355933) hair (3.230842) women (2.818073) stylist (2.799183) folk (2.743059) uiuc (2.683914) merri (2.645362) distanc (2.626964) del (2.613995) 
bbq (4.405601) brisket (4.178249) burnt (4.101519) dog (3.981696) rib (3.976726) black (3.854186) smoke (3.796445) pull (3.784745) pork (3.670433) cornbread (3.637266) 
nail (3.806860) insur (3.796473) mall (3.545829) rental (3.496713) massag (3.393770) truck (3.296843) schedul (3.222717) pedicur (3.124998) dirti (3.119515) suit (3.051928) 
Error (train/valid/test) = 0.368101/1.651963/1.637289 (0.068791)
..................................................
energy after gradient step = 26020219.184467

Top words for each topic:
bike (4.341425) bagel (4.226816) pokey (3.970742) hotel (3.922960) bed (3.771065) calzon (3.762225) book (3.725973) hall (3.663450) frozen (3.648430) wed (3.554112) 
tomato (2.823433) salsa (2.800935) lai (2.750402) pepper (2.722223) crust (2.714088) korean (2.634704) taco (2.554869) ate (2.532475) burrito (2.531688) mexican (2.519388) 
kam (3.319890) film (3.269335) dress (3.199067) cooki (3.142957) art (3.021471) rang (3.015896) luna (3.000033) bill (2.906331) except (2.842924) 20 (2.810570) 
cupcak (3.850840) courier (2.892615) frost (2.840910) cake (2.644605) breakfast (2.558942) vibe (2.558897) sometim (2.534764) often (2.499362) velvet (2.472115) bottl (2.469319) 
pad (4.678541) gyro (4.641729) thai (4.490111) yogurt (4.312311) librari (4.019141) offic (3.679301) block (3.421331) shop (3.337777) basil (2.979093) haircut (2.932160) 
sushi (2.943093) tofu (2.855093) rice (2.764654) bowl (2.697328) burger (2.552910) shrimp (2.523718) egg (2.512311) salmon (2.486094) crispi (2.425930) toast (2.376836) 
wax (3.470659) record (3.287300) hilton (3.223059) band (3.176089) groceri (3.169106) repair (3.105916) rent (3.050104) club (3.030449) compani (2.925841) part (2.921108) 
deep (3.658430) papa (3.654690) hair (3.624744) del (2.898590) women (2.854149) cafe (2.842303) uiuc (2.820137) custard (2.806008) folk (2.786333) stylist (2.741178) 
bbq (4.445680) brisket (4.172988) burnt (4.105050) dog (4.061792) rib (3.981038) black (3.927208) smoke (3.841508) pull (3.790600) pork (3.757097) cornbread (3.596443) 
nail (3.968710) insur (3.806300) mall (3.562927) truck (3.487614) rental (3.464142) massag (3.436916) car (3.402370) schedul (3.303855) pedicur (3.290069) suit (3.054110) 
Error (train/valid/test) = 0.367499/1.657930/1.651281 (0.068241)
..................................................
energy after gradient step = 25768814.222807

Top words for each topic:
bike (4.527084) bagel (4.354510) pokey (4.212994) hotel (4.112460) calzon (3.931639) book (3.876343) snowstorm (3.866677) bed (3.808430) hall (3.803563) class (3.659655) 
salsa (3.027226) taco (2.994078) tomato (2.937643) mexican (2.933493) lai (2.824750) crust (2.814544) pepper (2.791077) korean (2.788205) burrito (2.732037) ate (2.622832) 
film (3.503560) kam (3.449617) dress (3.330928) luna (3.269654) cooki (3.255750) art (3.084284) shirt (2.956521) classic (2.951871) pancak (2.933765) section (2.916407) 
cupcak (3.957571) courier (3.144107) frost (2.878575) cake (2.853177) pizza (2.618410) vibe (2.585250) extens (2.565784) breakfast (2.554147) sometim (2.543449) slider (2.519257) 
thai (4.861672) gyro (4.788260) pad (4.773646) yogurt (4.404449) librari (4.297820) offic (3.698183) block (3.644388) shop (3.462766) paint (3.216808) haircut (3.197749) 
sushi (3.143363) rice (2.992984) tofu (2.939249) bowl (2.766297) burger (2.744375) egg (2.615970) shrimp (2.612015) roll (2.578985) salmon (2.558092) crispi (2.540951) 
wax (3.886714) rent (3.451810) repair (3.440670) record (3.434291) hilton (3.359901) groceri (3.207129) field (3.183666) band (3.173292) club (3.121635) lock (3.103113) 
hair (3.769140) papa (3.737305) deep (3.697465) del (3.254404) custard (3.192043) stylist (2.976758) women (2.936422) merri (2.923124) uiuc (2.921407) folk (2.848889) 
bbq (4.525222) brisket (4.218167) burnt (4.132581) dog (4.108212) rib (4.026776) black (3.952525) smoke (3.916658) pull (3.842573) pork (3.810612) potato (3.730254) 
nail (4.147470) insur (4.070724) rental (3.801893) mall (3.716627) truck (3.680075) car (3.643938) massag (3.579189) pedicur (3.527834) schedul (3.429800) appoint (3.403230) 
Error (train/valid/test) = 0.351379/1.670352/1.665135 (0.069443)
..................................................
energy after gradient step = 25575484.726645

Top words for each topic:
bike (4.629166) bagel (4.485574) hotel (4.452727) pokey (4.279512) book (4.010590) bed (4.004738) calzon (3.954374) snowstorm (3.792214) hall (3.790779) stix (3.697532) 
mexican (3.165086) salsa (3.129274) taco (3.062781) korean (2.957727) lai (2.941085) burrito (2.926243) tomato (2.910256) pepper (2.814693) crust (2.798216) crave (2.650942) 
film (3.634444) kam (3.582062) cooki (3.544735) dress (3.504236) art (3.423972) luna (3.389245) bill (3.135587) flat (3.051168) pancak (3.036440) theater (3.032813) 
cupcak (4.045305) courier (3.265891) frost (3.010904) cake (2.910883) pizza (2.830000) bottl (2.692658) breakfast (2.657539) sometim (2.602556) slider (2.578742) extens (2.551153) 
thai (4.923789) gyro (4.907264) pad (4.898129) yogurt (4.648456) librari (4.322096) offic (3.654906) shop (3.616961) block (3.522975) haircut (3.320434) paint (3.250210) 
sushi (3.207286) rice (3.046727) tofu (2.925699) burger (2.894492) roll (2.771805) bowl (2.724847) restaur (2.702721) egg (2.677381) shrimp (2.619190) dinner (2.598232) 
wax (4.009000) repair (3.532136) record (3.449329) rent (3.432996) hilton (3.432465) groceri (3.338448) lock (3.320951) product (3.284065) field (3.247597) appl (3.217314) 
papa (3.862973) hair (3.850367) deep (3.809614) del (3.610950) custard (3.329894) stylist (3.069952) merri (2.995395) folk (2.937225) cafe (2.910121) uiuc (2.903921) 
bbq (4.563529) brisket (4.211261) dog (4.183672) burnt (4.125059) rib (4.031555) black (4.014827) pull (3.875923) smoke (3.867305) pork (3.856540) potato (3.705307) 
nail (4.350291) insur (4.076889) car (3.949161) rental (3.875034) truck (3.874221) mall (3.816778) massag (3.667660) pedicur (3.623654) appoint (3.581107) schedul (3.455551) 
Error (train/valid/test) = 0.343722/1.668751/1.673441 (0.070924)
..................................................
energy after gradient step = 25379494.514132

Top words for each topic:
bike (4.667442) bagel (4.555719) hotel (4.528289) pokey (4.352239) calzon (4.080889) book (4.017099) bed (3.991522) hall (3.920332) snowstorm (3.891164) class (3.803878) 
mexican (3.269549) salsa (3.203825) taco (3.150175) korean (2.999009) burrito (2.990165) tomato (2.906340) lai (2.890124) pepper (2.826586) crust (2.765179) empanada (2.735473) 
film (3.756988) dress (3.620618) kam (3.586372) cooki (3.496516) luna (3.484059) art (3.456295) theater (3.282919) radio (3.189800) bill (3.158610) shirt (3.062186) 
cupcak (4.096886) courier (3.260898) frost (3.045687) pizza (3.018781) cake (2.930920) slider (2.796112) breakfast (2.703291) sometim (2.662176) velvet (2.582821) bottl (2.506947) 
gyro (5.065185) pad (5.015856) thai (4.981605) yogurt (4.674496) librari (4.458800) offic (3.751196) shop (3.679339) haircut (3.551761) froyo (3.543416) block (3.475379) 
sushi (3.425825) rice (3.121445) tofu (2.948021) burger (2.931728) roll (2.914890) restaur (2.775012) bowl (2.757106) dinner (2.754228) egg (2.743818) shrimp (2.624675) 
wax (4.178221) rent (3.811751) record (3.632850) hilton (3.585461) groceri (3.552000) repair (3.510969) starbuck (3.457447) lock (3.450291) product (3.426968) field (3.375623) 
papa (3.974952) hair (3.971083) deep (3.785127) custard (3.607336) del (3.600550) stylist (3.193562) merri (3.160020) cafe (3.072944) women (2.968866) emerg (2.963574) 
bbq (4.608641) dog (4.254484) brisket (4.220037) burnt (4.133381) rib (4.076004) black (4.046676) pull (3.917332) pork (3.913067) smoke (3.886775) potato (3.770882) 
nail (4.341306) insur (4.243222) car (4.046447) truck (3.932145) rental (3.897091) mall (3.754426) massag (3.728865) pedicur (3.678244) salon (3.667506) appoint (3.636357) 
Error (train/valid/test) = 0.336821/1.684569/1.670721 (0.070902)
..................................................
energy after gradient step = 25209963.743299

Top words for each topic:
bike (4.831354) hotel (4.671253) bagel (4.591576) pokey (4.467536) bed (4.210230) snowstorm (4.120834) hall (4.106867) book (4.046383) calzon (4.043438) cloth (3.907718) 
mexican (3.387938) salsa (3.314271) taco (3.269772) burrito (3.114303) korean (3.104282) lai (3.057185) tomato (2.945572) chip (2.790441) crave (2.787225) pepper (2.783037) 
film (3.910865) cooki (3.784029) kam (3.774802) dress (3.756526) art (3.661482) luna (3.581763) radio (3.352404) movi (3.321641) bill (3.312903) shirt (3.219309) 
cupcak (4.167635) courier (3.462003) pizza (3.373947) frost (3.099810) cake (3.073670) slider (2.902076) velvet (2.786624) boltini (2.741314) breakfast (2.729802) vibe (2.651881) 
pad (5.164359) gyro (5.153091) thai (5.080622) yogurt (4.851414) librari (4.561503) shop (3.844039) froyo (3.803568) basil (3.567371) haircut (3.547789) offic (3.530124) 
sushi (3.516719) rice (3.154459) roll (3.061497) burger (2.988041) restaur (2.974279) tofu (2.904809) egg (2.815400) dinner (2.809398) bowl (2.785499) shrimp (2.672254) 
wax (4.113087) rent (3.917508) record (3.837848) hilton (3.834481) field (3.818999) repair (3.690064) groceri (3.689878) starbuck (3.621524) lock (3.618967) farm (3.481924) 
hair (4.102765) papa (4.087899) del (3.871472) custard (3.870984) deep (3.853176) royal (3.175438) uiuc (3.171426) stylist (3.158966) cafe (3.154129) merri (3.143202) 
bbq (4.658267) dog (4.305465) brisket (4.242470) burnt (4.142428) rib (4.095540) black (4.058322) pull (3.913794) pork (3.905015) smoke (3.880621) potato (3.837143) 
nail (4.395515) insur (4.226948) car (4.196078) truck (4.009655) rental (3.963338) massag (3.847107) mall (3.811226) pedicur (3.791576) appoint (3.724833) salon (3.606545) 
Error (train/valid/test) = 0.332933/1.682610/1.701221 (0.072562)
..................................................
energy after gradient step = 25087785.259266

Top words for each topic:
hotel (4.812925) bike (4.778538) bagel (4.677510) pokey (4.503214) calzon (4.151047) bed (4.140070) hall (4.082650) book (4.082262) snowstorm (4.062513) cloth (3.940034) 
mexican (3.557450) taco (3.389609) salsa (3.362675) burrito (3.202874) korean (3.175867) tomato (3.006769) chip (2.958410) lai (2.936991) pepper (2.828536) dish (2.813512) 
film (3.959739) kam (3.900190) dress (3.871857) art (3.737210) cooki (3.704142) luna (3.660526) theater (3.361138) section (3.330623) shirt (3.327873) bill (3.303920) 
cupcak (4.286091) pizza (3.524112) courier (3.394883) cake (3.299693) frost (3.135530) slider (2.975418) breakfast (2.862170) velvet (2.836167) sometim (2.715944) cream (2.706874) 
gyro (5.287159) pad (5.237790) thai (5.235045) yogurt (4.883260) librari (4.669840) shop (4.044835) froyo (3.839277) basil (3.732420) studi (3.684127) coffe (3.609571) 
sushi (3.639576) rice (3.170925) roll (3.108213) burger (3.105847) restaur (3.031862) tofu (2.976056) dinner (2.938702) egg (2.848782) bowl (2.785972) shrimp (2.742549) 
wax (4.317138) rent (4.109089) hilton (3.951189) record (3.949254) groceri (3.854277) field (3.772226) starbuck (3.667869) band (3.621640) product (3.569460) lock (3.518764) 
hair (4.225518) papa (4.212225) custard (3.922729) deep (3.872609) del (3.868271) cafe (3.336991) stylist (3.310314) vet (3.255400) pizza (3.181414) uiuc (3.144971) 
bbq (4.657062) dog (4.319802) brisket (4.232196) burnt (4.114568) rib (4.088007) black (4.034087) pull (3.929665) potato (3.897578) pork (3.890483) smoke (3.812904) 
nail (4.392778) car (4.292703) insur (4.283147) rental (3.902698) mall (3.826694) truck (3.813892) massag (3.804073) pedicur (3.801088) appoint (3.783823) salon (3.705833) 
Error (train/valid/test) = 0.329778/1.691225/1.728695 (0.073650)
..................................................
energy after gradient step = 24950062.746731

Top words for each topic:
bike (4.962438) hotel (4.878866) bagel (4.638176) pokey (4.602611) bed (4.321953) hall (4.179076) snowstorm (4.124737) calzon (4.121886) cloth (4.099086) book (4.060695) 
mexican (3.671131) taco (3.507489) salsa (3.455520) burrito (3.286055) korean (3.247653) lai (3.127696) chip (3.068690) tomato (3.023063) dish (2.931363) crave (2.821795) 
film (4.046546) kam (3.988932) dress (3.922623) art (3.860520) cooki (3.838080) luna (3.771496) movi (3.583152) theater (3.499978) radio (3.334260) ring (3.266610) 
cupcak (4.361017) pizza (3.746114) courier (3.654032) frost (3.307801) cake (3.283266) slider (3.108056) breakfast (2.928039) velvet (2.820215) cream (2.812274) boltini (2.805248) 
thai (5.339304) gyro (5.337232) pad (5.313536) yogurt (5.008563) librari (4.769771) shop (4.129352) froyo (4.006624) studi (3.929450) basil (3.713816) coffe (3.698729) 
sushi (3.683472) burger (3.247608) rice (3.194252) roll (3.183516) restaur (3.118423) dinner (3.019309) tofu (2.977297) egg (2.928469) food (2.798164) bowl (2.795561) 
wax (4.262763) groceri (4.035319) hilton (4.027390) record (4.006220) rent (4.003295) starbuck (3.962523) field (3.929400) coop (3.706053) product (3.705926) lock (3.641292) 
hair (4.297777) custard (4.244993) papa (4.154200) del (4.094875) deep (3.896824) merri (3.392184) stylist (3.361747) cafe (3.339548) dr (3.327555) pizza (3.268503) 
bbq (4.675027) dog (4.322720) brisket (4.238524) burnt (4.125090) rib (4.087881) black (4.067568) potato (3.941129) pull (3.931765) pork (3.927682) smoke (3.871778) 
nail (4.447233) car (4.357761) insur (4.209892) truck (3.943226) rental (3.894539) pedicur (3.808021) massag (3.746821) appoint (3.746478) salon (3.722846) schedul (3.499074) 
Error (train/valid/test) = 0.319229/1.699998/1.753959 (0.074775)
..................................................
energy after gradient step = 24820371.633204

Top words for each topic:
bike (5.005893) hotel (4.922134) bagel (4.823203) pokey (4.657852) bed (4.353525) snowstorm (4.199030) calzon (4.140849) hall (4.134380) book (4.119254) gym (4.070122) 
mexican (3.790813) taco (3.619076) salsa (3.563619) burrito (3.367683) korean (3.365835) chip (3.165709) lai (3.109618) dish (3.021745) tomato (3.003957) crave (2.931233) 
film (4.155304) kam (4.101468) dress (4.034914) art (3.931311) cooki (3.926742) luna (3.912911) theater (3.670758) movi (3.589798) shirt (3.535972) ring (3.453743) 
cupcak (4.442402) pizza (3.886059) courier (3.645577) cake (3.444754) frost (3.366816) slider (3.206753) crust (2.974489) breakfast (2.946844) velvet (2.940424) boltini (2.937540) 
thai (5.487830) gyro (5.426792) pad (5.399637) yogurt (5.083885) librari (4.845163) shop (4.227863) froyo (4.151517) coffe (3.895472) studi (3.816839) comic (3.751336) 
sushi (3.797768) burger (3.296083) roll (3.264253) rice (3.242025) restaur (3.207226) dinner (3.099751) egg (3.009138) tofu (2.967985) food (2.871827) bowl (2.823552) 
wax (4.318343) record (4.180998) rent (4.172176) field (4.099876) groceri (4.072114) hilton (4.032124) starbuck (4.027554) coop (3.825269) product (3.766492) farm (3.734487) 
custard (4.347572) hair (4.338266) papa (4.257679) del (4.115313) deep (3.800366) stylist (3.479305) kopi (3.404089) merri (3.400149) pizza (3.384927) cafe (3.298704) 
bbq (4.651115) dog (4.358070) brisket (4.221682) burnt (4.139062) rib (4.105408) black (4.051274) potato (3.976238) pull (3.952027) pork (3.919387) smoke (3.854584) 
nail (4.455522) car (4.402210) insur (4.296916) rental (3.959861) truck (3.935328) massag (3.910908) pedicur (3.839531) salon (3.780896) appoint (3.746458) mall (3.668442) 
Error (train/valid/test) = 0.308273/1.696128/1.771653 (0.076130)
..................................................
energy after gradient step = 24711311.286531

Top words for each topic:
bike (5.075907) hotel (4.984020) bagel (4.825488) pokey (4.741085) bed (4.402811) snowstorm (4.257880) cloth (4.212785) hall (4.142731) book (4.134847) gym (4.107984) 
mexican (3.915507) taco (3.671335) salsa (3.645763) burrito (3.448356) korean (3.418782) chip (3.337615) lai (3.195662) dish (3.182939) tomato (3.052427) margarita (2.995034) 
film (4.360230) kam (4.157559) dress (4.100990) cooki (3.982785) luna (3.920816) art (3.909754) theater (3.800012) movi (3.757957) thread (3.583830) shirt (3.553751) 
cupcak (4.520062) pizza (4.099101) courier (3.825486) frost (3.515536) cake (3.514678) slider (3.414935) saint (3.235873) boltini (3.125721) crust (3.112678) breakfast (3.041810) 
thai (5.585375) gyro (5.472625) pad (5.410084) yogurt (5.101465) librari (4.834066) shop (4.319361) froyo (4.215378) coffe (4.155476) studi (4.013622) espresso (3.928760) 
sushi (3.894182) roll (3.344019) restaur (3.341446) burger (3.297258) rice (3.230960) dinner (3.192934) food (3.088142) egg (3.068571) tofu (2.995061) menu (2.906504) 
rent (4.414160) wax (4.297955) groceri (4.196731) hilton (4.137463) field (4.109020) starbuck (4.077924) record (4.058505) product (3.956987) coop (3.932791) suppli (3.860773) 
hair (4.437589) custard (4.411979) papa (4.303184) del (4.245210) deep (3.737104) merri (3.600744) stylist (3.560575) pizza (3.507801) kopi (3.484524) vet (3.394844) 
bbq (4.686930) dog (4.373197) brisket (4.261255) burnt (4.155115) rib (4.126988) black (4.093240) potato (4.069454) beer (4.006896) pull (3.945332) pork (3.871186) 
nail (4.490602) car (4.448899) insur (4.249954) rental (4.015577) appoint (3.936906) salon (3.872503) pedicur (3.856304) massag (3.849578) truck (3.801633) schedul (3.749932) 
Error (train/valid/test) = 0.299250/1.711708/1.808695 (0.077473)
..................................................
energy after gradient step = 24590139.636875

Top words for each topic:
bike (5.082693) hotel (5.067606) bagel (4.949566) pokey (4.819551) hall (4.478874) bed (4.455972) calzon (4.306050) gym (4.248741) snowstorm (4.218174) book (4.108429) 
mexican (4.025296) taco (3.774489) salsa (3.711693) burrito (3.515566) korean (3.466579) chip (3.414631) dish (3.259652) lai (3.201143) food (3.108086) crave (3.104258) 
film (4.309583) kam (4.255740) luna (4.202716) cooki (4.086182) art (4.064587) dress (4.057450) movi (3.823806) theater (3.784112) radio (3.628155) thread (3.589349) 
cupcak (4.645289) pizza (4.290550) courier (3.835721) slider (3.653074) cake (3.595118) frost (3.570298) crust (3.372457) saint (3.265829) boltini (3.149662) velvet (3.146318) 
thai (5.646969) pad (5.483153) gyro (5.467543) yogurt (5.148788) librari (4.788924) froyo (4.350326) shop (4.345463) coffe (4.189646) espresso (4.004798) comic (3.977347) 
sushi (3.987173) roll (3.421421) restaur (3.373022) burger (3.337716) rice (3.282885) dinner (3.244031) food (3.195229) egg (3.146480) tofu (3.039941) menu (2.976285) 
rent (4.368314) groceri (4.351558) record (4.341940) starbuck (4.243461) wax (4.237012) field (4.220481) hilton (4.205960) coop (4.102590) sleep (3.950185) product (3.924659) 
custard (4.577650) hair (4.461195) papa (4.428202) del (4.274146) stylist (3.648868) merri (3.600036) pizza (3.571676) deep (3.571585) vet (3.525767) kopi (3.485428) 
bbq (4.703444) dog (4.419374) brisket (4.239282) burnt (4.154203) rib (4.130604) black (4.107244) beer (4.092041) potato (4.028990) pull (3.970184) smoke (3.850937) 
nail (4.521062) car (4.482198) insur (4.361262) rental (4.044992) salon (3.957200) massag (3.944449) appoint (3.936634) pedicur (3.921672) truck (3.854246) repair (3.821766) 
Error (train/valid/test) = 0.293258/1.723580/1.822869 (0.077748)
..................................................
energy after gradient step = 24492798.478717

Top words for each topic:
bike (5.179939) hotel (5.130106) bagel (4.982264) pokey (4.867831) bed (4.461822) snowstorm (4.372879) gym (4.228269) stix (4.185086) calzon (4.146504) hall (4.136430) 
mexican (4.136289) taco (3.975474) salsa (3.829692) chip (3.696480) burrito (3.646213) korean (3.590971) dish (3.456158) food (3.372785) lai (3.287244) margarita (3.204623) 
film (4.470132) kam (4.342201) cooki (4.164329) art (4.118938) luna (4.086112) dress (4.018147) theater (3.939197) movi (3.901138) shirt (3.815853) crepe (3.726953) 
cupcak (4.757743) pizza (4.689822) courier (3.987006) slider (3.819249) frost (3.779144) cake (3.701121) crust (3.616452) boltini (3.361992) saint (3.348340) velvet (3.298624) 
thai (5.779648) pad (5.579454) gyro (5.544417) yogurt (5.193938) librari (4.962682) shop (4.542970) coffe (4.312004) froyo (4.247691) espresso (4.203570) zorba (4.093542) 
sushi (4.120471) roll (3.562574) restaur (3.480424) food (3.433353) burger (3.430473) rice (3.423948) dinner (3.315913) egg (3.239298) menu (3.206314) tofu (3.148462) 
rent (4.464510) groceri (4.359248) starbuck (4.321569) hilton (4.316953) field (4.275978) record (4.263986) coop (4.261363) wax (4.113602) suppli (4.101005) race (4.048795) 
custard (4.596482) hair (4.547140) papa (4.490549) del (4.341604) kopi (3.690908) vet (3.630184) stylist (3.603249) pizza (3.575250) emerg (3.559124) deep (3.542432) 
bbq (4.721699) dog (4.483971) brisket (4.291354) beer (4.195433) burnt (4.180468) rib (4.145473) black (4.093669) pull (3.979132) potato (3.973278) smoke (3.826120) 
car (4.534573) nail (4.515229) insur (4.233379) rental (4.034465) salon (4.018317) repair (3.974130) appoint (3.927878) pedicur (3.862865) massag (3.813863) truck (3.723197) 
Error (train/valid/test) = 0.280639/1.751724/1.854071 (0.077925)
..................................................
energy after gradient step = 24388910.458675

Top words for each topic:
bike (5.288907) hotel (5.220217) bagel (5.127427) pokey (4.966626) bed (4.603270) hall (4.408480) gym (4.294741) cloth (4.229137) stix (4.197148) calzon (4.168931) 
mexican (4.211636) taco (4.047664) salsa (3.889491) chip (3.740540) burrito (3.719320) korean (3.641916) dish (3.597393) food (3.473919) lai (3.336049) margarita (3.279072) 
film (4.541353) kam (4.410924) luna (4.361444) cooki (4.226526) art (4.195793) dress (4.093322) movi (4.058795) theater (3.990068) thread (3.899854) shirt (3.883150) 
cupcak (4.892321) pizza (4.886401) courier (4.118851) slider (4.059841) crust (3.878144) cake (3.819755) frost (3.739993) saint (3.552973) boltini (3.457803) cream (3.407763) 
thai (5.791787) pad (5.658258) gyro (5.576101) yogurt (5.229635) librari (4.856151) shop (4.580691) froyo (4.485399) espresso (4.406250) coffe (4.371354) zorba (4.282202) 
sushi (4.165211) roll (3.643622) restaur (3.542169) burger (3.513341) food (3.487056) rice (3.477665) dinner (3.320999) egg (3.309177) menu (3.254966) tofu (3.154454) 
groceri (4.557664) starbuck (4.549354) rent (4.499098) hilton (4.410032) field (4.355909) coop (4.334710) record (4.289135) produc (4.230258) product (4.182406) race (4.104303) 
custard (4.698377) hair (4.603733) papa (4.478862) del (4.444403) stylist (3.737184) kopi (3.700186) vet (3.666380) deep (3.620391) merri (3.582836) emerg (3.499338) 
bbq (4.770055) dog (4.534733) brisket (4.315420) beer (4.241274) burnt (4.192355) rib (4.172407) black (4.114532) potato (4.023522) pull (3.978735) smoke (3.816379) 
nail (4.606174) car (4.548010) insur (4.499694) appoint (4.045679) rental (4.045200) salon (4.032145) repair (4.019984) massag (4.005262) pedicur (3.994103) truck (3.826939) 
Error (train/valid/test) = 0.272524/1.758647/1.865702 (0.078552)
..................................................
energy after gradient step = 24285310.428781

Top words for each topic:
bike (5.314123) hotel (5.296731) bagel (5.067726) pokey (5.011744) gym (4.542152) bed (4.513795) hall (4.450164) stix (4.353388) calzon (4.344380) snowstorm (4.112203) 
mexican (4.293238) taco (4.111872) salsa (3.944721) burrito (3.796530) korean (3.721999) chip (3.715486) dish (3.690579) food (3.573043) lai (3.372320) margarita (3.298482) 
film (4.532305) kam (4.380296) cooki (4.270443) luna (4.262014) movi (4.120419) art (4.111384) dress (4.108798) theater (4.039765) shirt (3.895953) thread (3.778928) 
pizza (5.289729) cupcak (5.010065) courier (4.175389) slider (4.045936) crust (4.039426) frost (3.958961) cake (3.891573) saint (3.783305) boltini (3.559706) cream (3.492856) 
thai (5.887503) pad (5.711080) gyro (5.595693) yogurt (5.235966) librari (5.018571) shop (4.649923) froyo (4.567727) coffe (4.540556) zorba (4.374597) espresso (4.371967) 
sushi (4.255931) roll (3.661198) restaur (3.562586) food (3.551022) burger (3.542204) rice (3.463135) egg (3.384523) menu (3.379089) dinner (3.324953) waiter (3.240337) 
rent (4.632973) coop (4.474830) groceri (4.460473) record (4.371266) field (4.333782) hilton (4.299781) starbuck (4.292642) sleep (4.235608) product (4.154012) desk (4.128835) 
custard (4.702882) hair (4.643222) papa (4.502324) del (4.421813) vet (3.782748) kopi (3.741901) stylist (3.648891) merri (3.627687) deep (3.535425) jarl (3.504466) 
bbq (4.821551) dog (4.583208) beer (4.380227) brisket (4.350390) rib (4.213431) burnt (4.203716) black (4.166154) pull (4.016305) potato (3.988101) smoke (3.827490) 
nail (4.582881) car (4.569418) insur (4.323115) salon (4.110542) rental (4.091376) repair (4.086761) appoint (4.056072) pedicur (4.000850) massag (3.834439) taxi (3.692826) 
Error (train/valid/test) = 0.262518/1.771318/1.879491 (0.079591)
..................................................
energy after gradient step = 24177398.516630

Top words for each topic:
hotel (5.365291) bike (5.359303) bagel (5.209045) pokey (5.107525) bed (4.584527) hall (4.490199) gym (4.454241) stix (4.407232) calzon (4.236446) cloth (4.233232) 
mexican (4.320905) taco (4.147669) salsa (3.969956) burrito (3.847964) chip (3.758579) dish (3.753572) korean (3.740962) food (3.628201) margarita (3.396895) lai (3.310369) 
film (4.681946) kam (4.590087) luna (4.472347) cooki (4.331732) art (4.185872) movi (4.174821) dress (4.142314) theater (4.001551) thread (3.962919) shirt (3.893797) 
pizza (5.526836) cupcak (5.134414) courier (4.377294) slider (4.285040) crust (4.239546) frost (4.020692) cake (3.992999) saint (3.810815) boltini (3.674307) velvet (3.631450) 
thai (5.937708) pad (5.706080) gyro (5.629495) yogurt (5.285693) librari (4.945081) shop (4.606074) coffe (4.601745) froyo (4.538426) espresso (4.495609) zorba (4.348946) 
sushi (4.324700) roll (3.734347) restaur (3.664375) burger (3.599350) food (3.574560) menu (3.451330) rice (3.445821) egg (3.394498) dinner (3.358650) waiter (3.282203) 
starbuck (4.675050) field (4.495253) groceri (4.480352) rent (4.477621) coop (4.433823) record (4.352870) hilton (4.348682) store (4.240721) produc (4.211147) desk (4.137350) 
custard (4.791125) hair (4.672436) papa (4.515354) del (4.432841) vet (3.859976) kopi (3.809182) stylist (3.807402) latt (3.671688) merri (3.603845) dr (3.524532) 
bbq (4.842944) dog (4.607666) beer (4.477190) brisket (4.380189) burnt (4.247320) rib (4.243849) black (4.205927) pull (4.035871) potato (4.006962) smoke (3.883511) 
nail (4.642804) car (4.588897) insur (4.462841) appoint (4.152222) massag (4.069914) rental (4.063235) pedicur (4.053413) salon (4.050251) repair (4.007125) wax (3.823150) 
Error (train/valid/test) = 0.251408/1.774808/1.890507 (0.081100)
..................................................
energy after gradient step = 24071612.764173

Top words for each topic:
bike (5.342689) hotel (5.330755) pokey (5.171488) bagel (5.098036) gym (4.577409) hall (4.448355) bed (4.411947) stix (4.372969) shoe (4.163929) cloth (4.138878) 
mexican (4.399720) taco (4.254589) salsa (4.045397) burrito (3.929728) dish (3.821996) chip (3.815204) korean (3.796808) food (3.726809) lai (3.436446) margarita (3.423758) 
film (4.719208) kam (4.631835) luna (4.424171) movi (4.315923) cooki (4.314045) theater (4.303622) shirt (4.265400) art (4.213496) dress (4.123848) crepe (3.849036) 
pizza (5.904186) cupcak (5.194878) slider (4.400346) crust (4.394443) courier (4.369968) frost (4.166993) saint (4.039024) cake (3.934291) boltini (3.883273) velvet (3.789233) 
thai (5.946365) pad (5.758662) gyro (5.648583) yogurt (5.316833) librari (5.041764) coffe (4.773343) froyo (4.656191) espresso (4.615104) shop (4.584518) zorba (4.574676) 
sushi (4.374622) roll (3.801658) restaur (3.690694) food (3.610103) burger (3.603326) menu (3.528737) rice (3.425847) dinner (3.425436) egg (3.413974) waiter (3.327319) 
rent (4.681118) groceri (4.623882) hilton (4.594242) coop (4.582068) field (4.512353) store (4.462578) starbuck (4.456008) produc (4.417710) record (4.273566) race (4.243862) 
custard (4.856935) hair (4.664617) papa (4.508966) del (4.433050) kopi (4.016605) vet (3.904858) stylist (3.904371) jarl (3.865414) snowstorm (3.788329) merri (3.754017) 
bbq (4.884656) dog (4.669373) beer (4.578877) brisket (4.430641) black (4.311309) rib (4.276964) burnt (4.266821) pull (4.064091) potato (3.988340) bar (3.896676) 
nail (4.614669) car (4.607266) insur (4.458111) salon (4.190510) repair (4.162438) appoint (4.161870) rental (4.086061) pedicur (4.067813) wax (4.009103) massag (3.823422) 
Error (train/valid/test) = 0.239838/1.787341/1.902735 (0.081476)
..................................................
energy after gradient step = 23978195.353131

Top words for each topic:
bike (5.434739) hotel (5.377883) bagel (5.292879) pokey (5.188624) bed (4.656381) hall (4.636634) gym (4.618182) stix (4.579565) confer (4.292494) cloth (4.185338) 
mexican (4.459233) taco (4.310014) salsa (4.091119) burrito (3.958453) dish (3.917563) korean (3.896556) chip (3.858431) food (3.828887) margarita (3.451012) chines (3.449535) 
film (4.807620) kam (4.762454) luna (4.752177) movi (4.465522) cooki (4.435312) art (4.257367) shirt (4.212637) dress (4.180418) theater (4.178003) thread (4.068516) 
pizza (6.016196) cupcak (5.305963) courier (4.587657) crust (4.564738) slider (4.493459) frost (4.208049) cake (3.999953) boltini (3.970096) saint (3.932779) velvet (3.832001) 
thai (6.011506) pad (5.776835) gyro (5.688215) yogurt (5.350661) librari (4.990741) coffe (4.772977) froyo (4.721754) shop (4.683143) espresso (4.677651) zorba (4.528081) 
sushi (4.446603) roll (3.868800) restaur (3.792897) food (3.682200) burger (3.620962) menu (3.613668) dinner (3.432067) egg (3.430474) rice (3.378993) waiter (3.365301) 
groceri (4.767839) rent (4.725264) starbuck (4.711308) coop (4.652906) store (4.580528) hilton (4.512842) record (4.496744) field (4.437763) race (4.352091) produc (4.308899) 
custard (4.984132) hair (4.716897) del (4.569532) papa (4.553234) snowstorm (4.070583) vet (4.007424) kopi (3.992003) stylist (3.896857) latt (3.848862) jarl (3.755614) 
bbq (4.914042) beer (4.687783) dog (4.663374) brisket (4.445110) black (4.303112) rib (4.297048) burnt (4.266742) pull (4.062080) bar (3.964025) potato (3.944886) 
nail (4.719903) car (4.585119) insur (4.449399) appoint (4.190680) wax (4.176545) repair (4.160588) massag (4.155089) rental (4.132847) pedicur (4.124573) salon (4.121227) 
Error (train/valid/test) = 0.234466/1.812632/1.921413 (0.082810)
..................................................
energy after gradient step = 23895094.998520

Top words for each topic:
bike (5.481464) hotel (5.437351) pokey (5.385748) bagel (5.295321) gym (4.789060) bed (4.650404) hall (4.594489) stix (4.553226) shower (4.283478) shuttl (4.221514) 
mexican (4.472170) taco (4.343608) salsa (4.113636) dish (3.974234) burrito (3.973394) food (3.924252) korean (3.919222) chip (3.868900) chines (3.518228) margarita (3.460017) 
film (4.990957) kam (4.890449) luna (4.657754) movi (4.549553) cooki (4.448749) shirt (4.409838) theater (4.370525) art (4.344206) dress (4.132815) thread (4.109555) 
pizza (6.211287) cupcak (5.406372) crust (4.624796) courier (4.610067) slider (4.556545) frost (4.334522) saint (4.227449) cake (4.023869) boltini (3.996191) milkshak (3.919964) 
thai (6.030436) pad (5.773234) gyro (5.674879) yogurt (5.372085) librari (5.020170) coffe (4.837201) froyo (4.755095) espresso (4.721205) shop (4.674425) zorba (4.643315) 
sushi (4.516487) roll (3.941634) restaur (3.847566) food (3.703217) menu (3.694654) burger (3.577224) dinner (3.557081) egg (3.502604) appet (3.420976) rice (3.411949) 
store (4.763111) groceri (4.724138) coop (4.674122) rent (4.604946) starbuck (4.562174) field (4.540725) hilton (4.502091) produc (4.422835) record (4.368742) desk (4.311762) 
custard (4.999484) hair (4.738201) del (4.579720) papa (4.506899) snowstorm (4.025089) vet (4.015911) stylist (3.989909) kopi (3.985984) jarl (3.877021) merri (3.860599) 
bbq (4.934198) dog (4.681711) beer (4.668473) brisket (4.451209) rib (4.304228) black (4.292876) burnt (4.281708) pull (4.060708) bar (4.007431) potato (3.941762) 
nail (4.695370) car (4.604296) insur (4.546560) repair (4.306943) salon (4.271785) appoint (4.217936) wax (4.138134) pedicur (4.137909) rental (4.026353) massag (3.925328) 
Error (train/valid/test) = 0.227518/1.817507/1.952340 (0.084816)
..................................................
energy after gradient step = 23807629.478898

Top words for each topic:
bike (5.519815) hotel (5.466143) pokey (5.383960) bagel (5.303178) gym (4.873407) hall (4.848145) bed (4.753855) stix (4.675520) confer (4.430599) bookstor (4.383543) 
mexican (4.504173) taco (4.387670) salsa (4.146705) food (4.061200) burrito (4.019094) dish (4.012316) korean (3.969334) chip (3.843097) chines (3.605088) lai (3.479550) 
film (5.012299) kam (4.941608) luna (4.709437) movi (4.602010) theater (4.479610) cooki (4.478524) thread (4.353458) art (4.349065) shirt (4.338479) dress (4.261863) 
pizza (6.318555) cupcak (5.469298) courier (4.757831) crust (4.719825) slider (4.660207) frost (4.438827) boltini (4.180966) saint (4.173238) cake (4.114919) milkshak (3.986062) 
thai (6.028698) pad (5.811032) gyro (5.680661) yogurt (5.401046) librari (5.052651) espresso (4.791855) coffe (4.773782) froyo (4.695336) zorba (4.619161) shop (4.490457) 
sushi (4.572363) roll (4.022770) restaur (3.903203) food (3.775571) menu (3.707355) dinner (3.656502) burger (3.631761) egg (3.507944) appet (3.443113) waiter (3.434601) 
groceri (4.744780) store (4.738262) coop (4.644596) starbuck (4.603114) field (4.566679) rent (4.564922) hilton (4.460419) record (4.456578) produc (4.347645) race (4.284077) 
custard (5.020396) hair (4.766222) del (4.548386) papa (4.524341) snowstorm (4.201987) vet (4.131776) kopi (4.099008) stylist (4.005649) jarl (3.999839) barber (3.843694) 
bbq (4.929565) beer (4.770226) dog (4.685474) brisket (4.465285) rib (4.326728) black (4.298729) burnt (4.295123) pull (4.058231) bar (3.997700) potato (3.953085) 
nail (4.784361) car (4.581178) insur (4.551329) repair (4.334079) salon (4.310589) appoint (4.260490) wax (4.180155) rental (4.179690) pedicur (4.178848) massag (4.019457) 
Error (train/valid/test) = 0.218623/1.847906/1.977576 (0.086305)
..................................................
energy after gradient step = 23734407.602927

Top words for each topic:
bike (5.598492) pokey (5.528778) hotel (5.525695) bagel (5.386934) gym (4.910507) bed (4.785226) stix (4.676474) hall (4.638357) shower (4.421830) confer (4.418534) 
mexican (4.554156) taco (4.452859) salsa (4.171709) food (4.148856) dish (4.107941) burrito (4.053103) korean (4.015848) chip (3.899457) chines (3.696959) chicken (3.509220) 
film (5.169944) kam (5.119448) luna (4.886406) movi (4.696825) cooki (4.585163) shirt (4.578398) theater (4.394605) thread (4.352793) dress (4.274250) art (4.255112) 
pizza (6.464118) cupcak (5.612793) crust (4.903818) courier (4.893532) slider (4.795238) frost (4.593009) saint (4.482290) boltini (4.360196) cake (4.231924) milkshak (4.081896) 
thai (6.037395) pad (5.836686) gyro (5.707855) yogurt (5.470332) librari (5.094890) froyo (4.920814) coffe (4.885026) espresso (4.791455) zorba (4.687443) mirabell (4.541716) 
sushi (4.652248) roll (4.079142) restaur (3.943161) food (3.817925) menu (3.757218) dinner (3.710834) burger (3.647763) waiter (3.520061) egg (3.503520) appet (3.502043) 
coop (4.799975) rent (4.778421) groceri (4.747872) store (4.717467) field (4.516791) hilton (4.507469) produc (4.473299) starbuck (4.403194) record (4.346550) race (4.335343) 
custard (5.034096) hair (4.842097) del (4.597561) papa (4.408879) snowstorm (4.228123) vet (4.156548) stylist (4.018603) kopi (4.003071) barber (3.996529) jarl (3.903740) 
bbq (4.995631) beer (4.864858) dog (4.755555) brisket (4.499803) black (4.371770) rib (4.364173) burnt (4.312086) bar (4.150302) pull (4.101217) potato (3.995879) 
nail (4.662951) car (4.576759) insur (4.549422) salon (4.325354) appoint (4.296485) repair (4.280598) wax (4.257504) pedicur (4.194673) rental (4.133749) massag (4.044091) 
Error (train/valid/test) = 0.215387/1.868371/1.982027 (0.086735)
..................................................
energy after gradient step = 23654086.154943

Top words for each topic:
bike (5.654115) hotel (5.611965) pokey (5.595736) bagel (5.483902) gym (5.028267) hall (4.853827) bed (4.849803) stix (4.714828) confer (4.577061) shower (4.409342) 
mexican (4.535863) taco (4.440541) salsa (4.176956) food (4.130053) dish (4.098507) burrito (4.052206) korean (4.021953) chip (3.899754) chines (3.855568) chicken (3.553713) 
film (5.235403) kam (5.182843) luna (4.889870) movi (4.739467) cooki (4.735854) theater (4.649207) shirt (4.557752) dress (4.441815) art (4.426217) thread (4.393387) 
pizza (6.693473) cupcak (5.751930) crust (5.017666) courier (4.943180) slider (4.942671) frost (4.635069) cake (4.370475) saint (4.364436) boltini (4.317918) milkshak (4.273649) 
thai (6.084205) pad (5.785864) gyro (5.666032) yogurt (5.401314) librari (5.075171) coffe (5.033974) espresso (4.850449) froyo (4.771420) zorba (4.754856) mirabell (4.596899) 
sushi (4.725947) roll (4.116096) restaur (3.891982) food (3.813064) menu (3.788930) dinner (3.773306) burger (3.660796) waiter (3.597940) egg (3.541704) appet (3.515456) 
store (4.841510) groceri (4.799513) field (4.712833) coop (4.712312) starbuck (4.566270) hilton (4.518086) rent (4.512023) record (4.489588) produc (4.479114) race (4.316744) 
custard (5.108295) hair (4.919750) del (4.532675) kopi (4.369779) vet (4.243534) snowstorm (4.235812) stylist (4.141444) jarl (4.118999) haircut (4.053222) papa (4.051799) 
bbq (5.014426) beer (4.880497) dog (4.715387) brisket (4.509514) rib (4.372424) black (4.350406) burnt (4.323938) bar (4.194981) pull (4.095422) potato (4.032663) 
nail (4.761270) car (4.628788) insur (4.612783) repair (4.422843) salon (4.382768) appoint (4.307398) pedicur (4.221745) rental (4.192214) wax (4.188589) massag (4.007259) 
Error (train/valid/test) = 0.209358/1.901392/2.002140 (0.088106)
..................................................
energy after gradient step = 23603171.059421

Top words for each topic:
bike (5.637154) hotel (5.632238) pokey (5.620901) bagel (5.525432) gym (4.891675) bed (4.807638) stix (4.802634) hall (4.706364) bookstor (4.580231) shower (4.528753) 
mexican (4.551456) taco (4.448312) salsa (4.175964) food (4.162765) dish (4.128544) burrito (4.064508) korean (4.053099) chines (4.020011) chip (3.889667) chicken (3.601439) 
film (5.343663) kam (5.243374) luna (5.093015) movi (4.773217) cooki (4.741458) shirt (4.705065) theater (4.678298) thread (4.520318) dress (4.423707) art (4.405572) 
pizza (6.789399) cupcak (5.840282) crust (5.152118) courier (5.078127) slider (5.040571) frost (4.767607) saint (4.563267) boltini (4.556945) papa (4.521066) cake (4.433681) 
thai (6.105915) pad (5.821151) gyro (5.687145) yogurt (5.481801) librari (5.199898) coffe (5.118876) froyo (4.992452) espresso (4.925367) zorba (4.779556) mirabell (4.621154) 
sushi (4.801903) roll (4.155607) restaur (3.942070) menu (3.850916) food (3.845641) dinner (3.812684) burger (3.704980) egg (3.635833) waiter (3.625972) appet (3.615259) 
store (4.917783) coop (4.881975) groceri (4.752771) hilton (4.718824) field (4.634320) rent (4.587173) produc (4.497672) lens (4.350246) record (4.338750) starbuck (4.323855) 
custard (5.164680) hair (4.936427) del (4.554442) snowstorm (4.344545) vet (4.297381) stylist (4.217501) jarl (4.152754) merri (4.128960) barber (4.105761) kopi (4.099560) 
bbq (5.023162) beer (4.935806) dog (4.751204) brisket (4.530001) rib (4.412763) black (4.399173) burnt (4.339721) bar (4.272544) pull (4.089222) smoke (4.009952) 
nail (4.754917) insur (4.622451) car (4.592137) repair (4.396548) appoint (4.344914) wax (4.334711) salon (4.314484) pedicur (4.253158) rental (4.150786) massag (4.010047) 
Error (train/valid/test) = 0.203173/1.913273/2.021025 (0.089454)
..................................................
energy after gradient step = 23533870.946074

Top words for each topic:
hotel (5.754398) bike (5.686944) pokey (5.669643) bagel (5.638661) gym (5.161634) hall (4.913939) bed (4.897766) stix (4.806110) confer (4.665206) bookstor (4.594440) 
mexican (4.585708) taco (4.489535) food (4.207491) salsa (4.188773) dish (4.152379) burrito (4.099585) korean (4.040396) chines (4.004129) chip (3.892369) chicken (3.672225) 
kam (5.382554) film (5.369324) luna (5.134467) crepe (5.024061) movi (4.855696) shirt (4.834536) theater (4.795767) cooki (4.674496) theatr (4.494224) thread (4.483551) 
pizza (6.835812) cupcak (5.935379) crust (5.261457) courier (5.096300) slider (5.089146) frost (4.832978) papa (4.716853) boltini (4.511107) cake (4.485018) saint (4.469488) 
thai (6.157543) pad (5.827597) gyro (5.678197) yogurt (5.484802) coffe (5.173777) librari (5.172535) espresso (4.984445) froyo (4.903550) zorba (4.875155) mirabell (4.733052) 
sushi (4.883958) roll (4.193656) restaur (4.001319) menu (3.935308) food (3.863087) dinner (3.832224) burger (3.740452) appet (3.721571) waiter (3.705840) egg (3.699089) 
store (4.941239) coop (4.870047) groceri (4.758952) field (4.688185) record (4.565675) produc (4.444264) hilton (4.442220) rent (4.428303) starbuck (4.368360) race (4.350706) 
custard (5.229644) hair (4.955975) kopi (4.452449) del (4.442515) snowstorm (4.435214) vet (4.341722) stylist (4.288349) jarl (4.285709) haircut (4.234999) barber (4.224560) 
bbq (5.046733) beer (4.993742) dog (4.771880) brisket (4.550586) rib (4.411830) black (4.387086) burnt (4.351906) bar (4.337403) pull (4.088689) smoke (4.013405) 
nail (4.799051) insur (4.672846) car (4.535565) repair (4.463574) salon (4.405744) wax (4.371966) pedicur (4.291462) appoint (4.283177) rental (4.203740) massag (4.062563) 
Error (train/valid/test) = 0.197380/1.932578/2.044587 (0.091824)
..................................................
energy after gradient step = 23486791.972852

Top words for each topic:
hotel (5.800280) pokey (5.758267) bike (5.708890) bagel (5.633889) gym (5.163392) bed (4.999183) stix (4.866789) hall (4.823651) shower (4.697764) bookstor (4.663805) 
mexican (4.594177) taco (4.496046) food (4.245811) dish (4.198984) salsa (4.176357) chines (4.112943) burrito (4.106876) korean (4.055739) chip (3.853242) chicken (3.731425) 
film (5.506923) kam (5.321480) luna (5.190747) crepe (5.058425) movi (4.996181) shirt (4.873493) theater (4.806818) cooki (4.577680) dress (4.535900) art (4.529633) 
pizza (6.989890) cupcak (6.026150) crust (5.360218) slider (5.235824) courier (5.175859) papa (5.006057) frost (4.894743) boltini (4.706482) saint (4.584020) cake (4.575779) 
thai (6.216998) pad (5.811990) gyro (5.684936) yogurt (5.528517) librari (5.241567) coffe (5.217905) espresso (5.086205) froyo (5.074331) zorba (4.930526) mirabell (4.791056) 
sushi (4.957835) roll (4.239418) menu (4.015471) restaur (4.009923) dinner (3.903082) food (3.901239) waiter (3.797026) burger (3.788800) appet (3.773904) egg (3.751130) 
store (4.958736) coop (4.814547) groceri (4.708797) rent (4.660526) field (4.618181) hilton (4.600653) produc (4.506784) market (4.394871) race (4.353608) starbuck (4.310685) 
custard (5.289638) hair (5.001713) snowstorm (4.501852) vet (4.462124) jarl (4.375317) stylist (4.368954) haircut (4.355945) kopi (4.328734) barber (4.291885) merri (4.136792) 
bbq (5.078317) beer (4.995174) dog (4.810642) brisket (4.571644) rib (4.445924) black (4.423794) burnt (4.387267) bar (4.371984) pull (4.082523) smoke (4.022988) 
nail (4.737788) insur (4.671212) car (4.482873) salon (4.446815) repair (4.422341) wax (4.339548) pedicur (4.304039) appoint (4.281913) rental (4.045214) massag (4.029679) 
Error (train/valid/test) = 0.191125/1.951684/2.068750 (0.092869)
..................................................
energy after gradient step = 23412564.069037

Top words for each topic:
pokey (5.828943) hotel (5.825855) bagel (5.722614) bike (5.717145) gym (5.191112) hall (4.922449) bed (4.875437) stix (4.844906) shower (4.789587) confer (4.757972) 
mexican (4.611478) taco (4.505238) food (4.248869) chines (4.228520) dish (4.178396) salsa (4.172639) burrito (4.131823) korean (4.089732) chip (3.925783) chicken (3.788338) 
film (5.567952) kam (5.542971) crepe (5.261156) luna (5.222612) movi (4.983444) shirt (4.847909) theater (4.795536) cooki (4.684056) dress (4.636624) thread (4.605874) 
pizza (7.121717) cupcak (6.124037) crust (5.454891) slider (5.371411) courier (5.316770) papa (5.179017) frost (5.043996) del (4.882695) boltini (4.796212) saint (4.739852) 
thai (6.233632) pad (5.798403) gyro (5.695426) yogurt (5.534243) coffe (5.296945) librari (5.284741) espresso (5.108578) froyo (5.069638) zorba (5.021806) mirabell (4.816791) 
sushi (5.020475) roll (4.298356) menu (4.039856) restaur (4.036438) dinner (3.928783) food (3.913312) appet (3.843813) waiter (3.834599) burger (3.830713) egg (3.817537) 
store (4.961051) coop (4.847189) groceri (4.791612) field (4.680332) rent (4.538470) produc (4.433899) hilton (4.403078) record (4.373416) race (4.316764) lens (4.307545) 
custard (5.354105) hair (5.041812) snowstorm (4.602321) haircut (4.590475) vet (4.494744) kopi (4.431421) jarl (4.429495) stylist (4.398104) barber (4.347238) emerg (4.029698) 
bbq (5.082158) beer (5.062911) dog (4.816913) brisket (4.585224) rib (4.449523) bar (4.418371) burnt (4.400434) black (4.352830) pull (4.107550) smoke (4.067990) 
nail (4.793890) insur (4.677061) repair (4.512309) salon (4.492333) car (4.452350) wax (4.424851) pedicur (4.323462) appoint (4.284444) rental (4.265642) eyebrow (4.070048) 
Error (train/valid/test) = 0.186716/1.971467/2.086986 (0.095348)
..................................................
energy after gradient step = 23341625.059785

Top words for each topic:
hotel (5.833441) pokey (5.806101) bike (5.718746) bagel (5.646499) gym (5.233136) bed (4.974877) confer (4.828668) stix (4.821508) hall (4.770002) gumbi (4.682021) 
mexican (4.630850) taco (4.519844) chines (4.415008) food (4.283090) dish (4.222775) salsa (4.186184) burrito (4.150809) korean (4.103964) chip (3.953286) chicken (3.890030) 
film (5.629305) kam (5.624600) crepe (5.398762) luna (5.337971) shirt (5.103347) theater (5.027110) movi (5.015056) cooki (4.751739) thread (4.672712) dress (4.650333) 
pizza (7.199548) cupcak (6.214365) crust (5.554167) slider (5.417992) courier (5.368090) papa (5.185278) del (5.175666) frost (5.061761) boltini (4.900568) cake (4.694431) 
thai (6.329539) pad (5.807119) gyro (5.750709) yogurt (5.626128) librari (5.360872) coffe (5.335782) froyo (5.196894) espresso (5.193496) zorba (5.099559) mirabell (4.994414) 
sushi (5.081860) roll (4.332911) restaur (4.080139) menu (4.040714) dinner (3.971155) food (3.923296) burger (3.888787) waiter (3.881118) egg (3.881054) appet (3.850613) 
coop (4.969534) store (4.916860) groceri (4.767338) field (4.676001) produc (4.524112) rent (4.439844) hilton (4.366262) race (4.275324) record (4.271051) sale (4.267943) 
custard (5.387720) hair (5.114720) haircut (4.700265) snowstorm (4.617429) vet (4.608301) kopi (4.512949) stylist (4.471600) barber (4.458098) jarl (4.420885) merri (4.181202) 
beer (5.103740) bbq (5.088354) dog (4.767592) brisket (4.586530) rib (4.441911) bar (4.415381) burnt (4.383174) black (4.305751) pull (4.079417) smoke (4.067667) 
nail (4.789071) insur (4.749570) repair (4.509959) salon (4.473746) wax (4.443483) car (4.406617) pedicur (4.346497) appoint (4.265424) massag (4.083733) eyebrow (4.071395) 
Error (train/valid/test) = 0.183057/2.008295/2.091872 (0.094147)
..................................................
energy after gradient step = 23280812.785634

Top words for each topic:
pokey (5.928804) hotel (5.852351) bagel (5.723760) bike (5.718309) gym (5.199719) stix (5.027334) hall (4.983016) bed (4.938874) shower (4.839455) confer (4.775038) 
mexican (4.650929) taco (4.531911) chines (4.507262) food (4.323178) salsa (4.206220) dish (4.173400) burrito (4.170652) korean (4.128364) chicken (3.936529) chip (3.918132) 
film (5.796324) kam (5.657969) luna (5.445078) crepe (5.416677) movi (5.102184) theater (5.011819) shirt (4.997864) thread (4.782290) cooki (4.777526) theatr (4.728584) 
pizza (7.264739) cupcak (6.283366) crust (5.631847) slider (5.493614) courier (5.412540) del (5.309940) papa (5.277349) frost (5.198044) boltini (4.886212) saint (4.825592) 
thai (6.351563) pad (5.812284) gyro (5.772832) yogurt (5.649386) librari (5.376595) coffe (5.313604) espresso (5.210959) froyo (5.199443) zorba (5.144915) latt (5.045019) 
sushi (5.161194) roll (4.401615) restaur (4.103596) menu (4.063338) food (3.995967) dinner (3.968483) appet (3.927647) waiter (3.912679) burger (3.911552) egg (3.897083) 
store (4.987157) groceri (4.864693) coop (4.843463) field (4.704813) produc (4.505414) market (4.390855) sale (4.337724) rent (4.305270) yarn (4.280808) sleep (4.261229) 
custard (5.413264) hair (5.140936) haircut (4.828334) snowstorm (4.722784) vet (4.630162) jarl (4.604925) stylist (4.584494) kopi (4.545351) barber (4.526267) merri (4.284571) 
bbq (5.117856) beer (5.117551) dog (4.810772) brisket (4.620139) rib (4.485594) bar (4.443914) burnt (4.410298) black (4.305307) pull (4.095823) smoke (4.060100) 
nail (4.757922) insur (4.714225) repair (4.513623) salon (4.455188) wax (4.442999) car (4.390915) pedicur (4.357350) appoint (4.334147) eyebrow (4.114927) massag (4.068755) 
Error (train/valid/test) = 0.177169/2.030906/2.103864 (0.095771)
