corpus = active.gz
latentReg = 0.000000
lambda = 5.000000
K = 5

nUsers = 26607, nItems = 2781, nRatings = 41379

Error w/ offset term only (train/valid/test) = 1.579295/1.547860/1.553585 (0.035895)
Error w/ offset and bias (train/valid/test) = 0.485547/1.311752/1.284788 (0.032858)

..................................................
energy after gradient step = 115464972.697016

Top words for each topic:
toddler (0.456194) scienc (0.445265) vs (0.414153) 10am (0.412785) chose (0.403693) snow (0.385915) addict (0.377367) mma (0.371500) manner (0.371493) diet (0.366659) 
henderson (0.514717) wood (0.496299) sea (0.447410) bump (0.429721) tool (0.425448) wildlif (0.408292) blue (0.408291) guard (0.400739) patio (0.400476) yesterday (0.388022) 
slip (0.463272) scuba (0.411152) splash (0.410961) favourit (0.402805) egg (0.389575) oil (0.374942) needless (0.367634) opportun (0.367583) fashion (0.365319) distanc (0.363682) 
comput (0.510217) confer (0.429065) jerk (0.414517) bank (0.404571) ship (0.404081) shoulder (0.398826) pole (0.387682) associ (0.387404) increas (0.386117) remov (0.379775) 
abil (0.440685) self (0.432375) mari (0.427056) garbag (0.415066) steve (0.407743) charact (0.401954) monday (0.393657) taught (0.390494) boutiqu (0.389466) highest (0.385573) 
Error (train/valid/test) = 1.291147/1.359398/1.353056 (0.033466)
..................................................
energy after gradient step = 115323886.571824

Top words for each topic:
sauc (0.973375) 10am (0.853389) headach (0.830928) capac (0.775219) 10pm (0.747940) battl (0.730682) shea (0.714401) behavior (0.710715) holster (0.692844) prop (0.682998) 
actor (0.988196) content (0.901869) signific (0.774620) chick (0.734491) tshirt (0.696606) puppi (0.668214) liquid (0.663427) gatorad (0.650887) sanit (0.641933) electr (0.641192) 
sunglass (0.977832) inventori (0.916087) charli (0.901046) soooo (0.848858) sing (0.753797) scuba (0.739780) adequ (0.726153) comp (0.718050) meh (0.699705) father (0.699156) 
yep (0.976470) habit (0.933298) enrol (0.851701) quarter (0.782269) otf (0.771670) taxi (0.745616) cab (0.706198) de (0.689771) meadow (0.684569) bloom (0.677843) 
seren (0.902035) death (0.862789) garbag (0.801213) solut (0.758775) karv (0.750610) charact (0.745651) dodgebal (0.735500) coordin (0.724288) buffet (0.715217) owe (0.708417) 
Error (train/valid/test) = 1.081219/1.289619/1.260502 (0.031972)
..................................................
energy after gradient step = 115243695.414381

Top words for each topic:
battl (1.150367) nine (1.110428) nick (1.035382) sauc (1.021293) eric (1.016457) lawn (1.002914) 10am (0.985628) porsch (0.938719) 6pm (0.933388) spoken (0.910011) 
chick (1.211801) insol (1.121581) actor (1.067041) joint (0.983482) content (0.966150) leash (0.951706) western (0.919525) wynn (0.910326) descent (0.899527) suitabl (0.890004) 
recov (1.060474) sunglass (1.048896) curl (0.996306) roast (0.964696) region (0.962206) fist (0.952592) firework (0.944754) 48 (0.936875) soooo (0.931955) terrain (0.914952) 
otf (1.100155) taxi (1.051802) awe (0.976552) squaw (0.965179) junk (0.953757) donat (0.926607) quarter (0.915773) lululemon (0.900814) injur (0.888969) sneak (0.887376) 
seren (1.316344) venus (1.042710) paperwork (1.042592) itd (1.040082) suffer (0.987116) des (0.981239) phipp (0.973795) 2pm (0.928673) dodgebal (0.923752) vista (0.907254) 
Error (train/valid/test) = 0.967334/1.270826/1.237013 (0.031692)
..................................................
energy after gradient step = 115167187.409525

Top words for each topic:
battl (1.425585) dune (1.228504) 10pm (1.226269) restrict (1.126369) asu (1.094591) attribut (1.094068) eric (1.091981) dan (1.038065) flew (1.015667) 550 (1.010058) 
descent (1.153077) actor (1.146902) chick (1.110727) insur (1.101936) defin (1.066650) downhil (1.041390) punch (1.034515) counti (1.008526) content (1.002300) gatorad (0.993007) 
soooo (1.210908) fist (1.199676) recov (1.178863) 65 (1.154235) hospit (1.153186) cave (1.100587) curl (1.055803) elsewher (1.047908) comparison (1.045759) jai (1.034673) 
shouldv (1.227718) junk (1.191845) redeem (1.180198) otf (1.177066) studi (1.162903) page (1.161602) ironman (1.116934) squaw (1.102644) erin (1.066072) verd (1.002009) 
seren (1.299952) itd (1.180126) venus (1.131037) staf (1.106188) playlist (1.097147) flywheel (1.095974) lush (1.076144) succeed (1.047457) suffer (1.035459) unprofession (1.025732) 
Error (train/valid/test) = 0.894594/1.265162/1.231241 (0.031727)
..................................................
energy after gradient step = 115102512.839588

Top words for each topic:
battl (1.464028) oldest (1.322577) dune (1.312557) attribut (1.282631) jake (1.244834) eric (1.211895) gateway (1.159196) categori (1.152977) scam (1.130621) asu (1.130542) 
chick (1.450984) content (1.279907) rabbit (1.255110) actor (1.204605) joint (1.135794) 247 (1.131529) insur (1.112517) flip (1.075256) western (1.056175) tub (1.040595) 
soooo (1.403416) jellyfish (1.343366) fist (1.316801) recov (1.313289) attach (1.210268) sunglass (1.176091) region (1.148706) hospit (1.137528) therapist (1.117361) 65 (1.103623) 
page (1.333021) otf (1.320101) shouldv (1.310868) dodg (1.296255) injur (1.221522) redeem (1.199385) payment (1.198779) regist (1.195397) clearanc (1.182154) announc (1.150165) 
phipp (1.376996) lush (1.351153) solut (1.307543) suffer (1.262612) seren (1.205603) unprofession (1.202590) venus (1.171981) neck (1.161337) dryer (1.157449) cow (1.149300) 
Error (train/valid/test) = 0.837556/1.262567/1.229804 (0.031771)
..................................................
energy after gradient step = 115035084.529635

Top words for each topic:
battl (1.463621) attribut (1.458599) dune (1.349746) scam (1.273233) oldest (1.228799) prove (1.218816) virtual (1.207186) jake (1.204957) jersey (1.195091) nick (1.191783) 
rabbit (1.469084) depth (1.357790) western (1.304854) tomato (1.255133) tub (1.235301) 247 (1.233004) quot (1.219361) content (1.207289) knot (1.205582) joint (1.192867) 
lamb (1.449475) soooo (1.361151) jai (1.345616) cave (1.245626) jellyfish (1.225468) region (1.219436) canada (1.210468) attach (1.202688) therapist (1.195202) sculptur (1.178589) 
shouldv (1.410874) otf (1.400087) squeez (1.374083) murki (1.334618) payment (1.314510) derbi (1.244289) inquir (1.237421) squaw (1.235581) dodg (1.230649) gravel (1.208927) 
phipp (1.641330) lush (1.432340) stabl (1.281539) cow (1.271362) themselv (1.254896) stood (1.246789) venus (1.229091) neck (1.209030) factori (1.204444) monument (1.199329) 
Error (train/valid/test) = 0.789784/1.262190/1.229581 (0.031813)
..................................................
energy after gradient step = 114966752.754010

Top words for each topic:
battl (1.472797) jake (1.419720) terrac (1.295566) attribut (1.295237) 130 (1.291772) dune (1.290181) ha (1.271848) nick (1.256476) oldest (1.248356) scam (1.240911) 
content (1.546718) bunker (1.427809) upscal (1.393412) chick (1.373753) tax (1.362778) depth (1.353094) western (1.329068) tomato (1.324436) flip (1.321878) rabbit (1.311944) 
gondola (1.452050) justifi (1.397548) attach (1.378706) soooo (1.352648) lamb (1.340140) prioriti (1.321303) galor (1.279951) scuba (1.277103) digit (1.272411) recov (1.270279) 
otf (1.557071) peep (1.555188) derbi (1.451084) clearanc (1.361210) payment (1.324177) shouldv (1.302513) erin (1.294887) de (1.278135) dodg (1.275600) forest (1.274020) 
phipp (1.671900) itd (1.497545) neck (1.472027) solut (1.471515) lush (1.445948) venus (1.351530) playlist (1.328738) ymca (1.301552) monument (1.301143) overcrowd (1.265055) 
Error (train/valid/test) = 0.752922/1.262211/1.230435 (0.031857)
..................................................
energy after gradient step = 114898462.891490

Top words for each topic:
battl (1.632975) jake (1.497244) dune (1.490282) terrac (1.457943) virtual (1.419166) pari (1.406720) fake (1.363208) dale (1.360632) spread (1.359231) quelqu (1.307993) 
rabbit (1.498387) downright (1.454862) content (1.449289) depth (1.434121) western (1.417929) knot (1.396984) tub (1.387996) bunker (1.385725) user (1.383518) quot (1.377618) 
gondola (1.564535) galor (1.433706) canada (1.416248) justifi (1.412363) 65 (1.387825) upset (1.347935) venetian (1.346749) marker (1.342688) lamb (1.336376) scuba (1.325367) 
otf (1.757559) peep (1.652774) forest (1.572505) archeri (1.509637) inquir (1.417973) dodg (1.405273) derbi (1.382403) shouldv (1.327137) etiquett (1.319994) erin (1.313471) 
phipp (1.812440) neck (1.610834) solut (1.527058) vista (1.526604) against (1.475288) uphil (1.456255) leash (1.454479) ymca (1.434733) panther (1.428901) adequ (1.409445) 
Error (train/valid/test) = 0.713549/1.262967/1.232112 (0.031909)
..................................................
energy after gradient step = 114810954.569069

Top words for each topic:
battl (1.671209) parc (1.654416) dune (1.538694) dan (1.489667) terrac (1.487264) quelqu (1.481852) spread (1.472108) tout (1.460240) pari (1.440181) attribut (1.421589) 
western (1.582287) downright (1.576648) depth (1.550227) chick (1.437499) rabbit (1.432286) actor (1.431054) tub (1.430096) gilbert (1.393876) twist (1.377367) sanit (1.351541) 
venetian (1.817211) gondola (1.729769) rec (1.466224) digit (1.463185) slipperi (1.415056) upset (1.400894) scuba (1.374657) clerk (1.359534) region (1.358250) fist (1.350212) 
otf (1.656821) forest (1.637677) archeri (1.520858) bow (1.514099) erin (1.459561) terri (1.449027) certifi (1.439427) inquir (1.418946) lululemon (1.410703) injur (1.406482) 
phipp (1.850536) solut (1.605097) farm (1.596323) panther (1.588914) vista (1.540759) terrifi (1.481092) neck (1.466406) ymca (1.434546) against (1.427060) lush (1.416757) 
Error (train/valid/test) = 0.675505/1.264522/1.234417 (0.031952)
..................................................
energy after gradient step = 114730591.863195

Top words for each topic:
parc (1.854985) cest (1.729412) dune (1.709158) terrac (1.657098) quelqu (1.620347) battl (1.612592) tout (1.568789) le (1.536127) pitcher (1.495854) magic (1.494132) 
depth (1.602598) actor (1.526830) twist (1.509269) downright (1.492934) tub (1.469320) knot (1.437910) rabbit (1.432773) habitat (1.422876) western (1.393419) facebook (1.383598) 
gondola (1.927400) venetian (1.819955) scuba (1.639408) hive (1.441135) attach (1.429993) distinct (1.429443) upset (1.424489) digit (1.423373) lamb (1.413690) prioriti (1.405036) 
forest (1.732344) otf (1.730416) bow (1.632413) archeri (1.623713) erin (1.613780) dodg (1.555539) terri (1.515015) pedal (1.500928) certifi (1.435708) shore (1.432589) 
phipp (1.884923) solut (1.768460) farm (1.699729) ymca (1.585201) panther (1.569120) lush (1.568348) cow (1.566974) uphil (1.544401) stabl (1.520526) neck (1.518372) 
Error (train/valid/test) = 0.654569/1.265536/1.235439 (0.031981)
..................................................
energy after gradient step = 114641259.328206

Top words for each topic:
parc (2.134451) dune (1.831356) cest (1.774227) quelqu (1.745268) le (1.717770) tout (1.658630) cleanli (1.651067) battl (1.647174) montral (1.612404) magic (1.600478) 
rabbit (1.599833) habitat (1.582240) actor (1.550738) depth (1.545252) tub (1.523936) twist (1.515161) umbrella (1.446947) knot (1.445471) drai (1.422990) chick (1.408392) 
gondola (2.191947) venetian (1.965810) scuba (1.770677) angel (1.639268) attach (1.622757) digit (1.592850) terrain (1.563744) rec (1.511719) shallow (1.504946) justifi (1.498017) 
bow (1.890500) archeri (1.871897) forest (1.823136) otf (1.807362) lululemon (1.607884) terri (1.604215) inquir (1.592806) injur (1.526943) erin (1.516526) pedal (1.515915) 
farm (1.862668) phipp (1.858433) vista (1.753145) solut (1.744622) ymca (1.741402) panther (1.705937) cow (1.574926) lush (1.562455) uphil (1.513629) pumpkin (1.466983) 
Error (train/valid/test) = 0.626896/1.267012/1.238088 (0.032008)
..................................................
energy after gradient step = 114532726.244403

Top words for each topic:
parc (2.301984) cest (1.984013) dune (1.941441) le (1.869991) hockey (1.832850) tout (1.795309) dale (1.767137) terrac (1.756951) magic (1.754007) pitcher (1.739652) 
habitat (1.722016) depth (1.661095) dolphin (1.596542) actor (1.570812) rabbit (1.561835) downright (1.552507) chick (1.540077) facebook (1.514619) umbrella (1.500029) knot (1.492216) 
gondola (2.181690) venetian (2.020961) scuba (1.705634) attach (1.663861) hive (1.641011) digit (1.632917) terrain (1.589474) sculptur (1.564899) justifi (1.563967) angel (1.546917) 
archeri (1.980131) forest (1.951651) otf (1.917416) bow (1.849264) terri (1.679118) pedal (1.662375) dodg (1.615775) derbi (1.502854) lululemon (1.500855) etiquett (1.482426) 
farm (2.012003) phipp (1.938481) ymca (1.904270) panther (1.776925) lush (1.709149) vista (1.646695) cow (1.611882) neck (1.591215) patch (1.566108) smart (1.542063) 
Error (train/valid/test) = 0.603260/1.268266/1.240489 (0.032055)
..................................................
energy after gradient step = 114386714.555208

Top words for each topic:
parc (2.441617) cest (2.112436) le (2.051442) dune (2.012808) hockey (1.966802) rink (1.949917) les (1.931338) terrac (1.888097) quelqu (1.861720) tout (1.845008) 
habitat (1.834456) dolphin (1.793523) lion (1.711206) tiger (1.680915) drag (1.669551) downright (1.655666) rabbit (1.623708) twist (1.618202) depth (1.585822) actor (1.584083) 
gondola (2.369424) venetian (2.149464) scuba (1.911140) angel (1.763000) sculptur (1.677394) hive (1.631863) digit (1.597182) soccer (1.590151) attach (1.588214) adjac (1.583173) 
forest (2.027270) archeri (1.910556) otf (1.870610) bow (1.834757) pedal (1.731550) terri (1.730682) lululemon (1.682767) inquir (1.661169) derbi (1.590768) earth (1.582103) 
farm (2.098059) phipp (2.011616) ymca (1.894208) cow (1.771170) neck (1.744844) panther (1.721183) solut (1.702657) koko (1.656286) lush (1.636319) stabl (1.635192) 
Error (train/valid/test) = 0.587003/1.268710/1.242404 (0.032076)
..................................................
energy after gradient step = 114204485.840050

Top words for each topic:
parc (2.610535) rink (2.402421) le (2.311848) cest (2.286220) dune (2.241466) hockey (2.127128) de (2.091016) pitcher (2.044172) les (2.032162) trs (2.002838) 
dolphin (2.092521) habitat (1.996666) lion (1.979013) depth (1.738753) summit (1.738677) der (1.676004) drag (1.660734) tiger (1.641352) trufus (1.639899) nike (1.637437) 
gondola (2.448905) venetian (2.057916) hive (1.863153) dine (1.818446) scuba (1.809537) angel (1.779332) balloon (1.757886) attach (1.747065) terrain (1.707592) sunscreen (1.650201) 
archeri (2.102388) bow (2.068890) otf (1.972245) lululemon (1.932975) pedal (1.884726) forest (1.872785) terri (1.748622) inquir (1.721800) certifi (1.714707) dodg (1.690485) 
farm (2.237293) ymca (2.164685) phipp (2.122076) koko (1.973530) stabl (1.870321) pumpkin (1.687987) dowd (1.675442) vista (1.673126) lush (1.670116) smart (1.638271) 
Error (train/valid/test) = 0.565451/1.270806/1.244646 (0.032115)
..................................................
energy after gradient step = 113965209.358907

Top words for each topic:
parc (2.690931) rink (2.625536) cest (2.564109) les (2.390678) le (2.380162) hockey (2.358254) de (2.263565) dune (2.203629) pitcher (2.130383) terrac (2.108759) 
dolphin (2.370319) lion (2.078195) habitat (2.072508) summit (1.904252) tiger (1.882175) twist (1.767498) wildlif (1.724310) depth (1.718751) ein (1.717275) drag (1.677027) 
gondola (2.537047) venetian (2.196746) hive (1.979012) scuba (1.937776) angel (1.896944) wigwam (1.847480) balloon (1.826168) paseo (1.770528) attach (1.768861) mari (1.749077) 
archeri (2.199672) bow (2.080406) pedal (1.977028) lululemon (1.905728) otf (1.876804) forest (1.848803) dodg (1.839153) kayak (1.787217) inquir (1.782574) injur (1.729452) 
farm (2.359057) ymca (2.248600) phipp (2.124705) koko (1.875849) dowd (1.853246) cow (1.833997) pumpkin (1.805466) lush (1.728561) neck (1.715721) karv (1.688083) 
Error (train/valid/test) = 0.546415/1.273382/1.247872 (0.032180)
..................................................
energy after gradient step = 113619188.383938

Top words for each topic:
rink (2.885570) parc (2.852465) le (2.740695) cest (2.736471) de (2.590176) hockey (2.559322) les (2.529536) skate (2.523194) dune (2.410118) montral (2.318125) 
dolphin (2.638458) lion (2.399390) habitat (2.328523) tiger (2.142630) summit (1.993193) der (1.948680) drag (1.867256) twist (1.866610) ein (1.835145) sky (1.831661) 
gondola (2.614182) venetian (2.213738) scuba (2.166842) fairway (1.964760) hive (1.959811) angel (1.933258) balloon (1.874859) paseo (1.857958) soccer (1.849599) clubhous (1.839017) 
archeri (2.287572) lululemon (2.095895) bow (2.085360) otf (2.051369) pedal (2.021987) forest (1.987144) kayak (1.902732) inquir (1.865431) race (1.841233) derbi (1.764491) 
farm (2.495423) ymca (2.483899) phipp (2.257779) koko (1.942455) pumpkin (1.938562) cow (1.837074) dowd (1.835708) patch (1.807889) hay (1.793282) hors (1.783964) 
Error (train/valid/test) = 0.524924/1.276659/1.250185 (0.032238)
..................................................
energy after gradient step = 113143034.776201

Top words for each topic:
rink (3.145282) parc (3.065348) skate (2.963353) cest (2.945967) le (2.850057) de (2.800311) hockey (2.747781) les (2.690168) dune (2.519495) terrac (2.459308) 
dolphin (2.909250) lion (2.614673) habitat (2.413815) tiger (2.239251) summit (2.188657) der (2.110864) ein (2.038530) thai (2.004671) drag (1.989445) den (1.974110) 
gondola (2.690521) fairway (2.230486) balloon (2.173910) venetian (2.162490) scuba (2.140878) angel (2.114318) hive (2.090104) clubhous (2.053409) rose (2.001731) wigwam (1.967301) 
archeri (2.455249) bow (2.234687) otf (2.219193) pedal (2.163349) lululemon (2.142472) race (2.134361) kayak (1.961005) erin (1.840357) inquir (1.839041) forest (1.828392) 
farm (2.640384) ymca (2.563395) phipp (2.290713) pumpkin (2.064938) koko (2.039715) karv (2.010904) hors (1.970168) barr (1.923014) pure (1.904147) cage (1.861505) 
Error (train/valid/test) = 0.504015/1.279676/1.253798 (0.032293)
..................................................
energy after gradient step = 112570862.025906

Top words for each topic:
rink (3.325103) skate (3.189192) parc (3.125882) cest (3.050451) le (3.001980) hockey (2.928220) de (2.879633) les (2.819407) ice (2.635625) pitcher (2.612642) 
dolphin (3.075620) lion (2.799707) habitat (2.564228) tiger (2.481475) summit (2.319062) der (2.194670) anim (2.172736) wildlif (2.134145) bird (2.098666) ein (2.073875) 
gondola (2.758181) fairway (2.398030) balloon (2.293966) venetian (2.261489) green (2.252586) scuba (2.194344) clubhous (2.183472) angel (2.177112) tee (2.132060) hive (2.071878) 
archeri (2.486031) race (2.438125) bow (2.254598) lululemon (2.191719) otf (2.179880) pedal (2.065310) kayak (2.046167) kart (2.003116) arena (1.924034) chris (1.899921) 
farm (2.636863) ymca (2.580494) phipp (2.296660) barr (2.153376) koko (2.055886) karv (2.048291) hors (2.045919) pumpkin (2.028725) pure (1.994371) dowd (1.942679) 
Error (train/valid/test) = 0.495735/1.281606/1.255320 (0.032303)
..................................................
energy after gradient step = 111879072.087451

Top words for each topic:
rink (3.478360) skate (3.341985) parc (3.259045) cest (3.158137) le (3.059629) hockey (3.018332) de (3.007213) les (2.909124) ice (2.894667) terrac (2.783936) 
dolphin (3.180851) lion (2.961712) habitat (2.632030) tiger (2.512146) summit (2.462703) anim (2.460670) hike (2.409514) bird (2.330501) der (2.313921) wildlif (2.259330) 
gondola (2.815904) green (2.603246) fairway (2.592836) cours (2.451408) clubhous (2.371476) trail (2.356034) hole (2.353446) balloon (2.349123) tee (2.334885) venetian (2.259522) 
race (2.585811) archeri (2.530838) bow (2.330655) otf (2.233045) lululemon (2.221798) pedal (2.123499) kayak (2.111121) kart (2.102639) arena (1.969003) chris (1.936882) 
farm (2.683228) ymca (2.624346) barr (2.353143) phipp (2.351288) hors (2.129280) pumpkin (2.108513) karv (2.102066) koko (2.080653) pure (2.053092) zumba (2.049662) 
Error (train/valid/test) = 0.486763/1.283509/1.256497 (0.032332)
..................................................
energy after gradient step = 111081286.280101

Top words for each topic:
rink (3.671614) skate (3.583955) parc (3.388766) cest (3.293591) le (3.247202) hockey (3.201679) ice (3.118456) les (3.073617) de (3.068583) terrac (2.982936) 
dolphin (3.341675) lion (3.142737) habitat (2.790425) anim (2.752022) hike (2.742585) tiger (2.689722) summit (2.576423) dog (2.553580) shoe (2.482972) bird (2.448616) 
green (2.900910) gondola (2.871424) cours (2.844270) fairway (2.823242) hole (2.666691) trail (2.625550) tee (2.607106) golf (2.470932) clubhous (2.414791) balloon (2.406966) 
race (2.786528) archeri (2.632326) bow (2.342797) lululemon (2.266634) otf (2.183832) pedal (2.183782) kart (2.151295) kayak (2.140015) bike (1.970581) pant (1.942384) 
farm (2.699886) ymca (2.658546) barr (2.468854) weight (2.409308) workout (2.399190) phipp (2.318610) cardio (2.286879) gym (2.284722) hors (2.240449) pure (2.238061) 
Error (train/valid/test) = 0.479792/1.284978/1.257585 (0.032346)
..................................................
energy after gradient step = 110128327.629763

Top words for each topic:
rink (3.842847) skate (3.818111) parc (3.515425) cest (3.385134) le (3.353914) ice (3.333636) hockey (3.285168) les (3.223162) de (3.197280) tao (3.086140) 
dolphin (3.420024) lion (3.256735) anim (3.079812) hike (2.973962) habitat (2.938109) dog (2.802582) tiger (2.793910) summit (2.721942) bird (2.713891) shoe (2.698569) 
cours (3.234983) green (3.162305) fairway (2.928993) hole (2.903962) gondola (2.900900) trail (2.841165) tee (2.814260) golf (2.772454) clubhous (2.633337) grass (2.480670) 
race (2.913036) archeri (2.554541) bow (2.373491) lululemon (2.359707) bike (2.306728) kart (2.290539) pedal (2.272808) otf (2.229771) kayak (2.173634) arena (2.119229) 
gym (2.987687) weight (2.694157) workout (2.688282) farm (2.673683) ymca (2.665964) barr (2.567947) cardio (2.543577) machin (2.520976) locker (2.490833) spa (2.453558) 
Error (train/valid/test) = 0.473727/1.287929/1.259623 (0.032377)
..................................................
energy after gradient step = 109151873.287952

Top words for each topic:
skate (4.002400) rink (3.946154) ice (3.609174) parc (3.584783) cest (3.549092) le (3.467648) hockey (3.406806) tao (3.357894) de (3.324207) les (3.312522) 
dolphin (3.568528) lion (3.386293) anim (3.376612) hike (3.194638) dog (3.119200) zoo (3.041964) habitat (3.022022) summit (2.925335) tiger (2.885347) shoe (2.884413) 
cours (3.512738) green (3.392283) hole (3.164885) fairway (3.114063) trail (3.080618) golf (3.065131) tee (3.054836) gondola (2.996449) grass (2.769265) clubhous (2.734101) 
race (3.028609) archeri (2.611084) bike (2.561287) bow (2.391262) lululemon (2.390729) kart (2.350595) pedal (2.326489) otf (2.304644) kayak (2.284900) raft (2.136926) 
gym (3.399468) weight (2.931547) workout (2.927678) cardio (2.833877) machin (2.773719) locker (2.747261) ymca (2.712656) farm (2.691074) barr (2.667895) spa (2.660125) 
Error (train/valid/test) = 0.463887/1.290659/1.261154 (0.032406)
..................................................
energy after gradient step = 108186277.170730

Top words for each topic:
skate (4.193563) rink (4.080916) ice (3.732760) parc (3.717708) le (3.640999) cest (3.631501) tao (3.592092) hockey (3.506617) montreal (3.448683) les (3.441737) 
dolphin (3.706535) anim (3.610774) lion (3.565839) zoo (3.466924) hike (3.428577) dog (3.340075) habitat (3.229125) tiger (3.059424) shoe (3.004028) summit (2.988747) 
cours (3.873560) green (3.554389) hole (3.487497) golf (3.371571) trail (3.312593) fairway (3.287350) tee (3.245569) gondola (3.074114) grass (2.960684) picnic (2.900253) 
race (3.180901) bike (2.858523) archeri (2.651731) bow (2.536865) pedal (2.446368) kart (2.425390) lululemon (2.422246) otf (2.325939) bicycl (2.315515) arena (2.295548) 
gym (3.727690) weight (3.220764) workout (3.220558) machin (3.088718) cardio (3.060882) locker (2.959665) class (2.912015) spa (2.885074) membership (2.857856) farm (2.762494) 
Error (train/valid/test) = 0.453862/1.293308/1.262367 (0.032424)
..................................................
energy after gradient step = 107225431.382998

Top words for each topic:
skate (4.321537) rink (4.180467) ice (3.848478) tao (3.804879) parc (3.787346) cest (3.678503) le (3.654376) montreal (3.589188) hockey (3.588710) cabana (3.556389) 
anim (3.876959) dolphin (3.858824) zoo (3.796277) lion (3.717227) hike (3.615734) dog (3.558814) habitat (3.337212) tiger (3.181585) bird (3.137588) summit (3.128979) 
cours (4.155204) green (3.719675) hole (3.694613) golf (3.553487) trail (3.478878) tee (3.478486) fairway (3.429080) grass (3.230896) park (3.190811) picnic (3.151023) 
race (3.260437) bike (3.171905) archeri (2.702870) pedal (2.575296) kart (2.531129) bow (2.526339) lululemon (2.525674) custom (2.478234) store (2.411898) kayak (2.356437) 
gym (3.987373) class (3.475420) workout (3.452022) weight (3.400225) machin (3.305722) cardio (3.264874) locker (3.089091) membership (3.078230) spa (3.017437) trainer (2.965510) 
Error (train/valid/test) = 0.444099/1.296177/1.264241 (0.032476)
..................................................
energy after gradient step = 106306916.425470

Top words for each topic:
skate (4.431683) rink (4.287670) tao (3.938539) ice (3.936861) parc (3.871980) cabana (3.796250) cest (3.782021) le (3.728106) hockey (3.682032) montreal (3.671872) 
zoo (4.048092) anim (4.015355) dolphin (3.986858) lion (3.835408) hike (3.806094) dog (3.689760) habitat (3.454311) bird (3.304171) summit (3.284841) tiger (3.275354) 
cours (4.359645) hole (3.871123) green (3.852321) golf (3.711015) tee (3.633099) trail (3.574214) fairway (3.545943) park (3.457929) grass (3.407503) picnic (3.319244) 
bike (3.466073) race (3.337971) archeri (2.775358) custom (2.674352) store (2.616060) lululemon (2.610905) kart (2.588119) pedal (2.582127) bow (2.563132) bicycl (2.539190) 
gym (4.296050) class (3.738137) workout (3.625642) weight (3.539266) machin (3.457314) cardio (3.374069) membership (3.220142) locker (3.194035) trainer (3.152746) spa (3.105419) 
Error (train/valid/test) = 0.435705/1.298016/1.265759 (0.032539)
..................................................
energy after gradient step = 105563122.632990

Top words for each topic:
skate (4.483271) rink (4.347290) tao (4.075345) cabana (4.024273) ice (4.020485) parc (3.848617) cest (3.759034) montreal (3.756617) le (3.747206) shark (3.731544) 
zoo (4.283374) anim (4.207673) dolphin (4.093232) lion (3.974782) hike (3.972332) dog (3.804680) habitat (3.525608) bird (3.426483) tiger (3.400640) summit (3.385183) 
cours (4.611730) hole (3.998960) green (3.971883) golf (3.962356) tee (3.781673) park (3.734027) trail (3.697720) fairway (3.669116) grass (3.551026) picnic (3.446364) 
bike (3.685226) race (3.479917) store (2.898387) custom (2.788108) kart (2.693994) archeri (2.671266) rei (2.670839) bow (2.649465) lululemon (2.641404) pedal (2.634369) 
gym (4.540223) class (4.002365) workout (3.856566) weight (3.680557) machin (3.614386) cardio (3.456190) membership (3.361936) trainer (3.345621) locker (3.307985) yoga (3.222360) 
Error (train/valid/test) = 0.427063/1.300254/1.267262 (0.032583)
..................................................
energy after gradient step = 104902932.922577

Top words for each topic:
skate (4.449345) rink (4.407889) cabana (4.235937) tao (4.151280) ice (3.979852) parc (3.950132) cest (3.845146) le (3.842517) shark (3.787858) hockey (3.743364) 
zoo (4.486005) anim (4.373411) dolphin (4.185310) hike (4.138576) lion (4.087027) dog (3.887134) habitat (3.639517) bird (3.584708) exhibit (3.572304) summit (3.490120) 
cours (4.770709) golf (4.183176) green (4.127175) hole (4.093963) tee (3.912022) park (3.904287) trail (3.815866) fairway (3.777830) grass (3.769395) picnic (3.636586) 
bike (3.831805) race (3.545344) store (3.146577) custom (3.000130) rei (2.828746) archeri (2.800034) kart (2.789705) pedal (2.743675) lululemon (2.731408) bicycl (2.720634) 
gym (4.766203) class (4.275236) workout (4.041981) weight (3.823340) machin (3.763591) yoga (3.716216) cardio (3.596621) membership (3.549275) trainer (3.524226) studio (3.516254) 
Error (train/valid/test) = 0.413315/1.303114/1.269075 (0.032624)
..................................................
energy after gradient step = 104279011.861317

Top words for each topic:
skate (4.482040) rink (4.445249) cabana (4.365732) tao (4.250488) parc (3.924446) ice (3.871721) pool (3.831883) cest (3.819338) shark (3.808372) beach (3.769398) 
zoo (4.725058) anim (4.533253) hike (4.285732) dolphin (4.279833) lion (4.193072) dog (3.947400) exhibit (3.869734) habitat (3.761473) bird (3.708387) summit (3.591127) 
cours (4.857617) golf (4.412501) hole (4.253144) green (4.209071) park (4.148813) tee (4.043152) grass (3.957644) trail (3.913494) fairway (3.912248) picnic (3.769531) 
bike (4.020695) race (3.630236) store (3.379486) custom (3.243382) rei (2.994646) sale (2.905230) kart (2.890719) pedal (2.874648) purchas (2.866232) archeri (2.847421) 
gym (4.992931) class (4.599185) workout (4.219799) yoga (3.999995) weight (3.954349) machin (3.898903) studio (3.875771) cardio (3.691311) membership (3.660313) trainer (3.652942) 
Error (train/valid/test) = 0.399206/1.307403/1.271788 (0.032717)
..................................................
energy after gradient step = 103774461.753508

Top words for each topic:
skate (4.521022) cabana (4.471508) rink (4.455590) tao (4.329546) bowl (4.047151) parc (3.968797) pool (3.967963) alley (3.949860) cest (3.870242) shark (3.842791) 
zoo (4.870832) anim (4.633969) hike (4.409789) dolphin (4.360317) lion (4.283819) exhibit (4.000922) dog (3.942779) habitat (3.849427) gun (3.834299) bird (3.809171) 
cours (4.926817) golf (4.559922) hole (4.311071) park (4.239590) green (4.234011) tee (4.142049) grass (4.065597) trail (4.011351) fairway (4.005424) picnic (3.857774) 
bike (4.108531) race (3.735019) store (3.542011) custom (3.367923) rei (3.125860) sale (3.044305) shop (3.033130) bicycl (2.901160) pedal (2.899695) kart (2.889225) 
gym (5.141298) class (4.859085) workout (4.343031) yoga (4.235967) studio (4.062659) weight (4.029723) machin (4.028277) cardio (3.808240) membership (3.787518) trainer (3.781017) 
Error (train/valid/test) = 0.387892/1.310718/1.275221 (0.032808)
..................................................
energy after gradient step = 103348930.793609

Top words for each topic:
cabana (4.577047) bowl (4.528034) skate (4.498296) rink (4.487017) tao (4.382643) pool (4.106241) alley (4.072385) parc (3.930684) lane (3.925873) cest (3.843206) 
zoo (4.996860) anim (4.764396) hike (4.536980) dolphin (4.419185) lion (4.353253) gun (4.160677) exhibit (4.138994) habitat (3.926871) dog (3.915986) shoot (3.903375) 
cours (4.970444) golf (4.693601) park (4.400128) hole (4.397583) green (4.325004) tee (4.247040) grass (4.158963) fairway (4.090589) trail (4.052826) dog (3.982611) 
bike (4.196918) race (3.848722) store (3.810828) custom (3.362443) rei (3.238839) shop (3.135106) sale (3.131423) purchas (3.031905) kart (3.019885) pedal (3.003776) 
gym (5.290319) class (5.059555) workout (4.424603) yoga (4.423877) studio (4.252266) weight (4.157836) machin (4.106612) cardio (3.896912) trainer (3.860920) membership (3.856060) 
Error (train/valid/test) = 0.375531/1.314534/1.278417 (0.032912)
..................................................
energy after gradient step = 102968890.240027

Top words for each topic:
bowl (4.723654) cabana (4.636166) skate (4.508327) rink (4.479523) tao (4.393482) pool (4.238762) alley (4.168526) parc (3.970894) lane (3.887100) bartend (3.830324) 
zoo (5.102868) anim (4.814748) hike (4.616355) dolphin (4.487119) gun (4.452509) lion (4.412644) exhibit (4.255099) shoot (4.120486) aquarium (4.013249) habitat (3.966802) 
cours (4.968273) golf (4.751179) hole (4.460692) green (4.413912) park (4.395420) tee (4.317588) grass (4.245904) fairway (4.157445) dog (4.157105) trail (4.094104) 
bike (4.287128) store (4.018876) race (3.896360) custom (3.487372) rei (3.341137) shop (3.256581) sale (3.202036) purchas (3.096799) gear (3.075241) kart (3.075017) 
gym (5.390439) class (5.190578) yoga (4.548799) workout (4.513216) studio (4.377584) weight (4.221559) machin (4.202574) trainer (3.959635) cardio (3.955884) membership (3.929570) 
Error (train/valid/test) = 0.365568/1.318916/1.281434 (0.033011)
..................................................
energy after gradient step = 102662140.048638

Top words for each topic:
bowl (4.761528) cabana (4.698753) rink (4.514995) skate (4.503532) tao (4.437227) pool (4.390860) alley (4.294223) lane (3.907698) bartend (3.906574) parc (3.902915) 
zoo (5.192797) anim (4.907909) hike (4.718876) gun (4.671603) dolphin (4.513316) lion (4.486406) exhibit (4.350431) aquarium (4.307180) shoot (4.247347) habitat (4.028942) 
cours (4.948675) golf (4.801145) hole (4.471163) green (4.431394) park (4.413357) tee (4.396087) dog (4.390238) grass (4.339789) fairway (4.243763) trail (4.144900) 
bike (4.358312) store (4.121700) race (4.013346) custom (3.549593) rei (3.377377) shop (3.366088) sale (3.316478) purchas (3.188076) gear (3.171672) kart (3.132507) 
gym (5.481330) class (5.294974) yoga (4.677115) workout (4.598363) studio (4.530235) weight (4.296472) machin (4.277664) trainer (4.058156) cardio (4.032741) membership (4.027842) 
Error (train/valid/test) = 0.354594/1.322855/1.284809 (0.033125)
..................................................
energy after gradient step = 102320881.045728

Top words for each topic:
bowl (4.803711) cabana (4.713708) rink (4.507127) skate (4.483517) tao (4.469006) pool (4.443715) alley (4.311311) parc (3.970149) arcad (3.927066) bartend (3.916724) 
zoo (5.263616) anim (4.933876) gun (4.822404) hike (4.787851) dolphin (4.559908) lion (4.520962) aquarium (4.508169) exhibit (4.452392) shoot (4.351359) habitat (4.065493) 
golf (4.870239) cours (4.845576) dog (4.540159) hole (4.489046) tee (4.466477) park (4.418262) grass (4.408112) green (4.398630) fairway (4.315612) trail (4.213767) 
bike (4.428730) store (4.282176) race (4.070831) custom (3.629341) rei (3.462099) shop (3.423805) sale (3.300963) gear (3.295406) shoe (3.216538) pedal (3.185706) 
gym (5.530733) class (5.370787) yoga (4.788090) workout (4.691381) studio (4.617702) machin (4.360309) weight (4.354968) trainer (4.139832) membership (4.108156) cardio (4.087939) 
Error (train/valid/test) = 0.345232/1.325015/1.287943 (0.033238)
..................................................
energy after gradient step = 102118342.378444

Top words for each topic:
bowl (4.867788) cabana (4.758969) pool (4.543147) rink (4.530953) tao (4.505972) skate (4.441225) alley (4.367205) arcad (4.011975) bartend (3.954244) parc (3.918489) 
zoo (5.329712) anim (5.016477) gun (4.959987) hike (4.839830) dolphin (4.619723) aquarium (4.610975) lion (4.582603) exhibit (4.548818) shoot (4.428252) habitat (4.128343) 
golf (4.927317) cours (4.724826) dog (4.682775) hole (4.561693) tee (4.541471) grass (4.476550) green (4.414358) park (4.396822) fairway (4.377230) picnic (4.259626) 
bike (4.503676) store (4.442708) race (4.134375) custom (3.711921) rei (3.531888) shop (3.455008) shoe (3.336327) gear (3.328131) sale (3.250343) purchas (3.221522) 
gym (5.600390) class (5.448117) yoga (4.899913) workout (4.744250) studio (4.724285) weight (4.408658) machin (4.374318) membership (4.178397) trainer (4.170611) cardio (4.146810) 
Error (train/valid/test) = 0.334684/1.329009/1.290559 (0.033277)
..................................................
energy after gradient step = 101886708.424115

Top words for each topic:
bowl (4.923572) cabana (4.795769) pool (4.623921) rink (4.557622) tao (4.541820) skate (4.447469) alley (4.406199) arcad (4.069758) bartend (4.014812) waitress (3.942333) 
zoo (5.388803) gun (5.076746) anim (5.028562) hike (4.909719) aquarium (4.762554) dolphin (4.673290) exhibit (4.641423) lion (4.639039) shoot (4.478652) habitat (4.156057) 
golf (5.072762) dog (4.847151) cours (4.658156) tee (4.607699) hole (4.580847) grass (4.557487) fairway (4.439525) park (4.384970) green (4.368359) picnic (4.343715) 
bike (4.564154) store (4.520205) race (4.173810) custom (3.722855) rei (3.622844) shop (3.505423) gear (3.444716) shoe (3.389542) pedal (3.285487) sale (3.253291) 
gym (5.684725) class (5.523646) yoga (5.025463) studio (4.838092) workout (4.813202) weight (4.467213) machin (4.410766) trainer (4.220609) cardio (4.217942) membership (4.205809) 
Error (train/valid/test) = 0.323102/1.333385/1.294749 (0.033383)
..................................................
energy after gradient step = 101692291.584372

Top words for each topic:
bowl (4.980046) cabana (4.839747) pool (4.686007) tao (4.566553) rink (4.556819) alley (4.454034) skate (4.428421) arcad (4.088309) bartend (4.043498) waitress (3.967114) 
zoo (5.415728) gun (5.128496) anim (5.067474) hike (4.926852) aquarium (4.860612) dolphin (4.706205) exhibit (4.689659) lion (4.669158) shoot (4.517567) habitat (4.200360) 
golf (5.141386) dog (4.941877) tee (4.659504) grass (4.651041) hole (4.601668) fairway (4.499681) cours (4.435556) picnic (4.430380) park (4.398160) green (4.379815) 
store (4.624963) bike (4.607392) race (4.189812) custom (3.748157) rei (3.683216) shop (3.638232) gear (3.522432) shoe (3.480231) kart (3.298652) sale (3.256101) 
gym (5.759122) class (5.611558) yoga (5.096691) studio (4.923365) workout (4.828545) weight (4.522693) machin (4.461012) cardio (4.278832) trainer (4.253841) membership (4.237960) 
Error (train/valid/test) = 0.313976/1.337484/1.298038 (0.033501)
..................................................
energy after gradient step = 101496739.524576

Top words for each topic:
bowl (5.050415) cabana (4.879192) pool (4.750237) tao (4.590550) rink (4.584790) alley (4.510015) skate (4.471048) arcad (4.122482) bartend (4.042907) waitress (3.986033) 
zoo (5.471678) gun (5.160354) anim (5.124514) hike (4.964160) aquarium (4.913203) exhibit (4.726164) dolphin (4.724077) lion (4.677414) shoot (4.560716) habitat (4.199673) 
golf (5.199198) dog (5.109884) grass (4.713941) tee (4.713887) hole (4.576942) fairway (4.555560) picnic (4.480002) park (4.386310) trail (4.329859) playground (4.324915) 
store (4.701414) bike (4.668084) race (4.237504) custom (3.779522) rei (3.729708) shop (3.696977) gear (3.517825) shoe (3.507000) pedal (3.355270) sale (3.294566) 
gym (5.812855) class (5.693461) yoga (5.163001) studio (4.997638) workout (4.841740) weight (4.560257) machin (4.489662) cardio (4.329675) trainer (4.297618) membership (4.291624) 
Error (train/valid/test) = 0.304986/1.342151/1.300142 (0.033566)
..................................................
energy after gradient step = 101337642.780901

Top words for each topic:
bowl (5.068205) cabana (4.922573) pool (4.762866) tao (4.619283) rink (4.600947) alley (4.527912) skate (4.484736) arcad (4.156919) bartend (4.089475) waitress (4.019157) 
zoo (5.530380) gun (5.210868) anim (5.185566) hike (5.047739) aquarium (4.990977) exhibit (4.775030) dolphin (4.758910) lion (4.732014) shoot (4.606000) habitat (4.248768) 
dog (5.297172) golf (5.256074) grass (4.761912) tee (4.755161) fairway (4.608662) hole (4.576260) picnic (4.546503) park (4.381832) lake (4.373106) playground (4.370770) 
store (4.748046) bike (4.701844) race (4.283969) custom (3.790772) rei (3.789288) shop (3.698448) gear (3.561288) shoe (3.507269) pedal (3.327359) kart (3.324891) 
gym (5.871481) class (5.732628) yoga (5.232118) studio (5.056258) workout (4.884431) weight (4.617771) machin (4.523187) cardio (4.391567) membership (4.340665) trainer (4.308874) 
Error (train/valid/test) = 0.296792/1.345521/1.303103 (0.033653)
..................................................
energy after gradient step = 101150386.143624

Top words for each topic:
bowl (5.077256) cabana (4.951503) pool (4.773961) tao (4.643372) rink (4.603033) alley (4.573696) skate (4.504520) arcad (4.194483) bartend (4.124182) waitress (4.031833) 
zoo (5.554893) gun (5.220051) anim (5.189697) hike (5.130969) aquarium (5.048997) exhibit (4.840928) dolphin (4.784446) lion (4.757570) shoot (4.625515) shark (4.274450) 
dog (5.455545) golf (5.290430) grass (4.795848) tee (4.778268) fairway (4.659521) hole (4.626772) picnic (4.569127) playground (4.406071) lake (4.403070) park (4.371866) 
store (4.794196) bike (4.721938) race (4.327005) custom (3.841992) rei (3.831820) shop (3.757763) gear (3.604046) shoe (3.511876) pedal (3.416115) sale (3.358935) 
gym (5.927137) class (5.809927) yoga (5.280483) studio (5.109105) workout (4.912993) weight (4.657483) machin (4.544250) cardio (4.419241) instructor (4.383905) membership (4.381539) 
Error (train/valid/test) = 0.288967/1.348553/1.306159 (0.033742)
..................................................
energy after gradient step = 100976643.895524

Top words for each topic:
bowl (5.081971) cabana (4.992827) pool (4.813212) tao (4.667546) rink (4.627442) alley (4.613915) skate (4.484451) arcad (4.247550) bartend (4.144427) waitress (4.082103) 
zoo (5.597020) gun (5.267218) anim (5.221295) hike (5.164854) aquarium (5.121165) exhibit (4.904533) dolphin (4.808514) lion (4.788885) shoot (4.671706) shark (4.330060) 
dog (5.579708) golf (5.313462) grass (4.831617) tee (4.815482) fairway (4.694042) hole (4.624820) picnic (4.624518) playground (4.442203) lake (4.422422) garden (4.379016) 
store (4.846069) bike (4.765747) race (4.305888) rei (3.889225) custom (3.879832) shop (3.761934) gear (3.648556) shoe (3.535933) pedal (3.423694) accessori (3.409585) 
gym (5.965552) class (5.874899) yoga (5.357103) studio (5.181136) workout (4.965760) weight (4.690492) machin (4.556718) cardio (4.476485) trainer (4.417624) instructor (4.409453) 
Error (train/valid/test) = 0.280069/1.352307/1.309328 (0.033848)
..................................................
energy after gradient step = 100874878.465115

Top words for each topic:
bowl (5.106344) cabana (5.010986) pool (4.841457) tao (4.686131) alley (4.658881) rink (4.652249) skate (4.442119) arcad (4.288686) bartend (4.162495) waitress (4.115984) 
zoo (5.635116) gun (5.303220) hike (5.251512) anim (5.234405) aquarium (5.166057) exhibit (4.950551) dolphin (4.842066) lion (4.808161) shoot (4.676444) shark (4.403431) 
dog (5.679086) golf (5.366865) grass (4.871070) tee (4.837346) fairway (4.724953) picnic (4.677652) hole (4.602648) playground (4.462815) lake (4.440069) garden (4.382156) 
store (4.918029) bike (4.796149) race (4.366576) rei (3.932600) custom (3.897175) shop (3.806118) gear (3.730732) shoe (3.551841) pedal (3.462844) accessori (3.432999) 
gym (6.013047) class (5.926090) yoga (5.415732) studio (5.220642) workout (4.955372) weight (4.727835) machin (4.579601) cardio (4.490338) instructor (4.465617) trainer (4.441856) 
Error (train/valid/test) = 0.272183/1.355699/1.312811 (0.033963)
..................................................
energy after gradient step = 100753659.510649

Top words for each topic:
bowl (5.114781) cabana (5.053193) pool (4.882930) tao (4.720954) alley (4.691786) rink (4.677553) skate (4.447925) arcad (4.339297) bartend (4.214122) waitress (4.158437) 
zoo (5.672331) gun (5.327147) hike (5.303884) anim (5.242438) aquarium (5.213218) exhibit (4.963278) dolphin (4.861350) lion (4.824339) shoot (4.672690) shark (4.456785) 
dog (5.736500) golf (5.372028) grass (4.873347) tee (4.854988) fairway (4.763028) picnic (4.709490) hole (4.603585) lake (4.493130) playground (4.468260) garden (4.380284) 
store (4.988502) bike (4.827419) race (4.410443) rei (3.966227) custom (3.949362) shop (3.852171) gear (3.701768) shoe (3.589873) accessori (3.500024) pedal (3.474133) 
gym (6.044789) class (5.966972) yoga (5.461901) studio (5.273083) workout (4.987847) weight (4.778542) machin (4.643691) cardio (4.535024) trainer (4.483519) instructor (4.469293) 
Error (train/valid/test) = 0.265355/1.359353/1.315562 (0.034062)
..................................................
energy after gradient step = 100642778.020401

Top words for each topic:
bowl (5.122408) cabana (5.064407) pool (4.894933) tao (4.726200) alley (4.707613) rink (4.645470) skate (4.455876) arcad (4.354202) bartend (4.236483) waitress (4.138094) 
zoo (5.701501) gun (5.320008) hike (5.301098) anim (5.256878) aquarium (5.244418) exhibit (5.017421) dolphin (4.881290) lion (4.852457) shoot (4.661225) shark (4.496626) 
dog (5.829692) golf (5.402929) grass (4.922268) tee (4.887834) fairway (4.794437) picnic (4.766245) hole (4.627153) playground (4.487117) lake (4.457635) trail (4.409436) 
store (5.030588) bike (4.848139) race (4.420731) rei (4.010886) custom (3.984672) shop (3.907883) gear (3.708934) shoe (3.621523) accessori (3.520404) pedal (3.514369) 
gym (6.081788) class (6.015281) yoga (5.520837) studio (5.316819) workout (4.996591) weight (4.802831) machin (4.685157) cardio (4.564304) membership (4.526749) trainer (4.521382) 
Error (train/valid/test) = 0.258270/1.361262/1.318584 (0.034174)
..................................................
energy after gradient step = 100518119.353252

Top words for each topic:
bowl (5.128776) cabana (5.090831) pool (4.917469) tao (4.756749) alley (4.742549) rink (4.688955) skate (4.482374) arcad (4.385814) bartend (4.263650) waitress (4.186551) 
zoo (5.743073) gun (5.351483) hike (5.300298) aquarium (5.291446) anim (5.259859) exhibit (5.051883) dolphin (4.903220) lion (4.879136) shoot (4.665545) shark (4.558601) 
dog (5.854437) golf (5.469420) grass (4.960984) tee (4.912899) fairway (4.828424) picnic (4.797353) hole (4.596705) playground (4.499244) lake (4.471001) trail (4.426845) 
store (5.082206) bike (4.888161) race (4.413091) rei (4.040614) custom (4.001326) shop (3.917486) gear (3.784285) shoe (3.602789) accessori (3.557443) pedal (3.533617) 
gym (6.117796) class (6.020998) yoga (5.574655) studio (5.361710) workout (5.019807) weight (4.828818) machin (4.664734) cardio (4.612563) instructor (4.547214) trainer (4.543794) 
Error (train/valid/test) = 0.251408/1.364770/1.321508 (0.034278)
..................................................
energy after gradient step = 100429264.225903

Top words for each topic:
cabana (5.127067) bowl (5.102190) pool (4.933272) tao (4.785620) alley (4.763172) rink (4.696885) skate (4.481265) arcad (4.434888) bartend (4.299730) waitress (4.203949) 
zoo (5.761896) gun (5.370265) aquarium (5.330242) anim (5.268790) hike (5.266540) exhibit (5.093259) dolphin (4.926751) lion (4.882827) shoot (4.643824) shark (4.603431) 
dog (5.919967) golf (5.504809) grass (4.962482) tee (4.943055) fairway (4.856402) picnic (4.839775) hole (4.563762) playground (4.477740) lake (4.452621) trail (4.440123) 
store (5.130624) bike (4.900023) race (4.419440) rei (4.083838) custom (4.001405) shop (3.892629) gear (3.846519) shoe (3.606473) accessori (3.591400) pedal (3.558102) 
gym (6.147444) class (6.043150) yoga (5.608048) studio (5.400474) workout (5.043600) weight (4.848022) machin (4.673348) cardio (4.648559) trainer (4.584009) membership (4.550642) 
Error (train/valid/test) = 0.244875/1.369304/1.324131 (0.034376)
..................................................
energy after gradient step = 100337552.020904

Top words for each topic:
cabana (5.157414) bowl (5.106333) pool (4.961433) tao (4.813969) alley (4.772360) rink (4.728577) skate (4.491209) arcad (4.473145) bartend (4.318956) waitress (4.205625) 
zoo (5.790264) gun (5.402314) aquarium (5.366919) hike (5.285344) anim (5.268285) exhibit (5.140277) dolphin (4.950587) lion (4.902078) shoot (4.648640) shark (4.630819) 
dog (5.932070) golf (5.543204) grass (4.998847) tee (4.968358) fairway (4.882357) picnic (4.875220) hole (4.580517) lake (4.477270) playground (4.469426) trail (4.451356) 
store (5.144899) bike (4.917513) race (4.434532) rei (4.116234) custom (4.030640) gear (3.886223) shop (3.874583) accessori (3.636050) shoe (3.599228) pedal (3.556119) 
gym (6.173677) class (6.081119) yoga (5.647916) studio (5.438492) workout (5.049051) weight (4.865449) machin (4.676506) cardio (4.661160) trainer (4.612908) membership (4.546151) 
Error (train/valid/test) = 0.239233/1.372567/1.325664 (0.034424)
..................................................
energy after gradient step = 100259524.487555

Top words for each topic:
cabana (5.195444) bowl (5.148816) pool (4.981427) tao (4.845699) alley (4.806328) rink (4.746147) arcad (4.515250) skate (4.426244) bartend (4.351768) server (4.227940) 
zoo (5.812446) aquarium (5.393390) gun (5.361191) anim (5.295657) hike (5.271600) exhibit (5.157457) dolphin (4.968398) lion (4.915641) shark (4.665850) shoot (4.628907) 
dog (5.990128) golf (5.578088) grass (5.034363) tee (4.981851) picnic (4.918532) fairway (4.903078) hole (4.572727) playground (4.494731) lake (4.486072) trail (4.472501) 
store (5.195799) bike (4.946821) race (4.442440) rei (4.153459) custom (4.040394) shop (3.909959) gear (3.811892) accessori (3.640753) shoe (3.618109) pair (3.589300) 
gym (6.215492) class (6.121193) yoga (5.692852) studio (5.484172) workout (5.077405) weight (4.886217) cardio (4.699663) machin (4.638148) trainer (4.613404) membership (4.587883) 
Error (train/valid/test) = 0.233429/1.375084/1.328859 (0.034528)
..................................................
energy after gradient step = 100195158.878538

Top words for each topic:
cabana (5.222490) bowl (5.151200) pool (4.998768) tao (4.871556) alley (4.800831) rink (4.759892) arcad (4.544257) skate (4.422198) bartend (4.399278) server (4.256530) 
zoo (5.831908) aquarium (5.444400) gun (5.404256) hike (5.285280) anim (5.278786) exhibit (5.184362) dolphin (4.993648) lion (4.942518) shark (4.710575) ammo (4.599015) 
dog (6.032135) golf (5.603715) grass (5.077212) tee (4.992541) picnic (4.949092) fairway (4.938918) hole (4.569271) lake (4.490709) trail (4.486441) playground (4.472620) 
store (5.224984) bike (4.984213) race (4.516719) rei (4.194252) custom (4.056622) shop (3.855235) gear (3.795456) accessori (3.660643) kart (3.628916) brake (3.619796) 
gym (6.246844) class (6.138674) yoga (5.739126) studio (5.523114) workout (5.110504) weight (4.906620) cardio (4.742493) machin (4.648319) trainer (4.645609) membership (4.608810) 
Error (train/valid/test) = 0.226697/1.377446/1.331276 (0.034591)
..................................................
energy after gradient step = 100121862.347832

Top words for each topic:
cabana (5.234352) bowl (5.154426) pool (5.046199) tao (4.890778) alley (4.806369) rink (4.770147) arcad (4.571478) skate (4.423269) bartend (4.408502) server (4.276459) 
zoo (5.863216) aquarium (5.479810) gun (5.390690) anim (5.281479) hike (5.260586) exhibit (5.213707) dolphin (5.021906) lion (4.951960) shark (4.748915) ammo (4.636613) 
dog (6.032167) golf (5.597057) grass (5.107256) tee (5.004054) picnic (4.976367) fairway (4.963133) hole (4.524008) trail (4.515209) playground (4.505263) lake (4.470940) 
store (5.259784) bike (5.013437) race (4.517385) rei (4.227721) custom (4.065826) shop (3.882727) gear (3.795523) accessori (3.706649) kart (3.650023) helmet (3.638720) 
gym (6.268257) class (6.146442) yoga (5.776315) studio (5.566352) workout (5.147742) weight (4.931634) cardio (4.769231) trainer (4.673131) machin (4.655348) membership (4.640028) 
Error (train/valid/test) = 0.221018/1.379903/1.334268 (0.034683)
..................................................
energy after gradient step = 100045189.829844

Top words for each topic:
cabana (5.243946) bowl (5.139427) pool (5.074272) tao (4.910881) alley (4.819292) rink (4.781987) arcad (4.608827) skate (4.465710) bartend (4.419823) waitress (4.290303) 
zoo (5.884097) aquarium (5.510424) gun (5.394223) anim (5.286439) hike (5.254383) exhibit (5.252920) dolphin (5.038290) lion (4.972853) shark (4.780496) ammo (4.655432) 
dog (6.058242) golf (5.612177) grass (5.123512) tee (5.008372) picnic (5.006249) fairway (4.991354) trail (4.551416) playground (4.525435) hole (4.494443) garden (4.480097) 
store (5.304647) bike (5.050643) race (4.581086) rei (4.256421) custom (4.102655) shop (3.892114) gear (3.818311) accessori (3.721144) brake (3.684352) helmet (3.680884) 
gym (6.291175) class (6.168679) yoga (5.802869) studio (5.601185) workout (5.147338) weight (4.956305) cardio (4.785226) trainer (4.703190) membership (4.653591) machin (4.642918) 
Error (train/valid/test) = 0.215962/1.383059/1.336675 (0.034760)
