corpus = active_vegas.gz
latentReg = 0.000000
lambda = 5.000000
K = 10

nUsers = 11425, nItems = 763, nRatings = 16717

Error w/ offset term only (train/valid/test) = 1.557830/1.691645/1.600147 (0.055933)
Error w/ offset and bias (train/valid/test) = 0.436709/1.393234/1.355613 (0.052851)

..................................................
energy after gradient step = 51019657.829476

Top words for each topic:
afraid (0.973525) kart (0.970039) familiar (0.956025) hop (0.901290) joke (0.879077) penni (0.869123) held (0.859652) gonna (0.858776) prevent (0.843901) advic (0.829643) 
gotta (1.154969) jame (0.935973) act (0.915825) regardless (0.910711) competit (0.901099) movi (0.870639) max (0.835608) polic (0.831434) candi (0.817459) whatev (0.789720) 
market (1.029955) cleanli (0.985674) gigant (0.942882) sick (0.899661) shooter (0.899483) lie (0.866426) alot (0.846924) claustrophob (0.840075) kill (0.838697) chicago (0.827437) 
warn (1.046487) theyd (1.018186) routin (1.016795) pistol (0.997709) tune (0.932472) stood (0.922128) memor (0.873853) player (0.873121) gorgeous (0.864015) handgun (0.855594) 
dip (1.074271) dayclub (1.007861) rei (0.952418) advantag (0.936579) spirit (0.935518) averag (0.899857) exchang (0.873760) orient (0.866794) mark (0.862603) snap (0.856155) 
bump (0.961993) wind (0.948664) bear (0.936345) stair (0.869780) older (0.862819) row (0.854200) hurt (0.838333) dessert (0.822740) dress (0.808907) funni (0.806753) 
ampl (1.058390) complex (0.990684) planet (0.891968) 22 (0.872137) promot (0.862975) shake (0.860842) weekday (0.833702) plastic (0.824665) cuz (0.823514) 11 (0.817153) 
pressur (1.090826) smoke (0.959456) public (0.859324) bath (0.853815) 4pm (0.840910) booth (0.834163) gondola (0.829023) bass (0.823123) mad (0.817719) hella (0.803201) 
yellow (1.006981) salon (0.867201) gonna (0.853356) corral (0.843754) deadlift (0.842222) assum (0.807833) necessari (0.795971) shotgun (0.790221) auto (0.781917) regul (0.763010) 
belong (0.918617) upset (0.861173) omg (0.854745) intens (0.843164) entri (0.826603) heavi (0.811713) rope (0.810858) between (0.810697) googl (0.763647) strict (0.750931) 
Error (train/valid/test) = 1.060234/1.371463/1.349989 (0.050691)
..................................................
energy after gradient step = 50882523.552599

Top words for each topic:
reform (1.565525) heaven (1.189609) print (1.153183) luckili (1.149479) delici (1.132929) prevent (1.121964) vast (1.105531) none (1.097104) romant (1.096983) advic (1.092253) 
polic (1.419461) joe (1.388835) regardless (1.311942) weigh (1.311446) devic (1.227857) hotti (1.196164) recept (1.195676) hunt (1.191038) august (1.175690) injuri (1.165446) 
o (1.473522) nois (1.411631) booz (1.398465) charact (1.334508) ferrari (1.277839) barefoot (1.276093) sooner (1.275052) harri (1.233755) ourselv (1.209076) map (1.208272) 
walker (1.341935) lisa (1.329516) essenti (1.321659) theyd (1.321332) dozen (1.312774) repli (1.238460) mine (1.233173) hall (1.230149) mermaid (1.225853) donat (1.224614) 
snap (1.656686) cowboy (1.543370) dayclub (1.512020) cub (1.470026) busiest (1.320819) dip (1.319711) drain (1.298215) 702 (1.234550) calm (1.228309) budget (1.222292) 
bear (1.505949) ca (1.444259) pink (1.360964) minim (1.341591) eas (1.339375) humid (1.315410) buffet (1.289902) miniatur (1.273485) liquor (1.262736) op (1.259319) 
wrap (1.628795) ampl (1.365014) 22 (1.358054) seal (1.342582) kayak (1.328696) theyll (1.328335) metal (1.281419) shake (1.269134) creatur (1.258829) doggi (1.221636) 
increas (1.502667) karat (1.455623) 4th (1.428805) 4pm (1.426848) humor (1.339718) sanctuari (1.284621) yep (1.228332) vodka (1.206446) judg (1.192771) quest (1.189641) 
distract (1.630157) exampl (1.430246) flood (1.329462) caesar (1.315269) 215 (1.313423) june (1.289168) shit (1.235750) accomplish (1.234694) expir (1.188590) refresh (1.177145) 
23 (1.662971) disciplin (1.580065) upset (1.437200) festiv (1.401542) honor (1.399991) flow (1.367191) rotat (1.310340) compet (1.269247) accur (1.246186) perhap (1.231380) 
Error (train/valid/test) = 0.832357/1.356806/1.325960 (0.052995)
..................................................
energy after gradient step = 50792650.051370

Top words for each topic:
reform (1.895501) jersey (1.855904) print (1.734573) callaway (1.621106) penni (1.572400) decemb (1.530348) delici (1.500076) physic (1.454450) held (1.444156) heaven (1.442919) 
repair (1.788521) killer (1.700296) loos (1.676221) joe (1.643348) bat (1.640292) weigh (1.628703) remov (1.572251) east (1.491065) rec (1.447321) devic (1.437725) 
greatest (1.715538) 250 (1.687784) perspect (1.667519) meathead (1.638560) map (1.587288) barefoot (1.562509) construct (1.524903) passion (1.471904) o (1.453321) ourselv (1.446218) 
mine (1.926092) drai (1.764348) mermaid (1.740500) la (1.629663) detail (1.623222) guestlist (1.493558) itll (1.479322) dick (1.456466) escort (1.400902) walker (1.398979) 
snap (1.945593) cowboy (1.728765) ghetto (1.713378) busiest (1.699041) mad (1.696121) daylight (1.595664) drain (1.577145) dayclub (1.575490) nowher (1.545399) vaniti (1.508772) 
bear (1.975249) miniatur (1.724506) expo (1.720071) flash (1.636861) minim (1.620440) pink (1.606720) holder (1.583341) ca (1.576260) hoover (1.556643) adjac (1.542624) 
ampl (1.776448) tiesto (1.663722) blond (1.655225) metal (1.602960) inner (1.588594) regardless (1.569062) seal (1.563156) theyll (1.561277) educ (1.557260) balanc (1.544347) 
karat (2.043370) 4pm (1.751179) increas (1.668470) abund (1.638333) shampoo (1.627265) written (1.521923) bummer (1.518040) messag (1.493094) grew (1.477451) confid (1.475577) 
flood (1.740619) exampl (1.680631) necessari (1.544498) distract (1.470478) rout (1.432586) sampl (1.413895) combat (1.402125) punch (1.391688) tad (1.376601) etc (1.375187) 
festiv (1.844623) perhap (1.766747) 23 (1.703228) upset (1.687202) flow (1.638361) bitch (1.636087) flop (1.596889) disciplin (1.522284) blanket (1.518306) awkward (1.514661) 
Error (train/valid/test) = 0.678108/1.354748/1.333351 (0.052887)
..................................................
energy after gradient step = 50716377.792184

Top words for each topic:
print (1.979685) held (1.866571) prevent (1.835741) divers (1.822278) gotta (1.735665) bullet (1.725156) romant (1.672437) putt (1.667889) aw (1.662638) comfi (1.605290) 
repair (2.067750) shore (1.887309) cri (1.802277) softbal (1.763679) wanna (1.735458) joe (1.714585) piranha (1.704680) rec (1.702940) delight (1.681977) outstand (1.672815) 
bang (1.893167) passion (1.858351) lone (1.842219) jason (1.832364) rollercoast (1.805541) construct (1.783440) o (1.716675) humid (1.673617) pour (1.647020) map (1.603828) 
mermaid (2.048783) mine (1.907724) emerg (1.865958) la (1.840265) confus (1.803143) drai (1.786579) walker (1.735970) itll (1.661192) warn (1.657550) happier (1.647028) 
cowboy (1.968798) ship (1.827391) tradit (1.798535) eva (1.751157) calm (1.725716) vaniti (1.708160) fighter (1.701657) flip (1.680157) daylight (1.657511) rei (1.623272) 
bear (2.318549) flash (2.148684) cycl (1.921109) medal (1.897868) volunt (1.839375) jersey (1.777527) sold (1.734258) diamond (1.695348) athlet (1.692727) hassl (1.686551) 
blond (2.366045) wrap (2.052761) ampl (1.958840) attack (1.941700) cowork (1.863152) 22 (1.780708) archeri (1.693120) breakfast (1.638197) rose (1.630051) tiesto (1.608506) 
shampoo (2.077438) karat (2.066505) quest (1.877403) method (1.845001) 4pm (1.823946) roof (1.777939) talent (1.741059) bummer (1.726032) chris (1.686705) rear (1.686594) 
jacket (1.755584) exampl (1.674399) distract (1.672612) whos (1.665202) 4th (1.664901) necessari (1.663540) headach (1.647271) ventil (1.643117) mirror (1.636321) masseus (1.627966) 
perhap (2.187893) clip (1.999921) omg (1.889393) flop (1.887268) airport (1.876847) bum (1.842358) hype (1.789856) everywher (1.781962) cash (1.695694) strict (1.684772) 
Error (train/valid/test) = 0.540837/1.357067/1.343085 (0.052739)
..................................................
energy after gradient step = 50626362.327612

Top words for each topic:
reform (2.009048) prevent (2.002864) putt (1.921135) print (1.885822) mike (1.868163) delici (1.845242) xtreme (1.807448) romant (1.775172) breez (1.768035) 1000 (1.739680) 
repair (2.196199) bat (2.122201) rec (2.030042) heel (2.013625) softbal (2.008219) bell (1.979259) outstand (1.931126) outfit (1.892504) wanna (1.870067) refresh (1.861362) 
construct (2.303347) 250 (1.862051) lone (1.838061) rode (1.798041) rollercoast (1.780616) bang (1.771360) pour (1.746960) ferrari (1.699475) laugh (1.689583) humid (1.686360) 
mermaid (2.163040) drai (2.096425) emerg (2.065624) mine (2.056166) walker (1.990536) plastic (1.976219) embarrass (1.909742) derbi (1.903935) match (1.834579) la (1.821189) 
turtl (1.974052) daylight (1.949023) cowboy (1.947039) tradit (1.926711) spill (1.900314) ship (1.809430) zombi (1.781592) pedicur (1.779091) salt (1.771124) booti (1.768166) 
flash (2.125685) bear (1.967254) sold (1.847353) interior (1.845399) adjac (1.799512) medal (1.731471) couch (1.730036) remind (1.725442) 108 (1.711379) ranch (1.708119) 
cowork (2.212055) seal (2.138422) shoulder (2.107805) wrap (2.028276) blond (1.933327) 22 (1.926517) inner (1.909332) ampl (1.883245) attack (1.847522) theyll (1.809311) 
permit (2.197844) karat (2.105601) bummer (1.988501) increas (1.824697) drag (1.823686) law (1.806811) master (1.794034) talent (1.781856) method (1.778964) sail (1.761619) 
punch (2.071208) 215 (2.023341) mirror (1.946130) togeth (1.911160) rout (1.894600) pitch (1.891313) ventil (1.820959) em (1.790311) southern (1.778198) soak (1.775959) 
perhap (2.150440) airport (2.146928) compet (2.069589) golfer (2.029337) strict (1.932781) juli (1.890131) cash (1.877879) flop (1.874516) 11am (1.855997) nike (1.843772) 
Error (train/valid/test) = 0.438547/1.362427/1.352494 (0.053226)
..................................................
energy after gradient step = 50549163.294394

Top words for each topic:
reform (2.159744) romant (2.031525) print (2.017164) diego (2.001727) delici (1.956030) prevent (1.905714) cone (1.898810) putt (1.878366) moorea (1.828370) mike (1.800300) 
repair (2.257438) rec (2.230028) polic (2.012638) bat (2.001582) pond (1.944796) softbal (1.923629) familiar (1.910159) refresh (1.902400) bell (1.873852) remov (1.861057) 
construct (2.147144) appear (1.901420) laugh (1.895622) colleg (1.889170) central (1.885977) 250 (1.857629) ribbon (1.807700) bonus (1.801585) humid (1.781310) proceed (1.725181) 
emerg (2.472828) mermaid (2.425079) drai (2.154071) plastic (2.048341) la (1.979362) embarrass (1.900861) match (1.890030) fabul (1.889179) pleasur (1.885008) walker (1.860766) 
tradit (2.282538) cowboy (2.185888) salt (2.144540) ship (1.987495) turtl (1.976133) drain (1.967188) zombi (1.934858) cake (1.877374) 2pm (1.872421) booti (1.870675) 
flash (2.386033) bear (2.289293) grate (2.153236) cosmopolitan (1.995058) expo (1.898487) athlet (1.872044) villag (1.858609) rnr (1.848444) remind (1.848044) 108 (1.791189) 
seal (2.341445) cowork (2.299621) 22 (2.135262) blond (2.041142) ampl (1.988249) creatur (1.970303) archeri (1.963696) meh (1.959570) brown (1.957532) buggi (1.918736) 
karat (2.479720) shampoo (2.101254) rain (2.081081) bummer (2.053493) permit (1.982692) law (1.958565) appli (1.942268) master (1.924885) tropicana (1.917587) quest (1.903229) 
punch (1.991039) mirror (1.978495) 215 (1.953592) jacket (1.891133) behav (1.885905) em (1.842385) togeth (1.816595) pitch (1.810472) ventil (1.809641) soak (1.801762) 
compet (2.091839) cash (2.081097) perhap (2.074111) strict (2.041469) airport (1.962816) bow (1.960487) golfer (1.951842) prize (1.891481) bang (1.882902) disciplin (1.848279) 
Error (train/valid/test) = 0.372109/1.368804/1.358577 (0.053595)
..................................................
energy after gradient step = 50492318.009696

Top words for each topic:
reform (2.236661) romant (2.146996) cone (1.920186) xtreme (1.865780) putt (1.859413) mike (1.842810) voodoo (1.836106) diego (1.820797) foam (1.816892) penni (1.795393) 
repair (2.323703) bat (2.183021) rec (2.121813) pond (2.027211) polic (2.009370) preserv (1.991607) bell (1.948987) max (1.932064) wanna (1.925858) heel (1.905297) 
colleg (2.149345) flight (2.101893) construct (1.970346) appear (1.960578) laugh (1.948285) pour (1.938635) yummi (1.870958) ribbon (1.858215) humid (1.851881) healthi (1.820093) 
mermaid (2.509762) emerg (2.281827) drai (2.225557) plastic (2.151641) la (2.040193) walker (2.021052) derbi (1.917539) match (1.896860) itll (1.852082) fabul (1.843612) 
rei (2.391909) cowboy (2.146854) drain (2.139896) tradit (2.109903) tiger (2.059965) ship (2.057207) turtl (2.054875) hr (2.040306) booti (1.977072) salt (1.965276) 
flash (2.538956) bear (2.205170) cosmopolitan (2.112400) grate (2.040528) expo (2.022617) medal (1.913914) villag (1.892545) cycl (1.875659) athlet (1.827855) hassl (1.792051) 
cowork (2.799248) seal (2.223227) gain (2.139116) handgun (2.124813) brown (2.111051) ampl (2.105752) blond (2.100331) theyll (2.090074) 22 (2.018227) topless (1.990835) 
karat (2.451833) barr (2.317142) bummer (2.144127) appli (2.045282) shampoo (2.007959) quest (1.981956) vodka (1.962479) permit (1.917636) drag (1.882952) pickup (1.859802) 
mirror (2.026466) behav (2.019601) 215 (2.005716) meat (1.991530) wrap (1.955676) punch (1.920844) critic (1.857685) soak (1.843125) detail (1.830167) man (1.818539) 
cash (2.165713) bow (2.143897) compet (2.126593) perhap (2.091738) toy (2.029415) strict (2.028807) airport (1.985496) mgm (1.956546) disciplin (1.944697) awkward (1.931962) 
Error (train/valid/test) = 0.337136/1.372522/1.370723 (0.050924)
..................................................
energy after gradient step = 50409487.538593

Top words for each topic:
romant (2.339685) advic (2.138272) parkway (2.121385) text (2.102948) voodoo (2.068304) print (2.000254) delici (1.954140) reform (1.944443) mike (1.933295) moorea (1.926506) 
repair (2.602408) rec (2.371856) bat (2.230489) bell (2.109803) cafe (2.083174) polic (2.065860) develop (2.017110) preserv (2.007642) yds (1.977813) swing (1.966951) 
appear (2.281435) construct (2.272640) colleg (2.191567) pour (2.128901) waiter (2.108439) ribbon (2.063185) flight (1.975529) union (1.956551) humid (1.947028) magic (1.888400) 
mermaid (2.741027) emerg (2.459172) drai (2.343757) derbi (2.165054) pleasur (2.047530) 702 (1.998188) forest (1.992711) plastic (1.980519) fabul (1.938449) walker (1.933165) 
hr (2.512739) rei (2.482623) turtl (2.275799) cowboy (2.209633) drain (2.170250) nowher (2.136716) temperatur (2.115994) salt (2.086650) dust (2.079170) 2pm (2.073425) 
flash (2.618629) athlet (2.312766) expo (2.288836) cosmopolitan (2.258911) stratospher (2.216089) accessori (2.107075) cab (2.088609) rnr (2.057831) medal (2.022442) aim (2.020428) 
handgun (2.315824) seal (2.197751) cowork (2.161068) buggi (2.160539) blond (2.152383) archeri (2.148954) doggi (2.112892) inner (2.103128) 22 (2.095754) preserv (2.064659) 
karat (2.577504) barr (2.422333) shampoo (2.241711) quest (2.117844) permit (2.095758) man (2.078455) bummer (2.036685) pickup (2.031709) rain (2.027734) master (2.000750) 
ow (2.369694) stingray (2.102056) daycar (2.065330) zumba (2.064290) mirror (2.058971) togeth (2.048833) 75 (1.997410) ventil (1.995873) genuin (1.976920) ideal (1.951188) 
awkward (2.307929) mgm (2.288997) golfer (2.245355) airport (2.198478) bow (2.196782) perhap (2.096340) adventur (2.068290) toy (2.061156) hype (2.059210) 23 (2.054254) 
Error (train/valid/test) = 0.270221/1.378720/1.374195 (0.053539)
..................................................
energy after gradient step = 50329819.497422

Top words for each topic:
romant (2.433951) text (2.297490) parkway (2.152612) voodoo (2.064356) vdara (2.055527) print (1.993106) co (1.978441) diego (1.972791) reform (1.965270) advic (1.962893) 
repair (2.522008) rec (2.468704) bat (2.304156) preserv (2.224263) cafe (2.205953) polic (2.105542) bell (2.052676) swing (2.049410) 150 (1.969502) softbal (1.966874) 
appear (2.268548) waiter (2.228318) colleg (2.221391) construct (2.148255) pour (2.133745) ribbon (2.098223) humid (2.026381) gotten (1.982583) jellyfish (1.955465) hella (1.945100) 
mermaid (2.710773) drai (2.351437) derbi (2.198704) emerg (2.176631) fabul (2.144217) match (2.104580) pleasur (2.045048) mine (2.018612) forest (1.982317) 702 (1.963920) 
rei (2.651153) hr (2.345931) turtl (2.323254) temperatur (2.292895) tiger (2.288856) couch (2.203010) cowboy (2.180230) salt (2.170179) nowher (2.126707) 2pm (2.097485) 
flash (2.484805) athlet (2.462070) expo (2.412798) stratospher (2.234025) medal (2.202757) cosmopolitan (2.168497) bear (2.139029) angel (2.116581) accessori (2.116345) rnr (2.114116) 
archeri (2.237467) buggi (2.214603) handgun (2.190898) seal (2.189870) cowork (2.175664) blond (2.156986) doggi (2.076915) 22 (2.051960) preserv (2.050052) common (2.030197) 
barr (2.738673) karat (2.550074) master (2.162141) permit (2.100298) quest (2.048532) pickup (2.038104) man (2.003335) drag (1.992257) voic (1.988693) daylight (1.981580) 
ow (2.635188) zumba (2.114544) 75 (2.067339) genuin (2.050289) ventil (2.046510) daycar (2.010347) 215 (1.995753) masseus (1.995594) similar (1.991163) mirror (1.989716) 
mgm (2.509689) golfer (2.248837) toy (2.215241) awkward (2.199686) bow (2.168038) airport (2.164236) strict (2.086120) adventur (2.072644) nike (2.060004) hype (2.058250) 
Error (train/valid/test) = 0.241711/1.383349/1.383022 (0.054406)
..................................................
energy after gradient step = 50207312.602537

Top words for each topic:
romant (2.540935) text (2.220753) reform (2.176402) xtreme (2.175278) voodoo (2.170350) liquid (2.136587) co (2.049676) vdara (2.048488) parkway (2.032688) advic (1.987082) 
repair (2.711473) rec (2.564111) pond (2.470809) bat (2.450762) cafe (2.406750) softbal (2.381210) polic (2.249775) flamingo (2.175835) grassi (2.161187) bell (2.131210) 
colleg (2.456456) appear (2.326342) humid (2.282714) tank (2.245948) exit (2.227367) construct (2.188437) union (2.180829) hors (2.172660) har (2.148508) under (2.135999) 
mermaid (2.576752) derbi (2.408070) drai (2.283747) emerg (2.248078) alley (2.194416) 702 (2.177643) match (2.111739) tough (2.066540) dude (2.061030) wide (2.048640) 
rei (2.870026) ship (2.454203) couch (2.436143) tiger (2.409080) robe (2.280962) 2pm (2.247000) temperatur (2.221969) salt (2.176412) pedicur (2.143856) dip (2.137923) 
athlet (2.714803) expo (2.655511) flash (2.538873) angel (2.416586) ferrari (2.386389) rnr (2.347452) stratospher (2.332329) cab (2.310419) medal (2.303526) cosmopolitan (2.158978) 
buggi (2.563045) 22 (2.495125) archeri (2.400721) cowork (2.368499) seal (2.350435) preserv (2.246351) ak47 (2.238677) doggi (2.190246) gain (2.170568) ampl (2.158336) 
barr (2.767891) karat (2.458241) master (2.367432) crossfit (2.242715) art (2.163132) movement (2.144601) sore (2.114497) fight (2.113251) martial (2.091415) shampoo (2.090339) 
ow (2.519115) ferri (2.175107) stingray (2.173604) zumba (2.165530) contain (2.132333) linq (2.128493) soak (2.118027) paintbal (2.027649) mirror (2.015715) rout (2.011894) 
mgm (2.643571) juli (2.350851) bow (2.348728) golfer (2.337666) cash (2.335415) stick (2.329038) hype (2.255552) awkward (2.194883) nike (2.187957) toy (2.166901) 
Error (train/valid/test) = 0.202620/1.393831/1.396990 (0.055459)
..................................................
energy after gradient step = 50059619.453223

Top words for each topic:
romant (2.596923) reform (2.320725) voodoo (2.271820) text (2.269697) liquid (2.198705) vdara (2.094317) pilat (2.081656) co (2.067668) xtreme (2.052057) wristband (2.027092) 
repair (2.785909) rec (2.488092) softbal (2.476861) bat (2.476683) pond (2.470026) cafe (2.367435) preserv (2.296898) sunset (2.217877) polic (2.214514) bell (2.143390) 
shark (2.453181) union (2.426994) colleg (2.394132) reef (2.354109) tank (2.332007) hors (2.314891) har (2.312865) humid (2.287684) kiss (2.261884) appear (2.227559) 
mermaid (2.772446) alley (2.491636) drai (2.444151) derbi (2.330169) emerg (2.297210) match (2.216936) 702 (2.214496) fabul (2.120618) report (2.095226) forest (2.042401) 
rei (3.025115) tiger (2.537523) salt (2.350957) couch (2.317191) pedicur (2.312294) robe (2.258385) ship (2.196460) turtl (2.179161) 2pm (2.148448) cowboy (2.142846) 
expo (2.733716) athlet (2.603102) ferrari (2.539151) medal (2.468311) angel (2.465201) stratospher (2.395019) rnr (2.342719) flash (2.318081) cab (2.253121) cosmopolitan (2.210963) 
buggi (2.682559) ak47 (2.454981) archeri (2.450654) rink (2.441220) cowork (2.370670) gain (2.342585) seal (2.315179) kayak (2.260957) handgun (2.260677) 22 (2.244684) 
barr (2.948929) karat (2.661827) master (2.516639) martial (2.388815) crossfit (2.336936) art (2.262502) coach (2.155161) method (2.126094) movement (2.101147) sore (2.068876) 
ow (3.003640) zumba (2.289498) contain (2.182073) stingray (2.181687) ferri (2.170212) pod (2.154492) soak (2.150994) linq (2.129246) similar (2.114786) paintbal (2.106235) 
mgm (2.869333) golfer (2.602434) stick (2.507712) cash (2.364336) toy (2.333082) river (2.326691) habitat (2.285251) bow (2.249564) republ (2.231286) hype (2.224895) 
Error (train/valid/test) = 0.181160/1.399601/1.407131 (0.055372)
..................................................
energy after gradient step = 49884627.471690

Top words for each topic:
romant (2.643671) text (2.431074) reform (2.388695) vdara (2.257359) voodoo (2.250804) liquid (2.237327) gondola (2.225356) kart (2.078255) thrill (2.071241) pilat (2.031028) 
repair (2.963860) softbal (2.616340) cafe (2.610802) pond (2.512640) bat (2.491240) rec (2.429979) tire (2.393665) polic (2.382919) preserv (2.327183) flamingo (2.290368) 
shark (2.726886) tank (2.636697) reef (2.562817) aquarium (2.531002) har (2.517539) union (2.430274) jellyfish (2.399683) pet (2.386038) hors (2.373831) kiss (2.359388) 
mermaid (2.878543) alley (2.637053) drai (2.447866) fri (2.306490) derbi (2.275335) match (2.247254) 702 (2.229652) pistol (2.201470) fabul (2.139424) bowl (2.126619) 
rei (3.048183) tiger (2.735181) salt (2.478089) couch (2.462908) aria (2.333050) swim (2.271488) robe (2.254426) fountain (2.236383) pedicur (2.223590) temperatur (2.202520) 
expo (2.851921) ferrari (2.668603) athlet (2.652425) angel (2.567667) lap (2.481751) medal (2.473045) rnr (2.395604) flash (2.343244) stratospher (2.308931) rule (2.293260) 
buggi (2.680166) archeri (2.604310) seal (2.601458) rink (2.597186) handgun (2.494380) ak47 (2.479604) target (2.449197) kayak (2.446432) skate (2.395156) preserv (2.393838) 
barr (3.095762) karat (2.686165) crossfit (2.670929) master (2.522529) martial (2.456085) art (2.395248) coach (2.341876) fight (2.235643) sock (2.216949) quest (2.185665) 
ow (2.990828) pod (2.434103) zumba (2.360586) paintbal (2.251369) bikram (2.233627) contain (2.218855) stingray (2.210805) elev (2.209907) ferri (2.204748) man (2.177833) 
mgm (2.956158) golfer (2.734572) river (2.608954) republ (2.508548) cash (2.394026) lazi (2.385998) toy (2.377159) habitat (2.354012) awkward (2.274069) stick (2.240983) 
Error (train/valid/test) = 0.162747/1.405809/1.416861 (0.054858)
..................................................
energy after gradient step = 49675778.273783

Top words for each topic:
romant (2.615436) reform (2.425574) text (2.366796) gondola (2.341052) vdara (2.326555) liquid (2.281439) pilat (2.273084) voodoo (2.232715) thrill (2.188431) fruit (2.096877) 
repair (2.879822) pond (2.664763) softbal (2.610720) bat (2.557845) cafe (2.496973) rec (2.475977) bird (2.390129) preserv (2.385740) tire (2.370931) grassi (2.357693) 
shark (3.030123) aquarium (2.947405) reef (2.737873) tank (2.733393) jellyfish (2.568812) dragon (2.486928) sea (2.472841) komodo (2.462911) har (2.458403) pet (2.448639) 
mermaid (2.834236) alley (2.709803) drai (2.478777) derbi (2.374925) bowl (2.371033) pistol (2.315913) fri (2.309236) match (2.262232) fabul (2.207829) 702 (2.202454) 
rei (3.154204) tiger (2.663875) salt (2.558383) swim (2.395811) aria (2.389868) pedicur (2.343660) couch (2.336702) robe (2.285757) temperatur (2.230808) cub (2.168252) 
expo (2.900090) lap (2.860613) ferrari (2.767803) angel (2.703272) athlet (2.621481) medal (2.553791) rnr (2.488811) flash (2.477690) car (2.473233) accessori (2.399504) 
archeri (2.858951) buggi (2.752012) rink (2.720922) seal (2.624586) target (2.612974) skate (2.600394) kayak (2.559825) ak47 (2.545870) handgun (2.505664) fire (2.435363) 
barr (3.280058) crossfit (2.863531) karat (2.687701) art (2.586242) martial (2.523639) coach (2.492379) master (2.447996) sock (2.274308) fight (2.247524) box (2.242149) 
ow (3.090512) pod (2.642801) zumba (2.639291) paintbal (2.377877) elev (2.355246) man (2.341182) bikram (2.340860) linq (2.299594) stingray (2.286897) hike (2.279138) 
mgm (3.085546) river (2.775057) golfer (2.731722) republ (2.699133) lazi (2.656352) tao (2.393144) tee (2.373980) lion (2.368504) cash (2.367558) stick (2.357417) 
Error (train/valid/test) = 0.156680/1.410320/1.421316 (0.055564)
..................................................
energy after gradient step = 49459603.113097

Top words for each topic:
romant (2.535636) reform (2.498353) gondola (2.480627) text (2.468284) vdara (2.467526) liquid (2.365628) jump (2.333101) co (2.330576) pilat (2.294020) parkway (2.276886) 
repair (2.974943) pond (2.829349) softbal (2.638334) rec (2.608433) cafe (2.572918) bat (2.491295) tire (2.456857) bird (2.455131) grassi (2.422029) swing (2.370391) 
shark (3.322265) aquarium (3.239676) tank (3.063368) reef (3.019261) jellyfish (2.793674) kiss (2.773556) komodo (2.602416) hors (2.558680) dragon (2.557003) ray (2.544388) 
mermaid (2.817223) alley (2.790518) bowl (2.615460) drai (2.489440) derbi (2.478773) pistol (2.376113) match (2.346762) 702 (2.276515) california (2.238738) fri (2.226303) 
rei (3.088280) tiger (2.723073) swim (2.527470) salt (2.496041) aria (2.479946) spa (2.394773) couch (2.371870) dolphin (2.352541) robe (2.336387) temperatur (2.286087) 
expo (2.980883) car (2.887194) ferrari (2.872147) lap (2.857619) angel (2.792775) athlet (2.684203) rnr (2.604164) medal (2.556899) flash (2.500794) track (2.478790) 
archeri (2.990758) target (2.823021) rink (2.821826) skate (2.772717) handgun (2.711222) buggi (2.696870) seal (2.691507) preserv (2.661968) ak47 (2.639153) fire (2.587215) 
barr (3.289962) crossfit (3.096110) karat (2.916463) coach (2.755489) art (2.574379) martial (2.536763) midnight (2.452971) fight (2.432918) master (2.340966) quest (2.337524) 
ow (3.216552) zumba (2.858484) pod (2.698271) bikram (2.535960) linq (2.500082) roller (2.438709) ferri (2.434735) man (2.376956) contain (2.367985) paintbal (2.367295) 
mgm (3.005590) river (2.937908) lazi (2.820318) republ (2.743022) golfer (2.717409) tao (2.646837) tee (2.581397) lion (2.527263) habitat (2.454457) hole (2.450404) 
Error (train/valid/test) = 0.149553/1.415171/1.428308 (0.055562)
..................................................
energy after gradient step = 49167688.899814

Top words for each topic:
romant (2.625728) gondola (2.591748) jump (2.506827) reform (2.503490) text (2.481411) vdara (2.469021) pilat (2.408740) co (2.311790) liquid (2.267547) voodoo (2.233996) 
repair (2.962230) pond (2.908176) softbal (2.674099) cafe (2.672551) rec (2.599281) grassi (2.598536) bird (2.495494) bat (2.487670) bike (2.487615) flamingo (2.431965) 
shark (3.442496) aquarium (3.435110) tank (3.089010) reef (3.052792) jellyfish (2.847281) kiss (2.835651) dragon (2.744781) komodo (2.725328) fish (2.664214) sea (2.650622) 
alley (2.865712) mermaid (2.819295) bowl (2.782716) derbi (2.509654) drai (2.504808) lane (2.403939) match (2.397660) pistol (2.364591) fri (2.363623) 702 (2.276423) 
rei (3.190225) tiger (2.854026) aria (2.621248) spa (2.595704) salt (2.575420) swim (2.549682) couch (2.529772) dolphin (2.417603) robe (2.378868) temperatur (2.341377) 
lap (3.086530) car (3.031455) expo (3.020452) ferrari (2.965428) athlet (2.813042) angel (2.775683) rnr (2.674983) race (2.666650) medal (2.623104) track (2.603252) 
archeri (3.042482) rink (3.036673) target (2.916204) skate (2.880151) handgun (2.799565) buggi (2.774108) seal (2.739195) fire (2.662033) kayak (2.660217) firearm (2.630018) 
barr (3.316964) crossfit (3.171609) karat (2.965932) coach (2.874741) martial (2.682514) art (2.672406) midnight (2.514850) master (2.465220) fight (2.454293) movement (2.399718) 
ow (3.220124) pod (2.935370) zumba (2.903005) bikram (2.678804) roller (2.607867) linq (2.582436) ferri (2.551081) hike (2.533690) contain (2.412671) elev (2.411870) 
mgm (3.134529) river (3.035457) republ (2.986996) lazi (2.928001) golfer (2.851421) tao (2.796805) lion (2.704488) tee (2.676098) hole (2.672637) beach (2.611060) 
Error (train/valid/test) = 0.147033/1.419296/1.431581 (0.055706)
..................................................
energy after gradient step = 48834914.506116

Top words for each topic:
gondola (2.733510) jump (2.726668) romant (2.629999) pilat (2.566487) reform (2.545018) vdara (2.527735) text (2.494174) co (2.410876) skin (2.260844) kart (2.247499) 
pond (3.041742) repair (3.012722) dog (2.814161) softbal (2.806550) bike (2.777458) cafe (2.769663) bird (2.745585) park (2.735542) rec (2.690982) grassi (2.673854) 
aquarium (3.687537) shark (3.636358) reef (3.243543) tank (3.240542) jellyfish (2.966017) kiss (2.963695) fish (2.941006) dragon (2.856678) komodo (2.842314) ray (2.833631) 
bowl (2.998385) alley (2.942682) mermaid (2.820064) lane (2.615180) derbi (2.518913) drai (2.432791) pistol (2.411077) fri (2.400431) match (2.318680) california (2.291827) 
rei (3.166466) tiger (2.845516) spa (2.796811) salt (2.705606) aria (2.670015) swim (2.634148) dolphin (2.595313) couch (2.496137) dayb (2.424392) temperatur (2.403961) 
car (3.286266) lap (3.211239) ferrari (3.045655) expo (3.018807) race (2.988475) angel (2.889732) athlet (2.844946) track (2.844090) exot (2.822295) rnr (2.793767) 
skate (3.116113) archeri (3.112918) rink (3.079703) target (3.020799) fire (2.968026) rifl (2.891869) shoot (2.884891) firearm (2.862530) buggi (2.845787) handgun (2.832460) 
barr (3.545310) crossfit (3.358619) coach (3.061463) karat (3.012735) martial (2.819986) art (2.755636) box (2.621917) fight (2.605389) movement (2.581985) master (2.555123) 
ow (3.346282) pod (3.218293) bikram (2.992626) zumba (2.945662) roller (2.870642) hike (2.772403) linq (2.711714) elev (2.634077) ferri (2.624954) contain (2.513371) 
mgm (3.193806) republ (3.146532) river (3.111808) tao (3.020957) lazi (3.015209) beach (2.914969) hole (2.881190) cabana (2.859035) golfer (2.857213) lion (2.846910) 
Error (train/valid/test) = 0.144988/1.424234/1.437003 (0.055555)
..................................................
energy after gradient step = 48444707.058625

Top words for each topic:
jump (2.882052) gondola (2.806241) romant (2.635437) pilat (2.610733) reform (2.578318) text (2.557988) vdara (2.504153) kart (2.427970) co (2.406804) voodoo (2.349385) 
dog (3.555158) park (3.237330) pond (3.212823) bike (3.092475) repair (2.968632) softbal (2.935249) rec (2.889061) climb (2.849649) bird (2.849150) field (2.845814) 
aquarium (3.907661) shark (3.794073) tank (3.417981) reef (3.305159) fish (3.209528) kiss (3.135187) jellyfish (3.111528) ray (3.018837) sea (2.965111) dragon (2.941453) 
bowl (3.273954) alley (3.058439) lane (2.872323) mermaid (2.815679) fri (2.624711) derbi (2.516566) drai (2.487519) brooklyn (2.436049) pistol (2.352534) gun (2.347001) 
rei (3.194328) spa (3.095773) tiger (2.934737) dolphin (2.930609) aria (2.806738) pool (2.803388) salt (2.705472) swim (2.670751) dayb (2.595888) pedicur (2.481779) 
car (3.530462) lap (3.449898) race (3.371439) ferrari (3.222746) expo (3.178040) track (3.128044) angel (3.042065) exot (2.987158) rnr (2.964949) athlet (2.963957) 
shoot (3.436625) gun (3.368372) archeri (3.340092) skate (3.287161) rink (3.228180) firearm (3.136793) target (3.102131) buggi (3.072097) rifl (2.971726) fire (2.908858) 
barr (3.502058) crossfit (3.427174) coach (3.178531) karat (3.124107) box (2.880218) martial (2.870752) art (2.864510) midnight (2.778721) movement (2.769386) teach (2.674319) 
ow (3.401930) pod (3.326005) roller (3.112207) hike (3.046590) bikram (3.028404) zumba (2.942765) linq (2.831591) yoga (2.746451) ferri (2.719737) studio (2.688410) 
mgm (3.372272) republ (3.230155) tao (3.224033) river (3.210360) beach (3.161036) lazi (3.108855) cabana (3.104112) hole (3.059681) pool (3.037295) lion (3.004084) 
Error (train/valid/test) = 0.148289/1.434860/1.448195 (0.054088)
..................................................
energy after gradient step = 47994068.705557

Top words for each topic:
jump (3.046075) gondola (2.920162) romant (2.591711) pilat (2.577945) reform (2.548195) vdara (2.527765) text (2.527228) voodoo (2.405045) massag (2.375143) ellipt (2.370814) 
park (4.051679) dog (4.024858) bike (3.366355) repair (3.285275) pond (3.250233) trail (3.110307) playground (3.104492) field (3.076707) softbal (3.071447) rec (3.020748) 
aquarium (4.081436) shark (3.960265) tank (3.505317) fish (3.439946) reef (3.419844) kiss (3.340365) ray (3.164838) sea (3.145082) jellyfish (3.132223) stingray (3.042345) 
bowl (3.512588) alley (3.155942) lane (3.038393) mermaid (2.772504) fri (2.681735) brooklyn (2.605741) derbi (2.550551) drai (2.449987) california (2.433594) match (2.393106) 
spa (3.366864) rei (3.205925) dolphin (3.104688) pool (3.027685) tiger (3.022231) aria (2.884211) salt (2.806530) swim (2.716788) jacuzzi (2.542537) stone (2.532594) 
race (3.761608) car (3.725677) lap (3.673123) track (3.341299) ferrari (3.313632) expo (3.254514) marathon (3.136585) exot (3.083443) brake (3.059843) angel (3.057017) 
shoot (3.792079) gun (3.779134) archeri (3.460012) skate (3.450613) rink (3.375881) target (3.298791) firearm (3.249409) rifl (3.225493) rang (3.204374) fire (3.123131) 
barr (3.738490) crossfit (3.693457) coach (3.353945) karat (3.181475) martial (3.139197) box (3.050189) art (3.037557) movement (2.830986) sore (2.818789) midnight (2.801735) 
ow (3.470325) pod (3.464377) roller (3.283597) bikram (3.253026) hike (3.147238) yoga (3.077430) zumba (2.973356) linq (2.953993) studio (2.936511) coaster (2.923477) 
pool (3.452278) cabana (3.407672) beach (3.379482) tao (3.377919) river (3.363292) republ (3.325801) mgm (3.291745) lazi (3.214512) hole (3.207584) tee (3.138916) 
Error (train/valid/test) = 0.144135/1.437166/1.445447 (0.057957)
..................................................
energy after gradient step = 47527042.980220

Top words for each topic:
jump (3.110905) gondola (2.865446) romant (2.656352) pilat (2.646144) text (2.632130) reform (2.604428) vdara (2.503224) massag (2.434276) voodoo (2.381524) ellipt (2.359702) 
park (4.424564) dog (4.333321) bike (3.647429) trail (3.446713) field (3.334882) pond (3.286318) playground (3.233159) repair (3.186472) picnic (3.171898) softbal (3.120305) 
aquarium (4.196993) shark (4.076173) tank (3.653348) fish (3.539456) reef (3.515071) kiss (3.415248) jellyfish (3.217330) ray (3.200410) sea (3.144412) dragon (3.117300) 
bowl (3.700320) alley (3.248280) lane (3.241204) mermaid (2.787027) fri (2.676213) brooklyn (2.644882) derbi (2.579461) match (2.461422) drai (2.460572) california (2.458232) 
spa (3.524931) rei (3.307640) dolphin (3.209684) pool (3.166168) tiger (3.113926) aria (2.889847) salt (2.822701) swim (2.803981) jacuzzi (2.615788) stone (2.596890) 
race (4.062725) car (3.910328) lap (3.779288) track (3.497551) ferrari (3.412075) expo (3.402477) marathon (3.364953) exot (3.223209) corral (3.184774) angel (3.155029) 
gun (4.113010) shoot (4.020803) skate (3.533526) archeri (3.518726) rang (3.432459) firearm (3.428773) rink (3.399663) rifl (3.348477) target (3.326309) fire (3.241914) 
crossfit (3.786778) barr (3.785242) coach (3.466268) karat (3.275735) martial (3.193402) box (3.155358) art (3.072907) workout (2.923604) teach (2.892487) movement (2.888904) 
ow (3.596818) pod (3.587334) roller (3.463171) yoga (3.392096) bikram (3.353627) hike (3.280112) studio (3.250591) ride (3.156748) coaster (3.105461) zumba (3.067616) 
pool (3.797123) cabana (3.585680) beach (3.549905) tao (3.405163) mgm (3.361129) republ (3.357353) hole (3.325318) river (3.320801) cours (3.221988) lazi (3.197849) 
Error (train/valid/test) = 0.159938/1.444284/1.464452 (0.053461)
..................................................
energy after gradient step = 47070486.764310

Top words for each topic:
jump (3.214964) gondola (2.923759) romant (2.696182) pilat (2.683420) reform (2.610848) vdara (2.576576) locker (2.493941) camera (2.411955) text (2.410402) ellipt (2.373445) 
dog (4.584451) park (4.548856) bike (3.837798) trail (3.674764) field (3.433395) playground (3.423810) pond (3.377148) climb (3.240733) picnic (3.233159) softbal (3.221844) 
aquarium (4.309019) shark (4.185188) tank (3.718601) fish (3.660115) kiss (3.581542) reef (3.537166) ray (3.324525) jellyfish (3.294782) stingray (3.257181) sea (3.193131) 
bowl (3.850970) lane (3.373452) alley (3.307164) mermaid (2.801661) brooklyn (2.697306) fri (2.695858) derbi (2.574488) california (2.438713) drai (2.435324) laser (2.431123) 
spa (3.694510) rei (3.347424) dolphin (3.342599) pool (3.293591) tiger (3.181501) aria (3.108814) swim (2.946433) salt (2.758818) loung (2.737926) daylight (2.731829) 
race (4.208567) car (4.031908) lap (3.945281) marathon (3.640198) track (3.590735) ferrari (3.577229) expo (3.475418) angel (3.363728) corral (3.333545) driver (3.281805) 
gun (4.536648) shoot (4.264627) rang (3.662789) skate (3.657707) rink (3.598907) archeri (3.592898) firearm (3.513512) target (3.504379) rifl (3.462661) ammo (3.399609) 
barr (3.934004) crossfit (3.931762) coach (3.620990) karat (3.410103) box (3.326885) martial (3.262804) class (3.211342) art (3.139705) workout (3.096179) teach (3.073645) 
pod (3.735519) ow (3.685380) roller (3.588341) bikram (3.546943) ride (3.542899) yoga (3.540705) studio (3.416399) coaster (3.388287) hike (3.299589) view (3.182885) 
pool (4.104139) cabana (3.750542) beach (3.679688) tao (3.506186) hole (3.437285) republ (3.426279) river (3.382581) cours (3.371900) golf (3.328719) lazi (3.291165) 
Error (train/valid/test) = 0.143686/1.436597/1.455438 (0.057711)
..................................................
energy after gradient step = 46632229.868930

Top words for each topic:
jump (3.373752) gondola (2.983516) pilat (2.711504) romant (2.708286) locker (2.694387) reform (2.572269) vdara (2.535160) treatment (2.524626) sky (2.508628) membership (2.425201) 
park (4.804578) dog (4.731180) bike (3.985341) trail (3.865730) playground (3.619343) field (3.564849) picnic (3.424810) court (3.350892) pond (3.333297) mountain (3.324061) 
aquarium (4.457481) shark (4.336391) tank (3.901702) fish (3.896530) reef (3.762951) kiss (3.717009) ray (3.524447) sea (3.400913) jellyfish (3.374434) stingray (3.372010) 
bowl (4.018160) lane (3.504510) alley (3.427560) mermaid (2.857261) brooklyn (2.787861) fri (2.721833) derbi (2.523066) chicken (2.518314) match (2.481483) laser (2.472832) 
spa (3.882555) dolphin (3.492205) rei (3.454639) pool (3.307903) tiger (3.207250) aria (3.194029) swim (3.036385) massag (3.035222) salt (3.015225) stone (2.956026) 
race (4.481146) car (4.203825) lap (4.113185) marathon (3.961283) track (3.784167) ferrari (3.738068) exot (3.563567) expo (3.561875) corral (3.537091) driver (3.523613) 
gun (4.774665) shoot (4.515793) rang (4.063964) firearm (3.694734) archeri (3.692501) skate (3.683359) target (3.614915) rifl (3.607450) rink (3.594788) fire (3.531062) 
crossfit (4.043426) barr (3.923391) coach (3.725572) class (3.711545) karat (3.477538) box (3.434528) martial (3.368744) workout (3.329686) art (3.232607) student (3.167666) 
ride (3.874487) pod (3.845777) roller (3.782369) ow (3.702707) yoga (3.689030) coaster (3.609580) bikram (3.581659) studio (3.580617) hike (3.406291) view (3.335307) 
pool (4.285813) cabana (3.910088) beach (3.813253) tao (3.594823) hole (3.559417) cours (3.463019) golf (3.454363) republ (3.435321) river (3.405833) mgm (3.330261) 
Error (train/valid/test) = 0.143128/1.436190/1.458365 (0.057360)
..................................................
energy after gradient step = 46172884.309313

Top words for each topic:
jump (3.486770) gondola (3.052751) locker (2.861661) romant (2.704084) lvac (2.695363) vdara (2.642441) reform (2.607383) pilat (2.604168) gym (2.599832) treatment (2.599206) 
park (4.943110) dog (4.894744) bike (4.131600) trail (4.034910) playground (3.685405) field (3.674274) picnic (3.483190) court (3.469357) climb (3.418845) pond (3.346824) 
aquarium (4.591377) shark (4.449781) fish (3.996421) tank (3.932480) kiss (3.740177) reef (3.720125) ray (3.514355) pet (3.438600) jellyfish (3.437590) turtl (3.393598) 
bowl (4.112476) lane (3.653523) alley (3.512143) brooklyn (2.935009) fri (2.860741) mermaid (2.756628) derbi (2.642856) laser (2.596591) tshirt (2.548225) bowler (2.533415) 
spa (3.998059) dolphin (3.664606) rei (3.438255) tiger (3.418992) pool (3.389918) massag (3.352548) aria (3.259011) swim (3.077007) jacuzzi (2.949654) salt (2.923717) 
race (4.611417) car (4.352635) lap (4.300647) marathon (4.027014) track (3.947256) ferrari (3.840329) expo (3.773162) corral (3.681021) exot (3.620108) angel (3.561661) 
gun (4.957921) shoot (4.645811) rang (4.242362) skate (3.756801) rink (3.748408) archeri (3.721113) firearm (3.707757) target (3.663441) ammo (3.631622) rifl (3.610692) 
crossfit (4.143271) barr (4.123437) class (4.081870) coach (3.893858) workout (3.564566) karat (3.519288) box (3.499614) martial (3.449231) teach (3.372553) train (3.286900) 
ride (4.130437) pod (3.961287) roller (3.957553) ow (3.839147) bikram (3.794270) yoga (3.779364) coaster (3.739010) studio (3.689651) zumba (3.441770) view (3.403975) 
pool (4.472172) cabana (4.012624) beach (3.885951) tao (3.663227) hole (3.593304) golf (3.557295) cours (3.528865) republ (3.503594) river (3.417224) mgm (3.386084) 
Error (train/valid/test) = 0.144799/1.439084/1.459139 (0.057506)
..................................................
energy after gradient step = 45824724.842159

Top words for each topic:
jump (3.550272) gondola (3.062422) locker (2.916900) lvac (2.802325) gym (2.755772) romant (2.709997) membership (2.633869) reform (2.627065) vdara (2.621685) pilat (2.580589) 
park (5.038288) dog (4.936325) bike (4.241158) trail (4.169235) playground (3.782177) field (3.719659) picnic (3.618340) court (3.587355) climb (3.475702) pond (3.391779) 
aquarium (4.663371) shark (4.501180) fish (4.099697) tank (3.995012) kiss (3.927831) reef (3.886269) sea (3.519684) stingray (3.512573) ray (3.508196) jellyfish (3.465905) 
bowl (4.229829) lane (3.722893) alley (3.551389) brooklyn (2.971709) fri (2.851477) mermaid (2.746802) derbi (2.648224) chicken (2.622593) tag (2.617218) strike (2.594041) 
spa (4.114485) dolphin (3.734855) rei (3.549883) massag (3.497764) pool (3.447625) aria (3.402185) tiger (3.339845) salt (3.075140) steam (3.044510) jacuzzi (3.034428) 
race (4.798244) car (4.459329) lap (4.366543) marathon (4.212890) track (4.023422) ferrari (3.856592) expo (3.841364) corral (3.764957) driver (3.692569) drive (3.647237) 
gun (5.065424) shoot (4.761382) rang (4.387642) firearm (3.840789) target (3.789130) archeri (3.786214) rifl (3.782215) skate (3.758773) ammo (3.711329) rink (3.658850) 
class (4.359877) crossfit (4.188514) barr (4.035495) coach (3.912566) workout (3.822568) gym (3.511714) karat (3.507338) box (3.503875) martial (3.445412) train (3.384154) 
ride (4.362621) pod (4.088916) roller (4.032811) coaster (3.947412) yoga (3.897266) ow (3.879748) bikram (3.803911) studio (3.747375) view (3.475074) linq (3.379903) 
pool (4.565463) cabana (4.070940) beach (3.934057) tao (3.719219) golf (3.643372) hole (3.624388) cours (3.538209) river (3.526050) republ (3.484949) tee (3.420879) 
Error (train/valid/test) = 0.144186/1.440285/1.458161 (0.057547)
..................................................
energy after gradient step = 45483503.326828

Top words for each topic:
jump (3.629756) gondola (3.083615) lvac (3.056371) locker (3.028884) gym (2.881468) romant (2.753065) 24 (2.704467) membership (2.678868) reform (2.660632) ellipt (2.648591) 
park (5.132334) dog (5.041681) bike (4.303844) trail (4.239349) playground (3.823553) field (3.756842) court (3.610685) picnic (3.563153) climb (3.437843) pond (3.399519) 
aquarium (4.723130) shark (4.581888) fish (4.157501) tank (4.034953) kiss (3.857809) reef (3.854422) ray (3.619255) stingray (3.545570) sea (3.536326) jellyfish (3.526325) 
bowl (4.378479) lane (3.818472) alley (3.688339) brooklyn (3.029642) fri (2.885752) mermaid (2.848853) shoe (2.728344) derbi (2.715006) laser (2.691104) tshirt (2.660948) 
spa (4.303491) dolphin (3.840241) massag (3.768906) rei (3.548480) tiger (3.516048) pool (3.465601) aria (3.455376) swim (3.167537) steam (3.156366) jacuzzi (3.136269) 
race (5.131467) car (4.542420) lap (4.433595) marathon (4.339519) track (4.101130) ferrari (3.992588) corral (3.902853) expo (3.902526) drive (3.819609) exot (3.776518) 
gun (5.165226) shoot (4.830052) rang (4.492630) rink (3.837415) skate (3.793309) firearm (3.791282) archeri (3.762093) target (3.757172) ammo (3.708295) rifl (3.687788) 
class (4.568071) crossfit (4.202742) barr (4.089675) workout (4.073411) coach (3.901011) gym (3.855178) karat (3.528529) box (3.498318) martial (3.492694) train (3.469288) 
ride (4.564088) pod (4.164236) roller (4.163448) coaster (4.031766) yoga (4.008057) ow (3.986414) bikram (3.952166) studio (3.764501) view (3.644557) linq (3.473107) 
pool (4.654429) cabana (4.081737) beach (3.956372) tao (3.766067) golf (3.716000) hole (3.647360) cours (3.601506) republ (3.568122) river (3.456307) dj (3.383020) 
Error (train/valid/test) = 0.145304/1.438968/1.461584 (0.057800)
..................................................
energy after gradient step = 45154650.015858

Top words for each topic:
jump (3.645864) lvac (3.180330) gondola (3.171438) gym (3.093172) locker (3.077089) cardio (2.771192) membership (2.752868) romant (2.741138) reform (2.735746) 24 (2.718525) 
park (5.157233) dog (5.102645) bike (4.357752) trail (4.348144) playground (3.884192) field (3.779318) court (3.726134) picnic (3.692324) climb (3.502125) grassi (3.413654) 
aquarium (4.782075) shark (4.646260) fish (4.214399) tank (4.113778) kiss (4.072629) reef (3.959086) sea (3.617757) ray (3.612674) stingray (3.588467) jellyfish (3.544146) 
bowl (4.486223) lane (3.890447) alley (3.704742) brooklyn (3.131216) fri (3.005349) laser (2.900043) mermaid (2.879871) tag (2.866948) shoe (2.831818) derbi (2.810766) 
spa (4.429038) dolphin (3.959171) massag (3.913779) rei (3.635548) tiger (3.551925) pool (3.544730) aria (3.535439) jacuzzi (3.280126) swim (3.179765) steam (3.165436) 
race (5.274700) car (4.612805) lap (4.541719) marathon (4.372999) track (4.166831) ferrari (4.124658) expo (4.055420) corral (3.947598) drive (3.881033) kart (3.867020) 
gun (5.266854) shoot (4.938950) rang (4.600518) firearm (3.950554) target (3.873462) archeri (3.862514) rifl (3.839254) ammo (3.815893) skate (3.809215) rink (3.793423) 
class (4.897876) workout (4.267748) crossfit (4.265935) gym (4.133121) barr (4.085211) coach (3.972985) train (3.565734) karat (3.551243) studio (3.529462) box (3.515928) 
ride (4.709287) roller (4.288020) pod (4.279189) coaster (4.149219) ow (4.077872) yoga (4.077378) bikram (4.056053) studio (3.849079) view (3.754821) zumba (3.576162) 
pool (4.734990) cabana (4.140490) beach (4.009779) tao (3.814420) golf (3.793123) hole (3.669814) cours (3.614240) republ (3.552031) river (3.498804) tee (3.482153) 
Error (train/valid/test) = 0.142384/1.443723/1.461420 (0.057877)
..................................................
energy after gradient step = 44848951.874874

Top words for each topic:
jump (3.699451) lvac (3.221980) gondola (3.221746) gym (3.177511) locker (3.164777) 24 (2.917013) cardio (2.907563) membership (2.748403) cancel (2.742725) reform (2.704510) 
park (5.224989) dog (5.160419) trail (4.444845) bike (4.399151) playground (3.980872) field (3.839461) court (3.797336) picnic (3.716559) climb (3.517712) mountain (3.480018) 
aquarium (4.873636) shark (4.717503) fish (4.305596) tank (4.177850) kiss (4.027032) reef (3.974924) ray (3.738872) stingray (3.641293) jellyfish (3.605617) turtl (3.588351) 
bowl (4.583235) lane (3.988706) alley (3.863661) brooklyn (3.210385) fri (3.057745) laser (2.988822) shoe (2.937438) mermaid (2.888379) chicken (2.860717) derbi (2.829767) 
spa (4.582957) dolphin (4.089275) massag (4.026951) rei (3.778593) tiger (3.722782) aria (3.721841) pool (3.607685) steam (3.414928) jacuzzi (3.408919) salt (3.271664) 
race (5.431737) car (4.684279) lap (4.635593) marathon (4.564996) track (4.217819) ferrari (4.171018) corral (4.164905) expo (4.130870) kart (4.128860) exot (4.002674) 
gun (5.353733) shoot (4.992660) rang (4.657353) store (3.935377) firearm (3.928288) ammo (3.875473) rink (3.857952) target (3.855240) archeri (3.830160) skate (3.811178) 
class (5.089728) workout (4.373892) gym (4.372226) crossfit (4.298349) barr (4.118031) coach (4.021359) studio (3.666402) train (3.629623) martial (3.521162) karat (3.518115) 
ride (4.911255) roller (4.395228) pod (4.363983) coaster (4.294744) bikram (4.186595) yoga (4.173130) ow (4.127707) studio (3.893745) view (3.849582) tower (3.616463) 
pool (4.779920) cabana (4.246770) beach (4.085758) tao (3.888744) golf (3.848467) hole (3.757516) republ (3.616766) cours (3.616499) river (3.514216) dj (3.513848) 
Error (train/valid/test) = 0.137214/1.446912/1.462939 (0.057931)
..................................................
energy after gradient step = 44528986.742765

Top words for each topic:
jump (3.745027) lvac (3.377304) gondola (3.285945) gym (3.276322) locker (3.251638) cardio (3.063355) 24 (3.013175) reform (2.752653) membership (2.741725) cancel (2.732597) 
dog (5.251330) park (5.245400) trail (4.532838) bike (4.464628) playground (4.053393) field (3.889168) court (3.876118) picnic (3.794412) preserv (3.553059) climb (3.516446) 
aquarium (4.937111) shark (4.782737) fish (4.387394) tank (4.189993) kiss (4.179797) reef (4.045778) exhibit (3.747564) sea (3.709809) stingray (3.693814) ray (3.677993) 
bowl (4.662917) lane (4.085043) alley (3.897948) brooklyn (3.350334) fri (3.201869) laser (3.085357) tag (3.033541) shoe (3.004891) bowler (2.855904) machin (2.828902) 
spa (4.647478) dolphin (4.178797) massag (4.115202) tiger (3.750104) aria (3.746261) rei (3.740760) pool (3.674947) jacuzzi (3.547995) stone (3.443375) steam (3.421063) 
race (5.527584) car (4.731479) lap (4.669490) marathon (4.665569) ferrari (4.271719) track (4.262968) expo (4.219680) kart (4.211635) corral (4.162611) drive (4.000759) 
gun (5.443739) shoot (5.030920) rang (4.747403) firearm (4.049022) store (4.015368) target (3.943864) ammo (3.916557) archeri (3.899669) rifl (3.886339) rink (3.864233) 
class (5.241002) gym (4.529828) workout (4.452317) crossfit (4.300393) barr (4.059978) coach (3.951412) studio (3.798260) train (3.661550) yoga (3.565690) pilat (3.557977) 
ride (5.117291) roller (4.494786) pod (4.493319) coaster (4.416159) bikram (4.264473) ow (4.256573) yoga (4.217568) studio (3.894510) view (3.892108) tower (3.770980) 
pool (4.859763) cabana (4.300458) beach (4.135246) tao (3.915793) golf (3.878349) hole (3.802136) cours (3.656566) republ (3.627160) dj (3.554220) river (3.537610) 
Error (train/valid/test) = 0.132895/1.449419/1.466326 (0.058048)
..................................................
energy after gradient step = 44307016.626953

Top words for each topic:
jump (3.752263) lvac (3.465028) gym (3.335733) gondola (3.273759) locker (3.259130) cardio (3.191083) 24 (3.015685) machin (2.883961) reform (2.814240) cancel (2.810460) 
dog (5.300629) park (5.249360) trail (4.585062) bike (4.478832) playground (4.114933) field (3.964823) court (3.913119) picnic (3.837426) climb (3.582716) basketbal (3.544151) 
aquarium (4.969426) shark (4.807539) fish (4.408268) tank (4.202040) kiss (4.135291) reef (4.069870) ray (3.775891) exhibit (3.762230) stingray (3.689148) sea (3.678342) 
bowl (4.772012) lane (4.230214) alley (4.019536) brooklyn (3.422159) shoe (3.199377) fri (3.195517) laser (3.095422) game (2.975244) derbi (2.929466) bowler (2.915131) 
spa (4.835403) massag (4.392131) dolphin (4.317517) tiger (3.881509) rei (3.875556) aria (3.838418) pool (3.706047) jacuzzi (3.583318) steam (3.569111) salt (3.459904) 
race (5.659211) car (4.799348) lap (4.702388) marathon (4.680453) kart (4.443550) ferrari (4.289931) track (4.274168) corral (4.236882) expo (4.236707) runner (4.104854) 
gun (5.497911) shoot (5.070161) rang (4.772971) store (4.109517) firearm (4.019260) ammo (3.972814) rifl (3.909986) target (3.906011) archeri (3.890364) rink (3.888107) 
class (5.321626) gym (4.628395) workout (4.527757) crossfit (4.308465) barr (4.118071) studio (4.059640) coach (4.006390) yoga (3.885450) pilat (3.621979) teacher (3.595795) 
ride (5.228513) roller (4.652545) pod (4.529378) coaster (4.509232) bikram (4.332318) ow (4.264778) view (3.961811) yoga (3.920672) thrill (3.863844) tower (3.758633) 
pool (4.892662) cabana (4.297879) beach (4.131482) tao (3.946685) golf (3.896519) hole (3.789709) republ (3.684992) cours (3.619050) dj (3.571547) river (3.534384) 
Error (train/valid/test) = 0.131227/1.448982/1.467366 (0.058139)
..................................................
energy after gradient step = 44064573.473101

Top words for each topic:
jump (3.807041) lvac (3.579405) gondola (3.339272) gym (3.322130) locker (3.274323) cardio (3.207437) 24 (3.114240) machin (2.975220) reform (2.844383) cancel (2.832718) 
dog (5.372931) park (5.265639) trail (4.694460) bike (4.554422) playground (4.193085) field (4.003411) court (3.967369) picnic (3.890985) climb (3.621594) basketbal (3.589980) 
aquarium (5.041225) shark (4.880835) fish (4.480996) tank (4.310673) kiss (4.258552) reef (4.142087) exhibit (3.953524) ray (3.819169) sea (3.787136) stingray (3.778194) 
bowl (4.949501) lane (4.298805) alley (4.089301) brooklyn (3.494405) fri (3.339734) laser (3.307025) shoe (3.296321) tag (3.226471) game (3.115632) strike (3.021987) 
spa (5.065011) massag (4.520918) dolphin (4.415916) tiger (3.991772) rei (3.928043) aria (3.923052) pool (3.770872) jacuzzi (3.715279) steam (3.630339) stone (3.567047) 
race (5.833860) marathon (4.877831) car (4.755184) lap (4.753454) ferrari (4.402921) corral (4.394543) kart (4.392024) track (4.301068) expo (4.298223) drive (4.175506) 
gun (5.581425) shoot (5.111468) rang (4.839212) store (4.268544) firearm (4.146356) ammo (4.036224) target (3.990714) rifl (3.989890) archeri (3.946591) rink (3.908921) 
class (5.453279) gym (4.761618) workout (4.563804) crossfit (4.351377) studio (4.276617) yoga (4.084981) barr (4.059613) coach (4.003366) instructor (3.774336) pilat (3.737556) 
ride (5.525295) roller (4.736988) pod (4.662593) coaster (4.619088) ow (4.414708) bikram (4.412261) view (4.052442) thrill (3.988189) stratospher (3.916436) tower (3.858975) 
pool (4.972303) cabana (4.365438) beach (4.185664) tao (4.030629) golf (3.921472) hole (3.812121) republ (3.745504) dj (3.676482) cours (3.587510) tee (3.538044) 
Error (train/valid/test) = 0.125551/1.450181/1.474088 (0.058422)
..................................................
energy after gradient step = 43808930.811947

Top words for each topic:
jump (3.860163) lvac (3.703691) gym (3.401875) gondola (3.327000) locker (3.273605) cardio (3.193512) 24 (3.162479) machin (3.046823) ellipt (2.892737) reform (2.866854) 
dog (5.429714) park (5.238988) trail (4.762526) bike (4.557040) playground (4.270628) field (4.066340) picnic (4.015757) court (4.009391) basketbal (3.634958) climb (3.623092) 
aquarium (5.089876) shark (4.934879) fish (4.549204) tank (4.288846) kiss (4.228226) reef (4.144480) exhibit (4.017713) ray (3.819264) anim (3.785540) stingray (3.763495) 
bowl (5.017670) lane (4.384124) alley (4.255939) brooklyn (3.570833) fri (3.434190) shoe (3.357875) laser (3.244834) game (3.195041) tag (3.155779) drag (3.141426) 
spa (5.153321) massag (4.601739) dolphin (4.555318) aria (4.028138) tiger (4.000462) rei (3.892166) jacuzzi (3.862305) pool (3.821030) steam (3.709142) salt (3.673052) 
race (5.912565) lap (4.840750) marathon (4.833203) car (4.798321) kart (4.584004) ferrari (4.446946) track (4.395339) expo (4.391233) corral (4.354583) runner (4.342791) 
gun (5.594103) shoot (5.168627) rang (4.822695) store (4.334387) firearm (4.140996) ammo (4.063200) target (4.000758) rifl (3.998218) archeri (3.976773) rink (3.962278) 
class (5.510932) gym (4.859085) workout (4.645182) studio (4.441111) crossfit (4.345770) yoga (4.257734) barr (4.129949) coach (4.006037) pilat (3.821351) teacher (3.773844) 
ride (5.646592) roller (4.830373) coaster (4.727512) pod (4.702306) bikram (4.464442) ow (4.381281) thrill (4.127604) view (4.099099) tower (3.976738) height (3.877002) 
pool (5.037810) cabana (4.428594) beach (4.218879) tao (4.036157) golf (3.958879) hole (3.832532) republ (3.776304) dj (3.729000) tee (3.612818) river (3.558992) 
Error (train/valid/test) = 0.120847/1.453972/1.480972 (0.058649)
..................................................
energy after gradient step = 43572179.446410

Top words for each topic:
jump (3.872829) lvac (3.745787) gym (3.463546) gondola (3.398435) 24 (3.306996) locker (3.295930) cardio (3.092255) machin (3.070070) cancel (2.864380) reform (2.828238) 
dog (5.510194) park (5.228956) trail (4.824003) bike (4.596293) playground (4.353846) field (4.159660) court (4.072539) picnic (4.014102) preserv (3.686801) basketbal (3.660631) 
aquarium (5.139315) shark (4.969997) fish (4.546408) tank (4.388275) kiss (4.367657) reef (4.211204) exhibit (4.044365) sea (3.929944) ray (3.903445) anim (3.893833) 
bowl (5.110135) lane (4.463451) alley (4.301845) brooklyn (3.696744) laser (3.499904) fri (3.447825) tag (3.430209) shoe (3.411437) game (3.255266) chicken (3.213619) 
spa (5.248144) massag (4.706336) dolphin (4.698384) tiger (4.293231) aria (4.207560) rei (4.126235) jacuzzi (3.885029) pool (3.861070) hair (3.748065) stone (3.736133) 
race (5.995096) marathon (5.040014) lap (4.866173) car (4.839930) kart (4.697952) corral (4.558567) ferrari (4.495631) track (4.480909) expo (4.397782) exot (4.251564) 
gun (5.680327) shoot (5.176104) rang (4.876029) store (4.370682) firearm (4.205617) ammo (4.121274) rifl (4.053308) archeri (3.982457) target (3.938362) weapon (3.934401) 
class (5.505803) gym (4.914786) workout (4.694766) studio (4.518931) yoga (4.435749) crossfit (4.358726) barr (4.071741) coach (4.019734) instructor (3.866340) pilat (3.835058) 
ride (5.732390) roller (4.885317) coaster (4.803736) pod (4.786107) bikram (4.576699) ow (4.556762) stratospher (4.099486) height (4.076918) view (4.061563) tower (4.053794) 
pool (5.061684) cabana (4.504421) beach (4.281454) tao (4.116582) golf (4.027103) hole (3.876243) republ (3.833757) dj (3.758842) tee (3.617873) rehab (3.563767) 
Error (train/valid/test) = 0.117522/1.456980/1.485537 (0.058812)
..................................................
energy after gradient step = 43360662.112959

Top words for each topic:
jump (3.884509) lvac (3.789486) gym (3.484629) gondola (3.405294) 24 (3.347662) locker (3.342316) machin (3.176940) cancel (2.987177) cardio (2.973679) ellipt (2.925211) 
dog (5.553845) park (5.270329) trail (4.874860) bike (4.582508) playground (4.410178) field (4.182674) court (4.132107) picnic (4.109795) basketbal (3.712392) climb (3.696097) 
aquarium (5.183842) shark (5.012862) fish (4.590085) kiss (4.341742) tank (4.305934) reef (4.223738) exhibit (4.168819) anim (4.025471) ray (3.943965) stingray (3.851352) 
bowl (5.238269) lane (4.532262) alley (4.402403) brooklyn (3.771313) shoe (3.552414) fri (3.538183) laser (3.480083) game (3.346986) tag (3.312383) drag (3.271001) 
spa (5.400064) massag (4.813906) dolphin (4.784058) aria (4.221610) tiger (4.211130) jacuzzi (4.056989) rei (4.050593) pool (3.885163) salon (3.836623) co (3.815391) 
race (6.074446) marathon (5.027471) lap (4.879521) car (4.835131) kart (4.782405) ferrari (4.592938) track (4.531163) corral (4.517415) runner (4.481618) expo (4.480871) 
gun (5.705395) shoot (5.216974) rang (4.859050) store (4.463360) firearm (4.231544) ammo (4.159599) rifl (4.051076) target (4.032357) archeri (4.009033) weapon (3.998064) 
class (5.586116) gym (4.942293) workout (4.719278) yoga (4.675209) studio (4.639471) crossfit (4.382184) barr (4.134116) coach (3.976513) pilat (3.921322) instructor (3.863116) 
ride (5.781895) roller (4.936241) coaster (4.853787) pod (4.815678) bikram (4.576428) ow (4.485694) thrill (4.257435) stratospher (4.136825) view (4.114329) tower (4.067972) 
pool (5.099005) cabana (4.551771) beach (4.322587) tao (4.149628) golf (4.047753) hole (3.891465) republ (3.884006) dj (3.820892) tee (3.701915) rehab (3.614772) 
Error (train/valid/test) = 0.113228/1.458829/1.493829 (0.059227)
..................................................
energy after gradient step = 43191024.182505

Top words for each topic:
jump (3.931241) lvac (3.883792) gym (3.481027) gondola (3.454984) locker (3.414000) 24 (3.404851) machin (3.307539) cancel (2.965086) ellipt (2.925611) cardio (2.883298) 
dog (5.619146) park (5.201656) trail (4.936358) bike (4.574497) playground (4.470877) field (4.238860) picnic (4.173767) court (4.162492) preserv (3.807950) grass (3.765760) 
aquarium (5.236439) shark (5.058702) fish (4.662588) kiss (4.426346) tank (4.408936) reef (4.298098) exhibit (4.246156) anim (4.092838) sea (3.956185) ray (3.930802) 
bowl (5.367294) lane (4.627172) alley (4.490452) brooklyn (3.857952) fri (3.649768) shoe (3.618086) laser (3.614505) game (3.547452) drag (3.495623) tag (3.458821) 
spa (5.561301) massag (4.949632) dolphin (4.844174) tiger (4.394204) aria (4.331105) rei (4.212012) jacuzzi (4.015940) stone (3.922070) pool (3.914302) treatment (3.874911) 
race (6.120951) marathon (5.103640) lap (4.810803) car (4.807163) kart (4.737835) corral (4.637399) ferrari (4.612705) track (4.552344) expo (4.515256) cart (4.396206) 
gun (5.776463) shoot (5.235172) rang (4.852861) store (4.497463) firearm (4.272450) ammo (4.197696) rifl (4.122721) weapon (4.038544) target (4.030751) archeri (4.028526) 
class (5.659326) gym (5.008936) yoga (4.810284) workout (4.794861) studio (4.777199) crossfit (4.417813) barr (4.092029) coach (4.015645) pilat (3.961461) instructor (3.914478) 
ride (5.869265) roller (5.000440) coaster (4.931171) pod (4.883759) bikram (4.587454) ow (4.582317) stratospher (4.234629) thrill (4.195740) height (4.183875) view (4.141530) 
pool (5.135564) cabana (4.599682) beach (4.379324) tao (4.205509) golf (4.027003) hole (3.914765) republ (3.908634) dj (3.885985) tee (3.731650) rehab (3.670300) 
Error (train/valid/test) = 0.107316/1.462666/1.497925 (0.059453)
..................................................
energy after gradient step = 43036261.442918

Top words for each topic:
jump (3.990630) lvac (3.956747) gym (3.581859) 24 (3.474323) gondola (3.473476) locker (3.464025) machin (3.331636) ellipt (3.004476) cancel (3.000512) skydiv (2.910101) 
dog (5.651670) park (5.169891) trail (5.002810) bike (4.542845) playground (4.524779) field (4.285667) picnic (4.232852) court (4.203157) grass (3.849155) preserv (3.771714) 
aquarium (5.291131) shark (5.108849) fish (4.713230) tank (4.430853) kiss (4.430767) exhibit (4.288084) reef (4.278495) anim (4.174053) ray (3.937630) stingray (3.925374) 
bowl (5.425043) lane (4.659406) alley (4.627574) brooklyn (3.998421) fri (3.837491) laser (3.740475) shoe (3.650896) game (3.606530) tag (3.532353) drag (3.529779) 
spa (5.633393) massag (4.977667) dolphin (4.947502) aria (4.441851) tiger (4.383609) jacuzzi (4.229358) rei (4.059817) salon (4.018764) co (3.961844) stone (3.933866) 
race (6.179952) marathon (5.117283) kart (4.918757) lap (4.770347) car (4.770242) ferrari (4.629177) corral (4.597026) track (4.588588) expo (4.516599) runner (4.490805) 
gun (5.817927) shoot (5.301222) rang (4.840844) store (4.559416) firearm (4.321413) ammo (4.259549) rifl (4.119213) archeri (4.079161) weapon (4.057616) target (4.029328) 
class (5.667892) gym (5.078352) yoga (4.886191) studio (4.829959) workout (4.824801) crossfit (4.427268) barr (4.124410) coach (4.032191) pilat (4.009209) instructor (3.997147) 
ride (5.964139) roller (5.068745) coaster (4.993630) pod (4.954670) bikram (4.694160) ow (4.600120) stratospher (4.324315) thrill (4.318280) view (4.139589) tower (4.118154) 
pool (5.150532) cabana (4.657698) beach (4.426162) tao (4.259980) golf (4.053154) republ (3.983661) dj (3.943572) hole (3.925540) tee (3.775960) rehab (3.720693) 
Error (train/valid/test) = 0.102676/1.465257/1.501667 (0.059546)
..................................................
energy after gradient step = 42822602.767405

Top words for each topic:
lvac (4.026257) jump (3.995509) gym (3.624651) locker (3.540669) gondola (3.509084) machin (3.447091) 24 (3.440559) cancel (3.025664) ellipt (3.015221) weight (2.910240) 
dog (5.711805) park (5.198495) trail (5.071335) playground (4.570021) bike (4.417320) field (4.289351) picnic (4.280444) court (4.227672) contain (3.832650) grass (3.820224) 
aquarium (5.330294) shark (5.151156) fish (4.739242) kiss (4.501142) tank (4.454563) reef (4.350214) exhibit (4.349716) anim (4.252817) lion (4.145547) ray (4.044525) 
bowl (5.543952) lane (4.752496) alley (4.697334) brooklyn (4.051941) fri (3.902817) laser (3.834895) shoe (3.788675) drag (3.711655) game (3.666142) tag (3.635719) 
spa (5.749370) massag (5.101754) dolphin (5.069888) tiger (4.566291) aria (4.511634) rei (4.298232) jacuzzi (4.202912) stone (4.120600) treatment (4.085089) salon (4.055411) 
race (6.224932) marathon (5.225696) kart (4.917132) lap (4.770400) corral (4.719836) car (4.693599) ferrari (4.685244) cart (4.605707) track (4.567576) expo (4.547951) 
gun (5.868174) shoot (5.311722) rang (4.870150) store (4.569090) firearm (4.369956) ammo (4.307623) rifl (4.195677) weapon (4.105463) archeri (4.064815) target (4.046485) 
class (5.737746) gym (5.114890) yoga (4.932783) studio (4.899134) workout (4.851161) crossfit (4.448053) barr (4.133525) instructor (4.081465) coach (4.045999) pilat (4.032973) 
ride (6.025674) roller (5.100487) coaster (5.053096) pod (4.993348) ow (4.667869) bikram (4.661733) stratospher (4.311340) thrill (4.288787) tower (4.217076) view (4.166112) 
pool (5.127220) cabana (4.707798) beach (4.432214) tao (4.295033) golf (4.053833) republ (4.009804) dj (3.983524) hole (3.932894) tee (3.793937) rehab (3.744350) 
Error (train/valid/test) = 0.097266/1.466302/1.503760 (0.059800)
..................................................
energy after gradient step = 42664985.359271

Top words for each topic:
lvac (4.065222) jump (4.055416) gym (3.691221) locker (3.564197) 24 (3.539986) machin (3.535424) gondola (3.473126) cancel (3.096925) ellipt (3.036833) skydiv (3.019224) 
dog (5.776746) trail (5.166867) park (5.155942) playground (4.645950) bike (4.447483) picnic (4.360654) field (4.337209) court (4.285087) grass (3.957040) preserv (3.909726) 
aquarium (5.384624) shark (5.202395) fish (4.781612) kiss (4.518960) tank (4.489416) exhibit (4.405186) reef (4.387981) anim (4.352261) lion (4.273255) stingray (3.999120) 
bowl (5.634723) alley (4.795836) lane (4.749287) brooklyn (4.119189) laser (3.998201) fri (3.858971) shoe (3.816308) game (3.794862) tag (3.718803) drag (3.710333) 
spa (5.867803) massag (5.160029) dolphin (5.146169) aria (4.607418) tiger (4.589143) jacuzzi (4.423493) salon (4.221926) steam (4.163443) treatment (4.137303) robe (4.125516) 
race (6.284429) marathon (5.230126) kart (4.984614) lap (4.791702) ferrari (4.748743) corral (4.726713) cart (4.643035) car (4.638554) track (4.602078) expo (4.582234) 
gun (5.923031) shoot (5.314091) rang (4.848556) store (4.571977) firearm (4.397254) ammo (4.323525) rifl (4.180661) archeri (4.139864) weapon (4.122334) target (4.067933) 
class (5.756581) gym (5.209206) yoga (5.048402) studio (4.985388) workout (4.901012) crossfit (4.514198) barr (4.184603) instructor (4.141322) pilat (4.126469) coach (4.076143) 
ride (6.094916) roller (5.150568) coaster (5.110840) pod (5.028649) ow (4.688277) bikram (4.644702) stratospher (4.366302) thrill (4.290877) tower (4.282116) height (4.190708) 
pool (5.115868) cabana (4.775938) beach (4.455299) tao (4.349624) republ (4.076764) golf (4.056462) dj (4.038057) hole (3.979424) tee (3.855694) rehab (3.817361) 
Error (train/valid/test) = 0.090757/1.475256/1.509395 (0.060088)
..................................................
energy after gradient step = 42497908.101810

Top words for each topic:
lvac (4.137073) jump (4.067164) gym (3.727152) machin (3.688856) gondola (3.595872) locker (3.591298) 24 (3.548605) weight (3.034198) ellipt (3.032844) cancel (2.994281) 
dog (5.800062) trail (5.204190) park (5.190518) playground (4.704530) picnic (4.427757) field (4.373882) bike (4.341370) court (4.298549) grass (4.002245) preserv (3.916786) 
aquarium (5.426319) shark (5.248353) fish (4.835597) kiss (4.584240) tank (4.497005) exhibit (4.495989) reef (4.424144) anim (4.376991) lion (4.354000) ray (4.130499) 
bowl (5.737078) alley (4.895200) lane (4.852731) brooklyn (4.245901) laser (4.051860) fri (4.007966) shoe (3.951510) game (3.941796) drag (3.884090) tag (3.771740) 
spa (6.002085) massag (5.328625) dolphin (5.259895) tiger (4.711954) aria (4.681536) rei (4.371907) salon (4.321853) co (4.267974) treatment (4.266778) jacuzzi (4.257665) 
race (6.343560) marathon (5.301351) kart (5.034653) corral (4.785167) ferrari (4.780651) cart (4.771215) lap (4.769048) car (4.611754) expo (4.608558) track (4.592171) 
gun (5.961055) shoot (5.349776) rang (4.869689) store (4.663673) firearm (4.457826) ammo (4.394020) rifl (4.286846) weapon (4.178064) archeri (4.134666) target (4.076684) 
class (5.810132) gym (5.239585) yoga (5.101182) studio (5.050694) workout (4.946793) crossfit (4.554851) instructor (4.211174) barr (4.198778) pilat (4.182746) coach (4.109833) 
ride (6.133712) roller (5.171166) coaster (5.145587) pod (5.064803) ow (4.719523) bikram (4.611280) stratospher (4.401381) thrill (4.327422) tower (4.233348) height (4.226527) 
pool (5.045348) cabana (4.819452) beach (4.471571) tao (4.395096) republ (4.096675) dj (4.066523) golf (4.037019) hole (3.957304) tee (3.880800) rehab (3.842312) 
Error (train/valid/test) = 0.084578/1.476729/1.517823 (0.060462)
..................................................
energy after gradient step = 42402506.258246

Top words for each topic:
lvac (4.194849) jump (4.101470) gym (3.750737) machin (3.646728) locker (3.645167) 24 (3.568426) gondola (3.478646) ellipt (3.080982) weight (3.078726) cancel (3.000635) 
dog (5.843899) trail (5.259558) park (5.123039) playground (4.763160) picnic (4.487624) field (4.410644) court (4.305200) bike (4.290021) grass (4.073940) preserv (3.971248) 
aquarium (5.466227) shark (5.295872) fish (4.862872) kiss (4.623623) tank (4.535329) exhibit (4.528430) reef (4.483379) anim (4.437818) lion (4.414324) ray (4.108316) 
bowl (5.771546) alley (4.938457) lane (4.927812) brooklyn (4.251685) laser (4.133889) game (4.045672) fri (4.020614) shoe (3.995384) drag (3.904180) cosmic (3.789947) 
spa (6.068404) massag (5.451621) dolphin (5.305777) aria (4.776536) tiger (4.710510) jacuzzi (4.467587) salon (4.400022) stone (4.290187) steam (4.281617) co (4.281150) 
race (6.387984) marathon (5.323116) kart (5.026255) corral (4.810128) ferrari (4.799806) lap (4.793481) cart (4.739001) expo (4.653375) track (4.617330) runner (4.572100) 
gun (6.021633) shoot (5.390975) rang (4.865819) store (4.671520) firearm (4.506533) ammo (4.439061) rifl (4.300659) weapon (4.217196) archeri (4.212285) target (4.113135) 
class (5.850060) gym (5.302151) yoga (5.159359) studio (5.116029) workout (5.011945) crossfit (4.590790) instructor (4.266104) barr (4.242963) pilat (4.228412) teacher (4.150246) 
ride (6.158939) roller (5.208588) coaster (5.199839) pod (5.107198) ow (4.734209) bikram (4.580257) stratospher (4.494582) thrill (4.368835) tower (4.352598) height (4.216599) 
pool (5.044164) cabana (4.872036) beach (4.522393) tao (4.451339) republ (4.138508) dj (4.112234) golf (4.016627) hole (3.960425) tee (3.918178) rehab (3.897583) 
Error (train/valid/test) = 0.079831/1.484665/1.521398 (0.060772)
..................................................
energy after gradient step = 42279507.129448

Top words for each topic:
lvac (4.194671) jump (4.066252) gym (3.774434) machin (3.748007) gondola (3.640071) locker (3.603605) 24 (3.588394) weight (3.123093) cancel (3.119202) ellipt (3.113693) 
dog (5.880532) trail (5.320470) park (5.139058) playground (4.819710) picnic (4.541730) field (4.471471) court (4.309682) grass (4.105489) bike (4.049096) grassi (3.984514) 
aquarium (5.507587) shark (5.335317) fish (4.920137) kiss (4.642944) exhibit (4.598190) tank (4.588534) reef (4.509744) lion (4.496097) anim (4.493104) ray (4.158690) 
bowl (5.848993) lane (5.054089) alley (5.021793) brooklyn (4.349680) laser (4.279210) game (4.150944) shoe (4.120095) fri (4.108191) drag (3.936436) pizza (3.889535) 
spa (6.185257) massag (5.644953) dolphin (5.399453) tiger (4.847849) aria (4.819059) salon (4.478240) jacuzzi (4.462500) salt (4.411826) co (4.399118) treatment (4.388445) 
race (6.428585) marathon (5.379071) kart (5.152949) corral (4.883462) lap (4.846690) cart (4.826425) ferrari (4.799808) runner (4.704459) expo (4.681691) track (4.655555) 
gun (6.061299) shoot (5.384377) rang (4.874288) store (4.692441) firearm (4.539483) ammo (4.482563) rifl (4.322017) weapon (4.274425) archeri (4.215408) target (4.124726) 
class (5.865446) gym (5.325343) yoga (5.231267) studio (5.208046) workout (5.035103) crossfit (4.658422) instructor (4.318779) pilat (4.300596) barr (4.282663) teacher (4.201382) 
ride (6.211851) coaster (5.240568) roller (5.211492) pod (5.137059) ow (4.783385) stratospher (4.462414) bikram (4.450698) thrill (4.430269) height (4.278118) tower (4.275540) 
pool (5.060523) cabana (4.931551) beach (4.600861) tao (4.508740) republ (4.194803) dj (4.186970) golf (4.038838) tee (3.980609) rehab (3.960529) hole (3.944118) 
Error (train/valid/test) = 0.075440/1.487562/1.527482 (0.061101)
..................................................
energy after gradient step = 42127930.390345

Top words for each topic:
lvac (4.240656) jump (4.054986) gym (3.850255) machin (3.796476) 24 (3.585025) locker (3.570064) gondola (3.533719) weight (3.166165) ellipt (3.123439) cancel (3.109980) 
dog (5.900707) trail (5.338825) park (5.111173) playground (4.840326) picnic (4.585547) field (4.491605) court (4.328752) grass (4.118489) preserv (4.038593) grassi (3.939004) 
aquarium (5.553005) shark (5.382159) fish (4.944449) kiss (4.726074) exhibit (4.676386) tank (4.605305) reef (4.576329) lion (4.556629) anim (4.555605) ray (4.161114) 
bowl (5.916588) lane (5.097552) alley (5.086579) brooklyn (4.375148) laser (4.266336) game (4.190361) fri (4.178562) shoe (4.131637) drag (3.990438) cosmic (3.895728) 
spa (6.243230) massag (5.697545) dolphin (5.471472) aria (4.910452) tiger (4.828616) jacuzzi (4.578853) salon (4.540513) facial (4.434360) stone (4.426904) tub (4.405855) 
race (6.462473) marathon (5.427509) kart (5.156055) cart (4.898363) corral (4.895468) ferrari (4.890658) lap (4.843070) expo (4.719439) track (4.715493) runner (4.692121) 
gun (6.098465) shoot (5.404730) rang (4.865742) store (4.701835) firearm (4.582039) ammo (4.487688) rifl (4.388709) weapon (4.275193) archeri (4.264508) bike (4.219820) 
class (5.938453) gym (5.366986) yoga (5.266945) studio (5.250519) workout (5.062258) crossfit (4.685296) instructor (4.370832) pilat (4.315573) barr (4.307165) teacher (4.232548) 
ride (6.214604) coaster (5.249517) roller (5.244006) pod (5.135057) ow (4.791122) stratospher (4.501466) thrill (4.355218) tower (4.349758) zip (4.317501) height (4.236651) 
pool (5.085279) cabana (4.967788) beach (4.608339) tao (4.537026) republ (4.215588) dj (4.213650) golf (3.997907) tee (3.990677) rehab (3.979182) hole (3.906053) 
Error (train/valid/test) = 0.072384/1.492697/1.527676 (0.061215)
..................................................
energy after gradient step = 42034530.695796

Top words for each topic:
lvac (4.287679) jump (3.992776) gym (3.914680) machin (3.842153) 24 (3.632978) gondola (3.586572) locker (3.564640) weight (3.198601) cancel (3.135595) ellipt (3.115985) 
dog (5.958988) trail (5.388233) park (5.093180) playground (4.884176) picnic (4.639410) field (4.531738) court (4.338771) grass (4.165605) grassi (4.063745) preserv (4.058983) 
aquarium (5.607076) shark (5.430878) fish (4.995839) kiss (4.771809) exhibit (4.720390) tank (4.651888) anim (4.628843) lion (4.610806) reef (4.609076) stingray (4.205282) 
bowl (5.957005) alley (5.122950) lane (5.106131) brooklyn (4.433229) laser (4.383554) game (4.323079) fri (4.215798) shoe (4.180916) drag (4.048486) cosmic (3.940720) 
spa (6.332114) massag (5.783250) dolphin (5.505956) aria (4.963169) tiger (4.892053) salon (4.610833) jacuzzi (4.552939) treatment (4.508899) co (4.500380) facial (4.493994) 
race (6.485582) marathon (5.460091) kart (5.210495) corral (4.969166) cart (4.941734) ferrari (4.888109) lap (4.874698) track (4.750444) expo (4.743218) runner (4.720788) 
gun (6.142853) shoot (5.427765) rang (4.812136) store (4.695188) firearm (4.610590) ammo (4.530385) bike (4.432955) rifl (4.409577) weapon (4.320621) archeri (4.287569) 
class (5.997849) gym (5.413597) yoga (5.350962) studio (5.321315) workout (5.114749) crossfit (4.730731) instructor (4.436321) pilat (4.376371) barr (4.350073) teacher (4.288668) 
ride (6.267344) coaster (5.286479) roller (5.237475) pod (5.166460) ow (4.808124) stratospher (4.481111) thrill (4.376715) tower (4.326715) zip (4.287228) height (4.268576) 
pool (5.113666) cabana (5.008721) beach (4.608260) tao (4.579669) dj (4.259997) republ (4.256545) rehab (4.027154) tee (4.025212) golf (3.991295) hole (3.884362) 
Error (train/valid/test) = 0.068636/1.498952/1.528468 (0.061154)
..................................................
energy after gradient step = 41939608.629665

Top words for each topic:
lvac (4.351694) jump (4.027308) gym (3.960333) machin (3.867790) 24 (3.665631) locker (3.572844) gondola (3.503163) weight (3.271638) ellipt (3.130458) cancel (3.105629) 
dog (5.984022) trail (5.416347) park (5.054757) playground (4.927564) picnic (4.686171) field (4.565070) court (4.334485) grass (4.236775) preserv (4.092279) grassi (4.083057) 
aquarium (5.644755) shark (5.469328) fish (5.013112) kiss (4.821719) exhibit (4.786782) lion (4.674395) tank (4.671612) reef (4.665479) anim (4.661413) ray (4.283217) 
bowl (6.034639) alley (5.200800) lane (5.138329) brooklyn (4.550965) laser (4.489208) game (4.426912) fri (4.337679) shoe (4.153255) drag (4.045419) cosmic (4.024799) 
spa (6.414578) massag (5.862603) dolphin (5.570476) aria (5.024701) tiger (4.980755) salon (4.677614) jacuzzi (4.592295) treatment (4.579556) facial (4.550777) robe (4.541852) 
race (6.493459) marathon (5.419919) kart (5.239556) ferrari (4.943901) corral (4.936243) cart (4.923459) lap (4.888186) runner (4.799001) track (4.776804) expo (4.742559) 
gun (6.194861) shoot (5.440007) rang (4.830849) store (4.720547) firearm (4.672959) ammo (4.605143) bike (4.514254) rifl (4.470318) weapon (4.354570) archeri (4.338019) 
class (6.034243) gym (5.441864) yoga (5.390671) studio (5.356952) workout (5.121412) crossfit (4.765983) instructor (4.487086) pilat (4.432851) barr (4.370758) teacher (4.343445) 
ride (6.245117) coaster (5.336169) roller (5.267408) pod (5.206372) ow (4.833206) stratospher (4.608391) thrill (4.484204) zip (4.374010) tower (4.349096) height (4.281884) 
pool (5.149799) cabana (5.069703) beach (4.633192) tao (4.626406) republ (4.320269) dj (4.310793) tee (4.074923) rehab (4.072613) golf (4.009284) hole (3.902516) 
Error (train/valid/test) = 0.065469/1.507077/1.531358 (0.061229)
..................................................
energy after gradient step = 41822612.289781

Top words for each topic:
lvac (4.400465) jump (4.020530) gym (4.004158) machin (3.871710) 24 (3.705115) locker (3.591114) gondola (3.590384) weight (3.376976) cancel (3.144104) ellipt (3.108656) 
dog (6.009474) trail (5.455730) park (5.027351) playground (4.969268) picnic (4.715996) field (4.619821) court (4.357391) grass (4.269663) grassi (4.123745) preserv (4.066460) 
aquarium (5.700321) shark (5.526445) fish (5.048297) kiss (4.898970) exhibit (4.861867) lion (4.763923) tank (4.745326) anim (4.694991) reef (4.673066) stingray (4.308920) 
bowl (6.089245) alley (5.267646) lane (5.209739) brooklyn (4.568514) laser (4.500412) game (4.493036) fri (4.190295) drag (4.154604) shoe (4.123860) cosmic (4.059388) 
spa (6.504654) massag (5.933596) dolphin (5.648043) aria (5.095997) tiger (5.003411) salon (4.778684) treatment (4.659419) facial (4.647547) jacuzzi (4.629535) steam (4.608772) 
race (6.522329) marathon (5.517182) kart (5.289204) corral (5.024115) lap (4.934121) ferrari (4.905185) cart (4.890061) expo (4.768035) runner (4.767497) track (4.762393) 
gun (6.230975) shoot (5.457002) rang (4.827217) firearm (4.715124) store (4.683717) ammo (4.652986) bike (4.548714) rifl (4.470631) weapon (4.416354) archeri (4.352865) 
class (6.067754) gym (5.474899) yoga (5.459680) studio (5.426977) workout (5.182576) crossfit (4.821735) instructor (4.562399) pilat (4.486829) barr (4.423095) teacher (4.405523) 
ride (6.343878) coaster (5.383742) roller (5.278006) pod (5.235959) ow (4.871580) stratospher (4.547351) thrill (4.442285) zip (4.421277) tower (4.385058) ziplin (4.378108) 
pool (5.181721) cabana (5.104701) beach (4.689820) tao (4.666582) republ (4.354601) dj (4.353579) tee (4.119652) rehab (4.081801) golf (3.999016) hole (3.848227) 
Error (train/valid/test) = 0.061630/1.507374/1.535913 (0.061306)
..................................................
energy after gradient step = 41729061.992790

Top words for each topic:
lvac (4.450099) gym (4.046783) machin (3.995533) jump (3.980526) 24 (3.769430) gondola (3.587783) locker (3.478541) weight (3.431717) contract (3.224183) cancel (3.152081) 
dog (6.007337) trail (5.487497) playground (5.029347) park (5.025249) picnic (4.787136) field (4.617538) court (4.365301) grass (4.316224) preserv (4.206179) grassi (4.149238) 
aquarium (5.789893) shark (5.602566) fish (5.094279) exhibit (4.951894) kiss (4.932025) lion (4.863400) reef (4.805937) tank (4.793027) anim (4.784014) stingray (4.374134) 
bowl (6.144227) alley (5.332727) lane (5.260180) brooklyn (4.653228) game (4.616465) laser (4.616096) fri (4.388603) arcad (4.174158) shoe (4.165487) cosmic (4.116776) 
spa (6.600815) massag (6.061730) dolphin (5.706328) aria (5.178738) tiger (5.093068) salon (4.829615) facial (4.730778) treatment (4.698900) robe (4.681905) jacuzzi (4.660500) 
race (6.562209) marathon (5.528641) kart (5.375670) ferrari (5.047527) corral (5.036898) cart (4.930283) lap (4.915475) runner (4.817699) expo (4.777640) track (4.756717) 
gun (6.281373) shoot (5.464050) firearm (4.776237) store (4.736208) rang (4.717646) ammo (4.700841) bike (4.606568) rifl (4.568615) weapon (4.471776) archeri (4.431331) 
class (6.134592) yoga (5.524412) studio (5.479699) gym (5.451515) workout (5.186784) crossfit (4.881548) instructor (4.624226) pilat (4.554971) teacher (4.476670) barr (4.462053) 
ride (6.330163) coaster (5.444312) roller (5.326930) pod (5.279976) ow (4.917336) stratospher (4.677581) zip (4.522356) thrill (4.490294) tower (4.395589) ziplin (4.372819) 
pool (5.245365) cabana (5.184219) tao (4.730996) beach (4.710200) dj (4.407383) republ (4.405126) tee (4.160756) rehab (4.133831) golf (3.933508) dayb (3.920222) 
Error (train/valid/test) = 0.056379/1.514200/1.539503 (0.061308)
..................................................
energy after gradient step = 41641305.373867

Top words for each topic:
lvac (4.460906) gym (4.064767) machin (4.018132) jump (4.015888) 24 (3.783090) gondola (3.614016) locker (3.462576) weight (3.440694) contract (3.296915) cancel (3.214133) 
dog (6.041057) trail (5.543793) playground (5.094801) park (4.955097) picnic (4.843370) field (4.627060) court (4.382997) grass (4.360011) grassi (4.253929) preserv (4.165780) 
aquarium (5.846303) shark (5.667244) fish (5.140679) exhibit (5.024408) kiss (4.988408) lion (4.922842) anim (4.828208) tank (4.822882) reef (4.784799) stingray (4.411866) 
bowl (6.182161) alley (5.382126) lane (5.226960) brooklyn (4.710302) laser (4.664313) game (4.646215) fri (4.403408) arcad (4.335340) shoe (4.207781) cosmic (4.163849) 
spa (6.654381) massag (6.129684) dolphin (5.763505) aria (5.240809) tiger (5.132632) salon (4.916487) facial (4.800999) treatment (4.730295) therapist (4.724061) robe (4.711906) 
race (6.569691) marathon (5.567242) kart (5.393723) corral (5.137518) ferrari (5.010608) lap (4.940919) cart (4.932905) runner (4.837378) track (4.802328) expo (4.753829) 
gun (6.315948) shoot (5.474068) firearm (4.789173) ammo (4.749781) store (4.749601) rang (4.724104) rifl (4.588217) bike (4.546987) weapon (4.517427) archeri (4.417825) 
class (6.188207) yoga (5.603131) studio (5.552205) gym (5.513781) workout (5.182635) crossfit (4.917912) instructor (4.639672) pilat (4.615925) teacher (4.527180) barr (4.504485) 
ride (6.318705) coaster (5.468181) roller (5.324811) pod (5.301885) ow (4.933101) stratospher (4.664656) zip (4.583771) ziplin (4.495954) thrill (4.464482) tower (4.416644) 
pool (5.267579) cabana (5.242760) tao (4.776438) beach (4.765929) republ (4.457476) dj (4.438984) rehab (4.200141) tee (4.192008) dayb (3.973553) golf (3.909243) 
Error (train/valid/test) = 0.053386/1.515272/1.545595 (0.061473)
..................................................
energy after gradient step = 41539098.992837

Top words for each topic:
lvac (4.490685) gym (4.136282) machin (4.068094) jump (4.010471) 24 (3.769707) gondola (3.592677) weight (3.504333) locker (3.448663) contract (3.276916) cancel (3.271499) 
dog (6.058070) trail (5.572203) playground (5.141282) park (4.947704) picnic (4.900236) field (4.681455) grass (4.420796) court (4.407656) preserv (4.294211) grassi (4.226214) 
aquarium (5.901870) shark (5.723455) fish (5.175363) exhibit (5.088534) kiss (5.025288) lion (4.978905) reef (4.903563) anim (4.852804) tank (4.838922) stingray (4.474030) 
bowl (6.223324) alley (5.423785) lane (5.252582) brooklyn (4.742201) laser (4.729886) game (4.683520) fri (4.339396) arcad (4.288220) cosmic (4.245131) shoe (4.200789) 
spa (6.717381) massag (6.175936) dolphin (5.784013) aria (5.243933) tiger (5.174676) salon (4.931877) facial (4.883695) robe (4.806280) salt (4.780076) therapist (4.773014) 
race (6.572441) marathon (5.574552) kart (5.415625) corral (5.086465) ferrari (5.067579) cart (4.986120) lap (4.912884) track (4.840317) runner (4.805078) expo (4.790525) 
gun (6.353697) shoot (5.455584) firearm (4.845030) ammo (4.793957) store (4.774414) rang (4.711874) rifl (4.628336) bike (4.538540) weapon (4.530219) archeri (4.483376) 
class (6.272819) yoga (5.654567) studio (5.604734) gym (5.542285) workout (5.193277) crossfit (4.969139) instructor (4.694871) pilat (4.672234) teacher (4.575471) barr (4.541599) 
ride (6.351886) coaster (5.520193) roller (5.357920) pod (5.347334) ow (4.982474) stratospher (4.743962) zip (4.640258) thrill (4.572649) tower (4.458239) ziplin (4.416443) 
pool (5.317070) cabana (5.315274) tao (4.831396) beach (4.753318) republ (4.511707) dj (4.465200) tee (4.254186) rehab (4.244297) dayb (4.021170) golf (3.883857) 
Error (train/valid/test) = 0.050829/1.517428/1.551608 (0.061976)
..................................................
energy after gradient step = 41460801.075399

Top words for each topic:
lvac (4.527763) gym (4.174471) machin (4.046180) jump (3.966848) 24 (3.831379) gondola (3.605726) weight (3.526901) locker (3.456124) contract (3.396425) cancel (3.292263) 
dog (6.077609) trail (5.620096) playground (5.189500) picnic (4.954332) park (4.934552) field (4.713140) court (4.475813) grass (4.433521) grassi (4.356882) basebal (4.251214) 
aquarium (5.951248) shark (5.770775) fish (5.213246) exhibit (5.121447) lion (5.050583) kiss (5.047604) reef (4.899066) anim (4.889540) tank (4.840404) stingray (4.506115) 
bowl (6.289326) alley (5.462635) lane (5.255381) laser (4.817484) brooklyn (4.769309) game (4.726281) arcad (4.452986) fri (4.368114) drag (4.256346) cosmic (4.253578) 
spa (6.788187) massag (6.243919) dolphin (5.821298) aria (5.324590) tiger (5.214354) salon (5.013986) facial (4.913386) robe (4.833733) treatment (4.804347) steam (4.795400) 
race (6.565170) marathon (5.601890) kart (5.441845) corral (5.163469) ferrari (5.073902) cart (5.010394) lap (4.947299) track (4.858470) expo (4.834118) runner (4.756748) 
gun (6.398939) shoot (5.417321) firearm (4.884929) ammo (4.843213) store (4.743150) rifl (4.681029) rang (4.655655) bike (4.563121) weapon (4.561070) archeri (4.510097) 
class (6.278322) yoga (5.717705) studio (5.648525) gym (5.546406) workout (5.202849) crossfit (5.022272) instructor (4.757944) pilat (4.731659) teacher (4.625457) barr (4.590647) 
ride (6.376094) coaster (5.555681) pod (5.382273) roller (5.382102) ow (5.021562) stratospher (4.748992) zip (4.696050) ziplin (4.609882) thrill (4.585128) height (4.449675) 
pool (5.366160) cabana (5.359843) tao (4.884612) beach (4.809579) republ (4.570210) dj (4.526725) rehab (4.290625) tee (4.281063) dayb (4.092164) golf (3.976864) 
Error (train/valid/test) = 0.048622/1.522776/1.555752 (0.062263)
..................................................
energy after gradient step = 41406609.059457

Top words for each topic:
lvac (4.530463) gym (4.208720) machin (4.083941) jump (3.950777) 24 (3.865526) gondola (3.648546) weight (3.560908) locker (3.468657) contract (3.359999) cancel (3.346324) 
dog (6.129411) trail (5.646042) playground (5.242107) picnic (5.008793) park (4.959104) field (4.749805) court (4.473093) grass (4.463120) preserv (4.357965) grassi (4.336608) 
aquarium (6.016067) shark (5.839952) fish (5.260099) exhibit (5.200270) kiss (5.121003) lion (5.115562) reef (4.985166) anim (4.949562) tank (4.921837) stingray (4.563071) 
bowl (6.289267) alley (5.496257) lane (5.255815) laser (4.862846) brooklyn (4.822419) game (4.703232) arcad (4.469022) fri (4.404386) cosmic (4.329529) pizza (4.285202) 
spa (6.838761) massag (6.330341) dolphin (5.874074) aria (5.340553) tiger (5.274509) salon (5.047982) facial (5.020559) robe (4.904341) therapist (4.893279) treatment (4.867661) 
race (6.590651) marathon (5.622644) kart (5.481034) corral (5.128769) ferrari (5.112463) cart (5.027145) lap (4.944049) track (4.879143) expo (4.860572) runner (4.766051) 
gun (6.441808) shoot (5.390421) firearm (4.936401) ammo (4.893729) store (4.760934) rifl (4.724498) rang (4.677746) weapon (4.612130) bike (4.572628) archeri (4.557354) 
class (6.337915) yoga (5.757301) studio (5.696680) gym (5.530940) workout (5.274941) crossfit (5.055114) instructor (4.787502) pilat (4.773832) teacher (4.667108) barr (4.620737) 
ride (6.443581) coaster (5.580506) pod (5.430537) roller (5.427560) ow (5.045034) stratospher (4.828302) zip (4.763820) thrill (4.633264) ziplin (4.558234) tower (4.513426) 
cabana (5.432531) pool (5.423089) tao (4.945643) beach (4.826611) republ (4.622753) dj (4.573997) rehab (4.340003) tee (4.293300) dayb (4.132316) topless (3.940097) 
Error (train/valid/test) = 0.047039/1.522847/1.557489 (0.062067)
..................................................
energy after gradient step = 41350288.638968

Top words for each topic:
lvac (4.528818) gym (4.231325) machin (4.093153) jump (3.924816) 24 (3.863284) weight (3.588122) gondola (3.585420) locker (3.488484) contract (3.436696) cancel (3.353158) 
dog (6.167972) trail (5.690683) playground (5.274845) picnic (5.050584) park (4.923239) field (4.770262) court (4.517282) grass (4.499041) grassi (4.397671) basebal (4.304405) 
aquarium (6.056826) shark (5.883989) fish (5.285463) exhibit (5.243157) kiss (5.172557) lion (5.149519) reef (4.991503) anim (4.963962) tank (4.943549) stingray (4.601263) 
bowl (6.366186) alley (5.560192) lane (5.234964) laser (4.907522) brooklyn (4.888041) game (4.731266) arcad (4.524907) fri (4.393358) cosmic (4.371163) bowler (4.295837) 
spa (6.908114) massag (6.362217) dolphin (5.871992) aria (5.404878) tiger (5.291891) salon (5.102782) facial (5.059885) robe (4.955639) treatment (4.924660) sauna (4.877654) 
race (6.586681) marathon (5.659623) kart (5.488150) corral (5.225783) ferrari (5.149375) cart (5.033130) lap (4.968044) expo (4.922663) track (4.863444) runner (4.806345) 
gun (6.466588) shoot (5.361716) firearm (4.963734) ammo (4.930158) rifl (4.747533) store (4.715795) rang (4.651417) weapon (4.638978) bike (4.611271) archeri (4.580947) 
class (6.375962) yoga (5.817403) studio (5.746910) gym (5.594362) workout (5.303434) crossfit (5.100351) pilat (4.833293) instructor (4.825118) teacher (4.706805) barr (4.664574) 
ride (6.412316) coaster (5.610879) pod (5.450738) roller (5.442162) ow (5.080575) zip (4.823842) stratospher (4.816973) ziplin (4.652392) thrill (4.619882) tower (4.494607) 
cabana (5.467749) pool (5.454212) tao (4.984751) beach (4.842547) republ (4.658729) dj (4.617043) rehab (4.386416) tee (4.294148) dayb (4.179401) topless (3.993135) 
Error (train/valid/test) = 0.044540/1.527057/1.563971 (0.062583)
..................................................
energy after gradient step = 41271570.812851

Top words for each topic:
lvac (4.549660) gym (4.252663) machin (4.061209) jump (3.928101) 24 (3.869739) gondola (3.651592) weight (3.600800) locker (3.537848) contract (3.437952) cancel (3.406778) 
dog (6.178568) trail (5.704169) playground (5.307835) picnic (5.090794) park (4.929897) field (4.785982) grass (4.536596) court (4.527449) grassi (4.428027) preserv (4.346018) 
aquarium (6.089501) shark (5.917374) fish (5.308856) exhibit (5.274431) lion (5.200868) kiss (5.185962) reef (5.054208) anim (4.990616) tank (4.961228) stingray (4.617053) 
bowl (6.395596) alley (5.601432) lane (5.192482) laser (4.945057) brooklyn (4.907282) game (4.732274) arcad (4.596398) cosmic (4.418122) fri (4.371534) pizza (4.356720) 
spa (6.951579) massag (6.427390) dolphin (5.920504) aria (5.448340) tiger (5.293131) salon (5.176927) facial (5.109805) robe (5.003725) therapist (4.977574) treatment (4.938104) 
race (6.611637) marathon (5.657454) kart (5.511978) corral (5.177789) ferrari (5.155946) cart (5.044597) fairway (5.006596) lap (4.962767) track (4.874897) expo (4.855841) 
gun (6.491175) shoot (5.364061) firearm (4.999386) ammo (4.969954) rifl (4.796626) store (4.699475) weapon (4.674578) bike (4.628500) archeri (4.620222) rang (4.611450) 
class (6.347928) yoga (5.848701) studio (5.753917) gym (5.593713) workout (5.310323) crossfit (5.124106) instructor (4.861432) pilat (4.860425) teacher (4.732099) bikram (4.682821) 
ride (6.469656) coaster (5.628667) roller (5.464288) pod (5.462998) ow (5.091537) stratospher (4.872789) zip (4.785102) thrill (4.674223) ziplin (4.668403) tower (4.516671) 
cabana (5.500801) pool (5.482365) tao (5.023014) beach (4.853919) republ (4.687011) dj (4.657431) rehab (4.413400) tee (4.318656) dayb (4.182548) topless (4.032520) 
Error (train/valid/test) = 0.043104/1.531795/1.567699 (0.062724)
