corpus = bars_pitt.gz
latentReg = 0.000000
lambda = 3.000000
K = 5

nUsers = 4587, nItems = 278, nRatings = 8747

Error w/ offset term only (train/valid/test) = 1.444330/1.382567/1.456668 (0.061689)
Error w/ offset and bias (train/valid/test) = 0.486752/1.273820/1.253677 (0.058201)

..................................................
energy after gradient step = 14158241.428763

Top words for each topic:
alright (0.784363) grace (0.783982) bbq (0.769151) polish (0.764212) rotat (0.760638) 7 (0.758904) anyon (0.757932) boy (0.743041) employe (0.740274) interior (0.727585) 
tortilla (0.791773) direct (0.727705) today (0.717449) vega (0.712694) sister (0.709698) brie (0.696980) student (0.696511) follow (0.670020) meant (0.653669) touch (0.630230) 
fanci (0.751828) neat (0.737831) deep (0.689428) public (0.671627) redbeard (0.666121) tavern (0.663345) restroom (0.661499) ball (0.642278) noodl (0.640980) into (0.631722) 
lover (0.995369) imposs (0.843957) apolog (0.841037) mexican (0.820956) conveni (0.769984) opportun (0.761418) 100 (0.741418) textur (0.738686) eye (0.719583) pud (0.700466) 
male (0.820356) patti (0.818691) sprout (0.790890) forev (0.753806) rush (0.748191) accommod (0.702111) rib (0.698934) underwhelm (0.693180) presenc (0.685018) gem (0.680298) 
Error (train/valid/test) = 1.085201/1.299053/1.270230 (0.065994)
..................................................
energy after gradient step = 14110397.266104

Top words for each topic:
brick (1.267202) employe (1.233172) bet (1.211257) gourmet (1.161504) dude (1.049839) alright (1.040572) crust (1.028200) savori (1.019445) piano (1.006568) goal (0.999680) 
rub (1.219755) undercook (1.102520) center (1.088657) ventur (1.088230) ps (1.086063) cilantro (1.037796) gouda (1.026211) stew (1.018233) bone (1.008404) tortilla (1.002203) 
porch (1.448386) whatev (1.188740) caus (1.143911) brand (1.116760) jump (1.105415) holiday (1.074836) gooski (1.043016) layer (1.039056) bake (1.037964) stare (1.028031) 
100 (1.427670) imposs (1.374727) inexpens (1.255431) cap (1.224920) subpar (1.180762) conveni (1.175000) bonus (1.166930) musician (1.158537) textur (1.144497) hidden (1.094412) 
gem (1.233265) led (1.210904) underwhelm (1.203534) fli (1.122995) sent (1.108391) tuna (1.103413) brillobox (1.100896) rush (1.086871) key (1.048410) hundr (1.041105) 
Error (train/valid/test) = 0.756726/1.245730/1.221206 (0.058841)
..................................................
energy after gradient step = 14093843.777312

Top words for each topic:
trust (1.375780) brick (1.323599) wow (1.253613) awkward (1.234685) worker (1.224737) alright (1.200091) gourmet (1.192667) tequila (1.191751) ring (1.188181) polish (1.161966) 
cilantro (1.539915) strawberri (1.301958) ventur (1.253796) pita (1.237863) undercook (1.232004) 9 (1.176864) center (1.175001) rub (1.153779) road (1.145429) balanc (1.136800) 
brand (1.575887) hamburg (1.347904) patti (1.314174) substitut (1.295638) mustard (1.295212) zero (1.281643) chorizo (1.279497) porch (1.271874) biscuit (1.256793) batter (1.249130) 
100 (1.626690) perogi (1.509395) tab (1.469029) conveni (1.441574) inexpens (1.438879) won (1.405429) eye (1.394383) blown (1.336936) tad (1.316300) tropic (1.315923) 
sent (1.640238) tuna (1.579368) flag (1.484886) gem (1.475441) coffe (1.372538) led (1.346575) waffl (1.238290) flow (1.202483) anyway (1.194149) cucumb (1.160328) 
Error (train/valid/test) = 0.636957/1.244759/1.224218 (0.054415)
..................................................
energy after gradient step = 14072035.879722

Top words for each topic:
brick (1.492877) earlier (1.405651) gourmet (1.402101) employe (1.398676) biggest (1.390228) trust (1.335609) mario (1.264838) wow (1.247624) accompani (1.237975) worker (1.233113) 
undercook (1.582844) jukebox (1.523732) cilantro (1.513792) center (1.475967) 40 (1.403888) strawberri (1.385791) ventur (1.379296) without (1.375699) cheddar (1.327708) 9 (1.302052) 
stool (1.536959) batter (1.490948) zero (1.434394) brand (1.415206) chorizo (1.390342) jump (1.338461) substitut (1.309417) gooski (1.290406) eventu (1.280572) garag (1.270144) 
textur (1.717651) eye (1.537175) miller (1.523416) conveni (1.487979) 100 (1.473900) apolog (1.433019) handl (1.411620) mexican (1.411612) asian (1.394250) cosmo (1.388875) 
flag (1.701838) gem (1.674566) led (1.608986) sent (1.493473) waffl (1.440095) cucumb (1.380801) blah (1.336934) tuna (1.321163) rush (1.319659) repeat (1.302419) 
Error (train/valid/test) = 0.549317/1.253018/1.238159 (0.057740)
..................................................
energy after gradient step = 14055208.902014

Top words for each topic:
biggest (1.758337) trust (1.655044) volum (1.561165) wow (1.536101) employe (1.529757) term (1.416560) strang (1.410137) awkward (1.376461) run (1.359350) obnoxi (1.358445) 
undercook (1.710792) center (1.676637) ventur (1.618996) without (1.560402) lose (1.552930) pita (1.546045) theme (1.452536) voic (1.450930) balanc (1.437650) strawberri (1.435020) 
stool (1.949471) cracker (1.662583) chorizo (1.619033) mason (1.575033) magic (1.506676) vari (1.502354) engag (1.483443) batter (1.482800) lucki (1.465444) bistro (1.453300) 
100 (2.153778) imposs (1.825516) inexpens (1.567692) eye (1.529808) human (1.522101) golden (1.514192) asian (1.484404) reek (1.477278) air (1.462809) addict (1.461437) 
waffl (1.769848) mimosa (1.715482) gem (1.658676) fell (1.622470) respect (1.605421) flag (1.589141) repeat (1.568508) focus (1.517515) led (1.503340) hofbrauhaus (1.479484) 
Error (train/valid/test) = 0.426187/1.272480/1.273557 (0.057223)
..................................................
energy after gradient step = 14042650.655932

Top words for each topic:
employe (1.671700) middl (1.668799) wow (1.655581) countri (1.642856) store (1.642477) volum (1.604260) biggest (1.435532) squeez (1.433428) die (1.430069) travel (1.420342) 
strawberri (1.828513) theme (1.742617) undercook (1.708649) balanc (1.646949) delight (1.634926) 9 (1.580147) boneless (1.569168) scallop (1.518819) difficult (1.515746) center (1.507870) 
aw (1.740792) chorizo (1.679280) cracker (1.629933) stool (1.595221) mason (1.567629) holiday (1.550540) vari (1.538431) towel (1.522940) current (1.519395) whatev (1.518508) 
switch (1.698647) hidden (1.684087) fianc (1.674351) textur (1.668219) 100 (1.634463) whi (1.619307) imposs (1.609678) televis (1.587768) bc (1.580471) conveni (1.556473) 
build (1.838381) gem (1.785457) waffl (1.767078) flag (1.684296) asid (1.588105) focus (1.546520) sent (1.515734) buck (1.512547) repeat (1.487101) couldnt (1.469099) 
Error (train/valid/test) = 0.359594/1.292347/1.298031 (0.060155)
..................................................
energy after gradient step = 14026111.527441

Top words for each topic:
wow (1.800287) middl (1.786962) gourmet (1.770056) strang (1.675579) act (1.669442) fruit (1.664699) trust (1.593772) biggest (1.590444) countri (1.584805) shame (1.558181) 
theme (2.115495) ventur (1.952119) undercook (1.826581) strawberri (1.812487) 9 (1.719997) center (1.718321) balanc (1.691531) delight (1.686078) rub (1.682956) fusion (1.621195) 
zero (1.833298) law (1.730012) plain (1.728476) uncomfort (1.718116) chorizo (1.680009) restroom (1.672631) vari (1.652601) bistro (1.620193) argu (1.610410) host (1.589612) 
100 (1.925001) switch (1.810355) imposs (1.766926) fianc (1.693997) tab (1.683057) human (1.668512) mistak (1.614130) proceed (1.593064) max (1.538279) bc (1.534490) 
gem (2.059894) waffl (1.758732) tree (1.756578) led (1.682258) driver (1.677045) repeat (1.651239) asid (1.636109) couldnt (1.620026) flag (1.598944) build (1.515185) 
Error (train/valid/test) = 0.288254/1.315282/1.328453 (0.060840)
..................................................
energy after gradient step = 14019622.313311

Top words for each topic:
wow (1.806387) gourmet (1.793765) middl (1.710949) strang (1.690979) countri (1.687287) act (1.645388) off (1.634257) biggest (1.615525) tequila (1.610816) gay (1.608132) 
theme (1.902973) ventur (1.810867) 9 (1.786339) rub (1.770561) cilantro (1.733671) balanc (1.732626) undercook (1.726182) difficult (1.695801) strawberri (1.692678) delight (1.685074) 
aw (1.923775) chorizo (1.795741) plain (1.723095) law (1.671603) stool (1.652910) vari (1.642750) speak (1.597972) argu (1.596950) zero (1.584259) bistro (1.565252) 
100 (1.908678) switch (1.772604) mistak (1.742211) imposs (1.728803) eye (1.676641) pure (1.664217) cap (1.659958) textur (1.654957) learn (1.628759) bc (1.627553) 
gem (1.983009) tree (1.776524) flag (1.709307) waffl (1.621828) repeat (1.596445) might (1.594173) couldnt (1.575826) deli (1.575152) driver (1.560825) asid (1.558385) 
Error (train/valid/test) = 0.269301/1.324274/1.338530 (0.059765)
..................................................
energy after gradient step = 14003083.012705

Top words for each topic:
act (1.889225) massiv (1.732192) off (1.729140) explain (1.696602) intrigu (1.696091) countri (1.673918) trust (1.672606) middl (1.663494) burnt (1.651746) gourmet (1.646884) 
ventur (2.077663) undercook (1.876942) suit (1.876340) strawberri (1.871471) theme (1.840459) 9 (1.808407) cilantro (1.807878) rub (1.742393) tourist (1.727863) leftov (1.680569) 
chorizo (2.046221) stool (1.927511) aw (1.904804) speak (1.847134) orang (1.766571) partner (1.747071) engag (1.672871) mood (1.665459) spent (1.658169) everybodi (1.653777) 
cap (1.883896) 100 (1.826088) textur (1.818552) fianc (1.801314) bc (1.794762) human (1.779682) imposs (1.754090) eye (1.744245) italian (1.735364) cosmo (1.673443) 
tree (1.875704) gem (1.856104) flag (1.831500) led (1.764907) driver (1.754176) might (1.737561) contain (1.727269) invent (1.722536) fli (1.677726) asid (1.670588) 
Error (train/valid/test) = 0.206065/1.361098/1.382601 (0.062629)
..................................................
energy after gradient step = 13991701.324519

Top words for each topic:
volum (1.991492) awkward (1.898127) refil (1.894381) massiv (1.840546) act (1.831106) finest (1.818945) wow (1.772698) cow (1.762845) folk (1.759902) explain (1.751363) 
ventur (2.221501) suit (2.127430) leftov (2.018911) voic (1.977738) 9 (1.968007) difficult (1.943553) photo (1.890029) rub (1.880818) begin (1.779935) theme (1.754308) 
aw (2.071296) chorizo (1.970664) stool (1.960383) belgian (1.957559) def (1.919109) everybodi (1.896204) speak (1.855116) housemad (1.835933) law (1.833660) artichok (1.786520) 
cap (2.078229) hidden (2.057745) unless (1.999658) textur (1.956429) fianc (1.940573) 100 (1.907543) italian (1.837680) imposs (1.833224) eye (1.830906) diet (1.800271) 
contain (1.925325) nyc (1.919271) sucker (1.868141) deli (1.855291) gem (1.815054) corona (1.799801) fell (1.770894) 7pm (1.770319) morn (1.767734) focus (1.758229) 
Error (train/valid/test) = 0.155960/1.403931/1.422251 (0.066399)
..................................................
energy after gradient step = 13984997.610445

Top words for each topic:
act (1.942427) finest (1.879765) off (1.866481) folk (1.847957) massiv (1.836404) middl (1.828200) wow (1.794092) refil (1.731197) popular (1.727557) awkward (1.702286) 
ventur (2.205149) suit (2.009370) leftov (1.978811) difficult (1.957697) 9 (1.895039) chat (1.859853) voic (1.850891) base (1.846686) begin (1.834045) theme (1.829052) 
belgian (2.400243) aw (2.312662) def (2.062062) speak (2.024496) stool (1.957066) chorizo (1.917819) law (1.871053) everybodi (1.830319) host (1.814423) stumbl (1.804746) 
unless (2.105804) fianc (2.074569) cap (2.051000) textur (1.975839) italian (1.936058) hidden (1.918465) 100 (1.837096) eye (1.816520) bc (1.740127) libat (1.739836) 
morn (1.969300) deli (1.940899) salsa (1.876120) gem (1.866608) 7pm (1.827689) confirm (1.818768) focus (1.800278) contain (1.778620) creativ (1.764813) world (1.745004) 
Error (train/valid/test) = 0.145588/1.417872/1.435919 (0.068182)
..................................................
energy after gradient step = 13978080.078026

Top words for each topic:
folk (1.957880) popular (1.957173) wow (1.920075) biggest (1.865761) tofu (1.844214) finest (1.844159) act (1.817104) volum (1.764047) massiv (1.760999) off (1.733965) 
ventur (2.273439) difficult (2.074972) suit (2.043972) leftov (1.992989) begin (1.929812) rub (1.912146) import (1.906759) theme (1.893825) direct (1.847889) base (1.831970) 
aw (2.200468) belgian (2.182558) stool (2.054552) def (2.020060) host (1.923866) speak (1.891468) artichok (1.842954) mad (1.828880) current (1.825755) moment (1.807493) 
unless (2.143493) cap (2.077546) italian (1.977522) textur (1.939551) fianc (1.912270) eye (1.900926) hidden (1.873275) imposs (1.814584) ladi (1.808814) nonsmok (1.799773) 
morn (2.057726) gem (1.967510) deli (1.948185) contain (1.921674) flag (1.856532) waffl (1.837039) sucker (1.812852) 7pm (1.792179) confirm (1.790085) driver (1.770239) 
Error (train/valid/test) = 0.146914/1.435919/1.449178 (0.070136)
..................................................
energy after gradient step = 13968863.561712

Top words for each topic:
off (1.995274) finest (1.877803) middl (1.873616) act (1.871027) popular (1.860324) grand (1.803205) volum (1.795839) explain (1.773194) bother (1.745329) die (1.737520) 
ventur (2.435607) suit (2.177643) theme (2.066016) rub (1.956475) direct (1.903644) leftov (1.885981) glad (1.875650) import (1.861887) difficult (1.861575) 9 (1.838994) 
aw (2.243237) belgian (2.166997) stool (2.039644) def (2.011034) speak (2.009251) chorizo (1.980928) occas (1.924817) host (1.905293) current (1.878562) initi (1.851541) 
unless (2.152724) textur (2.101861) cap (2.099470) italian (2.020631) fianc (1.929190) healthi (1.912201) ladi (1.904158) hidden (1.888803) tessaro (1.856009) pure (1.830173) 
contain (1.942284) driver (1.886307) brie (1.881197) deli (1.867338) confirm (1.864700) hop (1.858092) flag (1.852375) morn (1.826047) attempt (1.815638) nyc (1.812055) 
Error (train/valid/test) = 0.130047/1.433679/1.452577 (0.068610)
..................................................
energy after gradient step = 13964661.452016

Top words for each topic:
tuesday (2.033513) act (1.975261) volum (1.939342) awkward (1.917469) folk (1.897660) off (1.896568) die (1.881332) middl (1.837585) popular (1.812990) finest (1.798031) 
ventur (2.339415) suit (2.118572) difficult (1.952298) rave (1.937144) base (1.927478) chat (1.921892) rub (1.903808) leftov (1.889027) theme (1.885532) accident (1.862435) 
belgian (2.177026) speak (2.063660) aw (2.040865) chorizo (2.038189) stool (1.994059) current (1.882304) occas (1.878672) host (1.871320) applebe (1.845968) kielbasa (1.841495) 
cap (2.209819) ladi (2.112406) textur (2.073361) unless (2.060397) italian (2.060137) hidden (2.011222) fianc (1.879223) tessaro (1.870847) libat (1.864098) extrem (1.824859) 
contain (1.995237) morn (1.922117) gem (1.913185) salsa (1.856365) hop (1.841284) deli (1.840972) nyc (1.833923) flag (1.818808) driver (1.818532) focus (1.802882) 
Error (train/valid/test) = 0.124817/1.441025/1.458711 (0.069051)
..................................................
energy after gradient step = 13955938.128599

Top words for each topic:
folk (2.003306) die (2.000446) volum (1.987511) act (1.982442) awkward (1.957256) tuesday (1.861202) trust (1.812896) grand (1.796920) refil (1.794894) off (1.780438) 
ventur (2.346336) suit (2.084732) import (1.982733) difficult (1.954130) leftov (1.929113) direct (1.892552) theme (1.889446) rub (1.857084) scallop (1.803653) strawberri (1.800693) 
belgian (2.367466) chorizo (2.102623) aw (2.069428) stool (2.056994) nearbi (1.977937) cup (1.973498) tonight (1.971754) speak (1.924330) def (1.894612) batter (1.888008) 
cap (2.264532) textur (2.144427) unless (2.132253) italian (2.130957) ladi (1.961460) fianc (1.902407) 100 (1.874995) hidden (1.849644) sampl (1.799588) pure (1.781463) 
contain (2.171763) salsa (2.034021) deli (1.893778) gem (1.886810) flag (1.856750) morn (1.852320) hop (1.820235) skip (1.802811) sucker (1.802452) confirm (1.796443) 
Error (train/valid/test) = 0.123209/1.451918/1.468307 (0.067980)
..................................................
energy after gradient step = 13946741.329909

Top words for each topic:
folk (2.047848) tuesday (1.999199) volum (1.985753) explain (1.962093) act (1.951432) die (1.880778) popular (1.808506) overlook (1.796310) rate (1.783323) freak (1.776694) 
ventur (2.394949) import (2.123195) base (2.094116) difficult (2.056789) suit (2.023605) leftov (1.997652) begin (1.932753) agre (1.924273) chat (1.903334) steam (1.868775) 
belgian (2.181863) aw (2.156091) host (2.017520) kielbasa (1.993189) chorizo (1.981603) speak (1.968396) occas (1.910618) bathroom (1.890304) artichok (1.868897) batter (1.814394) 
cap (2.186155) ladi (2.062988) unless (2.059064) hidden (1.995090) 8 (1.976835) 100 (1.926386) pure (1.910305) textur (1.892715) italian (1.891021) pot (1.857388) 
contain (2.115422) nyc (1.976327) salsa (1.907702) skip (1.887942) deli (1.859193) sens (1.841925) knew (1.840668) confirm (1.832811) flag (1.783786) sucker (1.774371) 
Error (train/valid/test) = 0.115771/1.460350/1.477813 (0.070301)
..................................................
energy after gradient step = 13939770.974526

Top words for each topic:
folk (2.114209) tuesday (2.035143) volum (1.964051) awkward (1.917907) profession (1.900396) explain (1.883221) act (1.852107) biggest (1.786793) die (1.770293) freak (1.761225) 
ventur (2.399858) suit (2.331960) base (2.077878) begin (2.028993) difficult (2.003335) scallop (1.994584) leftov (1.993894) rub (1.951675) undercook (1.927049) omg (1.868014) 
aw (2.122571) belgian (2.084335) host (2.071452) chorizo (2.037703) bathroom (2.008292) def (1.995337) stool (1.967653) speak (1.963755) artichok (1.954305) tonight (1.917771) 
hidden (2.209069) unless (2.193562) cap (2.184394) italian (2.112402) ladi (2.009011) textur (2.006437) 100 (1.965218) imposs (1.924249) libat (1.845457) fianc (1.843539) 
contain (2.196002) nyc (1.994923) gem (1.977346) morn (1.918663) build (1.891527) salsa (1.881493) hofbrauhaus (1.853091) confirm (1.852771) sens (1.841258) arugula (1.818018) 
Error (train/valid/test) = 0.113365/1.468759/1.485813 (0.070296)
..................................................
energy after gradient step = 13930319.419280

Top words for each topic:
folk (2.157356) tuesday (2.050501) act (1.971610) volum (1.961208) explain (1.957247) profession (1.901390) money (1.860552) awkward (1.816620) middl (1.792814) pm (1.788960) 
suit (2.345472) ventur (2.336835) base (2.087858) undercook (2.079970) difficult (2.023897) rub (1.957339) import (1.956630) pierogi (1.944135) chat (1.943421) leftov (1.942158) 
aw (2.349556) belgian (2.118274) speak (2.111771) stool (2.063830) chorizo (1.999455) artichok (1.995262) bathroom (1.914410) batter (1.891528) def (1.884216) nearbi (1.875806) 
cap (2.246233) hidden (2.147935) textur (2.140957) ladi (2.091858) unless (2.043270) italian (1.973172) fianc (1.958263) 8 (1.937129) 100 (1.898296) libat (1.895167) 
contain (2.153767) hofbrauhaus (1.975662) gem (1.972890) morn (1.910425) build (1.907560) salsa (1.892454) sens (1.891383) nyc (1.875344) fell (1.839238) waffl (1.821077) 
Error (train/valid/test) = 0.111905/1.472135/1.490718 (0.070596)
..................................................
energy after gradient step = 13922152.352048

Top words for each topic:
folk (2.246812) suggest (2.117041) act (2.094272) tuesday (2.037834) profession (1.996249) volum (1.966152) awkward (1.959200) overlook (1.871362) concert (1.823610) gonna (1.822714) 
ventur (2.465017) base (2.261879) scallop (2.245906) rub (2.125006) suit (2.119955) import (2.109648) yeah (2.000113) steam (1.986353) leftov (1.978684) agre (1.974137) 
aw (2.297222) belgian (2.244036) bathroom (2.098159) chorizo (2.089216) speak (2.077778) def (2.061421) stool (2.001480) tonight (1.993450) kielbasa (1.954800) host (1.952934) 
cap (2.176694) italian (2.024917) textur (2.023243) unless (2.008930) hidden (2.005714) 100 (1.923762) whiskey (1.913334) ladi (1.872795) lamb (1.851229) proceed (1.829950) 
nyc (2.093496) hofbrauhaus (2.031976) morn (1.992801) contain (1.978412) build (1.872726) confirm (1.852072) privat (1.843154) fell (1.839361) gluten (1.832923) salsa (1.826909) 
Error (train/valid/test) = 0.109339/1.475837/1.505616 (0.071991)
..................................................
energy after gradient step = 13905681.448647

Top words for each topic:
act (2.237203) tuesday (2.198300) profession (2.156482) volum (2.043969) die (1.977799) explain (1.949344) biscuit (1.938518) suggest (1.927551) folk (1.924741) readi (1.907233) 
base (2.387116) tourist (2.259606) ventur (2.259187) begin (2.239447) suit (2.237994) leftov (2.136858) pierogi (2.079544) import (2.011903) rub (1.977719) today (1.976355) 
aw (2.463930) belgian (2.351382) stool (2.201143) chorizo (2.177797) speak (2.164707) artichok (2.149299) def (2.128579) tonight (2.052993) nearbi (2.052161) bathroom (1.979607) 
cap (2.160578) hidden (2.070186) fianc (2.059809) unless (2.034886) cole (2.013624) ladi (2.000634) tessaro (1.996720) 100 (1.985969) italian (1.921210) tab (1.893840) 
hofbrauhaus (2.261099) build (2.117163) request (2.116749) sens (2.113171) waffl (2.082212) deli (2.033075) destin (1.975229) sampler (1.959917) fell (1.925834) age (1.921156) 
Error (train/valid/test) = 0.109107/1.495751/1.521281 (0.072856)
..................................................
energy after gradient step = 13898503.224509

Top words for each topic:
tuesday (2.217947) die (2.074527) volum (2.051667) act (2.042902) club (2.020688) folk (2.017491) profession (1.922606) concert (1.917982) rate (1.907334) suggest (1.894958) 
base (2.350437) ventur (2.334346) leftov (2.120485) begin (2.107044) eaten (2.096818) tourist (2.064712) suit (2.056624) seen (2.048381) rub (2.017619) cure (2.004737) 
aw (2.417592) chorizo (2.278509) belgian (2.259021) artichok (2.187592) stool (2.184830) kaya (2.118418) def (2.096016) kielbasa (2.066516) nearbi (1.962650) egg (1.949099) 
cap (2.192424) 100 (2.131458) hidden (2.021579) textur (1.989514) cole (1.980862) italian (1.962358) nonsmok (1.944798) though (1.921309) fianc (1.911846) lamb (1.901507) 
hofbrauhaus (2.234374) build (2.086950) deli (2.085071) waffl (2.078836) repeat (1.995902) destin (1.965982) salsa (1.957279) request (1.943763) belli (1.922731) skip (1.911809) 
Error (train/valid/test) = 0.110350/1.504851/1.528535 (0.071478)
..................................................
energy after gradient step = 13887413.514823

Top words for each topic:
tuesday (2.169922) profession (2.080716) volum (2.017323) club (2.003838) folk (1.992622) act (1.959297) explain (1.948151) trust (1.925651) suggest (1.922993) die (1.921534) 
ventur (2.365211) base (2.305516) tourist (2.191191) begin (2.149380) leftov (2.078004) scallop (2.073178) suit (2.056843) eaten (2.056627) difficult (2.045233) pierogi (2.035950) 
aw (2.302730) stool (2.261873) chorizo (2.222783) kaya (2.202359) belgian (2.195991) artichok (2.163871) def (2.062970) kielbasa (1.981690) bathroom (1.977830) egg (1.968643) 
100 (2.150473) cap (2.140189) cole (2.085792) hidden (2.079778) fianc (1.957155) ladi (1.949459) lamb (1.941029) tessaro (1.929657) textur (1.918745) italian (1.916145) 
hofbrauhaus (2.282462) build (2.023438) waffl (2.013547) sampler (1.956135) contain (1.952041) request (1.948674) destin (1.945183) deli (1.909581) repeat (1.905061) sens (1.904235) 
Error (train/valid/test) = 0.109390/1.516582/1.523984 (0.070421)
..................................................
energy after gradient step = 13877780.114336

Top words for each topic:
tuesday (2.185454) club (2.145688) money (2.039971) profession (2.034547) suggest (2.013826) act (2.009831) volum (1.994941) downstair (1.983958) rate (1.981000) concert (1.966075) 
base (2.311581) ventur (2.262291) tourist (2.144001) begin (2.142068) suit (2.129855) import (2.113590) leftov (2.094854) pierogi (2.057975) today (2.020886) creami (2.018830) 
aw (2.354321) belgian (2.309541) stool (2.276769) kaya (2.234602) chorizo (2.172358) artichok (2.148594) mad (2.039310) kielbasa (2.033927) egg (2.008203) cost (2.004891) 
cap (2.153176) hidden (2.115901) 100 (2.093691) cole (2.091522) textur (2.067668) fianc (1.977013) unless (1.962556) state (1.959510) tab (1.932938) nonsmok (1.919470) 
hofbrauhaus (2.393339) waffl (2.107532) build (2.097317) sens (2.053497) hall (1.984376) repeat (1.957198) nyc (1.954054) request (1.934043) deli (1.933508) skip (1.895309) 
Error (train/valid/test) = 0.105978/1.526906/1.530971 (0.071190)
..................................................
energy after gradient step = 13866017.506367

Top words for each topic:
tuesday (2.182441) club (2.178432) profession (2.010277) volum (1.980141) act (1.963059) folk (1.958683) die (1.946115) trust (1.936076) imagin (1.916646) rate (1.913302) 
base (2.340108) begin (2.301293) ventur (2.238195) tourist (2.142902) agre (2.132078) today (2.064105) suit (2.057844) eaten (2.057140) difficult (2.020900) leftov (2.014897) 
kaya (2.429468) aw (2.300219) stool (2.214990) belgian (2.205842) chorizo (2.144242) def (2.047105) late (2.045656) nearbi (2.043498) kielbasa (2.027416) occas (2.000799) 
cole (2.264053) cap (2.255690) hidden (2.203085) fianc (2.180199) 100 (2.099037) oh (1.998257) state (1.963432) unless (1.962710) tab (1.932152) ladi (1.932000) 
hofbrauhaus (2.462821) build (2.235860) sens (2.143857) german (2.086169) waffl (2.004872) sampler (1.984631) hall (1.949592) bier (1.940667) contain (1.939416) age (1.929984) 
Error (train/valid/test) = 0.110330/1.534038/1.535097 (0.072206)
..................................................
energy after gradient step = 13850212.136874

Top words for each topic:
club (2.288713) tuesday (2.219856) dog (2.122497) volum (2.082562) act (2.052786) suggest (2.036494) die (2.031106) folk (1.984198) profession (1.961373) honey (1.949630) 
base (2.306242) suit (2.280390) tourist (2.274203) begin (2.271602) today (2.263790) ventur (2.237974) leftov (2.031749) eaten (2.023589) agre (2.016061) ohio (2.003993) 
kaya (2.409165) belgian (2.390994) aw (2.379841) stool (2.222419) nearbi (2.168271) egg (2.108332) artichok (2.091866) def (2.083816) chorizo (2.065166) stumbl (2.027106) 
cap (2.310982) 100 (2.207941) hidden (2.147760) unless (2.091696) state (2.078757) fianc (2.057339) least (2.014906) though (2.011925) cole (2.002542) ladi (1.921651) 
hofbrauhaus (2.481290) german (2.192883) sens (2.148337) meet (2.130546) waffl (2.120207) hall (2.089537) 20 (2.067332) pretzel (2.044003) nyc (1.981569) build (1.973802) 
Error (train/valid/test) = 0.112445/1.547811/1.522369 (0.070422)
..................................................
energy after gradient step = 13835951.622262

Top words for each topic:
dog (2.287300) club (2.183274) act (2.161950) folk (2.122748) tuesday (2.109094) imagin (2.061727) die (2.023834) downstair (1.994640) volum (1.958692) explain (1.943533) 
base (2.367053) ventur (2.271432) begin (2.265969) tourist (2.239060) today (2.135856) eaten (2.083426) primanti (2.047002) frozen (2.000024) pierogi (1.993418) leftov (1.981329) 
kaya (2.572988) aw (2.267539) belgian (2.154598) stool (2.153873) def (2.142905) chorizo (2.126476) slaw (2.112639) nearbi (2.087060) egg (2.065536) late (2.055088) 
cap (2.357835) state (2.182961) hidden (2.151521) 100 (2.144665) least (2.143994) cole (2.110622) industri (2.043406) manag (2.039971) fianc (2.036273) oh (2.009265) 
hofbrauhaus (2.566568) german (2.273563) hall (2.171293) waffl (2.118186) bier (2.114093) homemad (2.087354) sampler (2.071458) age (2.062445) pretzel (2.043973) dim (2.036074) 
Error (train/valid/test) = 0.114126/1.552653/1.529237 (0.071376)
..................................................
energy after gradient step = 13821800.375787

Top words for each topic:
dog (2.445847) club (2.297091) tuesday (2.170318) ds (2.144994) act (2.142819) folk (2.081037) volum (2.075149) imagin (2.070894) biggest (2.048990) readi (2.039432) 
tourist (2.401331) base (2.393574) ventur (2.272076) begin (2.249025) today (2.222523) primanti (2.177819) pierogi (2.032232) undercook (2.010296) creami (2.005426) seen (1.995498) 
kaya (2.721221) aw (2.253934) belgian (2.200808) artichok (2.188389) chorizo (2.187044) egg (2.179969) slaw (2.160684) stool (2.157523) late (2.086906) casual (2.063705) 
cap (2.235865) hidden (2.163256) industri (2.144744) 100 (2.126903) though (2.117519) fianc (2.096477) state (2.096067) oh (2.089045) least (2.065928) manag (2.046587) 
hofbrauhaus (2.581198) german (2.478844) pretzel (2.288524) hall (2.219932) sampler (2.193316) waffl (2.162336) age (2.123283) sens (2.067687) dim (2.058488) brie (2.016927) 
Error (train/valid/test) = 0.116526/1.565769/1.542111 (0.071612)
..................................................
energy after gradient step = 13802464.740258

Top words for each topic:
dog (2.564326) tuesday (2.415591) act (2.305619) club (2.274417) money (2.259755) ds (2.230427) concert (2.185779) downstair (2.153766) imagin (2.116369) saloon (2.106808) 
base (2.359584) primanti (2.326038) ventur (2.265404) tourist (2.246144) begin (2.221090) pierogi (2.213566) today (2.185032) seen (2.148233) undercook (2.108922) doubl (2.017586) 
kaya (2.695305) aw (2.415166) stool (2.334611) belgian (2.286884) artichok (2.163354) egg (2.047905) chorizo (2.046556) slaw (2.033502) anyon (2.015952) casual (2.012116) 
hidden (2.265261) industri (2.265140) 100 (2.190186) oh (2.173537) cap (2.160517) state (2.126328) cole (2.102432) least (2.097645) pretenti (2.087779) manag (2.086345) 
hofbrauhaus (2.712938) german (2.636622) pretzel (2.431241) hall (2.384720) waffl (2.263798) dim (2.205132) sens (2.181783) rare (2.107817) sampler (2.106774) casbah (2.068665) 
Error (train/valid/test) = 0.121934/1.574846/1.536184 (0.071507)
..................................................
energy after gradient step = 13781596.787648

Top words for each topic:
dog (2.717403) club (2.415832) tuesday (2.310522) ds (2.276369) money (2.248541) imagin (2.224568) act (2.223754) saloon (2.187175) volum (2.134089) cave (2.128945) 
primanti (2.389075) base (2.256949) begin (2.244595) ventur (2.213782) tourist (2.201410) today (2.178063) seen (2.117479) doubl (2.106320) pierogi (2.103282) 9 (2.083143) 
kaya (2.761545) belgian (2.323703) aw (2.289194) stool (2.287710) chorizo (2.173521) jerk (2.106857) slaw (2.104299) artichok (2.096262) casual (2.086220) trip (2.048694) 
hidden (2.313319) industri (2.298262) cap (2.296595) 100 (2.246386) cole (2.192344) unless (2.184645) oh (2.164674) state (2.142866) though (2.127128) least (2.110982) 
german (2.699606) hofbrauhaus (2.683538) pretzel (2.460775) dim (2.446286) hall (2.413809) pork (2.184495) bier (2.170395) casbah (2.155274) sens (2.144476) rare (2.143034) 
Error (train/valid/test) = 0.127336/1.588076/1.533826 (0.070250)
..................................................
energy after gradient step = 13759053.267439

Top words for each topic:
dog (2.856487) tuesday (2.372856) club (2.322376) money (2.302350) ds (2.299408) cave (2.269616) saloon (2.235463) act (2.191187) concert (2.175860) downstair (2.175819) 
base (2.503876) primanti (2.493323) ventur (2.360723) pierogi (2.346832) tourist (2.266203) begin (2.161805) undercook (2.136790) cheesesteak (2.124316) doubl (2.083577) today (2.077025) 
kaya (2.874631) aw (2.488104) belgian (2.289469) stool (2.266861) artichok (2.214874) slaw (2.167249) casual (2.162163) chorizo (2.086079) strip (2.063570) def (2.043628) 
industri (2.409673) oh (2.362182) hidden (2.293995) cap (2.229320) state (2.215426) 100 (2.168328) unless (2.150820) though (2.139295) cole (2.131745) least (2.116929) 
german (2.857852) hofbrauhaus (2.822441) pretzel (2.602229) hall (2.484417) dim (2.303060) authent (2.284256) sens (2.247144) pork (2.239950) casbah (2.239818) sampler (2.237546) 
Error (train/valid/test) = 0.138050/1.594911/1.543060 (0.070179)
..................................................
energy after gradient step = 13733122.520681

Top words for each topic:
dog (2.939981) club (2.533155) ds (2.507991) cave (2.397945) downstair (2.368867) dive (2.310734) saloon (2.306482) money (2.294326) tuesday (2.251870) act (2.215551) 
primanti (2.529345) ventur (2.385681) tourist (2.348853) base (2.323345) cheesesteak (2.209575) sandwich (2.180684) pierogi (2.163286) begin (2.154038) undercook (2.150124) today (2.138585) 
kaya (2.807948) aw (2.283435) slaw (2.277019) stool (2.255982) soggi (2.232993) artichok (2.201198) belgian (2.198748) jerk (2.134076) chorizo (2.111868) casual (2.099867) 
industri (2.398498) oh (2.310328) cap (2.280416) hidden (2.264297) 100 (2.262578) though (2.203127) least (2.183867) unless (2.149481) fianc (2.129831) ladi (2.110302) 
german (2.920997) hofbrauhaus (2.756190) pretzel (2.650278) dim (2.559596) hall (2.521740) pork (2.335474) reserv (2.313972) authent (2.277499) sampler (2.274833) casbah (2.255331) 
Error (train/valid/test) = 0.149883/1.595607/1.548649 (0.070199)
..................................................
energy after gradient step = 13704355.761017

Top words for each topic:
dog (2.995153) ds (2.489845) cave (2.485916) club (2.402886) gay (2.340163) dive (2.327182) money (2.313266) act (2.265835) downstair (2.261950) saloon (2.247656) 
primanti (2.650826) base (2.418189) sandwich (2.406725) pierogi (2.385721) harri (2.304386) tourist (2.291624) cheesesteak (2.259965) ventur (2.257048) begin (2.254975) undercook (2.178533) 
kaya (2.948440) aw (2.238680) artichok (2.211251) slaw (2.204716) soggi (2.160427) jerk (2.149870) belgian (2.148945) district (2.132052) stool (2.131967) vinegar (2.072610) 
industri (2.432472) oh (2.343985) 100 (2.340166) though (2.241320) hidden (2.239748) cap (2.225368) least (2.200698) state (2.175834) fianc (2.171693) unless (2.090070) 
german (3.020678) hofbrauhaus (2.876537) pretzel (2.703145) hall (2.588777) dim (2.475957) pork (2.474627) casbah (2.349003) reserv (2.346472) sampler (2.295800) bier (2.291140) 
Error (train/valid/test) = 0.145711/1.590649/1.541644 (0.071758)
..................................................
energy after gradient step = 13671922.115800

Top words for each topic:
dog (3.091205) ds (2.601404) club (2.577762) downstair (2.463826) cave (2.448327) gay (2.428723) dive (2.417471) screen (2.343979) act (2.331892) tuesday (2.296616) 
primanti (2.790155) sandwich (2.677392) base (2.370626) tourist (2.366725) pierogi (2.281793) coleslaw (2.263019) bros (2.255251) cheesesteak (2.249301) cole (2.231089) today (2.175189) 
kaya (2.994904) belgian (2.409005) stool (2.302241) soggi (2.179540) jerk (2.163914) aw (2.160083) strip (2.159604) casual (2.159521) slaw (2.111133) artichok (2.103379) 
industri (2.483934) oh (2.476031) cap (2.409128) hidden (2.315597) 100 (2.223186) fianc (2.164603) state (2.145497) least (2.118202) though (2.112713) manag (2.091619) 
german (3.099543) hofbrauhaus (2.907548) pretzel (2.816897) dim (2.658767) hall (2.568149) pork (2.521628) casbah (2.478307) reserv (2.417184) dish (2.383529) authent (2.380206) 
Error (train/valid/test) = 0.169796/1.596142/1.551984 (0.069347)
..................................................
energy after gradient step = 13642948.383596

Top words for each topic:
dog (3.143051) ds (2.710104) club (2.662703) cave (2.624280) gay (2.475728) dive (2.450812) polish (2.432686) downstair (2.365253) screen (2.346388) act (2.323411) 
sandwich (2.878338) primanti (2.865049) pierogi (2.418703) cole (2.379121) base (2.377437) coleslaw (2.368352) harri (2.337577) tourist (2.310108) cheesesteak (2.241117) pastrami (2.236589) 
kaya (3.052123) belgian (2.356672) district (2.258492) stool (2.243995) soggi (2.227570) jerk (2.225909) artichok (2.179354) piper (2.151573) winghart (2.109339) casual (2.090736) 
industri (2.692307) oh (2.525253) cap (2.448298) state (2.374519) hidden (2.326105) ladi (2.153359) fianc (2.148249) apolog (2.133708) least (2.130544) 100 (2.121146) 
german (3.168657) hofbrauhaus (2.950497) pretzel (2.785778) dim (2.693897) pork (2.658708) hall (2.639238) reserv (2.630186) casbah (2.621213) dish (2.559422) wine (2.457815) 
Error (train/valid/test) = 0.185909/1.583834/1.557877 (0.070070)
..................................................
energy after gradient step = 13606049.181585

Top words for each topic:
dog (3.164677) club (2.763801) ds (2.686499) cave (2.636854) dive (2.477803) gay (2.445635) downstair (2.411671) saloon (2.372880) polish (2.363592) screen (2.363331) 
sandwich (3.072124) primanti (2.905409) coleslaw (2.503027) cole (2.389611) pierogi (2.347150) tourist (2.328068) harri (2.325333) cheesesteak (2.322550) base (2.255808) pastrami (2.203391) 
kaya (3.097181) belgian (2.397689) district (2.284426) strip (2.268841) stool (2.257687) winghart (2.253536) soggi (2.241642) jerk (2.232332) artichok (2.185293) piper (2.119818) 
industri (2.644885) oh (2.498989) hidden (2.370407) cap (2.367733) state (2.325648) ladi (2.204306) least (2.147293) 100 (2.143691) manag (2.127281) fianc (2.117831) 
german (3.171134) hofbrauhaus (2.926470) pretzel (2.826958) dim (2.740995) pork (2.702449) hall (2.662057) dish (2.649696) casbah (2.615263) wine (2.564543) reserv (2.529833) 
Error (train/valid/test) = 0.176779/1.557506/1.545853 (0.075057)
..................................................
energy after gradient step = 13565044.714416

Top words for each topic:
dog (3.215204) ds (2.748174) cave (2.665112) club (2.652566) dive (2.600340) gay (2.547963) downstair (2.435869) screen (2.402537) saloon (2.363280) polish (2.348518) 
sandwich (3.248871) primanti (2.965693) cole (2.516245) coleslaw (2.504834) harri (2.419882) base (2.363197) cheesesteak (2.362453) bros (2.321741) tourist (2.317774) pastrami (2.303765) 
kaya (3.121368) belgian (2.425966) winghart (2.420747) burger (2.281172) stool (2.272163) artichok (2.243074) jerk (2.241925) piper (2.231411) district (2.223582) soggi (2.194588) 
industri (2.682887) oh (2.516879) hidden (2.363812) cap (2.348502) state (2.327787) ladi (2.305457) fianc (2.223682) round (2.188060) margarita (2.181984) 100 (2.164194) 
german (3.238150) hofbrauhaus (2.984201) pretzel (2.832733) dish (2.798566) pork (2.778499) dim (2.755168) hall (2.701096) wine (2.679238) casbah (2.647894) reserv (2.636652) 
Error (train/valid/test) = 0.190430/1.544001/1.548001 (0.072738)
..................................................
energy after gradient step = 13522684.510838

Top words for each topic:
dog (3.313655) ds (2.826536) club (2.718991) cave (2.717309) dive (2.600224) gay (2.596497) polish (2.434429) screen (2.431615) downstair (2.423554) saloon (2.417473) 
sandwich (3.453189) primanti (3.160582) coleslaw (2.525561) cole (2.505763) slaw (2.500339) harri (2.475598) bros (2.451198) tourist (2.427272) pastrami (2.423967) grill (2.313567) 
kaya (3.210039) winghart (2.574194) piper (2.562484) burger (2.446334) district (2.411919) soggi (2.410278) belgian (2.407331) stool (2.352378) phone (2.326367) pizza (2.284810) 
industri (2.929074) oh (2.561000) hidden (2.476014) round (2.366240) fianc (2.340568) margarita (2.337002) shot (2.311136) taco (2.282487) ladi (2.241624) manag (2.188533) 
german (3.323175) hofbrauhaus (2.949863) dish (2.939030) pork (2.892287) wine (2.887300) pretzel (2.877417) dim (2.800211) hall (2.777185) casbah (2.736098) reserv (2.612632) 
Error (train/valid/test) = 0.204201/1.526276/1.548298 (0.075413)
..................................................
energy after gradient step = 13483539.809573

Top words for each topic:
dog (3.408998) cave (2.831859) club (2.799434) ds (2.792752) gay (2.602991) dive (2.584900) polish (2.564862) screen (2.504378) saloon (2.485383) tvs (2.468640) 
sandwich (3.689131) primanti (3.325075) cole (2.761246) coleslaw (2.743363) slaw (2.736138) harri (2.550632) pastrami (2.542052) cheesesteak (2.530973) bros (2.461705) tourist (2.383183) 
kaya (3.218761) burger (2.818732) winghart (2.660003) piper (2.544853) belgian (2.527845) pizza (2.411566) soggi (2.378839) stool (2.337597) district (2.307402) artichok (2.286227) 
industri (2.992736) oh (2.686525) hidden (2.465253) round (2.459950) taco (2.409752) cap (2.362727) ladi (2.344638) shot (2.312747) state (2.311887) fianc (2.296459) 
german (3.389330) hofbrauhaus (3.090634) dish (3.058425) wine (3.030859) pork (2.981746) dim (2.958473) pretzel (2.911296) casbah (2.818975) entre (2.806335) reserv (2.690690) 
Error (train/valid/test) = 0.208506/1.498471/1.517237 (0.072413)
..................................................
energy after gradient step = 13435767.518694

Top words for each topic:
dog (3.476370) ds (2.931863) club (2.823901) cave (2.788763) dive (2.662213) gay (2.598122) smoke (2.590950) casino (2.574042) screen (2.553774) danc (2.496641) 
sandwich (3.877872) primanti (3.507126) slaw (2.858683) coleslaw (2.799895) bros (2.710410) cole (2.702252) harri (2.661417) brother (2.600538) pastrami (2.538219) cheesesteak (2.464064) 
kaya (3.256446) burger (3.172376) winghart (2.906327) piper (2.730338) soggi (2.616486) pizza (2.609093) district (2.572454) belgian (2.480567) shipwreck (2.456513) phone (2.304545) 
industri (3.010341) oh (2.531371) taco (2.514437) hidden (2.450755) round (2.442828) corner (2.439073) tab (2.406809) state (2.366787) ladi (2.342324) shot (2.313862) 
german (3.445533) wine (3.294465) dish (3.113252) pork (3.078558) hofbrauhaus (3.073033) entre (3.005252) pretzel (2.992691) dim (2.960535) casbah (2.928191) hall (2.850258) 
Error (train/valid/test) = 0.207669/1.479808/1.512821 (0.071056)
..................................................
energy after gradient step = 13396676.850607

Top words for each topic:
dog (3.492120) ds (2.898531) club (2.859780) cave (2.820498) dive (2.731226) casino (2.688737) smoke (2.670623) danc (2.629326) screen (2.594674) gay (2.586846) 
sandwich (4.038011) primanti (3.634603) slaw (2.964320) coleslaw (2.859290) cole (2.795063) harri (2.708393) bros (2.681376) pastrami (2.632008) grill (2.606222) brother (2.552164) 
kaya (3.302753) burger (3.281001) winghart (2.933418) piper (2.764209) pizza (2.717136) belgian (2.596048) shipwreck (2.589383) soggi (2.521161) district (2.483953) irish (2.447559) 
industri (3.138357) hidden (2.616803) taco (2.570429) tab (2.484538) shot (2.470849) round (2.459646) margarita (2.454227) state (2.388556) corner (2.383212) oh (2.376424) 
german (3.496285) wine (3.406390) dish (3.189656) hofbrauhaus (3.182000) pork (3.162783) entre (3.123180) dim (3.018402) casbah (2.940927) pretzel (2.911072) reserv (2.907665) 
Error (train/valid/test) = 0.213691/1.475570/1.516607 (0.070584)
..................................................
energy after gradient step = 13359689.512304

Top words for each topic:
dog (3.518516) ds (2.875172) club (2.823405) cave (2.805279) danc (2.733308) dive (2.716172) casino (2.627192) smoke (2.614308) gay (2.597767) screen (2.594525) 
sandwich (4.169730) primanti (3.720803) slaw (3.049999) coleslaw (2.941961) cole (2.865315) harri (2.780195) brother (2.769772) pastrami (2.766716) bros (2.736130) grill (2.659131) 
burger (3.567270) kaya (3.296526) winghart (3.074547) piper (2.831035) pizza (2.830108) soggi (2.690952) shipwreck (2.678027) district (2.602895) belgian (2.550041) irish (2.480573) 
industri (3.137967) hidden (2.705996) taco (2.672137) corner (2.559995) round (2.526899) shot (2.504670) margarita (2.475510) rude (2.452559) guacamol (2.419346) mexican (2.419178) 
german (3.569654) wine (3.516152) pork (3.263692) dish (3.260298) hofbrauhaus (3.219691) dim (3.144464) entre (3.142029) casbah (3.133734) pretzel (3.125507) reserv (2.938246) 
Error (train/valid/test) = 0.217172/1.464229/1.512655 (0.069425)
..................................................
energy after gradient step = 13329863.708534

Top words for each topic:
dog (3.535356) ds (2.979950) cave (2.880589) club (2.874663) danc (2.809894) dive (2.773973) casino (2.698242) gay (2.696742) smoke (2.666495) play (2.601543) 
sandwich (4.207832) primanti (3.787507) slaw (3.136884) coleslaw (3.046324) cole (2.908619) bros (2.805060) pastrami (2.793820) harri (2.780130) grill (2.769175) brother (2.762293) 
burger (3.728185) kaya (3.397781) winghart (3.084267) pizza (2.960185) piper (2.913271) shipwreck (2.759882) district (2.575109) irish (2.552890) soggi (2.545961) squar (2.525752) 
industri (3.142854) taco (2.778558) hidden (2.721983) round (2.631200) margarita (2.600752) corner (2.585794) shot (2.498674) rum (2.445851) tab (2.434672) guacamol (2.432266) 
german (3.630315) wine (3.576203) pork (3.335203) dish (3.301273) hofbrauhaus (3.282597) entre (3.217159) dim (3.170530) casbah (3.121146) pretzel (3.014800) reserv (3.004359) 
Error (train/valid/test) = 0.218777/1.455703/1.509574 (0.068538)
..................................................
energy after gradient step = 13296451.055914

Top words for each topic:
dog (3.584246) danc (3.038805) ds (3.005913) dive (2.901460) club (2.892881) smoke (2.826145) cave (2.813981) casino (2.759582) band (2.735556) gay (2.697288) 
sandwich (4.371890) primanti (3.865150) slaw (3.279762) coleslaw (3.245701) cole (3.002796) harri (2.931969) pastrami (2.904377) grill (2.878277) brother (2.846069) bread (2.841136) 
burger (4.170221) kaya (3.423943) winghart (3.223361) pizza (3.077733) piper (2.995541) shipwreck (2.943361) soggi (2.876805) belgian (2.840826) district (2.635465) irish (2.612417) 
industri (3.233773) taco (2.966486) margarita (2.704356) round (2.585106) hidden (2.572289) rude (2.521299) mexican (2.491181) pitcher (2.468988) sound (2.460381) pot (2.455499) 
wine (3.757902) german (3.672827) dish (3.592483) pork (3.452082) hofbrauhaus (3.367264) entre (3.311997) casbah (3.278526) dim (3.215559) reserv (3.163049) pretzel (3.130734) 
Error (train/valid/test) = 0.213726/1.459598/1.513301 (0.070930)
..................................................
energy after gradient step = 13261490.702378

Top words for each topic:
dog (3.607369) danc (3.163278) ds (3.071471) club (2.971359) smoke (2.946478) cave (2.932752) casino (2.895148) dive (2.889577) play (2.816852) band (2.785170) 
sandwich (4.515522) primanti (3.947796) coleslaw (3.329401) slaw (3.311736) cole (3.078927) bread (2.985102) pastrami (2.982147) bros (2.981505) brother (2.970553) harri (2.946179) 
burger (4.211849) kaya (3.396880) winghart (3.240558) pizza (3.238425) piper (2.962707) shipwreck (2.940116) belgian (2.758875) soggi (2.756034) pub (2.747448) irish (2.699288) 
industri (3.250813) taco (3.010933) margarita (2.777511) round (2.769944) hidden (2.607465) mexican (2.597569) corner (2.574337) pitcher (2.541277) rum (2.540216) colleg (2.525567) 
wine (3.839438) german (3.753981) dish (3.596777) pork (3.523599) hofbrauhaus (3.440641) entre (3.404468) casbah (3.342762) dim (3.290111) pretzel (3.214984) dessert (3.179813) 
Error (train/valid/test) = 0.210715/1.449395/1.516091 (0.068165)
..................................................
energy after gradient step = 13229834.800979

Top words for each topic:
dog (3.659923) danc (3.225121) ds (3.076857) club (3.052845) play (2.927116) smoke (2.919711) dive (2.896704) casino (2.894724) cave (2.850087) gay (2.790796) 
sandwich (4.619618) primanti (4.036654) slaw (3.395471) coleslaw (3.391106) bread (3.105932) cole (3.099421) pastrami (3.020203) harri (3.015439) brother (2.978036) grill (2.950201) 
burger (4.409318) kaya (3.416228) winghart (3.355565) pizza (3.333577) piper (3.112861) shipwreck (3.090241) irish (2.842133) pub (2.841996) belgian (2.818964) fri (2.769604) 
industri (3.388252) taco (3.002030) margarita (2.864395) round (2.826871) guacamol (2.753872) corner (2.750240) rum (2.671410) hidden (2.578293) kilt (2.576877) mexican (2.568797) 
wine (3.997280) german (3.822738) dish (3.651935) pork (3.605589) entre (3.521536) hofbrauhaus (3.471656) casbah (3.420490) dim (3.318565) pretzel (3.264606) dessert (3.252105) 
Error (train/valid/test) = 0.203489/1.451624/1.531167 (0.068394)
..................................................
energy after gradient step = 13195435.094074

Top words for each topic:
dog (3.658526) danc (3.303045) ds (3.150545) cave (3.042559) club (3.009117) smoke (2.991089) casino (2.986866) dive (2.981068) play (2.946409) band (2.911023) 
sandwich (4.743796) primanti (4.114111) slaw (3.466366) coleslaw (3.390825) bread (3.185607) cole (3.165669) pastrami (3.145539) brother (3.091122) harri (3.058325) bros (2.990644) 
burger (4.555113) kaya (3.456259) pizza (3.436445) winghart (3.413311) shipwreck (3.160294) piper (3.106143) irish (2.870419) pub (2.854199) soggi (2.851537) fri (2.833531) 
industri (3.383288) margarita (3.148283) taco (3.130426) round (2.961915) corner (2.770074) guacamol (2.757978) rum (2.756681) mexican (2.753529) slow (2.646384) hidden (2.642555) 
wine (4.063473) german (3.842891) dish (3.725794) pork (3.660550) entre (3.586885) hofbrauhaus (3.514825) casbah (3.490947) dessert (3.366988) dim (3.317998) pretzel (3.308456) 
Error (train/valid/test) = 0.215344/1.475847/1.559660 (0.074458)
..................................................
energy after gradient step = 13175551.353845

Top words for each topic:
dog (3.724979) danc (3.351130) ds (3.174155) club (3.130571) dive (3.072541) casino (3.020063) play (3.012008) band (2.984948) cave (2.927242) smoke (2.907592) 
sandwich (4.797036) primanti (4.169060) slaw (3.535067) coleslaw (3.494642) bread (3.261058) cole (3.229290) pastrami (3.139983) brother (3.125747) harri (3.114198) bros (3.095251) 
burger (4.634178) pizza (3.475248) winghart (3.473497) kaya (3.471915) shipwreck (3.154341) piper (3.128419) irish (3.058817) belgian (2.914710) pub (2.914619) patti (2.865708) 
industri (3.486731) taco (3.135523) margarita (3.054261) guacamol (2.852296) corner (2.829286) round (2.809555) mexican (2.788735) cocktail (2.657193) rum (2.629892) hidden (2.584288) 
wine (4.130709) german (3.918632) pork (3.714964) dish (3.689873) entre (3.638102) casbah (3.560427) hofbrauhaus (3.541131) dim (3.448167) dessert (3.392285) pretzel (3.361495) 
Error (train/valid/test) = 0.194929/1.454770/1.552409 (0.071731)
..................................................
energy after gradient step = 13154522.726842

Top words for each topic:
dog (3.742961) danc (3.406608) ds (3.277855) club (3.107870) dive (3.080031) casino (3.033049) cave (3.023006) play (2.977451) band (2.945287) gay (2.901774) 
sandwich (4.841562) primanti (4.208418) slaw (3.609500) coleslaw (3.534662) bread (3.282427) pastrami (3.220149) cole (3.218931) brother (3.141396) harri (3.120369) bros (3.111199) 
burger (4.687168) kaya (3.520776) winghart (3.507859) pizza (3.504512) shipwreck (3.260642) piper (3.161813) pub (3.087379) irish (2.948727) belgian (2.905365) fri (2.872170) 
industri (3.503205) taco (3.249590) margarita (3.182642) round (2.995381) mexican (2.772374) corner (2.769385) cocktail (2.768606) guacamol (2.758797) hidden (2.706779) rum (2.597508) 
wine (4.229882) german (3.942153) pork (3.787197) dish (3.737327) entre (3.690092) hofbrauhaus (3.583043) casbah (3.569497) pretzel (3.445170) dim (3.440353) dessert (3.418489) 
Error (train/valid/test) = 0.202555/1.451486/1.562309 (0.068785)
..................................................
energy after gradient step = 13139866.759517

Top words for each topic:
dog (3.763625) danc (3.519057) ds (3.262180) casino (3.130367) dive (3.098646) club (3.088587) play (3.081957) cave (3.078617) band (3.009314) gay (2.981265) 
sandwich (4.897661) primanti (4.260360) slaw (3.612372) coleslaw (3.565787) bread (3.408536) cole (3.317358) pastrami (3.261934) brother (3.181114) bros (3.131257) harri (3.106488) 
burger (4.765845) winghart (3.572535) pizza (3.546571) kaya (3.491503) piper (3.265493) shipwreck (3.261608) pub (3.167104) irish (3.137874) medium (2.986871) belgian (2.978454) 
industri (3.542227) taco (3.269319) margarita (3.239267) round (3.030660) cocktail (2.869307) corner (2.855732) mexican (2.854126) guacamol (2.830074) rum (2.770122) hidden (2.736107) 
wine (4.301228) german (4.004732) pork (3.828024) dish (3.757106) entre (3.750835) casbah (3.693317) hofbrauhaus (3.643190) dim (3.544884) dessert (3.474120) pretzel (3.408042) 
Error (train/valid/test) = 0.194431/1.461053/1.564393 (0.069903)
..................................................
energy after gradient step = 13118431.192473

Top words for each topic:
dog (3.767641) danc (3.558626) ds (3.362719) casino (3.196149) band (3.143752) dive (3.136651) club (3.125251) play (3.114857) cave (3.102590) gay (2.942823) 
sandwich (4.984874) primanti (4.313688) slaw (3.670053) coleslaw (3.637692) bread (3.398064) cole (3.350758) pastrami (3.311351) brother (3.211211) harri (3.152890) bros (3.136151) 
burger (4.807275) winghart (3.606537) kaya (3.568243) pizza (3.540652) shipwreck (3.339625) pub (3.266513) piper (3.253667) irish (3.017953) belgian (2.982919) fri (2.974587) 
industri (3.561140) taco (3.296991) margarita (3.178028) round (3.126005) mexican (2.991349) corner (2.980967) guacamol (2.942122) cocktail (2.925285) rum (2.776742) salsa (2.713053) 
wine (4.373386) german (4.058579) pork (3.877726) dish (3.855636) entre (3.778630) casbah (3.729455) hofbrauhaus (3.639668) dessert (3.611385) dim (3.553114) pretzel (3.495977) 
Error (train/valid/test) = 0.189496/1.461649/1.574163 (0.071633)
