corpus = bars_madi.gz
latentReg = 0.000000
lambda = 3.000000
K = 5

nUsers = 3198, nItems = 200, nRatings = 6200

Error w/ offset term only (train/valid/test) = 1.366033/1.515129/1.420337 (0.073157)
Error w/ offset and bias (train/valid/test) = 0.461201/1.297188/1.254920 (0.069717)

..................................................
energy after gradient step = 8910517.812304

Top words for each topic:
raw (1.420573) specialti (1.387587) redeem (1.345756) drinker (1.231306) parmesan (1.142998) anyon (1.137367) engag (1.110338) chaser (1.087528) women (1.044082) pesto (1.013087) 
bomb (1.249330) mug (1.204580) stomach (1.185304) 150 (1.178126) without (1.144124) truth (1.116120) facebook (1.112871) theyd (1.096825) apa (1.059651) brisket (1.029300) 
villag (1.205990) banger (1.130447) branch (1.106680) microbrew (1.102414) accept (1.093102) youv (1.080985) remodel (1.065884) flat (1.024579) stale (1.019079) paint (1.017744) 
groupon (1.449141) overlook (1.351540) thorough (1.308802) ride (1.117760) bargain (1.111623) bro (1.100306) dumpl (1.094136) brick (1.062534) garag (1.049895) wet (1.048605) 
seek (1.164233) golden (1.162882) ran (1.162169) 35 (1.133501) god (1.036065) product (1.023122) magic (1.012610) tater (1.010606) laugh (1.005323) through (0.971226) 
Error (train/valid/test) = 0.764013/1.236808/1.224888 (0.068148)
..................................................
energy after gradient step = 8882883.996666

Top words for each topic:
redeem (1.864058) veranda (1.732476) fillet (1.662665) itd (1.552394) engag (1.530277) hilari (1.509971) common (1.497621) websit (1.419828) fork (1.400770) thin (1.396358) 
apa (1.844670) spring (1.717294) brisket (1.704984) cowboy (1.662815) infus (1.648125) cent (1.647254) pros (1.639117) built (1.569130) wallet (1.537772) cask (1.528252) 
forc (1.802513) unremark (1.724246) demograph (1.660380) jerk (1.656146) jalapeo (1.651100) bison (1.615317) greas (1.604871) mini (1.597439) remodel (1.589399) hollandais (1.556834) 
batch (1.848663) thorough (1.796563) shoot (1.753733) hookah (1.728199) overlook (1.726733) croissant (1.726128) basebal (1.644169) sigh (1.606863) wet (1.578585) groupon (1.571942) 
allig (1.988225) lean (1.660038) em (1.626878) hasnt (1.536653) feta (1.532328) jph (1.517592) african (1.514999) laugh (1.505051) towni (1.495558) cilantro (1.492218) 
Error (train/valid/test) = 0.459925/1.271839/1.249920 (0.071350)
..................................................
energy after gradient step = 8866949.701258

Top words for each topic:
jade (1.933835) darn (1.844688) familiar (1.787236) spinach (1.772324) collect (1.753413) calori (1.717498) art (1.691566) raw (1.691215) bother (1.686428) chaser (1.674498) 
brisket (2.031191) lose (1.921563) support (1.869913) hurri (1.854929) spring (1.849234) built (1.803255) distinct (1.793459) sugar (1.782858) apa (1.754403) appeal (1.691276) 
hummus (1.940263) pumpkin (1.811613) hollandais (1.752713) channel (1.729097) goat (1.717191) mini (1.673318) sticki (1.657242) debat (1.643890) bison (1.627578) recip (1.612200) 
edit (1.964986) thorough (1.834839) cheer (1.796468) shoot (1.760479) schedul (1.751888) ireland (1.742572) accord (1.740857) juke (1.737712) scream (1.719864) sigh (1.702126) 
upscal (1.990000) towni (1.985598) depart (1.866399) basil (1.780314) allig (1.768209) ran (1.764131) shape (1.742252) page (1.719995) 350 (1.711340) golden (1.690290) 
Error (train/valid/test) = 0.335184/1.326388/1.293087 (0.076304)
..................................................
energy after gradient step = 8850870.454275

Top words for each topic:
veranda (2.103707) parmesan (2.042339) itd (2.027404) silver (2.007681) micro (1.970010) jade (1.909588) chaser (1.865731) collect (1.817145) spinach (1.812082) easter (1.803108) 
spring (2.136463) apa (2.042834) basement (1.976102) trendi (1.973319) lose (1.877381) sourdough (1.873865) larger (1.867569) wi (1.820275) tank (1.800131) kohl (1.788628) 
asylum (2.128431) pumpkin (2.066322) bison (1.907618) mini (1.902357) challeng (1.792247) mike (1.752414) forc (1.727941) channel (1.713336) contain (1.708629) gritti (1.677242) 
accord (2.403046) shoot (2.366016) design (2.237308) hookah (2.117578) tempest (1.922307) bargain (1.877836) schedul (1.863405) chorizo (1.849383) edit (1.848777) bob (1.845447) 
allig (2.134483) cilantro (1.965761) gourmet (1.925878) laugh (1.920036) microwav (1.909180) paradis (1.863114) omg (1.854429) basil (1.831141) courteous (1.802242) roommat (1.801830) 
Error (train/valid/test) = 0.240375/1.388412/1.326744 (0.075734)
..................................................
energy after gradient step = 8836873.721990

Top words for each topic:
initi (2.265929) con (2.139296) parmesan (2.123676) micro (2.112852) itd (2.042307) profil (1.995194) hometown (1.985580) chaser (1.960716) jade (1.959537) veranda (1.905040) 
discov (2.260917) distinct (2.238618) whatev (2.123800) support (2.099980) brisket (2.072541) trendi (2.060277) larger (2.046252) spring (1.998769) tank (1.983185) basement (1.956700) 
mini (2.019924) rim (1.992352) wit (1.991940) villag (1.962835) pumpkin (1.866464) english (1.864480) bike (1.861755) pronounc (1.836157) tofu (1.818009) duck (1.800535) 
accord (2.298509) hookah (2.218974) shoot (2.118834) batch (2.055011) clam (2.047989) juke (2.034891) somewhat (2.033309) 630 (2.032018) comp (2.023547) quiet (1.970084) 
ran (2.179567) upscal (2.091032) meant (2.073748) purchas (2.037376) basil (2.037021) target (2.030352) needless (1.960323) cilantro (1.935126) omg (1.923181) laugh (1.917198) 
Error (train/valid/test) = 0.189024/1.428463/1.385331 (0.076492)
..................................................
energy after gradient step = 8824113.448163

Top words for each topic:
veranda (2.181841) initi (2.104141) silver (2.103687) parmesan (2.068227) con (2.034576) micro (2.033726) spinach (1.995813) chaser (1.982843) straight (1.969276) pm (1.945148) 
brisket (2.314406) larger (2.256948) whatev (2.112688) support (2.078226) wi (2.077469) agre (2.048223) trendi (2.047013) tank (2.034051) unbeliev (2.027876) distinct (1.985284) 
pumpkin (2.088907) mini (2.039842) greas (1.983195) villag (1.977639) forc (1.920091) tofu (1.913874) accept (1.899371) rim (1.871649) wit (1.866446) mood (1.854737) 
accord (2.407019) design (2.315633) hookah (2.234618) shoot (2.072067) chorizo (2.043074) batch (2.019539) mustard (1.967238) crumb (1.922169) ireland (1.912713) bodi (1.887801) 
ran (2.227451) target (2.149517) st (2.085958) meant (2.081963) upscal (2.045414) pink (1.932423) courteous (1.930870) fault (1.922717) laugh (1.917268) allig (1.903141) 
Error (train/valid/test) = 0.170317/1.441091/1.398140 (0.078031)
..................................................
energy after gradient step = 8815544.763859

Top words for each topic:
veranda (2.145500) parmesan (2.123945) con (2.089126) initi (2.074654) silver (2.045649) paul (2.006031) wando (1.986857) spinach (1.962856) jade (1.961288) airport (1.959795) 
basement (2.227119) whole (2.149727) trendi (2.141574) larger (2.105263) wi (2.096123) unbeliev (2.086083) discov (2.049761) support (1.999651) barista (1.939649) tank (1.938759) 
english (2.155613) mini (2.059843) greas (2.014940) classi (1.942726) contain (1.940849) cheeseburg (1.929331) similar (1.908052) fare (1.885945) tofu (1.882831) bison (1.878819) 
hookah (2.423262) design (2.312684) somewhat (2.203374) shoot (2.200400) accord (2.166187) heart (2.101781) mustard (2.099872) greatest (2.097657) chorizo (2.075099) sconni (2.045296) 
upscal (2.200554) pink (2.166597) paradis (2.126807) parent (2.118376) basil (2.116778) lean (2.097091) target (2.026328) ran (2.001366) 40 (1.998907) fault (1.959239) 
Error (train/valid/test) = 0.157376/1.459145/1.395745 (0.077188)
..................................................
energy after gradient step = 8807211.468948

Top words for each topic:
initi (2.251678) veranda (2.169867) parmesan (2.145546) paul (2.138552) crave (2.124010) con (2.021975) airport (2.002787) silver (1.999294) california (1.977608) pm (1.939051) 
unbeliev (2.211184) wi (2.153983) discov (2.146166) larger (2.060224) whatev (2.037657) trendi (2.032782) basement (2.031785) brisket (2.030811) sourdough (2.009434) barista (1.982511) 
greas (2.000644) villag (1.993634) mini (1.970338) alcohol (1.969109) complement (1.913269) forc (1.898104) tofu (1.881553) contain (1.876579) wit (1.874729) pumpkin (1.860043) 
hookah (2.408158) accord (2.248452) design (2.234257) shoot (2.207527) greatest (2.073914) ireland (2.063807) edit (2.039953) fat (2.031437) 630 (2.015149) sconni (2.002938) 
st (2.189764) basil (2.178941) upscal (2.118698) ran (2.110903) meant (2.058912) lean (2.039174) paradis (2.016195) allig (1.978021) shape (1.974175) snug (1.969395) 
Error (train/valid/test) = 0.146839/1.467982/1.387575 (0.075135)
..................................................
energy after gradient step = 8793503.167501

Top words for each topic:
parmesan (2.382531) veranda (2.144296) initi (2.093767) paul (2.079497) con (2.049091) crave (2.048582) silver (2.022365) stumbl (2.006611) wando (1.984698) mayo (1.961500) 
larger (2.329195) wi (2.307699) unbeliev (2.187538) discov (2.173750) trendi (2.160482) whatev (2.031360) support (2.028457) basement (2.007741) whole (1.991116) apa (1.984460) 
pumpkin (2.124077) mini (2.049590) villag (2.024128) cheeseburg (1.956310) english (1.948077) bike (1.939866) mussel (1.922833) greas (1.914388) tofu (1.870642) wit (1.848189) 
design (2.313471) accord (2.276561) hookah (2.263321) shoot (2.175347) fat (2.107056) 630 (2.093461) edit (2.081371) ireland (2.050684) comp (2.046553) chorizo (2.045269) 
basil (2.194162) ran (2.186569) paradis (2.168788) upscal (2.118176) lean (2.092024) towni (2.043200) shape (1.996323) deliveri (1.986620) fault (1.944911) meant (1.939197) 
Error (train/valid/test) = 0.145047/1.474551/1.401564 (0.077141)
..................................................
energy after gradient step = 8782518.344790

Top words for each topic:
parmesan (2.293758) silver (2.139624) veranda (2.138548) mayo (2.121206) jade (2.115649) stumbl (2.096441) wando (2.093269) pm (2.078567) con (2.067870) initi (2.061125) 
wi (2.215303) unbeliev (2.195667) trendi (2.144767) larger (2.119869) discov (2.118248) apa (2.087501) agre (2.071503) brisket (2.060961) sourdough (1.996931) support (1.983778) 
mini (2.092930) pumpkin (2.044231) villag (2.043098) english (2.041474) pair (2.007233) mussel (2.000787) forev (1.988634) alcohol (1.962796) complement (1.924685) similar (1.902902) 
hookah (2.435363) accord (2.378189) design (2.295183) edit (2.162544) chorizo (2.153727) 630 (2.111836) shoot (2.109220) ireland (2.095958) tempest (2.055056) rich (2.039853) 
st (2.239347) ran (2.228893) energi (2.096276) upscal (2.092868) deliveri (2.087369) paradis (2.075718) ten (2.059446) courteous (2.051282) allig (2.005229) shape (1.984309) 
Error (train/valid/test) = 0.141271/1.475593/1.406426 (0.077405)
..................................................
energy after gradient step = 8771068.034222

Top words for each topic:
parmesan (2.525479) airport (2.162945) stumbl (2.129251) paul (2.124678) pm (2.123498) mayo (2.112105) silver (2.111825) veranda (2.099984) jade (2.089078) wando (2.038239) 
trendi (2.263535) wi (2.230943) larger (2.179121) support (2.127972) discov (2.121933) spring (2.089950) unbeliev (2.085346) apa (2.057233) theyd (2.039251) sourdough (2.014852) 
mini (2.110444) villag (2.094709) contain (2.052939) pair (2.046793) greas (2.029012) complement (1.978517) pumpkin (1.960159) tofu (1.937099) english (1.908373) mussel (1.906578) 
hookah (2.457398) accord (2.451977) shoot (2.330041) design (2.267752) tempest (2.225908) german (2.206583) edit (2.206237) polka (2.202429) ireland (2.167667) fat (2.160948) 
st (2.273268) ran (2.254548) upscal (2.184196) parent (2.096261) paradis (2.088600) ten (2.081714) ridicul (2.041881) deliveri (2.022874) plantain (2.022728) allig (2.007636) 
Error (train/valid/test) = 0.141593/1.485826/1.422416 (0.079277)
..................................................
energy after gradient step = 8756145.507114

Top words for each topic:
parmesan (2.336374) chaser (2.333593) crave (2.156451) airport (2.146766) wando (2.144732) stumbl (2.121964) mayo (2.088110) spinach (2.084113) itd (2.065792) micro (2.064292) 
wi (2.455664) larger (2.424650) trendi (2.242686) discov (2.224250) basement (2.192948) spring (2.178253) sourdough (2.143192) lose (2.103944) beverag (2.084900) unbeliev (2.070795) 
pumpkin (2.116189) travel (2.097545) pair (2.090556) sour (2.073343) villag (2.065879) english (2.033917) mussel (2.030792) mini (2.011587) anywher (1.960874) shuffl (1.927064) 
hookah (2.493726) boot (2.466162) accord (2.456618) shoot (2.370366) german (2.368378) tempest (2.240231) polka (2.212882) fat (2.203602) edit (2.201981) chorizo (2.159820) 
st (2.230335) jph (2.179487) shape (2.163328) ran (2.153971) deliveri (2.116419) basil (2.090183) target (2.086220) meant (2.052894) courteous (2.031091) snug (2.027605) 
Error (train/valid/test) = 0.147709/1.499595/1.451542 (0.082523)
..................................................
energy after gradient step = 8740648.023820

Top words for each topic:
parmesan (2.420715) crave (2.240849) wando (2.219156) chaser (2.195116) jade (2.188407) micro (2.168319) mayo (2.140331) correct (2.105038) veranda (2.083476) stumbl (2.063784) 
trendi (2.294738) wi (2.282402) discov (2.233251) basement (2.218705) larger (2.202416) sourdough (2.145309) spring (2.124010) agre (2.115994) whatev (2.109500) unbeliev (2.067861) 
cheeseburg (2.123487) pair (2.120557) pumpkin (2.102215) villag (2.086994) merchant (2.082767) travel (2.002564) mussel (1.963775) mini (1.944450) similar (1.929794) bike (1.914704) 
boot (2.599474) german (2.510023) hookah (2.478797) accord (2.432910) shoot (2.354669) polka (2.345949) tempest (2.341884) design (2.296409) oyster (2.219968) fat (2.153610) 
jph (2.436960) st (2.317121) ran (2.153189) shape (2.141343) deliveri (2.115672) towni (2.089300) courteous (2.066028) needless (2.065970) search (2.033592) gorgeous (2.029097) 
Error (train/valid/test) = 0.148039/1.514413/1.471269 (0.086470)
..................................................
energy after gradient step = 8728158.229507

Top words for each topic:
parmesan (2.399989) wando (2.227340) chaser (2.220984) crave (2.143551) mayo (2.141535) initi (2.087209) micro (2.080898) jade (2.079415) fix (2.073877) airport (2.065792) 
larger (2.361555) discov (2.245862) trendi (2.198723) beverag (2.177335) agre (2.171550) wi (2.158068) sourdough (2.156060) whatev (2.119448) spring (2.110124) unbeliev (2.022970) 
pair (2.286454) pumpkin (2.147392) villag (2.097098) mussel (2.096845) travel (2.047184) merchant (2.035635) complement (2.019384) sour (1.987267) vino (1.963336) similar (1.959922) 
boot (2.817611) german (2.698108) hookah (2.578147) polka (2.570997) tempest (2.537521) shoot (2.371336) oyster (2.363851) fat (2.288326) accord (2.242163) thorough (2.212444) 
jph (2.499423) towni (2.211943) st (2.190221) opus (2.148517) meant (2.135220) needless (2.113032) deliveri (2.087760) harmoni (2.083620) ran (2.077874) ya (2.076273) 
Error (train/valid/test) = 0.168169/1.540427/1.493638 (0.090500)
..................................................
energy after gradient step = 8705691.348813

Top words for each topic:
wando (2.272539) parmesan (2.266812) veranda (2.175018) airport (2.169009) crave (2.147667) micro (2.084601) stumbl (2.068320) piano (2.046677) mayo (2.039804) dexter (2.039270) 
agre (2.356451) larger (2.277433) sourdough (2.202884) wi (2.169077) trendi (2.158144) spring (2.142120) discov (2.119281) crystal (2.077481) unbeliev (2.072619) whatev (2.064375) 
merchant (2.234303) pair (2.226027) mussel (2.180371) similar (2.154402) sour (2.111938) villag (2.098018) pumpkin (2.092041) complement (2.004560) vino (1.982593) tofu (1.963319) 
boot (2.968945) german (2.713370) polka (2.633314) hookah (2.602351) tempest (2.502325) shoot (2.432112) haus (2.410639) essen (2.362917) accord (2.353186) thorough (2.347055) 
jph (2.637962) irish (2.268294) st (2.246923) towni (2.244026) opus (2.187406) harmoni (2.167286) needless (2.154144) draft (2.143668) meant (2.139342) laugh (2.128947) 
Error (train/valid/test) = 0.157449/1.542839/1.496531 (0.087274)
..................................................
energy after gradient step = 8685646.227565

Top words for each topic:
stumbl (2.443252) parmesan (2.381741) wando (2.252961) veranda (2.208533) paul (2.184082) mayo (2.169309) airport (2.133162) itd (2.127776) chaser (2.114530) crave (2.070322) 
lose (2.267173) trendi (2.254176) basement (2.197787) tiger (2.193088) crystal (2.184314) beverag (2.172991) tigr (2.151273) brisket (2.113236) discov (2.106522) apa (2.100123) 
merchant (2.407819) pair (2.378801) villag (2.295064) travel (2.190457) harvest (2.137311) mussel (2.068841) mini (2.040569) suggest (2.029408) tofu (1.992457) greas (1.975290) 
boot (3.210175) german (2.987021) polka (2.937061) tempest (2.806818) haus (2.702463) design (2.673877) oyster (2.653107) hookah (2.534448) shoot (2.391724) thorough (2.384803) 
jph (2.721644) st (2.548330) irish (2.457811) towni (2.452570) coffe (2.406951) paradis (2.390336) opus (2.340034) needless (2.305940) brocach (2.298466) claddagh (2.286483) 
Error (train/valid/test) = 0.151463/1.563946/1.512242 (0.091992)
..................................................
energy after gradient step = 8659715.577129

Top words for each topic:
parmesan (2.298263) wando (2.252251) stumbl (2.237706) chaser (2.231050) veranda (2.210743) piano (2.189719) mayo (2.125695) jade (2.116517) univers (2.098437) paul (2.069489) 
larger (2.371669) agre (2.310411) trendi (2.267381) support (2.262154) forget (2.242651) basement (2.241813) tigr (2.192836) apa (2.127021) crystal (2.125219) brisket (2.113514) 
merchant (2.436571) villag (2.225534) pair (2.225079) harvest (2.194333) less (2.131603) english (2.102355) vino (2.087445) mussel (2.082148) pumpkin (2.080214) sour (2.057583) 
boot (3.328298) german (3.114028) polka (2.942186) haus (2.888653) essen (2.843493) oyster (2.784530) hookah (2.682686) thorough (2.621263) tempest (2.593608) shoot (2.478075) 
jph (2.773612) irish (2.759932) coffe (2.595415) meant (2.436351) needless (2.423885) paradis (2.403142) st (2.396713) towni (2.325449) venu (2.313674) tea (2.313411) 
Error (train/valid/test) = 0.151455/1.560314/1.495907 (0.089909)
..................................................
energy after gradient step = 8626634.741420

Top words for each topic:
wando (2.472464) parmesan (2.439370) veranda (2.341017) paul (2.316556) mayo (2.313898) stumbl (2.272227) airport (2.263890) piano (2.262346) crave (2.241945) correct (2.173509) 
tiger (2.413087) basement (2.337133) beverag (2.328572) whatev (2.325242) celebr (2.301165) crystal (2.231190) hotel (2.220037) tigr (2.199550) beach (2.196850) apa (2.153484) 
merchant (2.613777) harvest (2.395972) villag (2.378939) pair (2.321231) cheeseburg (2.214361) dish (2.179917) mussel (2.167806) pumpkin (2.137762) wine (2.115416) bison (2.087125) 
boot (3.475699) german (3.207943) polka (3.161047) tempest (3.008143) haus (2.968608) oyster (2.896067) hookah (2.755061) design (2.699607) essen (2.653037) shoot (2.598068) 
jph (3.140981) irish (2.895222) coffe (2.799718) brocach (2.793794) st (2.628268) venu (2.580615) meant (2.551600) tea (2.488279) paradis (2.453979) clientel (2.416453) 
Error (train/valid/test) = 0.149279/1.579199/1.519131 (0.092937)
..................................................
energy after gradient step = 8595360.083387

Top words for each topic:
parmesan (2.463142) wando (2.373040) veranda (2.276343) airport (2.256549) mayo (2.254510) stumbl (2.198213) piano (2.172297) con (2.145882) jade (2.124705) paul (2.124033) 
whatev (2.403933) tiger (2.316875) hotel (2.309643) tigr (2.298338) basement (2.292732) crystal (2.282190) forget (2.245682) agre (2.208928) park (2.195236) apa (2.167307) 
merchant (2.622093) harvest (2.443066) pair (2.308391) villag (2.297909) vino (2.290029) dish (2.263010) wine (2.255701) mussel (2.249208) pumpkin (2.199042) cream (2.172139) 
boot (3.628866) german (3.326330) polka (3.179921) essen (3.076735) oyster (3.029464) haus (2.990104) tempest (2.925308) hookah (2.850011) shoot (2.590696) design (2.576851) 
irish (3.200372) jph (3.130589) coffe (3.085447) venu (2.720014) brocach (2.681386) meant (2.512725) claddagh (2.452681) paradis (2.426195) opus (2.405604) st (2.389775) 
Error (train/valid/test) = 0.154638/1.603946/1.519921 (0.093340)
..................................................
energy after gradient step = 8560558.499749

Top words for each topic:
parmesan (2.435379) wando (2.369556) veranda (2.312631) airport (2.304464) piano (2.290865) paul (2.235617) stumbl (2.194183) trivia (2.165903) chaser (2.155333) con (2.149043) 
tiger (2.407920) crystal (2.384351) basement (2.351510) tigr (2.316843) celebr (2.287918) club (2.264680) forget (2.250221) beverag (2.228501) discov (2.209140) whatev (2.206555) 
merchant (2.676648) harvest (2.477276) dish (2.362323) villag (2.301882) wine (2.295258) pair (2.271959) mussel (2.205242) cream (2.177856) pork (2.164812) pumpkin (2.145241) 
boot (3.651067) german (3.447885) polka (3.335763) haus (3.210015) oyster (3.158583) tempest (3.014164) essen (3.003874) hookah (2.890754) design (2.662546) shoot (2.608169) 
jph (3.223975) coffe (3.205981) irish (3.200801) brocach (2.877181) venu (2.851572) barista (2.600766) meant (2.585249) st (2.565123) paradis (2.546317) opus (2.506443) 
Error (train/valid/test) = 0.156068/1.597644/1.532899 (0.094362)
..................................................
energy after gradient step = 8521326.103321

Top words for each topic:
wando (2.440286) paul (2.361615) parmesan (2.277493) piano (2.271402) chaser (2.263772) univers (2.254357) airport (2.195995) mayo (2.190840) veranda (2.189928) trivia (2.186666) 
club (2.553982) crystal (2.537820) tigr (2.481570) tiger (2.475093) discov (2.380102) fuck (2.367499) beach (2.361040) whatev (2.341959) unbeliev (2.315984) beverag (2.315595) 
merchant (2.702764) wine (2.654432) harvest (2.575668) dish (2.569082) vino (2.401882) cream (2.307080) pork (2.305059) villag (2.294797) pair (2.271050) mussel (2.234681) 
boot (3.751494) german (3.550960) polka (3.414281) oyster (3.307552) haus (3.251504) essen (3.213539) tempest (3.127125) hookah (3.066670) design (2.905031) accord (2.755384) 
coffe (3.484437) jph (3.276805) irish (3.147194) brocach (3.121878) venu (3.033055) tea (2.858708) harmoni (2.812368) barista (2.811069) paradis (2.779736) dj (2.724169) 
Error (train/valid/test) = 0.157540/1.609049/1.544902 (0.092365)
..................................................
energy after gradient step = 8483437.520322

Top words for each topic:
wando (2.413676) parmesan (2.370024) paul (2.356307) univers (2.311586) airport (2.275267) piano (2.260781) chaser (2.235071) jade (2.188571) veranda (2.177852) mayo (2.169903) 
club (2.674313) tigr (2.517186) crystal (2.498435) tiger (2.497632) forget (2.470387) whatev (2.363844) basement (2.363802) beverag (2.362407) fuck (2.318963) beach (2.307475) 
wine (2.703204) merchant (2.658079) harvest (2.616205) dish (2.548274) villag (2.324283) cream (2.296571) mussel (2.290337) mac (2.287812) pork (2.280905) vino (2.275151) 
boot (3.889555) german (3.683202) polka (3.536285) oyster (3.430099) haus (3.334647) essen (3.285548) tempest (3.170414) hookah (3.089440) design (2.854439) birthday (2.749562) 
coffe (3.718984) irish (3.440295) jph (3.394512) brocach (3.208108) venu (3.179725) paradis (2.869541) harmoni (2.859707) barista (2.854216) tea (2.794033) st (2.734684) 
Error (train/valid/test) = 0.156348/1.604715/1.534153 (0.095008)
..................................................
energy after gradient step = 8442537.212236

Top words for each topic:
wando (2.394278) parmesan (2.393132) paul (2.336149) veranda (2.307901) airport (2.277271) piano (2.274947) summer (2.210790) jade (2.191752) genna (2.181754) con (2.171505) 
club (2.782540) crystal (2.654964) tigr (2.618720) forget (2.515299) tiger (2.511221) whatev (2.482015) beverag (2.424660) beach (2.407775) trendi (2.381630) brisket (2.381375) 
wine (2.752866) merchant (2.718209) harvest (2.582130) dish (2.532391) villag (2.327745) cream (2.321524) pork (2.315226) garlic (2.310540) mac (2.300145) mussel (2.268110) 
boot (3.908108) german (3.747202) polka (3.594434) oyster (3.524223) essen (3.410530) haus (3.391038) tempest (3.293658) hookah (3.155061) birthday (2.908456) design (2.836846) 
coffe (3.712656) jph (3.536520) irish (3.510470) brocach (3.351869) venu (3.269415) barista (3.035780) paradis (2.968483) harmoni (2.889520) noon (2.851873) dive (2.839225) 
Error (train/valid/test) = 0.156174/1.609772/1.529695 (0.091266)
..................................................
energy after gradient step = 8402410.796400

Top words for each topic:
wando (2.415651) paul (2.371635) airport (2.338364) piano (2.293122) genna (2.237007) trivia (2.222126) parmesan (2.206478) dexter (2.201764) summer (2.191877) veranda (2.154339) 
club (2.855402) crystal (2.649411) tigr (2.601455) tiger (2.581157) forget (2.573851) cigar (2.445359) gay (2.429235) brisket (2.416719) whatev (2.404152) brat (2.383553) 
wine (2.824168) merchant (2.752453) harvest (2.624855) dish (2.595444) pork (2.370920) cream (2.360957) vino (2.339673) mussel (2.317923) pickl (2.315120) meal (2.308181) 
boot (3.980230) german (3.833116) polka (3.706596) oyster (3.581589) haus (3.564992) essen (3.510752) tempest (3.345228) hookah (3.243651) birthday (3.067264) lobster (2.881178) 
coffe (3.814892) jph (3.642555) irish (3.634266) brocach (3.455299) venu (3.342735) paradis (3.121352) barista (3.088532) st (3.020173) harmoni (3.016659) tea (3.005807) 
Error (train/valid/test) = 0.156754/1.617169/1.530012 (0.089356)
..................................................
energy after gradient step = 8367891.344319

Top words for each topic:
wando (2.405648) airport (2.385843) parmesan (2.328625) paul (2.328073) piano (2.315191) trivia (2.277718) genna (2.261428) chaser (2.196551) mayo (2.175744) dexter (2.146700) 
club (2.893715) brat (2.665928) tigr (2.626595) tiger (2.601406) crystal (2.581647) forget (2.577360) whatev (2.508968) cigar (2.477995) sport (2.440296) gay (2.428403) 
wine (2.898207) merchant (2.768565) harvest (2.679449) dish (2.646002) pork (2.505886) cream (2.467530) mussel (2.372652) mac (2.350152) meal (2.339896) pickl (2.327548) 
boot (4.150317) german (3.987008) polka (3.725361) oyster (3.665304) essen (3.664303) haus (3.642213) tempest (3.387895) hookah (3.300804) birthday (3.180515) lobster (3.007919) 
coffe (3.944784) irish (3.827961) jph (3.681312) brocach (3.603196) venu (3.495023) paradis (3.219048) barista (3.218275) dive (3.148042) harmoni (3.013860) noon (3.001225) 
Error (train/valid/test) = 0.169707/1.627232/1.544432 (0.094236)
..................................................
energy after gradient step = 8332005.911846

Top words for each topic:
wando (2.450549) paul (2.320290) airport (2.294779) parmesan (2.285311) genna (2.283727) piano (2.241502) dexter (2.186239) chaser (2.169236) patio (2.167572) summer (2.149024) 
club (2.867423) tigr (2.695264) crystal (2.677310) tiger (2.634112) brat (2.633056) whatev (2.601762) gay (2.598366) cigar (2.559837) sport (2.514543) beach (2.464681) 
wine (2.898658) merchant (2.793834) dish (2.715092) harvest (2.689822) pork (2.442570) vino (2.375934) cream (2.341034) meal (2.339848) mussel (2.331994) cook (2.330619) 
boot (4.160153) german (4.059172) polka (3.850911) haus (3.776303) oyster (3.775996) essen (3.700884) tempest (3.372379) hookah (3.339567) birthday (3.217845) lobster (2.991060) 
coffe (3.990992) irish (3.880988) jph (3.747427) brocach (3.617923) venu (3.539808) paradis (3.268161) barista (3.246058) dive (3.136394) harmoni (3.079016) noon (3.013121) 
Error (train/valid/test) = 0.157737/1.616363/1.525423 (0.090935)
..................................................
energy after gradient step = 8304294.113982

Top words for each topic:
airport (2.370449) wando (2.367431) paul (2.323653) genna (2.290838) trivia (2.279206) piano (2.251842) patio (2.248475) chaser (2.240254) dexter (2.195140) parmesan (2.158152) 
club (3.026197) tigr (2.768477) brat (2.759253) crystal (2.724102) gay (2.666753) whatev (2.648622) tiger (2.633237) cigar (2.552406) sport (2.513504) pizza (2.501290) 
wine (2.925416) merchant (2.797249) dish (2.763147) harvest (2.703675) cream (2.495691) pork (2.484879) cook (2.412781) mussel (2.403811) mac (2.381527) meal (2.378718) 
boot (4.241038) german (4.089173) polka (3.919455) oyster (3.811348) haus (3.782274) essen (3.760190) tempest (3.506946) hookah (3.409729) birthday (3.282325) plaza (3.040832) 
coffe (4.064884) irish (4.033143) jph (3.828365) brocach (3.702391) venu (3.619042) barista (3.292967) paradis (3.264343) harmoni (3.161070) dive (3.080355) frequenc (3.049979) 
Error (train/valid/test) = 0.157768/1.626985/1.526788 (0.089138)
..................................................
energy after gradient step = 8274082.044800

Top words for each topic:
patio (2.415129) wando (2.366730) paul (2.345355) parmesan (2.304146) airport (2.296587) piano (2.278581) genna (2.215838) dexter (2.202358) wing (2.194223) chaser (2.176732) 
club (3.022881) tiger (2.878629) crystal (2.860770) tigr (2.827035) brat (2.786016) gay (2.650439) cigar (2.604878) beach (2.573426) granit (2.572261) whatev (2.564584) 
wine (2.903696) merchant (2.805481) dish (2.769902) harvest (2.714224) meal (2.639504) cream (2.552584) pork (2.498372) cook (2.497585) mussel (2.417865) steak (2.404895) 
boot (4.344160) german (4.159091) polka (3.973574) haus (3.925815) essen (3.921081) oyster (3.917968) tempest (3.677346) hookah (3.540456) birthday (3.388968) plaza (3.184690) 
coffe (4.151023) irish (4.141202) jph (3.884605) brocach (3.860913) venu (3.634257) barista (3.495114) paradis (3.473763) harmoni (3.287766) noon (3.243342) frequenc (3.227653) 
Error (train/valid/test) = 0.153720/1.636892/1.524881 (0.090926)
..................................................
energy after gradient step = 8244481.746192

Top words for each topic:
patio (2.398614) wando (2.385488) airport (2.361649) piano (2.329562) genna (2.298547) paul (2.209946) dexter (2.208877) parmesan (2.208785) wing (2.199596) chaser (2.199362) 
club (3.160800) brat (3.012506) crystal (2.934848) tigr (2.872020) cigar (2.752078) tiger (2.751799) pizza (2.630565) granit (2.617758) beach (2.610147) gay (2.585622) 
wine (2.948152) merchant (2.926348) dish (2.823666) harvest (2.822652) meal (2.689454) pork (2.561960) cream (2.512792) cook (2.462641) steak (2.458065) dessert (2.447015) 
boot (4.507069) german (4.264295) polka (4.089061) essen (4.016668) haus (4.004746) oyster (3.981339) tempest (3.678468) birthday (3.617677) hookah (3.589809) plaza (3.277157) 
coffe (4.327556) irish (4.226813) jph (3.962445) brocach (3.868426) venu (3.726728) paradis (3.533457) barista (3.528361) harmoni (3.362148) frequenc (3.241390) dive (3.232699) 
Error (train/valid/test) = 0.151070/1.634617/1.521482 (0.088616)
..................................................
energy after gradient step = 8221571.305057

Top words for each topic:
patio (2.480902) wando (2.417735) airport (2.342828) piano (2.293015) paul (2.291460) parmesan (2.284714) mayo (2.236824) wing (2.229351) genna (2.215802) dexter (2.164829) 
club (3.126232) brat (3.069242) crystal (3.024621) tigr (2.942995) tiger (2.927806) gay (2.809225) beach (2.719903) hotel (2.719612) cigar (2.715895) pizza (2.682940) 
wine (2.970966) dish (2.942980) merchant (2.920909) harvest (2.805022) meal (2.743705) cream (2.626297) pork (2.589417) steak (2.523840) dessert (2.490272) cook (2.471769) 
boot (4.522120) german (4.246216) polka (4.158106) essen (4.100161) oyster (4.092050) haus (4.087904) tempest (3.843184) hookah (3.613623) birthday (3.544524) plaza (3.432628) 
coffe (4.369644) irish (4.269137) jph (4.007085) brocach (3.946141) venu (3.783340) barista (3.539636) harmoni (3.331332) paradis (3.322965) dive (3.310023) frequenc (3.277178) 
Error (train/valid/test) = 0.147734/1.641759/1.522332 (0.089255)
..................................................
energy after gradient step = 8197227.509475

Top words for each topic:
patio (2.507154) airport (2.384598) wando (2.377705) genna (2.305434) piano (2.273390) chaser (2.229375) wing (2.216261) trivia (2.201163) dexter (2.196094) tap (2.180347) 
brat (3.253042) club (3.197582) crystal (3.044806) tigr (2.990391) tiger (2.962314) cigar (2.878167) gay (2.839771) tvs (2.783323) beach (2.772055) sport (2.682118) 
wine (3.031214) dish (2.978461) merchant (2.972291) harvest (2.854560) meal (2.768250) cream (2.658278) pork (2.655407) steak (2.628859) dessert (2.562197) mussel (2.561428) 
boot (4.659738) german (4.314484) polka (4.223602) essen (4.206259) oyster (4.204106) haus (4.186319) tempest (3.857142) birthday (3.702718) hookah (3.694641) plaza (3.471599) 
coffe (4.328136) irish (4.262814) jph (4.011474) venu (3.911831) brocach (3.886460) barista (3.612231) noon (3.392580) harmoni (3.386789) paradis (3.365390) frequenc (3.346004) 
Error (train/valid/test) = 0.146648/1.638086/1.526364 (0.090498)
..................................................
energy after gradient step = 8177051.407785

Top words for each topic:
patio (2.446801) airport (2.376570) wando (2.327892) burger (2.250146) paul (2.237785) piano (2.216167) trivia (2.206707) dexter (2.202244) genna (2.199632) curd (2.195521) 
brat (3.393101) club (3.368847) crystal (3.101137) gay (3.088847) tiger (3.071888) tigr (2.948154) cigar (2.908209) tvs (2.862177) hotel (2.852453) beach (2.833517) 
wine (3.071874) dish (3.012040) merchant (2.991700) meal (2.853088) harvest (2.849748) cream (2.750341) pork (2.663737) steak (2.646063) mussel (2.623389) dessert (2.595110) 
boot (4.693829) german (4.388915) polka (4.286073) essen (4.230491) oyster (4.198687) haus (4.047970) tempest (3.990558) hookah (3.775554) birthday (3.725430) plaza (3.536883) 
coffe (4.452527) irish (4.332640) jph (4.097421) brocach (4.071114) venu (3.838877) barista (3.669302) paradis (3.628227) harmoni (3.434905) frequenc (3.410704) noon (3.392390) 
Error (train/valid/test) = 0.145523/1.648502/1.534318 (0.091125)
..................................................
energy after gradient step = 8155472.743757

Top words for each topic:
patio (2.516523) airport (2.373994) wando (2.335443) wing (2.335108) piano (2.325804) genna (2.322681) burger (2.316854) trivia (2.261243) curd (2.239377) tap (2.196184) 
club (3.456928) brat (3.414914) crystal (3.175914) tigr (3.081005) tiger (3.072594) cigar (3.030139) gay (2.938560) tvs (2.922271) pizza (2.918090) granit (2.870273) 
wine (3.127365) merchant (3.092852) dish (3.022456) harvest (2.919629) meal (2.876073) cream (2.806522) steak (2.774338) pork (2.763237) mussel (2.651944) dessert (2.646062) 
boot (4.762623) german (4.451937) essen (4.346102) polka (4.325910) oyster (4.306212) haus (4.284578) tempest (3.977171) hookah (3.813982) birthday (3.800469) plaza (3.576797) 
coffe (4.439650) irish (4.407541) jph (4.122468) brocach (4.040500) venu (3.899295) barista (3.709695) paradis (3.610311) noon (3.498133) opus (3.426334) frequenc (3.412096) 
Error (train/valid/test) = 0.144630/1.666999/1.543383 (0.093860)
..................................................
energy after gradient step = 8131985.460679

Top words for each topic:
patio (2.502245) burger (2.378682) airport (2.359163) curd (2.301676) wing (2.299952) wando (2.267154) piano (2.260686) tap (2.247364) paul (2.246861) trivia (2.223054) 
club (3.536443) brat (3.498372) gay (3.209784) tigr (3.165590) crystal (3.159608) hotel (3.044336) tiger (3.008196) cigar (2.986883) tvs (2.971623) beach (2.947493) 
wine (3.075021) merchant (3.063092) dish (3.020735) meal (2.973694) harvest (2.914266) cream (2.847980) steak (2.824919) pork (2.778054) dessert (2.714549) mussel (2.703836) 
boot (4.816947) german (4.496153) polka (4.424477) essen (4.380337) oyster (4.314589) haus (4.258625) tempest (3.981599) hookah (3.867182) birthday (3.840785) plaza (3.710256) 
coffe (4.446651) irish (4.358560) jph (4.158162) brocach (4.036905) venu (3.943391) barista (3.666432) paradis (3.601449) frequenc (3.473245) harmoni (3.466043) noon (3.422741) 
Error (train/valid/test) = 0.142488/1.682514/1.548527 (0.095740)
..................................................
energy after gradient step = 8110062.373537

Top words for each topic:
burger (2.528427) patio (2.480117) curd (2.479392) wing (2.386088) wando (2.333920) airport (2.296879) parmesan (2.295972) tap (2.285384) beer (2.277934) piano (2.274577) 
club (3.642913) brat (3.516690) crystal (3.278794) gay (3.161904) tigr (3.136002) cigar (3.126175) tiger (3.107396) hotel (3.069198) tvs (3.066813) granit (2.857347) 
merchant (3.212496) wine (3.196814) dish (3.081547) meal (3.041051) harvest (3.039815) steak (2.972168) pork (2.881760) cream (2.876860) tipsi (2.831877) mussel (2.813498) 
boot (4.879114) german (4.574970) essen (4.479003) polka (4.457982) oyster (4.422595) haus (4.363783) tempest (4.123382) hookah (3.930204) birthday (3.912605) plaza (3.698777) 
coffe (4.472443) irish (4.458045) jph (4.210648) brocach (4.157509) venu (4.040983) barista (3.812253) paradis (3.698432) frequenc (3.539653) harmoni (3.523718) opus (3.465803) 
Error (train/valid/test) = 0.138860/1.706155/1.558240 (0.098346)
..................................................
energy after gradient step = 8077663.977394

Top words for each topic:
burger (2.604490) patio (2.542055) curd (2.498282) tap (2.428832) fri (2.346389) wing (2.326928) wando (2.321284) trivia (2.319579) airport (2.305645) paul (2.268283) 
club (3.725453) brat (3.630850) gay (3.409257) crystal (3.325588) tiger (3.262875) tigr (3.246915) hotel (3.219560) cigar (3.163625) tvs (3.107912) pizza (3.058788) 
merchant (3.236219) wine (3.218422) meal (3.113094) dish (3.080746) harvest (3.040376) steak (3.016152) pork (2.918392) cream (2.902330) mussel (2.878002) bread (2.817690) 
boot (4.999595) german (4.708408) essen (4.565795) polka (4.549135) oyster (4.495397) haus (4.370270) tempest (4.212876) birthday (4.010955) plaza (3.981875) hookah (3.953359) 
coffe (4.551355) irish (4.528896) jph (4.280987) brocach (4.212821) venu (4.062092) barista (3.803800) paradis (3.698797) frequenc (3.597657) mickey (3.591486) sexi (3.542221) 
Error (train/valid/test) = 0.136692/1.689178/1.557249 (0.097629)
..................................................
energy after gradient step = 8053306.604890

Top words for each topic:
burger (2.748149) curd (2.549518) patio (2.526961) tap (2.421428) fri (2.394257) beer (2.384284) wing (2.321219) airport (2.272088) piano (2.266452) wando (2.255544) 
club (3.836885) brat (3.591855) gay (3.412404) crystal (3.393298) tigr (3.315700) tiger (3.229936) tvs (3.207333) cigar (3.204111) granit (3.086639) pizza (3.035250) 
merchant (3.304243) wine (3.233937) meal (3.153894) dish (3.097938) harvest (3.094421) steak (3.057570) pork (3.019511) mussel (2.915414) bread (2.859314) entre (2.858799) 
boot (5.029036) german (4.720074) essen (4.635632) polka (4.620882) oyster (4.524876) haus (4.450034) tempest (4.236235) birthday (4.063369) hookah (4.020793) plaza (3.881528) 
coffe (4.612706) irish (4.532593) jph (4.309685) brocach (4.232722) venu (4.127908) barista (3.867207) paradis (3.726982) mickey (3.706224) frequenc (3.631724) sexi (3.609892) 
Error (train/valid/test) = 0.136534/1.695979/1.556349 (0.097047)
..................................................
energy after gradient step = 8029593.101553

Top words for each topic:
burger (2.846221) curd (2.569731) patio (2.513209) beer (2.499925) fri (2.481220) tap (2.386087) wing (2.343249) wando (2.304315) piano (2.242669) airport (2.234898) 
club (3.923927) brat (3.673466) gay (3.488766) crystal (3.429009) tiger (3.373320) hotel (3.321332) cigar (3.320116) tigr (3.301056) tvs (3.159255) pizza (3.068239) 
merchant (3.354934) wine (3.202138) meal (3.182815) harvest (3.145015) steak (3.122142) dish (3.061020) pork (3.007312) cream (2.967226) mussel (2.947683) bread (2.940979) 
boot (5.093827) german (4.827981) essen (4.659627) oyster (4.645486) polka (4.637574) haus (4.421224) tempest (4.299703) birthday (4.175014) hookah (4.101028) plaza (3.921435) 
irish (4.601503) coffe (4.564744) jph (4.372372) brocach (4.298756) venu (4.130129) barista (3.941009) mickey (3.796925) paradis (3.775425) harmoni (3.693882) frequenc (3.692549) 
Error (train/valid/test) = 0.133964/1.717787/1.561260 (0.099954)
..................................................
energy after gradient step = 8007003.299118

Top words for each topic:
burger (2.945970) curd (2.704870) beer (2.704483) fri (2.550636) patio (2.491999) tap (2.406517) wing (2.380593) wando (2.284060) airport (2.279792) fish (2.274264) 
club (3.990868) brat (3.742871) gay (3.555722) crystal (3.545144) tigr (3.463069) cigar (3.371677) tiger (3.363222) pizza (3.271805) hotel (3.228273) beach (3.224431) 
merchant (3.399028) wine (3.224222) harvest (3.219905) meal (3.146861) steak (3.123751) mussel (3.063138) dish (3.057822) cream (3.020129) pork (3.005039) bread (2.961213) 
boot (5.163346) german (4.899859) polka (4.776831) essen (4.764297) oyster (4.695840) haus (4.604282) tempest (4.264663) birthday (4.202194) hookah (4.167511) plaza (4.044003) 
irish (4.626467) coffe (4.608151) jph (4.398839) brocach (4.342112) venu (4.225382) barista (3.976615) paradis (3.904841) mickey (3.851658) frequenc (3.737186) sexi (3.721464) 
Error (train/valid/test) = 0.131273/1.725915/1.567723 (0.097745)
..................................................
energy after gradient step = 7987146.643766

Top words for each topic:
burger (3.056727) beer (2.857925) curd (2.774585) fri (2.574485) patio (2.545107) tap (2.390856) wing (2.369753) wando (2.294461) fish (2.261247) piano (2.257814) 
club (3.912645) brat (3.866244) gay (3.624584) crystal (3.592783) tigr (3.508638) tiger (3.393523) cigar (3.393361) hotel (3.369970) pizza (3.313096) granit (3.198953) 
merchant (3.439695) harvest (3.286649) wine (3.172127) steak (3.154000) meal (3.133947) pork (3.092181) dish (3.084184) mussel (3.052738) dessert (3.017082) salad (3.014574) 
boot (5.199901) german (4.989493) essen (4.815158) oyster (4.757928) polka (4.746659) haus (4.562483) tempest (4.423835) birthday (4.249579) hookah (4.220232) plaza (4.050758) 
irish (4.679048) coffe (4.633807) jph (4.435457) brocach (4.381418) venu (4.079108) barista (4.010983) paradis (3.916678) frequenc (3.769461) mickey (3.763439) sexi (3.720964) 
Error (train/valid/test) = 0.127480/1.723665/1.584449 (0.102545)
..................................................
energy after gradient step = 7970774.135711

Top words for each topic:
burger (3.047411) beer (2.988596) curd (2.817626) fri (2.621121) patio (2.541299) tap (2.478370) wing (2.412011) fish (2.275178) wando (2.252249) brew (2.218373) 
club (3.988558) brat (3.946737) gay (3.599404) crystal (3.594295) tigr (3.553258) pizza (3.518533) hotel (3.448039) cigar (3.392431) tiger (3.375022) beach (3.249980) 
merchant (3.511819) harvest (3.350700) steak (3.185503) mussel (3.170666) wine (3.146175) cream (3.132491) pork (3.121352) meal (3.120760) dish (3.070414) dessert (3.059444) 
boot (5.272987) german (5.013693) essen (4.873933) polka (4.869621) oyster (4.838730) haus (4.709318) tempest (4.403118) hookah (4.256152) birthday (4.189902) plaza (4.083340) 
irish (4.717301) coffe (4.628164) jph (4.455961) brocach (4.407618) venu (4.217171) barista (3.991899) mickey (3.983571) paradis (3.868848) frequenc (3.793386) harmoni (3.751606) 
Error (train/valid/test) = 0.128061/1.727470/1.595370 (0.104741)
..................................................
energy after gradient step = 7948219.722225

Top words for each topic:
burger (3.065829) beer (3.024206) curd (2.838017) fri (2.691529) patio (2.503537) tap (2.452367) wing (2.389950) fish (2.363144) brew (2.298469) wando (2.286021) 
club (4.118329) brat (4.089803) gay (3.722027) crystal (3.691552) tigr (3.568207) pizza (3.545641) tiger (3.543345) cigar (3.527175) hotel (3.471365) sport (3.318958) 
merchant (3.502076) harvest (3.398866) steak (3.248251) wine (3.205079) pork (3.175837) dessert (3.167978) mussel (3.167350) cream (3.147970) meal (3.140146) dish (3.115465) 
boot (5.278715) german (5.055823) essen (4.907448) polka (4.849002) oyster (4.848111) haus (4.631119) tempest (4.498273) hookah (4.288833) birthday (4.156901) plaza (4.141400) 
irish (4.748011) coffe (4.591903) jph (4.501309) brocach (4.462704) mickey (4.082914) barista (4.068603) venu (4.036812) paradis (3.944244) frequenc (3.830066) sexi (3.823521) 
Error (train/valid/test) = 0.125927/1.737166/1.583779 (0.101273)
..................................................
energy after gradient step = 7929742.810721

Top words for each topic:
beer (3.214317) burger (3.098170) curd (2.879200) fri (2.728151) tap (2.545640) fish (2.510396) patio (2.492105) wing (2.383106) brew (2.353776) wando (2.274168) 
club (4.170167) brat (4.158023) crystal (3.740271) gay (3.691652) tigr (3.662799) pizza (3.619940) tiger (3.566273) cigar (3.556536) hotel (3.528431) granit (3.450378) 
merchant (3.544794) harvest (3.466648) steak (3.331320) mussel (3.281333) wine (3.224422) dessert (3.219110) pork (3.212059) meal (3.165651) cream (3.165447) dish (3.106343) 
boot (5.284064) german (5.053326) essen (4.980982) polka (4.957185) oyster (4.875109) haus (4.796545) tempest (4.548971) hookah (4.287541) plaza (4.195385) birthday (4.162830) 
irish (4.787002) coffe (4.595760) jph (4.518010) brocach (4.507561) venu (4.116892) barista (4.092301) mickey (4.082164) frequenc (3.860873) paradis (3.849988) sexi (3.829209) 
Error (train/valid/test) = 0.124488/1.727468/1.585633 (0.100784)
..................................................
energy after gradient step = 7910205.409196

Top words for each topic:
beer (3.211248) burger (3.135532) curd (3.063966) fri (2.767367) tap (2.658142) patio (2.542864) fish (2.533954) brew (2.446699) wing (2.430767) dane (2.305642) 
brat (4.191685) club (4.169471) gay (3.861307) crystal (3.803019) tigr (3.715901) cigar (3.631342) tiger (3.594069) pizza (3.561224) hotel (3.549663) sport (3.420699) 
merchant (3.618314) harvest (3.497843) mussel (3.334548) steak (3.316241) dessert (3.270233) cream (3.256946) salad (3.242804) pork (3.219779) entre (3.173567) dish (3.159743) 
boot (5.334430) german (5.134050) essen (5.036295) polka (4.983717) oyster (4.911168) haus (4.790413) tempest (4.607259) hookah (4.374056) plaza (4.280009) birthday (4.143678) 
irish (4.815884) coffe (4.605076) jph (4.554660) brocach (4.519840) mickey (4.150268) barista (4.125863) paradis (4.032095) venu (4.029842) sexi (3.927090) opus (3.798325) 
Error (train/valid/test) = 0.121801/1.756152/1.600556 (0.106466)
..................................................
energy after gradient step = 7891600.326115

Top words for each topic:
beer (3.253736) burger (3.182509) curd (3.076913) fri (2.772309) tap (2.669018) fish (2.622859) patio (2.546545) brew (2.495282) dane (2.463348) wing (2.390078) 
brat (4.219110) club (4.200437) crystal (3.833073) gay (3.758171) tigr (3.749867) cigar (3.701556) pizza (3.670524) tiger (3.616119) granit (3.519410) hotel (3.501212) 
merchant (3.641942) harvest (3.521866) mussel (3.321239) steak (3.309746) dessert (3.263785) pork (3.250550) entre (3.221330) cream (3.216340) vino (3.194923) dish (3.193524) 
boot (5.364519) german (5.151134) essen (5.087861) polka (5.049749) oyster (5.002620) haus (4.884121) tempest (4.655355) hookah (4.413764) plaza (4.238711) birthday (4.070422) 
irish (4.873264) jph (4.592131) brocach (4.575960) coffe (4.545744) mickey (4.208197) barista (4.166255) genna (4.152807) venu (4.013141) hipster (3.959093) sexi (3.908094) 
Error (train/valid/test) = 0.119353/1.768130/1.608021 (0.109289)
..................................................
energy after gradient step = 7875437.676865

Top words for each topic:
beer (3.388336) burger (3.239800) curd (3.140587) fri (2.841441) tap (2.767499) fish (2.643456) dane (2.614112) wing (2.483527) patio (2.442744) pub (2.441576) 
club (4.312155) brat (4.271077) gay (3.961533) crystal (3.835570) tigr (3.825742) cigar (3.788833) pizza (3.778343) tiger (3.671966) hotel (3.489593) sport (3.486817) 
merchant (3.666536) harvest (3.574655) steak (3.443089) mussel (3.339944) entre (3.286612) pork (3.255590) cream (3.238233) dessert (3.233086) chef (3.231848) vino (3.216034) 
boot (5.410488) german (5.144103) essen (5.119931) polka (5.107159) oyster (5.081820) haus (4.913746) tempest (4.734180) hookah (4.479802) plaza (4.370505) lobster (3.896290) 
irish (4.857905) jph (4.634137) brocach (4.605460) coffe (4.532532) mickey (4.263431) barista (4.212726) genna (4.143670) sexi (4.097231) paradis (4.008575) venu (3.946866) 
Error (train/valid/test) = 0.118224/1.806045/1.618428 (0.107394)
..................................................
energy after gradient step = 7859735.355281

Top words for each topic:
beer (3.504949) burger (3.335868) curd (3.314482) fri (2.931348) tap (2.892260) fish (2.752277) dane (2.647399) patio (2.506911) wing (2.504819) brew (2.487977) 
club (4.461918) brat (4.323631) crystal (3.980645) gay (3.951319) tigr (3.889445) cigar (3.876872) pizza (3.851941) tiger (3.709737) granit (3.587273) sport (3.528858) 
merchant (3.664546) harvest (3.631598) steak (3.450279) dessert (3.445343) entre (3.429006) mussel (3.426647) pork (3.407981) cream (3.344368) vino (3.319201) chef (3.290981) 
boot (5.429466) german (5.210825) essen (5.203532) polka (5.177236) oyster (5.111829) haus (4.965657) tempest (4.794346) hookah (4.527669) plaza (4.170532) birthday (4.099714) 
irish (4.951668) jph (4.680891) brocach (4.655779) coffe (4.488432) genna (4.400309) mickey (4.351049) barista (4.261058) paradis (4.099802) hipster (4.076702) sexi (4.045672) 
Error (train/valid/test) = 0.115937/1.830838/1.627117 (0.102301)
..................................................
energy after gradient step = 7850611.106092

Top words for each topic:
beer (3.573776) burger (3.353766) curd (3.340499) fri (3.002028) tap (2.886328) dane (2.757221) fish (2.665284) pub (2.567102) patio (2.537168) brew (2.508640) 
club (4.460469) brat (4.290665) gay (4.073137) pizza (4.005626) tigr (3.825498) crystal (3.800214) cigar (3.758584) tiger (3.692440) sport (3.567951) beach (3.379024) 
harvest (3.724221) merchant (3.702981) steak (3.546777) entre (3.528597) mussel (3.506495) dessert (3.467845) cream (3.387123) vino (3.384051) pork (3.355319) eno (3.322162) 
boot (5.478433) german (5.253116) essen (5.250714) polka (5.209068) oyster (5.162998) haus (5.055648) tempest (4.825558) hookah (4.552912) plaza (4.362063) birthday (4.173930) 
irish (4.921650) brocach (4.716781) jph (4.703586) coffe (4.418744) genna (4.409075) barista (4.289022) mickey (4.279732) sexi (4.139580) hipster (4.128675) opus (3.948109) 
Error (train/valid/test) = 0.114146/1.843746/1.644401 (0.106772)
..................................................
energy after gradient step = 7842450.304759

Top words for each topic:
beer (3.537022) burger (3.408148) curd (3.333945) fri (3.048874) tap (2.836522) dane (2.820815) fish (2.724775) patio (2.553204) brew (2.547786) pub (2.543746) 
club (4.418185) brat (4.285471) gay (4.102385) pizza (4.018821) crystal (4.004312) tigr (3.939691) cigar (3.859524) tiger (3.741074) sport (3.657804) beach (3.434268) 
harvest (3.781111) merchant (3.744808) steak (3.575694) mussel (3.555263) entre (3.537551) dessert (3.470274) vino (3.438333) cream (3.432995) eno (3.408508) pork (3.356601) 
boot (5.474151) essen (5.280300) polka (5.242906) german (5.219875) oyster (5.187073) haus (5.093198) tempest (4.865219) hookah (4.580657) plaza (4.342063) birthday (4.147080) 
irish (4.901375) brocach (4.744021) jph (4.681142) genna (4.466949) mickey (4.431511) coffe (4.364936) barista (4.313911) sexi (4.158573) paradis (4.151285) hipster (4.143339) 
Error (train/valid/test) = 0.110730/1.859583/1.649726 (0.113997)
..................................................
energy after gradient step = 7825890.275924

Top words for each topic:
beer (3.487125) burger (3.462887) curd (3.393187) fri (3.250415) dane (2.959592) tap (2.930780) fish (2.752253) pub (2.654835) brew (2.551354) chees (2.544525) 
club (4.360896) brat (4.193576) gay (4.189762) pizza (4.068684) tigr (3.955497) crystal (3.925093) cigar (3.887994) tree (3.702242) sport (3.688970) tiger (3.553306) 
harvest (3.832355) merchant (3.759088) mussel (3.598148) entre (3.586038) steak (3.553111) dessert (3.548836) vino (3.481627) cream (3.424756) eno (3.410124) pork (3.358730) 
boot (5.498400) essen (5.320254) oyster (5.247705) polka (5.240355) german (5.144618) haus (5.116469) tempest (4.896149) hookah (4.608609) plaza (4.303261) gritti (4.106627) 
irish (4.882908) jph (4.778874) brocach (4.772697) genna (4.552459) mickey (4.450474) barista (4.359829) coffe (4.285934) hipster (4.249241) sexi (4.232280) paradis (4.085488) 
Error (train/valid/test) = 0.108692/1.891134/1.682563 (0.125756)
