corpus = bars_char.gz
latentReg = 0.000000
lambda = 3.000000
K = 10

nUsers = 5359, nItems = 326, nRatings = 11189

Error w/ offset term only (train/valid/test) = 1.456612/1.357463/1.486267 (0.054135)
Error w/ offset and bias (train/valid/test) = 0.510878/1.171217/1.250238 (0.051295)

..................................................
energy after gradient step = 18442769.222792

Top words for each topic:
napkin (1.285240) heaven (1.044801) myself (1.028728) panther (1.028682) broth (1.015524) coffe (1.010896) cheddar (0.984158) pictur (0.947844) yet (0.943079) whi (0.943043) 
platter (1.174564) bus (1.092126) fail (1.052341) dc (1.024976) calm (1.014524) pour (0.995915) confus (0.990046) blew (0.986729) blast (0.967944) sexi (0.952064) 
mark (1.212080) subpar (1.130999) blacken (1.112854) browni (1.004934) mess (0.990395) equal (0.964562) appear (0.957162) similar (0.956429) step (0.949404) strang (0.941032) 
magic (1.325368) hound (1.202991) reheat (1.087076) travel (1.074990) remain (1.061669) tab (1.049925) quesadilla (1.023966) balsam (1.002540) fit (0.995250) rental (0.977878) 
overwhelm (1.475717) assum (1.242562) throw (1.189421) ufc (1.086730) dim (1.082449) 5th (1.009623) crunchi (0.998048) sexi (0.956002) weck (0.913828) stellar (0.907162) 
cajun (1.125432) appropri (1.091230) heavi (1.089683) sip (1.064322) member (1.060709) difficult (1.021096) basketbal (0.995736) fanci (0.957345) tini (0.955664) neat (0.941507) 
assur (1.193920) student (1.173238) guacamol (1.143522) bought (1.130651) signatur (1.103241) spectacular (1.086735) broccoli (1.078563) hipster (1.052540) funki (1.024448) shape (0.980853) 
delight (1.158804) phenomen (1.148275) philli (1.137090) settl (1.108161) luck (1.011856) inexpens (0.993523) fli (0.991144) swear (0.989159) shape (0.982647) despit (0.968525) 
tow (1.188020) sangria (1.093721) gravi (1.079670) rule (1.076611) pile (1.074876) popper (1.043155) toss (0.968580) bother (0.955071) meatbal (0.945824) insist (0.936439) 
enso (1.350179) cranberri (1.251824) cabbag (1.141284) distanc (1.089501) goto (1.081251) crap (1.054856) wash (1.047020) togo (1.041787) cater (1.038248) babi (1.036080) 
Error (train/valid/test) = 0.855276/1.142354/1.206448 (0.050866)
..................................................
energy after gradient step = 18379117.984050

Top words for each topic:
parm (1.829220) array (1.814981) ravioli (1.783159) heaven (1.763412) wooden (1.734674) memor (1.724174) cheddar (1.695023) ps (1.636732) drank (1.633552) ufc (1.621447) 
bask (1.863078) hearti (1.809069) spill (1.700569) class (1.692090) dolc (1.649345) tad (1.624164) 60 (1.607550) puppi (1.593497) 23 (1.554168) post (1.536433) 
picnic (1.775540) resolv (1.716727) cheesecak (1.651105) twin (1.605349) video (1.597156) depart (1.593674) strang (1.578884) galleri (1.554782) dumpl (1.551563) ador (1.531555) 
balsam (1.786907) renov (1.713256) crappi (1.689592) ex (1.631886) thick (1.622123) ian (1.619989) join (1.597990) perhap (1.592360) ed (1.530294) accompani (1.529539) 
sugar (2.028498) stone (1.935739) gooey (1.885154) crunchi (1.865939) justifi (1.786141) favor (1.777169) tour (1.772469) burnt (1.743904) metal (1.735457) assum (1.694306) 
fulli (1.972483) mistak (1.765380) noon (1.722800) appropri (1.707610) pbrs (1.624851) cheeseburg (1.624536) orang (1.586068) heavi (1.580333) scrape (1.564996) cajun (1.540662) 
remain (1.739675) spectacular (1.738906) stumbl (1.720507) funki (1.719695) broccoli (1.692779) 11 (1.597843) mom (1.584099) inhal (1.570397) term (1.555093) fool (1.505133) 
corpor (2.204682) winner (2.181927) neighbor (1.819751) djs (1.761008) cheddar (1.661432) shoot (1.659457) fyi (1.610970) doubt (1.601670) cranberri (1.566582) valet (1.539423) 
ritz (2.193906) through (1.746881) 13 (1.724773) otherwis (1.708397) sangria (1.707779) partner (1.701773) adam (1.683989) reheat (1.683177) vari (1.656993) fat (1.556467) 
memori (2.030717) babi (1.884499) arm (1.720529) gross (1.720406) goto (1.681642) skewer (1.618183) bewar (1.600597) train (1.569018) univers (1.567566) women (1.557188) 
Error (train/valid/test) = 0.516565/1.196155/1.273841 (0.055470)
..................................................
energy after gradient step = 18323642.134715

Top words for each topic:
intim (2.251218) parm (2.113630) memor (2.019741) hook (1.919898) cheddar (1.915437) wallet (1.903018) magic (1.881715) boardwalk (1.823623) wooden (1.787634) broth (1.750525) 
bask (2.216964) spill (2.019876) accept (2.007769) lose (2.005108) nicol (1.972402) lebowski (1.821274) straw (1.724338) rum (1.716400) shi (1.705706) distanc (1.694454) 
cheesecak (2.015576) specif (1.971742) picnic (1.898633) valu (1.859734) banger (1.812434) galleri (1.761984) video (1.741442) ador (1.655665) sticki (1.650812) microwav (1.621637) 
crappi (2.397230) renov (2.231186) balsam (2.159437) common (2.001605) thick (1.958965) fleme (1.904936) osso (1.844455) answer (1.800705) mango (1.785011) candi (1.765526) 
public (2.181864) action (2.180488) metal (2.110770) upbeat (2.098755) copper (2.010570) 7th (1.912257) sugar (1.843083) ceil (1.830976) stone (1.819903) bonus (1.810045) 
excus (2.149638) appropri (2.061049) mistak (2.059758) pbrs (1.989922) snug (1.989559) raw (1.938661) troubl (1.918053) unusu (1.859857) cajun (1.834106) noon (1.824411) 
funki (2.262996) term (2.037086) broccoli (2.008643) sold (1.935250) creami (1.847390) avoid (1.839224) bank (1.834119) stumbl (1.810390) remain (1.791044) student (1.769919) 
winner (2.166831) neighbor (2.113354) bass (2.003406) corpor (1.926293) window (1.916549) opportun (1.810950) fli (1.769557) ps (1.736623) poster (1.731973) him (1.693099) 
reheat (2.082918) through (2.037429) partner (2.003975) hype (1.946089) till (1.910340) familiar (1.879414) ritz (1.855080) hall (1.840441) tow (1.839697) c (1.834236) 
garag (2.237076) dude (2.187373) memori (2.129233) concern (2.093943) quarter (1.978598) gross (1.977835) stuffi (1.915357) univers (1.850319) outing (1.834972) god (1.777369) 
Error (train/valid/test) = 0.309364/1.219059/1.295498 (0.052759)
..................................................
energy after gradient step = 18284365.481239

Top words for each topic:
memor (2.327439) intim (2.273271) uncomfort (2.216819) biggest (2.084719) imo (1.999193) magic (1.947911) boardwalk (1.940743) parm (1.939866) wallet (1.929515) broth (1.927935) 
lose (2.302445) bask (2.264439) distanc (2.173083) nicol (2.142393) gorgeous (2.107956) par (2.050278) tortilla (1.944469) shi (1.942226) omg (1.937277) spill (1.926421) 
ramen (2.197452) picnic (2.059789) specif (2.049018) cheesecak (2.029550) listen (1.948436) authent (1.892183) microwav (1.891412) video (1.839486) harbor (1.780264) tasteless (1.765645) 
renov (2.367195) comment (2.173788) candi (2.160838) kilt (2.147101) ian (2.102381) ed (2.099399) common (2.097296) accompani (2.017762) peach (1.999844) osso (1.994096) 
gooey (2.160711) due (2.150116) action (2.106149) drag (2.033253) metal (2.007462) throw (1.994772) bonus (1.950241) phone (1.929389) row (1.901674) bed (1.874387) 
mistak (2.362098) troubl (2.261784) raw (2.199494) stuck (2.159346) appropri (2.094430) stomach (2.076059) scotch (2.062494) breweri (2.045298) togeth (2.035920) noon (2.012450) 
creami (2.266630) funki (2.184533) bank (2.014536) dancer (2.003390) greatest (1.984060) feta (1.946334) clue (1.928486) fool (1.914630) hint (1.912604) post (1.910493) 
corpor (2.301921) poster (2.086405) bass (2.023667) window (1.955124) winner (1.921598) tho (1.914451) worri (1.895473) joe (1.892291) macaroni (1.885811) fli (1.873187) 
through (2.633599) lemonad (2.231752) popper (2.200911) ritz (2.180272) southend (2.177887) partner (2.077526) beaudevin (2.065041) 13 (2.059368) vari (2.055646) reheat (2.019640) 
concern (2.454855) dude (2.289192) memori (2.102070) wast (2.098911) quarter (2.063446) univers (2.013249) stuffi (1.945841) grown (1.938162) train (1.929651) italian (1.924223) 
Error (train/valid/test) = 0.196700/1.253120/1.353345 (0.057593)
..................................................
energy after gradient step = 18254602.116034

Top words for each topic:
memor (2.363918) biggest (2.281980) cheddar (2.216540) heaven (2.141226) intim (2.133145) imposs (2.038286) magic (2.023034) smell (1.956940) gone (1.942186) pet (1.938429) 
bask (2.455466) distanc (2.440923) lose (2.223025) tortilla (2.184985) par (2.118997) rooftop (2.094953) spill (2.038725) nicol (2.036812) gorgeous (2.021115) melt (1.988392) 
ramen (2.390792) authent (2.245691) blacken (2.070597) cheesecak (2.046937) listen (2.034373) adequ (2.005428) boneless (1.988720) anyon (1.904493) vodka (1.903100) heaven (1.853312) 
candi (2.450067) renov (2.297002) balsam (2.237714) osso (2.198192) kilt (2.147104) perus (2.123916) crappi (2.097795) peach (2.064377) hearti (2.026449) ed (2.021927) 
due (2.248874) action (2.244385) sir (2.187728) metal (2.163718) gooey (2.106838) tour (2.086847) unbeliev (2.059923) throw (2.021715) bonus (2.004792) bed (1.994664) 
appropri (2.565765) mistak (2.490209) scotch (2.342215) awkward (2.253871) ticket (2.250489) stomach (2.215476) beaver (2.156901) 90s (2.150428) excus (2.097064) slide (2.089636) 
funki (2.235252) greatest (2.189426) feta (2.177335) post (2.147420) creami (2.132046) remain (2.130015) various (2.108846) nasti (2.083433) grade (2.055607) mood (2.045537) 
cranberri (2.168409) neighbor (2.090043) fli (2.069889) winner (2.045518) factor (2.034669) joe (2.014591) poster (1.988606) talent (1.983191) bass (1.973889) opportun (1.970076) 
through (2.474530) partner (2.325148) beaudevin (2.295648) lemonad (2.248465) ritz (2.199060) funni (2.183669) 13 (2.182630) sangria (2.123986) rule (2.091950) charm (2.064353) 
memori (2.372274) updat (2.298715) quarter (2.295919) garag (2.230226) cater (2.199836) dude (2.127768) concern (2.097356) univers (2.047941) miller (2.034457) italian (2.015468) 
Error (train/valid/test) = 0.151731/1.263867/1.387645 (0.059902)
..................................................
energy after gradient step = 18228420.235433

Top words for each topic:
memor (2.245844) heaven (2.151011) pet (2.109255) uncomfort (2.019682) revolut (1.996456) magic (1.994790) smell (1.989661) biggest (1.981582) ravioli (1.980863) imposs (1.942348) 
bask (2.400501) distanc (2.314257) tortilla (2.098212) rooftop (2.095855) lose (2.086090) zucchini (2.083199) gorgeous (2.040486) nicol (2.031663) spill (2.014117) judg (2.003595) 
ramen (2.605361) authent (2.187840) cheesecak (2.093981) picnic (2.015619) valu (2.005298) adequ (1.943197) blacken (1.942397) except (1.898080) anyon (1.873435) specif (1.863435) 
oliv (2.268088) fleme (2.233236) osso (2.213190) crappi (2.201189) candi (2.191137) balsam (2.168324) accompani (2.167057) wrote (2.125643) renov (2.121439) peach (2.095631) 
metal (2.307716) action (2.283589) sir (2.178884) due (2.129065) sea (2.044987) gooey (2.033158) tour (2.024206) 7th (2.011341) unbeliev (1.994556) generic (1.993108) 
appropri (2.403203) ticket (2.257166) mistak (2.209278) awkward (2.110593) excus (2.092390) scotch (2.078722) beaver (2.078660) stomach (2.038903) sum (2.024512) orang (2.022273) 
various (2.241748) funki (2.201718) feta (2.188796) remain (2.139789) creami (2.134176) spectacular (2.107596) grade (2.099027) dancer (2.090573) mood (2.073964) greatest (2.055097) 
opportun (2.201951) poster (2.194805) tab (2.182344) cranberri (2.141881) fli (2.136239) neighbor (2.120954) winner (2.046301) shepherd (2.044770) factor (2.015847) joe (1.967829) 
through (2.608792) ritz (2.307023) lemonad (2.294348) tow (2.281185) beaudevin (2.263936) 13 (2.182802) reheat (2.112298) funni (2.081277) partner (2.077360) vari (2.046403) 
dude (2.300636) quarter (2.280287) univers (2.148754) memori (2.133487) updat (2.075797) garag (2.072926) lobster (2.064995) grown (2.056857) italian (1.971952) concern (1.969426) 
Error (train/valid/test) = 0.135025/1.266658/1.399883 (0.060082)
..................................................
energy after gradient step = 18205118.852559

Top words for each topic:
smell (2.466962) boardwalk (2.168893) biggest (2.133758) memor (2.123833) blackfinn (2.069290) uncomfort (2.065672) parm (2.048584) imposs (2.043726) heaven (2.024813) ravioli (2.003680) 
bask (2.338881) distanc (2.267156) tortilla (2.243735) rooftop (2.220665) gorgeous (2.135884) lose (2.077701) nicol (2.075250) puppi (1.999089) version (1.989912) spill (1.964573) 
ramen (2.849323) anyon (2.071420) picnic (2.056049) scale (2.028037) authent (2.020196) except (2.017825) specif (1.970009) membership (1.955773) darn (1.955252) dumpl (1.913436) 
fleme (2.397432) osso (2.375591) candi (2.227614) wrote (2.223470) dandelion (2.182256) perus (2.146606) accompani (2.126284) 150 (2.090646) hearti (2.061032) peach (2.051213) 
metal (2.344464) action (2.340739) sir (2.308757) tour (2.250319) face (2.246940) due (2.187686) gooey (2.159421) 7th (2.116933) phone (2.101608) generic (2.049876) 
mistak (2.281092) request (2.243850) excus (2.174788) awkward (2.162485) beaver (2.131030) ticket (2.108505) appropri (2.098494) sum (2.088295) stuf (2.086702) stomach (2.073912) 
funki (2.272326) remain (2.230905) greatest (2.179145) creami (2.173135) feta (2.170295) sold (2.124697) hint (2.121831) mood (2.080268) various (2.051553) along (2.010652) 
poster (2.383929) cranberri (2.301928) fli (2.282972) tab (2.221621) opportun (2.195006) winner (2.170279) spacious (2.112860) neighbor (2.101798) lower (2.019821) talent (2.013957) 
beaudevin (2.489755) through (2.466546) 13 (2.257726) funni (2.217068) lemonad (2.177836) ritz (2.171840) tow (2.164323) scream (2.147945) philli (2.099925) reheat (2.041465) 
lobster (2.210867) quarter (2.146406) omb (2.124674) garag (2.063712) concern (2.051172) websit (2.034305) repeat (2.026055) gross (2.001788) memori (1.993038) satisfi (1.990323) 
Error (train/valid/test) = 0.130589/1.297135/1.429457 (0.063481)
..................................................
energy after gradient step = 18176286.585477

Top words for each topic:
memor (2.324142) smell (2.287114) boardwalk (2.286549) biggest (2.235280) restroom (2.089118) gone (2.088354) ravioli (2.055741) parm (2.000667) blackfinn (1.993807) pet (1.980769) 
bask (2.508208) rooftop (2.280754) nicol (2.159708) tortilla (2.120911) ridicul (2.117631) puppi (2.057306) lose (2.011461) gorgeous (2.010468) par (1.991129) distanc (1.987284) 
ramen (2.754721) authent (2.138491) picnic (2.101181) except (1.983045) anyon (1.948678) scale (1.937805) dumpl (1.932459) membership (1.917295) phenomen (1.905373) darn (1.885650) 
osso (2.482111) candi (2.303645) fleme (2.256132) dandelion (2.251368) perus (2.219965) accompani (2.167984) balsam (2.130393) 150 (2.088307) wrote (2.088052) oliv (2.070611) 
sir (2.466424) tour (2.336706) action (2.332845) metal (2.243436) gooey (2.123807) unbeliev (2.072336) needless (2.065228) stone (2.060121) phone (2.055401) throw (2.011347) 
mistak (2.392335) ticket (2.290925) request (2.266777) appropri (2.200454) beaver (2.198121) excus (2.170852) troubl (2.117485) awkward (2.107227) stomach (2.102598) stuf (2.079709) 
remain (2.258530) funki (2.255110) greatest (2.214832) creami (2.183828) hint (2.156903) feta (2.129864) textur (2.084857) various (2.032088) mood (2.000352) possibl (1.990839) 
cranberri (2.399923) poster (2.261005) neighbor (2.222615) tab (2.148611) opportun (2.132487) corpor (2.088888) spacious (2.087248) fli (2.075513) winner (2.022307) lower (1.996816) 
through (2.805248) beaudevin (2.539135) ritz (2.300170) 13 (2.266063) philli (2.220476) funni (2.165298) popper (2.131569) lemonad (2.127574) seafood (2.106042) tow (2.071072) 
quarter (2.278265) wast (2.210059) omb (2.186623) lobster (2.138273) concern (2.127072) dude (2.109665) satisfi (2.058057) univers (2.057820) soul (2.054023) memori (2.053734) 
Error (train/valid/test) = 0.118584/1.291302/1.425371 (0.062344)
..................................................
energy after gradient step = 18152095.565144

Top words for each topic:
memor (2.456285) smell (2.388638) boardwalk (2.211107) restroom (2.198083) ben (2.171263) revolut (2.134610) countri (2.102159) gone (2.043857) biggest (2.016526) cheddar (1.978308) 
bask (2.264487) lose (2.261229) nicol (2.207698) puppi (2.171033) ridicul (2.159018) breakfast (2.142995) plain (2.130651) rooftop (2.090027) melt (2.074834) comp (2.071371) 
ramen (3.072013) authent (2.165791) heaven (2.087918) picnic (2.062174) anyon (2.040154) vodka (2.029953) darn (2.026081) dumpl (2.006445) scale (2.006187) drunk (1.983038) 
fleme (2.627472) candi (2.567347) osso (2.417851) oliv (2.281396) perus (2.268046) dandelion (2.250104) crappi (2.240504) ed (2.159651) accompani (2.138880) peach (2.125505) 
sir (2.425839) face (2.340413) rang (2.230201) needless (2.221566) metal (2.164555) gooey (2.140217) action (2.137932) stone (2.123057) tour (2.116527) throw (2.103065) 
mistak (2.539803) beaver (2.403216) ticket (2.309945) togeth (2.171881) replac (2.163243) appropri (2.161266) excus (2.126717) observ (2.113214) pleasur (2.097313) sum (2.091842) 
feta (2.281766) creami (2.257062) funki (2.255431) greatest (2.250696) remain (2.246111) sold (2.121105) grade (2.093996) term (2.091209) hint (2.071149) jalapeno (2.044307) 
poster (2.346161) tab (2.285951) opportun (2.221950) factor (2.165876) corpor (2.144209) winner (2.124411) talent (2.096350) neighbor (2.094387) joe (2.093118) cranberri (2.080124) 
through (2.730661) alley (2.546547) beaudevin (2.522233) ritz (2.331955) lemonad (2.274574) vari (2.217338) 13 (2.211941) sip (2.188035) sangria (2.169222) fat (2.106329) 
soul (2.367721) concern (2.301467) enso (2.294939) quarter (2.252742) omb (2.247064) lobster (2.236938) grown (2.189415) memori (2.174058) dude (2.071908) repeat (2.060190) 
Error (train/valid/test) = 0.118692/1.292054/1.439781 (0.060629)
..................................................
energy after gradient step = 18125428.406174

Top words for each topic:
memor (2.519290) revolut (2.469368) smell (2.276785) boardwalk (2.265914) countri (2.233362) ravioli (2.169970) biggest (2.154718) ben (2.113847) restroom (2.073652) drinker (2.059145) 
bask (2.373957) rooftop (2.318693) nicol (2.271333) montford (2.191565) puppi (2.189602) lose (2.122700) judg (2.117936) breakfast (2.111135) gorgeous (2.041657) ridicul (2.012994) 
ramen (3.038600) authent (2.411483) anyon (2.249940) dumpl (2.166681) darn (2.106105) picnic (2.099876) galleri (2.070526) heaven (2.061304) scale (2.006795) garlic (2.005665) 
osso (2.736285) fleme (2.666237) oliv (2.467441) dandelion (2.441965) candi (2.356155) crappi (2.250961) common (2.237779) peach (2.234261) perus (2.230262) balsam (2.200348) 
face (2.512355) sir (2.500593) metal (2.327593) lucki (2.284297) gooey (2.267900) proxim (2.139797) tour (2.123844) needless (2.063109) mike (2.054719) row (2.045830) 
mistak (2.666148) beaver (2.504021) excus (2.403179) request (2.358003) cigar (2.356082) ticket (2.333352) turf (2.188333) togeth (2.173816) appropri (2.147736) raw (2.143068) 
creami (2.376448) feta (2.279018) greatest (2.265799) remain (2.250228) alcohol (2.209469) grade (2.183486) bowl (2.136044) term (2.113916) spectacular (2.110557) waffl (2.085487) 
poster (2.340877) corpor (2.267866) winner (2.260166) opportun (2.218347) fli (2.204328) cranberri (2.202519) tab (2.118060) spacious (2.102718) neighbor (2.101649) joe (2.097718) 
through (2.729332) beaudevin (2.624558) alley (2.530009) vari (2.520073) ritz (2.430438) lemonad (2.418589) sangria (2.316709) initi (2.313875) sip (2.205006) popper (2.184463) 
soul (2.720092) univers (2.458033) enso (2.356678) quarter (2.335207) dude (2.220753) lobster (2.204752) sushi (2.199357) memori (2.160273) satisfi (2.137628) garag (2.101600) 
Error (train/valid/test) = 0.117297/1.304821/1.458226 (0.064284)
..................................................
energy after gradient step = 18093497.759650

Top words for each topic:
revolut (2.439908) smell (2.420703) growler (2.355184) memor (2.345824) cheddar (2.340963) drinker (2.259916) ravioli (2.250257) biggest (2.235505) boardwalk (2.230870) restroom (2.084039) 
rooftop (2.557667) bask (2.349400) nicol (2.339347) breakfast (2.330148) montford (2.302995) zucchini (2.220094) 35 (2.114154) puppi (2.105658) comp (2.085606) babi (2.081835) 
ramen (3.186290) authent (2.379108) anyon (2.321149) picnic (2.228818) galleri (2.188103) dumpl (2.133138) heaven (2.123273) worst (2.063663) darn (2.062587) vodka (2.032753) 
fleme (2.909964) osso (2.769397) dandelion (2.512094) candi (2.503574) crappi (2.466489) oliv (2.401555) advertis (2.312552) peach (2.274573) ed (2.264288) perus (2.257279) 
sir (2.579009) face (2.495353) metal (2.402226) gooey (2.304055) throw (2.278681) tour (2.194000) mustard (2.142919) stone (2.124474) proxim (2.120242) band (2.108412) 
beaver (2.408110) excus (2.355520) ticket (2.332313) request (2.324606) mistak (2.289581) 45 (2.241941) cigar (2.197875) turf (2.194190) togeth (2.177045) basketbal (2.157456) 
creami (2.531158) remain (2.381076) invit (2.299199) greatest (2.248697) term (2.246926) bowl (2.226896) alcohol (2.199768) feta (2.147941) grade (2.130870) bull (2.112787) 
opportun (2.413045) corpor (2.250076) cranberri (2.248910) winner (2.246593) poster (2.227979) song (2.198249) fli (2.135778) moon (2.115937) tab (2.084140) talent (2.079543) 
through (2.802462) alley (2.694271) beaudevin (2.671361) lemonad (2.547152) ritz (2.502612) vari (2.478647) lane (2.411560) initi (2.284489) sangria (2.258557) layov (2.221468) 
soul (2.859745) enso (2.569422) quarter (2.552286) sushi (2.362794) tapa (2.354992) cream (2.348240) univers (2.303450) memori (2.253630) lobster (2.230946) dude (2.228508) 
Error (train/valid/test) = 0.115328/1.309520/1.470272 (0.064235)
..................................................
energy after gradient step = 18059313.488100

Top words for each topic:
revolut (2.517553) smell (2.506614) ben (2.352820) cheddar (2.333923) memor (2.333787) biggest (2.196864) growler (2.190364) imposs (2.181927) gone (2.155240) boardwalk (2.133349) 
bask (2.433472) rooftop (2.315090) nicol (2.274860) melt (2.259781) babi (2.234605) zucchini (2.217165) puppi (2.151953) lose (2.126636) comp (2.102362) spill (2.101007) 
ramen (3.287452) authent (2.455380) picnic (2.293897) garlic (2.207792) dumpl (2.201312) galleri (2.174730) pop (2.119554) anyon (2.099046) cheesecak (2.072284) membership (2.068058) 
osso (2.980750) fleme (2.869092) common (2.535362) candi (2.486453) dandelion (2.482641) oliv (2.424007) crappi (2.397435) ian (2.363208) balsam (2.292774) peach (2.288730) 
sir (2.636626) gooey (2.334175) face (2.320054) metal (2.225431) dilworth (2.191441) action (2.183641) stone (2.170982) tour (2.159685) needless (2.122434) proxim (2.107233) 
excus (2.457910) beaver (2.381402) cigar (2.290398) 45 (2.255637) mistak (2.246821) scotch (2.228962) ticket (2.213584) cinebarr (2.182210) stuck (2.179217) togeth (2.169246) 
remain (2.409469) bowl (2.393074) feta (2.290299) grade (2.289572) creami (2.273985) tradit (2.154744) bump (2.137126) greatest (2.133294) ride (2.087502) term (2.084316) 
cranberri (2.283698) neighbor (2.248722) opportun (2.224971) poster (2.207055) bass (2.190387) talent (2.180674) winner (2.180580) corpor (2.179450) moon (2.169298) tab (2.126560) 
beaudevin (2.825572) alley (2.804719) through (2.795504) sip (2.612739) lane (2.591437) ritz (2.591053) layov (2.548438) vari (2.504401) sangria (2.379945) lemonad (2.376246) 
soul (2.950051) enso (2.633585) sushi (2.597290) lobster (2.568962) quarter (2.472469) skewer (2.355690) concern (2.351108) tapa (2.330782) memori (2.285894) rice (2.163183) 
Error (train/valid/test) = 0.130149/1.327160/1.514424 (0.067192)
..................................................
energy after gradient step = 18018814.288972

Top words for each topic:
revolut (2.732955) growler (2.562553) countri (2.428509) smell (2.411379) cheddar (2.390338) drinker (2.316289) memor (2.292289) biggest (2.288518) restroom (2.210547) boardwalk (2.179146) 
rooftop (2.630970) bask (2.456823) nicol (2.336096) hubbi (2.250737) puppi (2.246332) judg (2.171527) conveni (2.168164) movi (2.118555) breakfast (2.115037) clear (2.100062) 
ramen (3.567695) authent (2.614220) anyon (2.533474) dumpl (2.370579) york (2.347493) broth (2.295170) picnic (2.269780) direct (2.155314) garlic (2.152323) deep (2.097344) 
osso (3.028566) fleme (2.752247) oliv (2.630957) ribey (2.593124) advertis (2.578825) crappi (2.577391) common (2.557710) candi (2.476564) accompani (2.450661) dandelion (2.449386) 
sir (2.660284) needless (2.323124) stone (2.318097) bore (2.315844) gooey (2.263515) action (2.224549) dilworth (2.207917) vbgb (2.193741) face (2.192008) metal (2.165493) 
mistak (2.543592) ticket (2.499926) beaver (2.495963) dive (2.423188) cigar (2.337386) cinebarr (2.308318) phone (2.217218) excus (2.169145) stomach (2.140133) 45 (2.120977) 
bowl (2.614117) creami (2.509258) jalapeno (2.304138) remain (2.291724) alcohol (2.284169) term (2.265853) bump (2.264944) feta (2.257945) greatest (2.216422) chili (2.189023) 
opportun (2.385813) winner (2.344587) poster (2.343778) soup (2.338483) cranberri (2.308816) moon (2.299296) piano (2.233189) corpor (2.202925) goto (2.186620) tab (2.175191) 
through (3.017891) layov (2.846250) alley (2.808567) ritz (2.733547) lane (2.693485) beaudevin (2.649127) sip (2.561174) sangria (2.462524) c (2.457603) southend (2.394712) 
soul (3.070532) enso (3.038080) sushi (2.838690) lobster (2.505261) quarter (2.462254) cream (2.428610) concern (2.422677) skewer (2.357697) tapa (2.305111) univers (2.290570) 
Error (train/valid/test) = 0.118632/1.303531/1.497852 (0.060830)
..................................................
energy after gradient step = 17976900.803562

Top words for each topic:
revolut (2.665233) growler (2.570049) smell (2.474352) drinker (2.454206) countri (2.363835) memor (2.285934) cheddar (2.274053) biggest (2.258614) gone (2.255747) boardwalk (2.221060) 
rooftop (2.658674) bask (2.513647) nicol (2.261300) breakfast (2.257107) movi (2.241542) guacamol (2.235941) melt (2.160498) conveni (2.144907) judg (2.131211) hubbi (2.127885) 
ramen (3.465779) authent (2.635467) anyon (2.530921) garlic (2.503240) broth (2.451238) dumpl (2.412596) picnic (2.319858) regardless (2.274791) york (2.234632) ladi (2.190549) 
fleme (3.187223) osso (3.150859) oliv (2.809327) dandelion (2.676557) common (2.598008) candi (2.564602) accompani (2.536952) ribey (2.521695) crappi (2.519712) advertis (2.471368) 
sir (2.548227) needless (2.347412) stone (2.324358) metal (2.250179) dilworth (2.249966) tour (2.243724) mike (2.226933) bore (2.211227) generic (2.172836) pretzel (2.172254) 
mistak (2.631446) beaver (2.441658) excus (2.403094) cigar (2.346988) ticket (2.246132) stumbl (2.235947) phone (2.235741) 45 (2.226522) request (2.212549) cinebarr (2.185402) 
creami (2.754252) bowl (2.680538) jalapeno (2.362118) remain (2.281142) rib (2.261482) invit (2.245583) textur (2.242753) greatest (2.228299) possibl (2.176890) feta (2.166538) 
tab (2.441413) poster (2.426517) opportun (2.414572) soup (2.407824) spacious (2.369938) piano (2.316751) moon (2.259795) cranberri (2.253805) talent (2.251399) bass (2.218752) 
through (2.985079) alley (2.921973) lane (2.808707) layov (2.793801) ritz (2.782831) beaudevin (2.767093) bowl (2.580844) airport (2.509976) sangria (2.470529) sip (2.444952) 
soul (3.239201) sushi (3.115048) enso (2.905882) tapa (2.840436) quarter (2.572984) concern (2.468715) cream (2.453948) garag (2.411936) lobster (2.367923) roll (2.353487) 
Error (train/valid/test) = 0.116983/1.316252/1.507346 (0.065473)
..................................................
energy after gradient step = 17928341.363285

Top words for each topic:
revolut (2.680691) smell (2.568963) growler (2.552474) boardwalk (2.513136) countri (2.509079) memor (2.336073) drinker (2.287943) cheddar (2.238916) irish (2.235318) biggest (2.234284) 
rooftop (2.670784) movi (2.649608) bask (2.627189) breakfast (2.550190) guacamol (2.231561) nicol (2.220422) ridicul (2.202699) clear (2.186592) 35 (2.171152) conveni (2.145914) 
ramen (3.704376) authent (2.784141) broth (2.633017) anyon (2.605206) garlic (2.563632) york (2.313539) picnic (2.292047) carri (2.256667) galleri (2.215694) count (2.202235) 
osso (3.090942) fleme (3.061796) dandelion (2.948425) oliv (2.702699) common (2.543874) blt (2.516166) candi (2.507467) ribey (2.505082) crappi (2.452870) perus (2.400498) 
needless (2.454505) sir (2.431538) stone (2.365481) due (2.263237) pretzel (2.238854) metal (2.222273) vbgb (2.209383) dilworth (2.167480) proxim (2.156577) face (2.146257) 
beaver (2.563728) mistak (2.475539) cinebarr (2.434483) ticket (2.361015) appropri (2.301058) dive (2.282316) picasso (2.213010) refresh (2.212515) 45 (2.203352) excus (2.199999) 
bowl (2.781361) creami (2.583485) rib (2.477995) jalapeno (2.352820) chili (2.329906) invit (2.298435) feta (2.286562) smaller (2.285091) 11 (2.272936) grade (2.248403) 
spacious (2.582343) opportun (2.517715) soup (2.446314) piano (2.375588) talent (2.364753) cranberri (2.318274) poster (2.306079) tab (2.286947) moon (2.246848) winner (2.244446) 
alley (3.179867) lane (3.109033) airport (2.964123) through (2.914475) layov (2.901800) ritz (2.891320) beaudevin (2.832865) bowl (2.717077) lemonad (2.582760) coffe (2.578451) 
soul (3.334098) sushi (3.261727) enso (3.040990) quarter (2.665718) lobster (2.647351) tapa (2.640704) salsa (2.576262) cream (2.514737) roll (2.512817) rice (2.503952) 
Error (train/valid/test) = 0.102035/1.306944/1.506615 (0.062909)
..................................................
energy after gradient step = 17870730.976236

Top words for each topic:
revolut (2.672180) countri (2.564760) cheddar (2.526071) smell (2.503463) drinker (2.480472) growler (2.469380) pint (2.401456) irish (2.388747) memor (2.385392) biggest (2.384542) 
rooftop (2.892223) movi (2.838085) bask (2.657904) guacamol (2.395401) breakfast (2.364062) 35 (2.266921) clear (2.242056) slam (2.225039) puppi (2.205105) theater (2.187291) 
ramen (3.779167) broth (2.749266) authent (2.733987) garlic (2.610378) anyon (2.512166) dumpl (2.410202) picnic (2.391742) galleri (2.367411) carrot (2.270349) count (2.262044) 
fleme (3.401855) osso (3.242906) dandelion (3.013657) common (2.747083) blt (2.730710) ribey (2.685773) oliv (2.609529) advertis (2.526449) kickstand (2.497985) candi (2.453468) 
sir (2.756496) stone (2.500267) mike (2.371155) needless (2.356725) proxim (2.320559) dilworth (2.315158) vbgb (2.308282) factori (2.275073) metal (2.246717) due (2.200787) 
beaver (2.540020) cinebarr (2.465648) mistak (2.414679) jukebox (2.379403) pbr (2.308406) appropri (2.305048) snug (2.277456) picasso (2.255792) hooter (2.251901) excus (2.247028) 
bowl (2.894743) creami (2.607012) rib (2.476692) pud (2.419707) waffl (2.417008) remain (2.413252) jalapeno (2.385695) 11 (2.345444) greatest (2.328735) swiss (2.325447) 
soup (2.592871) song (2.464877) talent (2.430212) excit (2.427787) moon (2.409309) poster (2.390020) piano (2.357057) opportun (2.343967) spacious (2.307761) butter (2.282042) 
lane (3.336786) airport (3.227803) alley (3.158459) through (3.076705) ritz (2.974367) hookah (2.888443) beaudevin (2.857852) lemonad (2.842127) bowl (2.839721) layov (2.784229) 
soul (3.440122) sushi (3.424015) enso (3.250385) tapa (2.810669) cream (2.721025) roll (2.657835) quarter (2.641956) burrito (2.536629) ginger (2.520584) belli (2.516808) 
Error (train/valid/test) = 0.102002/1.317434/1.506301 (0.063616)
..................................................
energy after gradient step = 17816120.354316

Top words for each topic:
revolut (2.895690) pint (2.623241) growler (2.568299) countri (2.550478) irish (2.543331) pretzel (2.467350) drinker (2.467142) cheddar (2.433439) boardwalk (2.352155) biggest (2.351230) 
rooftop (3.075354) movi (2.995392) bask (2.774978) guacamol (2.440469) theater (2.440153) nicol (2.296570) conveni (2.265670) lettuc (2.265109) popcorn (2.253998) 35 (2.234356) 
ramen (3.868535) broth (2.988953) authent (2.733499) garlic (2.631875) anyon (2.622733) dumpl (2.601226) picnic (2.482508) galleri (2.447575) carrot (2.315600) york (2.311697) 
fleme (3.426596) osso (3.304345) dandelion (3.129374) blt (2.772206) ribey (2.696698) loung (2.641342) kickstand (2.633998) oliv (2.633751) common (2.582226) crappi (2.514123) 
sir (2.638085) stone (2.519860) mike (2.458083) needless (2.425332) metal (2.327103) dog (2.303890) proxim (2.289147) hole (2.237043) vbgb (2.220215) throw (2.174623) 
beaver (2.638130) mistak (2.450527) cinebarr (2.404248) dive (2.384987) jukebox (2.341712) cigar (2.306206) pbr (2.299941) hooter (2.289824) excus (2.269259) appropri (2.247023) 
bowl (2.818644) creami (2.710481) invit (2.465297) waffl (2.459777) jalapeno (2.453679) pud (2.426389) remain (2.393944) beef (2.345169) feta (2.317437) rib (2.311454) 
soup (2.727358) song (2.486820) piano (2.482768) excit (2.479370) moon (2.475080) talent (2.458630) poster (2.369283) spacious (2.347446) opportun (2.317133) tab (2.271823) 
alley (3.341716) lane (3.308939) airport (3.201604) hookah (3.142686) bowl (3.077533) beaudevin (3.002538) ritz (2.951664) through (2.912520) layov (2.904908) vin (2.881012) 
sushi (3.585538) soul (3.546448) enso (3.194639) roll (2.813475) salsa (2.783919) cream (2.780746) tapa (2.735405) skewer (2.716183) lobster (2.704255) belli (2.645110) 
Error (train/valid/test) = 0.102152/1.330231/1.520771 (0.063813)
..................................................
energy after gradient step = 17747459.810171

Top words for each topic:
revolut (2.866913) growler (2.858535) pint (2.695086) irish (2.679513) countri (2.667102) drinker (2.637616) pretzel (2.532447) smell (2.441929) biggest (2.369442) pub (2.335239) 
movi (3.154551) bask (2.910150) rooftop (2.793077) theater (2.505507) lettuc (2.439227) breakfast (2.422072) 35 (2.420961) nicol (2.382268) guacamol (2.357081) ridicul (2.341769) 
ramen (4.016390) authent (3.043510) broth (2.981949) garlic (2.673519) dumpl (2.632132) anyon (2.558053) slice (2.542941) york (2.513990) hawthorn (2.491975) galleri (2.476737) 
fleme (3.590671) osso (3.481740) dandelion (3.180349) blt (3.037458) oliv (3.028398) kickstand (2.868259) loung (2.794769) ribey (2.719682) peach (2.628723) ed (2.619727) 
sir (2.733211) dog (2.569730) stone (2.505197) needless (2.284444) mike (2.262558) colleg (2.198339) throw (2.191402) screen (2.188643) vbgb (2.181011) gooey (2.174255) 
beaver (2.621106) cigar (2.472438) hooter (2.466789) cinebarr (2.450885) mistak (2.436653) jukebox (2.429562) dive (2.418414) muse (2.358177) snug (2.320060) excus (2.291900) 
bowl (2.828477) creami (2.761924) rib (2.516819) chili (2.482262) remain (2.453565) jalapeno (2.451895) beef (2.380275) invit (2.340953) pimento (2.339957) waffl (2.314972) 
soup (2.862914) piano (2.621722) song (2.619778) excit (2.580926) poster (2.504791) moon (2.447229) spacious (2.414235) yum (2.362303) winner (2.340008) talent (2.309219) 
lane (3.574056) airport (3.429737) alley (3.349169) bowl (3.213472) beaudevin (3.123039) layov (3.120792) hookah (3.119478) through (3.092853) ritz (2.991389) vin (2.975334) 
sushi (3.695770) soul (3.652364) enso (3.162381) tapa (3.018303) roll (2.868344) cream (2.817263) salsa (2.815198) belli (2.744466) skewer (2.728480) watermelon (2.703129) 
Error (train/valid/test) = 0.121211/1.346648/1.547165 (0.062260)
..................................................
energy after gradient step = 17678077.734511

Top words for each topic:
revolut (2.921474) irish (2.880359) pint (2.862215) growler (2.844845) pretzel (2.700201) countri (2.634027) drinker (2.579702) pub (2.546835) smell (2.467109) sausag (2.410033) 
movi (3.366157) bask (2.877908) rooftop (2.875225) theater (2.728389) breakfast (2.559233) guacamol (2.502307) babi (2.484872) nicol (2.463340) lose (2.433270) lettuc (2.410184) 
ramen (3.982787) authent (3.110338) broth (2.938666) anyon (2.855965) hawthorn (2.841011) garlic (2.829846) dumpl (2.752039) york (2.576699) galleri (2.565713) japanes (2.540362) 
fleme (3.569490) osso (3.470261) dandelion (3.330321) blt (2.951157) kickstand (2.949346) oliv (2.909108) loung (2.744596) candi (2.697548) ribey (2.681257) peach (2.592691) 
dog (2.798509) sir (2.544750) stone (2.517065) mike (2.322684) danc (2.320766) screen (2.316123) parti (2.307778) sport (2.281364) vbgb (2.277912) hole (2.267923) 
beaver (2.695959) dive (2.567233) hooter (2.490314) cinebarr (2.470170) cigar (2.422464) jukebox (2.409520) pbr (2.370093) muse (2.365569) snug (2.363819) burger (2.304862) 
creami (2.811360) bowl (2.637706) jalapeno (2.566595) chili (2.535965) rib (2.523807) filet (2.505426) waffl (2.452222) pimento (2.413014) bbq (2.387872) beef (2.334154) 
soup (2.842109) piano (2.791865) song (2.661840) excit (2.594204) spacious (2.500382) moon (2.467731) madison (2.466694) 4th (2.465442) opportun (2.458893) thai (2.415307) 
airport (3.605960) alley (3.543860) lane (3.530885) bowl (3.449863) hookah (3.357220) layov (3.172809) beaudevin (3.147482) through (3.139501) ritz (3.043767) coffe (3.034996) 
sushi (3.804026) soul (3.678177) enso (3.333256) roll (3.023359) salsa (3.013020) tapa (2.974498) cream (2.918285) belli (2.855261) taco (2.764908) skewer (2.761052) 
Error (train/valid/test) = 0.108247/1.323895/1.539364 (0.063444)
..................................................
energy after gradient step = 17592813.740915

Top words for each topic:
revolut (2.923313) pretzel (2.881740) growler (2.842225) irish (2.825458) pub (2.703243) pint (2.700591) beer (2.533747) crust (2.533268) sausag (2.524625) countri (2.518933) 
movi (3.526551) theater (2.964712) rooftop (2.903346) bask (2.831163) breakfast (2.583470) popcorn (2.572278) guacamol (2.538207) babi (2.500895) nicol (2.491958) lettuc (2.432006) 
ramen (4.179333) authent (3.162308) garlic (3.157748) broth (2.981836) hawthorn (2.829109) pizza (2.818398) dumpl (2.805679) anyon (2.785864) slice (2.718922) dj (2.668155) 
fleme (3.689952) osso (3.557016) dandelion (3.414777) kickstand (3.088380) blt (3.077315) oliv (2.982298) ribey (2.861880) loung (2.846299) peach (2.682650) candi (2.653079) 
dog (2.941034) sir (2.666385) stone (2.480354) danc (2.453140) sport (2.388692) mike (2.341789) colleg (2.302086) vbgb (2.293561) screen (2.284043) parti (2.278744) 
beaver (2.646379) cigar (2.551320) burger (2.465978) hooter (2.463109) cinebarr (2.406462) dive (2.390096) muse (2.381964) jukebox (2.363431) snug (2.274755) pbr (2.267400) 
creami (2.907882) rib (2.759762) jalapeno (2.647153) chili (2.561130) bowl (2.546513) bbq (2.539805) beef (2.514746) waffl (2.475188) filet (2.457949) pimento (2.450604) 
soup (2.943006) piano (2.831809) song (2.788317) excit (2.726316) opportun (2.558502) talent (2.541640) 4th (2.533875) thai (2.445187) moon (2.430381) madison (2.429235) 
lane (3.762979) bowl (3.694883) airport (3.610553) alley (3.592635) hookah (3.389377) layov (3.199779) beaudevin (3.199461) ritz (3.005203) vin (3.004051) through (2.977258) 
sushi (3.928441) soul (3.775408) enso (3.318128) roll (3.171189) tapa (3.105312) taco (3.036944) belli (3.001341) cream (2.890967) lobster (2.874445) salsa (2.842282) 
Error (train/valid/test) = 0.125054/1.333294/1.549299 (0.063131)
..................................................
energy after gradient step = 17498081.617721

Top words for each topic:
irish (2.953228) revolut (2.941715) pretzel (2.929119) growler (2.923260) pint (2.908705) beer (2.853840) pub (2.831876) countri (2.711652) crust (2.631410) sausag (2.539968) 
movi (3.694698) theater (3.065900) rooftop (3.033258) bask (2.950806) popcorn (2.779616) breakfast (2.764033) guacamol (2.734771) lettuc (2.673096) babi (2.660886) nicol (2.476352) 
ramen (4.235594) authent (3.344589) hawthorn (3.294960) garlic (3.137398) broth (3.127695) pizza (2.982922) dj (2.800925) anyon (2.787931) galleri (2.781039) yama (2.779681) 
fleme (3.734966) osso (3.494663) dandelion (3.438281) blt (3.303774) oliv (3.169717) kickstand (3.128809) loung (3.063578) ribey (2.897882) thoma (2.732513) candi (2.729029) 
dog (3.014372) danc (2.664717) stone (2.623773) sir (2.584702) sport (2.552381) mike (2.419886) cajun (2.318354) cosmos (2.275684) needless (2.271215) throw (2.256609) 
beaver (2.615276) dive (2.596387) burger (2.561827) hooter (2.487994) cinebarr (2.421475) cigar (2.329677) snug (2.318776) tavern (2.307125) jukebox (2.306296) muse (2.256206) 
creami (3.011451) bbq (2.704032) jalapeno (2.699300) filet (2.666667) invit (2.628440) rib (2.625005) chili (2.597057) pimento (2.565835) waffl (2.495774) beef (2.489285) 
soup (3.061105) piano (2.916177) song (2.836211) opportun (2.698304) excit (2.662406) 4th (2.636366) talent (2.572381) warm (2.540028) sing (2.535485) poster (2.489141) 
lane (3.899701) bowl (3.822103) airport (3.813312) alley (3.633242) hookah (3.574982) beaudevin (3.347146) coffe (3.280908) layov (3.271348) ritz (3.242776) vin (3.188049) 
sushi (4.001868) soul (3.783042) enso (3.398844) roll (3.238683) taco (3.218085) tapa (3.146096) salsa (3.082809) belli (3.036101) tuna (3.002728) pork (2.923405) 
Error (train/valid/test) = 0.134625/1.340586/1.541952 (0.062475)
..................................................
energy after gradient step = 17417048.282738

Top words for each topic:
irish (3.079063) pretzel (3.028266) beer (3.004026) revolut (2.975267) growler (2.974476) pub (2.929439) pint (2.916434) sausag (2.714216) crust (2.623281) countri (2.608952) 
movi (3.831268) theater (3.374992) rooftop (3.205955) bask (2.906166) popcorn (2.752527) guacamol (2.704085) lettuc (2.644948) breakfast (2.630461) babi (2.575821) nicol (2.532729) 
ramen (4.344813) authent (3.505462) garlic (3.347411) hawthorn (3.217590) pizza (3.122392) broth (3.100695) slice (3.031100) anyon (3.023189) yama (2.964789) dumpl (2.869505) 
fleme (3.891815) osso (3.613435) dandelion (3.539239) blt (3.438226) kickstand (3.293395) oliv (3.209718) loung (3.122048) ribey (2.975310) wine (2.836610) candi (2.836460) 
dog (3.106100) danc (2.781348) sport (2.644939) sir (2.581961) stone (2.505216) needless (2.382358) colleg (2.367312) hole (2.365199) cover (2.340203) boneless (2.285804) 
burger (2.846846) beaver (2.623921) hooter (2.561388) dive (2.514990) cigar (2.442735) jukebox (2.390275) cinebarr (2.374264) tot (2.367388) snug (2.320387) tavern (2.306226) 
rib (2.907742) creami (2.877485) bbq (2.801885) jalapeno (2.712036) beef (2.655939) pud (2.653481) filet (2.620284) chili (2.615249) pimento (2.578009) invit (2.532636) 
piano (3.041273) song (3.039200) soup (2.995428) excit (2.914200) 4th (2.841034) ward (2.707379) opportun (2.653237) talent (2.587194) yum (2.578268) sing (2.567949) 
lane (4.027131) bowl (4.016682) airport (3.863811) hookah (3.832368) alley (3.756197) layov (3.466125) beaudevin (3.433036) coffe (3.270139) ritz (3.184098) vin (3.145300) 
sushi (4.107288) soul (3.869413) enso (3.418540) taco (3.361676) roll (3.345420) belli (3.197032) tapa (3.105042) cream (3.101705) pork (3.027522) salsa (3.003429) 
Error (train/valid/test) = 0.150403/1.367534/1.560603 (0.069373)
..................................................
energy after gradient step = 17313931.189050

Top words for each topic:
beer (3.265853) pretzel (3.129625) irish (3.080684) revolut (3.056907) pint (3.012286) growler (3.011979) pub (3.005786) countri (2.856250) crust (2.792072) sausag (2.738070) 
movi (3.914426) theater (3.338526) rooftop (3.153608) bask (3.088794) popcorn (2.883269) lose (2.673697) guacamol (2.658116) babi (2.636988) breakfast (2.586251) lettuc (2.575761) 
ramen (4.476365) authent (3.571071) hawthorn (3.552394) garlic (3.442853) broth (3.440961) pizza (3.334739) yama (3.123562) japanes (3.066260) dumpl (3.056252) anyon (3.005135) 
fleme (4.050794) osso (3.676743) dandelion (3.587109) blt (3.511113) oliv (3.272342) ribey (3.254592) kickstand (3.230445) loung (3.144129) candi (3.064631) accompani (2.941803) 
dog (3.204732) danc (2.855577) sport (2.731667) sir (2.619365) stone (2.518711) screen (2.456666) cosmos (2.354722) cover (2.340609) cajun (2.333314) parti (2.310128) 
burger (2.937760) dive (2.589196) beaver (2.554431) tot (2.533680) cigar (2.503536) cinebarr (2.459003) hooter (2.435510) snug (2.427896) jukebox (2.411325) pong (2.320150) 
bbq (2.967613) creami (2.931968) jalapeno (2.912409) beef (2.784075) waffl (2.718991) chili (2.710483) rib (2.690462) invit (2.655280) jar (2.640016) pimento (2.630900) 
piano (3.117731) song (3.017126) soup (3.009065) ward (2.902625) 4th (2.844785) excit (2.819377) thai (2.802703) sing (2.696740) willi (2.685107) opportun (2.681730) 
lane (4.151900) airport (4.120865) bowl (4.097057) alley (3.839251) hookah (3.808328) layov (3.514055) beaudevin (3.488144) coffe (3.421601) ritz (3.292802) vin (3.269997) 
sushi (4.192823) soul (3.930921) taco (3.569277) enso (3.469719) roll (3.415625) tapa (3.318027) salsa (3.203117) belli (3.189224) tuna (3.148603) pork (3.124833) 
Error (train/valid/test) = 0.110666/1.326989/1.529309 (0.064757)
..................................................
energy after gradient step = 17224952.314027

Top words for each topic:
beer (3.454268) pretzel (3.225250) irish (3.177363) growler (3.168830) pizza (3.079847) pub (3.065214) revolut (3.058572) pint (3.057198) crust (2.863625) sausag (2.834385) 
movi (4.017597) theater (3.559848) rooftop (3.344150) popcorn (3.041903) bask (3.032248) guacamol (2.814008) mess (2.775135) lose (2.748757) babi (2.695747) acknowledg (2.669876) 
ramen (4.545789) pizza (3.771043) hawthorn (3.715592) broth (3.574954) authent (3.539132) garlic (3.526643) japanes (3.332311) yama (3.309074) dumpl (3.149392) buffet (3.038261) 
fleme (4.156181) dandelion (4.076108) osso (3.852368) blt (3.704420) kickstand (3.565135) loung (3.462629) ribey (3.438130) oliv (3.368848) candi (3.243343) steak (3.017159) 
dog (3.257305) danc (3.003692) sport (2.765241) sir (2.481903) screen (2.439831) stone (2.411976) cover (2.409906) colleg (2.383470) game (2.371816) play (2.348297) 
burger (3.156624) beaver (2.581852) hooter (2.555633) cigar (2.516315) dive (2.513944) tot (2.481829) cinebarr (2.457787) jukebox (2.453465) tavern (2.410743) snug (2.377533) 
bbq (3.023223) creami (2.989446) rib (2.926891) beef (2.857360) waffl (2.818618) lebowski (2.787052) jalapeno (2.714630) pud (2.708355) grit (2.649696) invit (2.643390) 
piano (3.209693) soup (3.055665) 4th (3.050609) ward (3.050186) sing (3.028095) song (2.982805) thai (2.921223) willi (2.810503) excit (2.788112) yum (2.777803) 
lane (4.258415) bowl (4.208010) airport (4.076872) hookah (3.953646) alley (3.888804) wine (3.843836) layov (3.668115) beaudevin (3.499193) flight (3.392159) coffe (3.380251) 
sushi (4.272845) soul (3.976216) taco (3.745381) enso (3.520455) roll (3.483648) tapa (3.292234) salsa (3.272182) belli (3.258637) pork (3.215549) tuna (3.131781) 
Error (train/valid/test) = 0.121346/1.345581/1.552212 (0.064642)
..................................................
energy after gradient step = 17143020.137999

Top words for each topic:
beer (3.755696) pretzel (3.452756) irish (3.283748) pint (3.240587) growler (3.168680) revolut (3.158861) pub (3.156225) pizza (3.084916) sausag (2.858885) mellow (2.853855) 
movi (4.145822) theater (3.525216) rooftop (3.191553) bask (3.043947) popcorn (2.991538) lettuc (2.880423) guacamol (2.879812) jackbeagl (2.796671) acknowledg (2.756583) breakfast (2.727830) 
ramen (4.675287) pizza (3.973445) hawthorn (3.934621) broth (3.774115) garlic (3.716794) authent (3.459198) yama (3.438738) japanes (3.396680) buffet (3.326612) dumpl (3.197510) 
fleme (4.159373) dandelion (3.907916) osso (3.896597) blt (3.890633) kickstand (3.647111) loung (3.541569) ribey (3.482395) oliv (3.398966) candi (3.247808) steak (3.240662) 
dog (3.375179) danc (3.093131) sport (2.797286) colleg (2.641529) stone (2.586359) cover (2.528330) game (2.489840) sir (2.442919) play (2.416784) watch (2.377466) 
burger (3.294399) tot (2.619215) beaver (2.526261) dive (2.483217) tavern (2.439769) hooter (2.417461) cinebarr (2.407366) jukebox (2.402081) patio (2.355743) pong (2.323119) 
bbq (3.114095) creami (2.952672) jalapeno (2.944311) beef (2.940624) lebowski (2.911977) filet (2.890733) crab (2.865795) pud (2.829659) rib (2.809611) grit (2.794646) 
piano (3.219538) ward (3.134598) willi (3.132964) song (3.130617) 4th (3.091858) thai (2.999620) sing (2.948295) talent (2.910238) excit (2.845872) howl (2.826548) 
lane (4.415384) bowl (4.387337) airport (4.294155) hookah (4.222032) wine (4.071263) alley (4.039547) coffe (3.678670) layov (3.654195) beaudevin (3.555585) flight (3.482513) 
sushi (4.338024) soul (4.067791) taco (3.871710) enso (3.573200) roll (3.527863) belli (3.503198) tapa (3.434509) salsa (3.400366) pork (3.266522) tuna (3.249673) 
Error (train/valid/test) = 0.112965/1.341884/1.554574 (0.065955)
..................................................
energy after gradient step = 17051523.449455

Top words for each topic:
beer (3.884098) pretzel (3.451657) irish (3.359406) pint (3.301157) revolut (3.284885) pub (3.267949) growler (3.251988) pizza (3.183939) sausag (3.067427) crust (2.982291) 
movi (4.180523) theater (3.631994) rooftop (3.127336) popcorn (2.975853) bask (2.966403) guacamol (2.904505) mess (2.818247) acknowledg (2.782358) british (2.747909) fish (2.728454) 
ramen (4.757810) pizza (4.235937) hawthorn (4.033745) garlic (3.759147) authent (3.718459) broth (3.691261) yama (3.521324) peel (3.477245) japanes (3.296482) dumpl (3.265066) 
fleme (4.415679) dandelion (4.169878) osso (3.901437) blt (3.863867) ribey (3.687316) kickstand (3.650247) cigar (3.501322) loung (3.482083) oliv (3.380582) steak (3.295261) 
dog (3.402473) danc (3.195161) sport (2.852632) game (2.600258) cover (2.592911) screen (2.540710) play (2.479154) watch (2.441654) stone (2.402231) colleg (2.375044) 
burger (3.407423) tot (2.686871) hooter (2.651591) dive (2.536632) tavern (2.492494) beaver (2.482741) cinebarr (2.411241) patio (2.405616) jukebox (2.348651) snug (2.304513) 
bbq (3.185323) creami (3.106548) lebowski (3.078974) beef (2.947590) crab (2.936738) burger (2.918797) jalapeno (2.910109) rib (2.893008) pimento (2.862901) potato (2.821517) 
ward (3.343380) piano (3.314889) 4th (3.262245) song (3.087637) talent (3.027279) thai (2.989069) willi (2.986430) howl (2.985027) sing (2.951252) opportun (2.925938) 
lane (4.511130) bowl (4.463426) airport (4.348759) wine (4.320882) hookah (4.247167) alley (4.130584) layov (3.668013) beaudevin (3.654734) coffe (3.585199) vin (3.569747) 
sushi (4.389854) soul (4.067076) taco (4.017510) enso (3.629308) roll (3.560775) salsa (3.435706) tapa (3.434645) belli (3.349968) pork (3.298264) tuna (3.269306) 
Error (train/valid/test) = 0.107952/1.341033/1.546071 (0.065808)
..................................................
energy after gradient step = 16977624.420696

Top words for each topic:
beer (4.003308) pretzel (3.556447) irish (3.444639) pub (3.411252) pint (3.326255) revolut (3.271148) growler (3.252911) pizza (3.230000) crust (3.066468) sausag (2.942169) 
movi (4.136550) theater (3.645108) rooftop (3.168168) bask (3.129402) popcorn (3.002202) fish (2.884720) guacamol (2.860271) lettuc (2.790314) breakfast (2.723293) nicol (2.706360) 
ramen (4.832500) pizza (4.357184) hawthorn (4.171168) garlic (3.845902) authent (3.821259) broth (3.802839) yama (3.584523) peel (3.491149) dumpl (3.356657) japanes (3.332215) 
fleme (4.409317) dandelion (4.208542) osso (3.977868) blt (3.940796) kickstand (3.716503) ribey (3.681849) cigar (3.665643) loung (3.559541) steak (3.533858) oliv (3.486969) 
dog (3.425894) danc (3.265205) sport (2.824045) cover (2.642002) colleg (2.620973) game (2.614963) play (2.504743) stone (2.489852) watch (2.403689) bull (2.380686) 
burger (3.399827) tot (2.665311) dive (2.594780) hooter (2.577988) beaver (2.512849) tavern (2.505405) jukebox (2.401632) patio (2.384010) cinebarr (2.322623) jack (2.311513) 
bbq (3.203894) creami (3.190608) beef (3.085313) jalapeno (3.050028) lebowski (3.015458) burger (3.009955) filet (2.973815) crab (2.960886) waffl (2.935938) potato (2.910464) 
piano (3.366032) 4th (3.276301) ward (3.256995) willi (3.164313) howl (3.061616) opportun (3.023553) thai (3.012145) talent (3.009627) owner (2.982293) song (2.964509) 
bowl (4.749932) lane (4.596843) airport (4.502263) hookah (4.395619) wine (4.363123) alley (4.133345) coffe (3.826951) layov (3.718556) beaudevin (3.693181) vin (3.609831) 
sushi (4.415658) soul (4.153571) taco (4.080514) enso (3.670892) roll (3.598796) salsa (3.548553) tapa (3.534334) belli (3.502843) pork (3.383521) tuna (3.331759) 
Error (train/valid/test) = 0.108539/1.353090/1.548223 (0.066925)
..................................................
energy after gradient step = 16913432.790312

Top words for each topic:
beer (4.013960) pretzel (3.592103) irish (3.479575) pub (3.428788) pint (3.388284) growler (3.315486) pizza (3.272879) revolut (3.243571) sausag (3.132150) pie (3.081223) 
movi (4.159005) theater (3.550949) rooftop (3.140132) popcorn (3.110133) bask (3.063410) fish (2.968914) guacamol (2.757218) chip (2.739983) nicol (2.720490) breakfast (2.716285) 
ramen (4.898950) pizza (4.570994) hawthorn (4.256585) garlic (3.936393) broth (3.833064) authent (3.763640) yama (3.676465) peel (3.593007) japanes (3.422690) buffet (3.406705) 
fleme (4.512290) dandelion (4.245940) osso (4.107911) blt (4.022512) cigar (3.976980) ribey (3.747179) kickstand (3.725579) steak (3.663821) loung (3.622249) oliv (3.594994) 
dog (3.390610) danc (3.265315) sport (2.848582) game (2.675709) cover (2.631571) screen (2.601704) play (2.586047) stone (2.485532) colleg (2.442989) floor (2.430224) 
burger (3.454550) tot (2.787191) hooter (2.622197) dive (2.595607) beaver (2.528065) tavern (2.506946) jukebox (2.425256) patio (2.413020) cinebarr (2.385374) scene (2.318921) 
creami (3.279914) bbq (3.251889) beef (3.157383) burger (3.126529) jalapeno (3.111827) potato (3.025055) crab (2.978183) lebowski (2.972098) pud (2.958163) waffl (2.947618) 
piano (3.400792) ward (3.360718) 4th (3.223548) willi (3.177201) howl (3.176256) opportun (3.060477) sing (3.057477) thai (2.982285) song (2.965891) owner (2.947663) 
bowl (4.789135) lane (4.613456) wine (4.548842) airport (4.435078) hookah (4.426718) alley (4.258596) layov (3.843403) beaudevin (3.766533) coffe (3.728524) vin (3.638201) 
sushi (4.495828) soul (4.141808) taco (4.139979) enso (3.706368) tapa (3.601061) belli (3.582174) roll (3.552094) salsa (3.517754) pork (3.436302) tuna (3.428332) 
Error (train/valid/test) = 0.107360/1.362213/1.556286 (0.066890)
..................................................
energy after gradient step = 16839482.167145

Top words for each topic:
beer (4.048129) pretzel (3.698036) pub (3.543693) irish (3.504514) revolut (3.420937) growler (3.404096) pint (3.399515) pizza (3.329571) crust (3.261753) mellow (3.126943) 
movi (4.185708) theater (3.588765) rooftop (3.069379) popcorn (3.010989) fish (2.970350) bask (2.884404) chip (2.836278) avocado (2.798893) minut (2.795602) lettuc (2.741538) 
ramen (5.046535) pizza (4.898880) hawthorn (4.463753) garlic (4.078104) broth (3.971027) authent (3.866363) yama (3.794094) peel (3.744826) japanes (3.596870) noodl (3.529816) 
fleme (4.515220) dandelion (4.280732) osso (4.222349) blt (4.150715) cigar (4.009534) kickstand (3.892869) steak (3.887339) loung (3.737387) ribey (3.721752) candi (3.462606) 
dog (3.390849) danc (3.350439) sport (2.918721) game (2.742544) countri (2.659757) colleg (2.653845) play (2.618336) screen (2.582534) cover (2.575604) club (2.451862) 
burger (3.503762) tot (2.766506) dive (2.653872) hooter (2.651033) tavern (2.619289) beaver (2.557631) patio (2.481634) pong (2.408457) jukebox (2.398197) jack (2.372684) 
bbq (3.353010) beef (3.268704) burger (3.221246) lebowski (3.198179) creami (3.176541) filet (3.103367) potato (3.069967) jalapeno (3.023361) crab (3.009274) rib (2.993990) 
ward (3.518293) piano (3.416279) 4th (3.386237) willi (3.307272) opportun (3.280072) howl (3.193164) owner (3.063214) thai (3.060475) duel (3.026859) chris (3.002756) 
bowl (4.794985) lane (4.741191) wine (4.663611) airport (4.585842) hookah (4.552800) alley (4.216173) layov (3.959041) beaudevin (3.871437) coffe (3.755307) vin (3.749503) 
sushi (4.558573) taco (4.297998) soul (4.252304) enso (3.761267) tapa (3.629303) roll (3.610032) salsa (3.579822) belli (3.542145) pork (3.496428) tuna (3.446459) 
Error (train/valid/test) = 0.105936/1.366085/1.566521 (0.068022)
..................................................
energy after gradient step = 16781210.008550

Top words for each topic:
beer (4.112991) pretzel (3.762187) irish (3.707809) pub (3.648625) pint (3.507924) growler (3.466403) revolut (3.406946) sausag (3.261814) pizza (3.259958) saucer (3.241628) 
movi (4.115599) theater (3.506002) rooftop (3.069468) fish (3.029943) bask (2.939829) popcorn (2.897475) minut (2.881064) chip (2.833293) she (2.713205) english (2.692440) 
pizza (5.190239) ramen (5.110520) hawthorn (4.520440) garlic (4.167225) broth (4.040595) authent (3.997694) yama (3.912164) peel (3.823673) japanes (3.722796) buffet (3.576832) 
fleme (4.665342) cigar (4.542833) dandelion (4.516542) blt (4.206437) osso (4.192806) steak (3.987730) kickstand (3.884698) ribey (3.874139) loung (3.728970) candi (3.614949) 
dog (3.416696) danc (3.398709) sport (2.962087) game (2.696333) cover (2.630215) screen (2.625570) play (2.621357) club (2.567669) countri (2.547707) bull (2.544020) 
burger (3.554284) tot (2.828153) hooter (2.739721) tavern (2.664328) dive (2.586217) beaver (2.510800) patio (2.455790) pong (2.408060) cinebarr (2.388162) jukebox (2.354169) 
bbq (3.401536) beef (3.358503) burger (3.319178) jalapeno (3.198412) lebowski (3.180860) creami (3.163023) potato (3.115719) pud (3.095212) rib (3.078271) crab (3.075975) 
ward (3.544638) piano (3.539396) 4th (3.376311) willi (3.371286) howl (3.256571) thai (3.250242) opportun (3.184710) owner (3.135395) talent (3.118898) duel (3.114838) 
bowl (4.839073) wine (4.789320) lane (4.754262) hookah (4.587148) airport (4.554640) alley (4.409277) layov (3.957505) beaudevin (3.932338) vin (3.811287) flight (3.779301) 
sushi (4.617726) taco (4.350115) soul (4.215375) enso (3.831328) tapa (3.682584) belli (3.645492) salsa (3.617702) roll (3.609616) pork (3.529831) tuna (3.483027) 
Error (train/valid/test) = 0.108924/1.379366/1.580143 (0.069368)
..................................................
energy after gradient step = 16708094.120241

Top words for each topic:
beer (4.297648) pretzel (3.867161) pub (3.730045) irish (3.729778) pint (3.565188) revolut (3.555700) growler (3.501054) crust (3.392327) sausag (3.317277) tap (3.286763) 
movi (4.088901) theater (3.544885) fish (3.030676) popcorn (2.972410) rooftop (2.938579) minut (2.900468) chip (2.883473) bask (2.793304) she (2.717400) guacamol (2.665625) 
pizza (5.445486) ramen (5.147687) hawthorn (4.584287) garlic (4.121754) broth (4.110427) peel (4.003013) yama (3.987416) authent (3.880819) japanes (3.790154) buffet (3.689782) 
fleme (4.735098) cigar (4.566728) dandelion (4.420783) osso (4.283126) blt (4.240405) kickstand (4.178985) ribey (4.003464) steak (3.992969) loung (3.770388) brie (3.667029) 
danc (3.456788) dog (3.437682) sport (2.948823) countri (2.829853) club (2.729426) cover (2.710947) game (2.703240) screen (2.681091) play (2.610314) bull (2.586066) 
burger (3.515114) tot (2.844001) dive (2.689734) hooter (2.655201) tavern (2.643012) beaver (2.536263) patio (2.445291) jack (2.426347) pong (2.383133) jukebox (2.381880) 
burger (3.465123) beef (3.441523) bbq (3.425628) lebowski (3.365993) jalapeno (3.306928) creami (3.247340) potato (3.241065) crab (3.223002) waffl (3.109722) pud (3.097260) 
piano (3.649280) ward (3.553897) 4th (3.415914) willi (3.396289) howl (3.281206) owner (3.228421) madison (3.167716) thai (3.165848) opportun (3.149112) talent (3.112469) 
bowl (4.909938) lane (4.895263) wine (4.853238) airport (4.770830) hookah (4.741226) alley (4.320954) layov (4.057215) beaudevin (3.959909) coffe (3.844926) vin (3.840969) 
sushi (4.687294) taco (4.426293) soul (4.349101) enso (3.882251) tapa (3.752544) belli (3.714058) salsa (3.653864) pork (3.613135) roll (3.588527) tuna (3.522691) 
Error (train/valid/test) = 0.104960/1.388327/1.588143 (0.068976)
..................................................
energy after gradient step = 16661087.263369

Top words for each topic:
beer (4.343779) pretzel (3.959804) irish (3.824892) pub (3.803926) pint (3.650707) growler (3.588025) revolut (3.526689) saucer (3.452392) sausag (3.434663) mellow (3.404369) 
movi (4.051495) theater (3.398426) fish (2.981704) chip (2.936516) minut (2.894216) bask (2.874539) popcorn (2.855662) rooftop (2.822714) she (2.694270) manag (2.688139) 
pizza (5.598206) ramen (5.157307) hawthorn (4.626868) garlic (4.296471) broth (4.197769) yama (4.043124) peel (4.028079) authent (3.933937) knot (3.908924) japanes (3.832759) 
fleme (4.795610) cigar (4.772799) dandelion (4.629988) osso (4.394969) blt (4.316071) steak (4.041977) ribey (4.037846) kickstand (4.011267) brie (3.839421) loung (3.757461) 
danc (3.545321) dog (3.448491) sport (2.922037) countri (2.812456) game (2.787449) club (2.778760) cover (2.701445) colleg (2.667584) screen (2.651488) play (2.623762) 
burger (3.556052) tot (2.931726) hooter (2.840807) tavern (2.778917) dive (2.601594) beaver (2.505126) pong (2.464779) jack (2.450927) tater (2.424851) patio (2.419661) 
burger (3.632146) beef (3.505211) bbq (3.484157) lebowski (3.331468) potato (3.300052) creami (3.223027) jalapeno (3.206066) crab (3.181388) rib (3.175471) pud (3.104247) 
piano (3.646880) ward (3.610616) 4th (3.519347) willi (3.424636) howl (3.370561) madison (3.264856) owner (3.221273) chris (3.193527) vine (3.170763) wet (3.167501) 
wine (4.932536) lane (4.925868) bowl (4.887411) hookah (4.785717) airport (4.652975) alley (4.423244) layov (4.034251) beaudevin (3.999182) vin (3.882814) flight (3.820466) 
sushi (4.747775) taco (4.530917) soul (4.359099) enso (3.940777) tapa (3.836428) belli (3.783197) pork (3.658234) lamb (3.648345) salsa (3.631842) roll (3.623005) 
Error (train/valid/test) = 0.099103/1.387959/1.596343 (0.069142)
..................................................
energy after gradient step = 16605988.898158

Top words for each topic:
beer (4.422068) pretzel (4.084940) irish (3.857178) pub (3.840901) pint (3.821992) growler (3.719895) revolut (3.686796) saucer (3.544071) sausag (3.519690) crust (3.426206) 
movi (3.984627) theater (3.330179) fish (3.006347) chip (2.983763) minut (2.852942) manag (2.739266) she (2.722480) rooftop (2.707301) bask (2.704607) popcorn (2.699758) 
pizza (5.847319) ramen (5.231906) hawthorn (4.765830) garlic (4.150898) broth (4.119057) yama (4.104353) peel (4.104223) knot (4.101239) authent (4.099453) japanes (3.917048) 
fleme (4.788633) cigar (4.677481) dandelion (4.538161) blt (4.429600) osso (4.361494) ribey (4.194230) steak (4.171247) kickstand (4.115639) loung (3.808774) brie (3.759549) 
danc (3.595256) dog (3.476207) sport (2.960160) countri (2.895230) club (2.835286) game (2.765233) bull (2.762942) colleg (2.704512) screen (2.703544) cover (2.690874) 
burger (3.599130) tot (2.941363) dive (2.827576) hooter (2.762508) tavern (2.696149) jack (2.590368) beaver (2.548811) jukebox (2.522869) pong (2.481817) patio (2.459661) 
burger (3.762630) beef (3.525458) bbq (3.505425) lebowski (3.454445) potato (3.330006) creami (3.266006) jalapeno (3.248170) crab (3.233444) waffl (3.154663) pud (3.148459) 
ward (3.718966) piano (3.714389) 4th (3.560643) willi (3.426332) howl (3.372295) michael (3.342843) madison (3.296391) ahi (3.256151) owner (3.250967) wet (3.216051) 
lane (5.036316) wine (5.007606) airport (4.943198) bowl (4.896951) hookah (4.864914) alley (4.422217) layov (4.152753) beaudevin (4.093369) coffe (3.911417) vin (3.908826) 
sushi (4.813888) taco (4.609579) soul (4.453760) enso (4.013008) tapa (3.899346) belli (3.848262) salsa (3.773271) lamb (3.753658) tuna (3.679083) roll (3.613434) 
Error (train/valid/test) = 0.103762/1.402932/1.605192 (0.067978)
..................................................
energy after gradient step = 16573289.891094

Top words for each topic:
beer (4.553550) pretzel (4.130562) irish (3.988174) pub (3.946960) growler (3.745324) pint (3.736776) revolut (3.683148) saucer (3.612099) tap (3.545157) mellow (3.486739) 
movi (3.889602) theater (3.412252) fish (2.977352) chip (2.897459) minut (2.831523) popcorn (2.729398) manag (2.719232) she (2.699872) rooftop (2.642644) bask (2.618889) 
pizza (5.953198) ramen (5.193398) hawthorn (4.718474) garlic (4.330985) broth (4.218363) peel (4.126617) yama (4.119672) knot (4.109569) japanes (3.922582) dough (3.879713) 
cigar (4.894708) fleme (4.853445) dandelion (4.737925) osso (4.454658) blt (4.415942) steak (4.259842) kickstand (4.247834) ribey (4.141387) brie (3.970366) popov (3.816414) 
danc (3.719416) dog (3.517821) club (2.987819) countri (2.985726) sport (2.933007) bull (2.790068) cover (2.785738) floor (2.750290) colleg (2.727422) game (2.721471) 
burger (3.607615) tot (2.967583) tavern (2.926754) hooter (2.839709) dive (2.750057) beaver (2.622124) patio (2.560255) jack (2.548989) tvs (2.533298) jukebox (2.485918) 
burger (3.907043) beef (3.639589) bbq (3.538050) lebowski (3.509151) potato (3.406339) creami (3.298390) jalapeno (3.293811) rib (3.267187) grit (3.201901) crab (3.171663) 
piano (3.756575) ward (3.651772) 4th (3.597688) willi (3.570259) michael (3.545877) howl (3.437750) wet (3.344316) madison (3.338503) wooden (3.314603) vine (3.294335) 
wine (5.039750) lane (5.000313) hookah (4.874421) bowl (4.837801) airport (4.736673) alley (4.411384) layov (4.200155) beaudevin (4.100454) flight (3.987359) vin (3.933862) 
sushi (4.914838) taco (4.704655) soul (4.459567) enso (4.051359) tapa (4.038177) belli (3.941263) lamb (3.787162) tuna (3.771431) salsa (3.704576) pork (3.694781) 
Error (train/valid/test) = 0.095050/1.418269/1.613418 (0.070232)
..................................................
energy after gradient step = 16526427.228545

Top words for each topic:
beer (4.603996) pretzel (4.204484) irish (3.988633) pub (3.984381) pint (3.873118) growler (3.835713) revolut (3.756326) saucer (3.680980) sausag (3.619038) tap (3.596533) 
movi (3.907923) theater (3.229921) fish (3.016686) chip (2.917969) minut (2.752117) she (2.719053) popcorn (2.697688) manag (2.696827) bask (2.559025) rooftop (2.546740) 
pizza (6.128151) ramen (5.255947) hawthorn (4.830024) broth (4.220228) peel (4.218184) knot (4.189679) garlic (4.177432) yama (4.142037) japanes (3.906377) dough (3.894774) 
cigar (4.911556) fleme (4.898601) dandelion (4.723766) osso (4.516000) blt (4.404758) steak (4.280379) kickstand (4.259257) ribey (4.170847) popov (3.869730) cake (3.829291) 
danc (3.745278) dog (3.534111) countri (3.052901) club (3.003146) sport (2.960052) pool (2.949555) bull (2.854533) colleg (2.815881) cover (2.808769) fight (2.799779) 
burger (3.587601) tot (3.033373) hooter (2.911551) tavern (2.909254) dive (2.908942) jack (2.666952) beaver (2.642975) pong (2.571532) patio (2.550522) tvs (2.544993) 
burger (4.055518) beef (3.672725) bbq (3.554909) potato (3.507990) lebowski (3.499051) jalapeno (3.313384) creami (3.308517) pud (3.256314) filet (3.200352) crab (3.161488) 
ward (3.707458) piano (3.706528) willi (3.614639) 4th (3.598310) michael (3.472195) howl (3.447145) madison (3.420396) talent (3.245431) sing (3.242792) vine (3.236973) 
wine (5.119181) lane (5.046857) hookah (4.932822) airport (4.890834) bowl (4.824229) alley (4.351453) layov (4.194079) beaudevin (4.112333) vin (3.982796) coffe (3.972114) 
sushi (4.954309) taco (4.762306) soul (4.475941) enso (4.188944) tapa (3.980888) belli (3.932817) lamb (3.877930) salsa (3.841936) tuna (3.778400) pork (3.621094) 
Error (train/valid/test) = 0.092156/1.430463/1.626148 (0.070335)
..................................................
energy after gradient step = 16467738.064123

Top words for each topic:
beer (4.619726) pretzel (4.259622) irish (4.062714) pub (4.049711) growler (3.860770) revolut (3.852909) pint (3.771176) saucer (3.685832) mellow (3.619840) tap (3.611206) 
movi (3.873255) theater (3.316366) fish (3.048864) chip (2.896836) minut (2.763264) she (2.713839) manag (2.702938) bask (2.679463) popcorn (2.655795) lettuc (2.541261) 
pizza (6.300782) ramen (5.231947) hawthorn (4.840384) knot (4.238782) garlic (4.188806) peel (4.186199) yama (4.171964) broth (4.091076) dough (4.008634) pepperoni (3.944758) 
cigar (5.005723) fleme (4.958164) dandelion (4.782485) blt (4.590230) osso (4.514461) kickstand (4.373912) steak (4.327444) ribey (4.027823) cake (3.919437) brie (3.888973) 
danc (3.809431) dog (3.545292) club (3.068844) pool (3.033576) countri (3.006255) sport (2.954065) bull (2.865375) cover (2.770348) game (2.769249) screen (2.730007) 
burger (3.612861) tot (3.113506) tavern (3.068849) hooter (2.797970) dive (2.786893) beaver (2.723277) jack (2.709492) jukebox (2.672487) tater (2.651988) pong (2.631794) 
burger (4.328400) beef (3.715741) lebowski (3.669808) bbq (3.611285) potato (3.571354) creami (3.310708) pimento (3.233577) waffl (3.229623) grit (3.207357) crab (3.183433) 
ward (3.726867) piano (3.722548) willi (3.721418) michael (3.675147) 4th (3.516936) madison (3.500145) wet (3.466964) vine (3.430163) howl (3.421543) sing (3.382819) 
wine (5.155645) lane (5.077959) hookah (5.035079) airport (4.898793) bowl (4.856246) alley (4.517734) layov (4.270108) beaudevin (4.141936) vin (4.021343) flight (3.952717) 
sushi (5.019216) taco (4.938183) soul (4.560220) enso (4.218825) tapa (4.133765) belli (4.026102) lamb (3.990122) salsa (3.924677) mexican (3.854841) tuna (3.791356) 
Error (train/valid/test) = 0.089911/1.448152/1.626392 (0.069201)
..................................................
energy after gradient step = 16388935.355035

Top words for each topic:
beer (4.620256) pretzel (4.299160) irish (4.184539) pub (4.129043) pint (3.951617) revolut (3.901982) saucer (3.891790) growler (3.884536) mellow (3.802928) sausag (3.734297) 
movi (3.786250) theater (3.146540) fish (3.031760) chip (2.957397) minut (2.801218) she (2.717446) manag (2.690360) popcorn (2.609093) took (2.553765) bask (2.489091) 
pizza (6.352578) ramen (5.328070) hawthorn (4.897060) knot (4.351238) garlic (4.267121) broth (4.210264) peel (4.198286) yama (4.168702) dough (4.112720) pepperoni (4.049576) 
cigar (5.046708) fleme (5.037292) dandelion (4.866679) osso (4.641509) blt (4.483618) steak (4.402250) kickstand (4.397025) ribey (4.171945) brie (4.012187) wine (3.952585) 
danc (3.874500) dog (3.552443) countri (3.257776) club (3.174895) pool (3.009670) bull (2.989471) colleg (2.888314) sport (2.884610) fight (2.866961) stage (2.863498) 
burger (3.486692) tot (3.131958) hooter (3.063001) dive (2.972150) tavern (2.963035) jack (2.682069) beaver (2.679086) tater (2.651235) tvs (2.612709) snug (2.593432) 
burger (4.458999) beef (3.759707) bbq (3.630155) lebowski (3.624005) potato (3.598218) jalapeno (3.393377) pud (3.377269) creami (3.339500) waffl (3.326561) mac (3.253696) 
piano (3.814992) ward (3.798225) willi (3.758744) 4th (3.714357) michael (3.638955) madison (3.601395) howl (3.467518) wet (3.436533) vine (3.414464) alexand (3.411254) 
lane (5.185548) wine (5.166971) hookah (5.075468) airport (5.043402) bowl (4.904319) alley (4.433551) layov (4.312019) beaudevin (4.212774) vin (4.061979) art (3.946531) 
sushi (5.122022) taco (4.899326) soul (4.677431) enso (4.368371) tapa (4.222858) belli (4.185296) lamb (4.096409) salsa (4.068793) tuna (3.987879) mexican (3.930548) 
Error (train/valid/test) = 0.091178/1.467001/1.637836 (0.070776)
..................................................
energy after gradient step = 16322416.740630

Top words for each topic:
beer (4.742272) pretzel (4.368902) irish (4.193183) pub (4.190855) growler (4.037279) revolut (4.013904) pint (3.966522) saucer (3.858453) mellow (3.778517) sausag (3.760484) 
movi (3.760110) theater (3.269492) fish (2.999180) chip (2.954582) minut (2.827417) she (2.646316) manag (2.645818) popcorn (2.603988) took (2.554800) server (2.437822) 
pizza (6.442587) ramen (5.249479) hawthorn (4.939866) knot (4.391935) peel (4.291738) garlic (4.226730) yama (4.208501) broth (4.187473) dough (4.125491) weck (4.001722) 
cigar (5.122580) fleme (5.031560) dandelion (4.829117) blt (4.665984) osso (4.631724) kickstand (4.444641) steak (4.434448) brie (4.134027) ribey (4.114784) popov (3.990974) 
danc (3.962118) dog (3.599952) club (3.206979) countri (3.194600) pool (3.041146) bull (3.014623) colleg (2.912179) cover (2.897381) sport (2.897256) song (2.830750) 
burger (3.440326) tot (3.151954) tavern (3.106988) hooter (2.916955) dive (2.868880) jack (2.810112) mari (2.770310) beaver (2.753802) tater (2.750869) pong (2.712253) 
burger (4.591851) beef (3.769273) lebowski (3.732710) bbq (3.649212) potato (3.608605) waffl (3.370299) creami (3.325058) jalapeno (3.303617) rib (3.300500) pud (3.279594) 
piano (3.800418) ward (3.784065) willi (3.782486) michael (3.736102) 4th (3.684140) alexand (3.626739) vine (3.565357) howl (3.540704) madison (3.539051) talent (3.442395) 
wine (5.191306) lane (5.128448) hookah (5.115798) airport (5.004156) bowl (4.881860) alley (4.556527) layov (4.298408) beaudevin (4.257482) vin (4.069898) coffe (4.057677) 
sushi (5.176599) taco (4.952484) soul (4.696321) enso (4.356097) tapa (4.284607) belli (4.174527) lamb (4.154463) salsa (4.086252) tuna (4.010810) mexican (3.984452) 
Error (train/valid/test) = 0.085998/1.477263/1.637920 (0.070192)
..................................................
energy after gradient step = 16269063.050179

Top words for each topic:
beer (4.778098) pretzel (4.455484) pub (4.422522) irish (4.294411) growler (4.108313) revolut (4.086550) mellow (3.963437) pint (3.934074) saucer (3.907646) vbgb (3.897399) 
movi (3.750473) theater (3.164117) fish (2.981974) minut (2.893764) chip (2.871323) cinebarr (2.712187) manag (2.638254) took (2.620227) she (2.540849) server (2.513597) 
pizza (6.491120) ramen (5.239351) hawthorn (4.937266) knot (4.345881) garlic (4.297696) broth (4.295743) pepperoni (4.282842) crust (4.263965) yama (4.177126) dough (4.148545) 
cigar (5.223591) fleme (5.137832) dandelion (5.084289) osso (4.698237) blt (4.543696) steak (4.522317) kickstand (4.282031) brie (4.260245) ribey (4.016358) popov (4.007558) 
danc (4.081918) dog (3.676593) club (3.335162) countri (3.214810) pool (3.204035) bull (3.104981) stage (3.079806) fight (3.068074) colleg (2.901352) screen (2.898229) 
burger (3.462683) tot (3.183725) tavern (3.147578) hooter (3.031189) dive (3.028696) jack (2.890151) tvs (2.859389) beaver (2.854423) tater (2.771596) karaok (2.731151) 
burger (4.696672) lebowski (3.833861) beef (3.821605) potato (3.740829) bbq (3.626233) fri (3.481571) jalapeno (3.449544) grit (3.359792) creami (3.335799) filet (3.287395) 
willi (3.852341) piano (3.798536) ward (3.788634) michael (3.697979) 4th (3.693180) alexand (3.643700) madison (3.619385) howl (3.605311) wet (3.483574) duel (3.406290) 
lane (5.217945) hookah (5.201678) wine (5.175067) airport (5.072594) bowl (4.866854) alley (4.446651) layov (4.424513) beaudevin (4.310020) vin (4.199829) coffe (3.975831) 
sushi (5.317938) taco (5.000866) soul (4.783971) enso (4.548647) tapa (4.411975) belli (4.306846) lamb (4.222649) salsa (4.137867) tuna (4.057487) mexican (4.030642) 
Error (train/valid/test) = 0.083178/1.494393/1.649251 (0.071051)
..................................................
energy after gradient step = 16221369.241974

Top words for each topic:
beer (4.806234) pretzel (4.540203) pub (4.470188) irish (4.340118) growler (4.179309) saucer (4.067144) revolut (4.056924) pint (4.045599) mellow (3.917097) vbgb (3.906845) 
movi (3.741501) theater (3.239059) fish (2.980797) minut (2.938623) chip (2.892670) manag (2.607570) wild (2.573940) popcorn (2.563411) she (2.557661) server (2.546799) 
pizza (6.563345) ramen (5.339433) hawthorn (5.014526) crust (4.612459) knot (4.461695) peel (4.255896) dough (4.212345) yama (4.189713) pepperoni (4.118376) broth (4.080772) 
cigar (5.223443) fleme (5.141466) dandelion (4.942542) blt (4.722254) osso (4.709749) steak (4.603433) kickstand (4.452309) brie (4.362826) ribey (4.255700) cake (4.134532) 
danc (4.148861) dog (3.651603) countri (3.461007) club (3.311033) pool (3.248707) bull (3.199448) stage (3.035397) song (3.008673) colleg (2.967987) river (2.916053) 
burger (3.374064) tavern (3.206432) tot (3.190997) dive (3.021880) jack (2.941534) hooter (2.909344) tvs (2.900967) jukebox (2.767068) beaver (2.761180) tater (2.753018) 
burger (4.849399) lebowski (3.877486) beef (3.867596) potato (3.723568) bbq (3.619157) fri (3.600367) jalapeno (3.425136) grit (3.399225) rib (3.387913) waffl (3.381948) 
ward (3.885015) piano (3.824609) michael (3.794086) 4th (3.790280) alexand (3.767378) willi (3.738557) madison (3.675100) howl (3.590614) wet (3.579883) wooden (3.526114) 
lane (5.320623) hookah (5.281602) wine (5.182168) airport (5.146041) bowl (4.862508) alley (4.608967) layov (4.450065) beaudevin (4.320951) vin (4.194772) coffe (4.103218) 
sushi (5.378748) taco (4.935364) soul (4.799407) enso (4.557401) tapa (4.467150) belli (4.310551) lamb (4.282824) salsa (4.138588) tuna (4.081554) mexican (4.024434) 
Error (train/valid/test) = 0.080189/1.510606/1.652421 (0.071150)
..................................................
energy after gradient step = 16181133.356001

Top words for each topic:
beer (4.811406) pretzel (4.626106) pub (4.565730) irish (4.436646) growler (4.275625) revolut (4.275169) pint (4.184986) saucer (4.121689) vbgb (3.993474) mellow (3.971370) 
movi (3.730304) theater (3.177281) fish (3.000218) minut (2.899455) chip (2.878092) manag (2.627459) she (2.620870) took (2.570523) cinebarr (2.560435) popcorn (2.557732) 
pizza (6.595887) ramen (5.191867) hawthorn (4.955577) crust (4.652933) knot (4.411714) peel (4.309046) pepperoni (4.299005) dough (4.275469) yama (4.218137) garlic (4.141505) 
cigar (5.331723) fleme (5.177349) dandelion (5.144840) steak (4.713703) osso (4.704187) blt (4.668963) kickstand (4.361089) brie (4.262390) ribey (4.256703) cake (4.232694) 
danc (4.199435) dog (3.604303) club (3.389381) countri (3.268293) bull (3.235304) stage (3.201367) pool (3.164353) cover (2.996754) colleg (2.992698) river (2.973646) 
burger (3.312590) tavern (3.264113) tot (3.103710) tvs (3.074186) jack (3.070212) dive (3.039420) hooter (2.980506) beaver (2.864979) tater (2.785410) patio (2.736519) 
burger (4.905477) beef (3.882009) lebowski (3.826733) potato (3.811785) bbq (3.670513) fri (3.618099) waffl (3.498047) grit (3.393719) bun (3.372306) creami (3.369767) 
willi (3.938126) piano (3.931419) ward (3.897396) michael (3.844976) alexand (3.776681) 4th (3.636126) madison (3.613802) howl (3.549430) bubbl (3.511915) attic (3.497172) 
hookah (5.362805) lane (5.341049) wine (5.261490) airport (5.166011) bowl (4.888984) alley (4.569303) layov (4.490326) beaudevin (4.338842) vin (4.256043) coffe (4.134388) 
sushi (5.490332) taco (4.980261) soul (4.890738) enso (4.676167) tapa (4.570727) lamb (4.401926) salsa (4.396749) belli (4.395584) mexican (4.293626) tuna (4.158734) 
Error (train/valid/test) = 0.078819/1.512583/1.659447 (0.072194)
..................................................
energy after gradient step = 16129309.690138

Top words for each topic:
beer (4.912308) pretzel (4.697780) pub (4.646778) irish (4.502799) growler (4.344058) pint (4.337192) revolut (4.269845) saucer (4.186088) vbgb (4.058186) mellow (4.036603) 
movi (3.692212) theater (3.246956) fish (2.981915) minut (2.938274) chip (2.920094) manag (2.648615) cinebarr (2.627103) she (2.604906) waitress (2.588176) server (2.558650) 
pizza (6.600702) ramen (5.313020) hawthorn (5.038534) crust (4.671938) knot (4.489786) pepperoni (4.284082) peel (4.269362) yama (4.223715) dough (4.219042) broth (4.179111) 
cigar (5.253473) fleme (5.230785) dandelion (4.983530) osso (4.780534) steak (4.715155) blt (4.676318) kickstand (4.586953) brie (4.357770) ribey (4.276248) cake (4.253097) 
danc (4.284059) dog (3.587440) club (3.464557) countri (3.458796) bull (3.399360) pool (3.168272) stage (3.138563) river (3.117409) song (3.039720) cover (3.024560) 
burger (3.309761) tavern (3.291082) tvs (3.194123) dive (3.060855) tot (2.998022) jack (2.997466) hooter (2.954369) karaok (2.912624) beaver (2.879407) pong (2.862310) 
burger (4.995589) lebowski (4.004390) beef (3.904959) potato (3.838249) fri (3.633343) bbq (3.633216) jalapeno (3.511965) rib (3.510141) grit (3.420866) waffl (3.364445) 
ward (3.895450) willi (3.881026) alexand (3.871186) michael (3.829280) piano (3.814248) madison (3.643701) 4th (3.630425) howl (3.568461) vine (3.514065) wet (3.482757) 
lane (5.423927) hookah (5.376107) wine (5.246634) airport (5.243284) bowl (4.878378) layov (4.569551) alley (4.549646) beaudevin (4.411118) vin (4.299450) coffe (4.216045) 
sushi (5.568318) soul (4.979828) taco (4.978358) enso (4.788016) tapa (4.619161) belli (4.515420) salsa (4.436510) lamb (4.426147) mexican (4.397567) tuna (4.283649) 
Error (train/valid/test) = 0.076869/1.531056/1.662998 (0.072010)
..................................................
energy after gradient step = 16069701.723020

Top words for each topic:
beer (4.985636) pub (4.771834) pretzel (4.771286) irish (4.597251) growler (4.382700) revolut (4.374489) pint (4.334224) saucer (4.245701) mellow (4.111159) vbgb (4.041970) 
movi (3.702623) theater (3.185518) fish (2.983086) minut (2.937898) chip (2.897148) manag (2.730735) waitress (2.700737) server (2.659234) cinebarr (2.603265) took (2.550006) 
pizza (6.672399) ramen (5.206918) hawthorn (5.039463) crust (4.694067) knot (4.508346) peel (4.278920) pepperoni (4.261206) yama (4.184663) garlic (4.160962) dough (4.138807) 
cigar (5.445856) fleme (5.272671) dandelion (5.259583) osso (4.872072) blt (4.732216) steak (4.731795) kickstand (4.517489) filet (4.507287) brie (4.443784) ribey (4.325611) 
danc (4.403132) dog (3.537237) club (3.535802) countri (3.495428) bull (3.456072) pool (3.232433) colleg (3.157369) song (3.153845) stage (3.149834) river (3.132441) 
tavern (3.329249) tvs (3.321364) burger (3.289320) jack (3.129769) dive (3.107917) beaver (2.902384) jukebox (2.869042) tot (2.845647) thoma (2.835723) tater (2.810416) 
burger (5.127078) potato (3.935295) lebowski (3.906804) beef (3.865848) fri (3.716843) bbq (3.603756) grit (3.475686) creami (3.447106) rib (3.435851) bun (3.428178) 
ward (4.010156) piano (3.882688) willi (3.877543) alexand (3.869555) 4th (3.843288) michael (3.734810) madison (3.714874) vine (3.646518) howl (3.645072) bubbl (3.583442) 
lane (5.457663) hookah (5.449519) airport (5.245642) wine (5.239075) bowl (4.968566) alley (4.530461) layov (4.510365) beaudevin (4.458115) vin (4.393870) dvine (4.220177) 
sushi (5.710984) taco (5.014707) soul (5.010679) enso (4.863262) tapa (4.728083) belli (4.621636) mexican (4.595725) lamb (4.555423) salsa (4.519777) tuna (4.331489) 
Error (train/valid/test) = 0.074665/1.561515/1.680584 (0.073174)
..................................................
energy after gradient step = 16020034.017228

Top words for each topic:
beer (4.989823) pretzel (4.814457) pub (4.810490) irish (4.697461) growler (4.507884) pint (4.390594) saucer (4.312480) revolut (4.306071) vbgb (4.203453) mellow (4.121178) 
movi (3.692487) theater (3.193008) minut (2.995628) fish (2.948218) chip (2.905998) waitress (2.766196) manag (2.742524) server (2.645788) cinebarr (2.603545) she (2.578787) 
pizza (6.691519) ramen (5.295973) hawthorn (5.072799) crust (4.699029) knot (4.512739) pepperoni (4.324429) dough (4.312603) peel (4.256260) yama (4.194257) garlic (4.102598) 
cigar (5.401847) fleme (5.335730) dandelion (5.124179) osso (4.864613) steak (4.814824) kickstand (4.708970) blt (4.649295) brie (4.546780) ribey (4.403066) cake (4.388294) 
danc (4.458628) countri (3.581327) club (3.559895) dog (3.539141) bull (3.501028) stage (3.283113) river (3.183444) song (3.152239) fight (3.151789) pool (3.141799) 
tavern (3.343486) tvs (3.318638) burger (3.314342) jack (3.184607) dive (3.106900) pong (2.969639) beaver (2.922001) thoma (2.845603) tater (2.829052) patio (2.824589) 
burger (5.213798) lebowski (4.057265) potato (3.909095) beef (3.899677) fri (3.836357) tot (3.663931) bbq (3.637590) rib (3.518997) grit (3.497376) bun (3.437756) 
ward (3.976238) willi (3.967906) alexand (3.921357) piano (3.909606) michael (3.838668) madison (3.756423) 4th (3.722711) wet (3.665172) howl (3.629025) wooden (3.566990) 
hookah (5.548451) lane (5.535664) airport (5.360420) wine (5.298423) bowl (4.976695) alley (4.657273) layov (4.590562) beaudevin (4.498280) vin (4.371692) dvine (4.260162) 
sushi (5.747574) soul (5.089220) taco (5.015906) enso (4.981078) tapa (4.824078) mexican (4.696897) salsa (4.644229) belli (4.613259) lamb (4.599277) tuna (4.354681) 
Error (train/valid/test) = 0.071389/1.566315/1.683031 (0.073366)
..................................................
energy after gradient step = 15984345.659180

Top words for each topic:
beer (4.978459) pretzel (4.848844) pub (4.835559) irish (4.722599) growler (4.497303) revolut (4.489588) pint (4.418375) saucer (4.339657) vbgb (4.147408) ri (4.060193) 
movi (3.672839) theater (3.236902) chip (2.964921) minut (2.961157) fish (2.918602) waitress (2.841008) manag (2.736982) server (2.620708) she (2.600941) cinebarr (2.570264) 
pizza (6.737345) ramen (5.299718) hawthorn (5.068557) crust (4.784114) knot (4.568504) pepperoni (4.293068) peel (4.261148) yama (4.243956) dough (4.234586) calzon (4.123309) 
cigar (5.494665) fleme (5.325612) dandelion (5.296872) osso (4.894866) steak (4.884086) blt (4.845762) kickstand (4.658692) brie (4.588527) filet (4.552012) ribey (4.400376) 
danc (4.484107) bull (3.667521) countri (3.638670) club (3.557100) dog (3.501802) stage (3.355677) river (3.288092) pool (3.282513) song (3.234785) vip (3.192303) 
tavern (3.442726) tvs (3.356935) burger (3.335372) dive (3.186421) jack (3.134677) beaver (2.974110) game (2.947317) jukebox (2.881225) thoma (2.875496) karaok (2.847304) 
burger (5.280197) lebowski (4.005192) tot (3.986288) beef (3.862263) fri (3.835620) potato (3.829564) rib (3.657166) grit (3.576622) bbq (3.566326) waffl (3.486553) 
ward (4.017449) willi (3.943263) alexand (3.926106) michael (3.878668) 4th (3.828521) piano (3.793205) madison (3.729711) vine (3.687904) wooden (3.594914) wet (3.582126) 
hookah (5.601282) lane (5.547073) wine (5.346772) airport (5.322786) bowl (5.006488) layov (4.674941) alley (4.616738) beaudevin (4.585839) vin (4.438122) dvine (4.232340) 
sushi (5.775600) soul (5.093377) taco (5.070214) enso (5.024041) tapa (4.840845) lamb (4.696376) belli (4.689659) mexican (4.663616) salsa (4.658532) skewer (4.420362) 
Error (train/valid/test) = 0.071054/1.570667/1.699604 (0.074370)
..................................................
energy after gradient step = 15954999.192875

Top words for each topic:
beer (4.982017) pub (4.909160) pretzel (4.888365) irish (4.781144) growler (4.601350) pint (4.474908) revolut (4.468172) saucer (4.449068) vbgb (4.257697) ri (4.089642) 
movi (3.705020) theater (3.244015) chip (2.967067) minut (2.932140) fish (2.895248) waitress (2.879982) manag (2.775532) cinebarr (2.674731) she (2.623925) server (2.578867) 
pizza (6.776294) ramen (5.296412) hawthorn (5.125706) crust (4.808839) knot (4.468231) peel (4.330939) dough (4.304426) pepperoni (4.297331) yama (4.260461) calzon (4.110250) 
cigar (5.528814) fleme (5.479927) dandelion (5.238028) steak (4.952742) osso (4.846778) kickstand (4.761749) brie (4.606346) blt (4.539386) filet (4.523038) ruth (4.433758) 
danc (4.567130) bull (3.637569) countri (3.629817) club (3.617611) stage (3.511339) dog (3.501657) pool (3.351619) river (3.315524) song (3.287479) colleg (3.235976) 
tavern (3.477582) tvs (3.376514) burger (3.316864) jack (3.199810) dive (3.154348) beaver (2.984007) pong (2.968739) game (2.954279) thoma (2.930614) watch (2.884679) 
burger (5.343142) tot (4.143087) lebowski (4.114715) fri (3.916452) beef (3.915028) potato (3.880881) rib (3.625151) waffl (3.575991) grill (3.543820) bbq (3.537920) 
alexand (3.985794) willi (3.919949) ward (3.900456) michael (3.860519) piano (3.798451) wet (3.632539) vine (3.609589) 4th (3.597618) bubbl (3.567464) madison (3.565900) 
hookah (5.637599) lane (5.608903) airport (5.426629) wine (5.323071) bowl (5.025798) layov (4.747096) alley (4.653179) beaudevin (4.631987) vin (4.479714) moonshin (4.318279) 
sushi (5.857591) enso (5.131612) soul (5.100374) taco (5.089707) mexican (4.906202) tapa (4.905881) lamb (4.714682) belli (4.708166) salsa (4.613388) korean (4.435579) 
Error (train/valid/test) = 0.069477/1.588828/1.720285 (0.075214)
..................................................
energy after gradient step = 15915847.197899

Top words for each topic:
pretzel (4.940173) beer (4.939572) pub (4.932146) irish (4.825809) growler (4.578570) pint (4.547554) saucer (4.449342) revolut (4.424132) vbgb (4.269378) ale (4.166829) 
movi (3.668789) theater (3.242898) minut (2.964574) chip (2.917706) fish (2.913716) waitress (2.902949) manag (2.755506) she (2.678636) server (2.611066) popcorn (2.597681) 
pizza (6.786789) ramen (5.305679) hawthorn (5.102364) crust (4.881616) knot (4.652327) peel (4.347940) pepperoni (4.309874) dough (4.288971) calzon (4.288294) yama (4.275831) 
cigar (5.537919) fleme (5.403508) dandelion (5.345616) steak (5.033315) osso (4.946370) blt (4.744968) kickstand (4.722156) brie (4.675674) filet (4.604186) ribey (4.527869) 
danc (4.619117) bull (3.743155) club (3.682805) countri (3.647504) dog (3.517130) stage (3.398967) river (3.357609) bouncer (3.342381) vip (3.337692) song (3.278633) 
tvs (3.486566) tavern (3.476424) dive (3.317208) burger (3.312036) jack (3.249898) watch (3.003867) thoma (2.973223) game (2.968040) beaver (2.966222) sport (2.905893) 
burger (5.378487) tot (4.234881) lebowski (4.101883) beef (3.940670) fri (3.909150) potato (3.903918) rib (3.679327) waffl (3.580430) bbq (3.542926) creami (3.506212) 
ward (4.045155) piano (3.952206) willi (3.948094) alexand (3.937454) michael (3.847984) 4th (3.801944) madison (3.697975) vine (3.676040) wooden (3.621110) howl (3.573120) 
hookah (5.702622) lane (5.623566) airport (5.365668) wine (5.322997) bowl (5.063060) layov (4.696599) alley (4.677595) beaudevin (4.623737) vin (4.508165) dvine (4.387967) 
sushi (5.963315) enso (5.186305) soul (5.176040) taco (5.145412) tapa (5.036840) mexican (4.902763) lamb (4.865086) belli (4.759192) salsa (4.677010) korean (4.559488) 
Error (train/valid/test) = 0.068587/1.608968/1.730631 (0.075495)
..................................................
energy after gradient step = 15875286.993682

Top words for each topic:
pub (5.049226) pretzel (4.925477) beer (4.919061) irish (4.839791) growler (4.687770) revolut (4.577009) saucer (4.567395) pint (4.553283) vbgb (4.350466) ri (4.203807) 
movi (3.701775) theater (3.215564) waitress (3.033109) chip (3.003799) fish (2.943326) minut (2.941529) manag (2.713221) cinebarr (2.692688) hooter (2.684018) she (2.682921) 
pizza (6.817986) ramen (5.315290) hawthorn (5.155253) crust (4.855698) knot (4.597297) mellow (4.506002) dough (4.388145) pepperoni (4.314790) peel (4.301481) yama (4.294239) 
cigar (5.561682) fleme (5.485498) dandelion (5.371390) steak (5.124692) osso (4.957666) blt (4.726596) kickstand (4.724558) brie (4.708366) filet (4.608964) ruth (4.514504) 
danc (4.710821) countri (3.761334) bull (3.761249) club (3.717444) river (3.571598) stage (3.551116) dog (3.495339) vip (3.453938) song (3.394476) bouncer (3.380831) 
tavern (3.520182) tvs (3.457537) dive (3.341552) burger (3.258250) jack (3.226473) watch (3.120391) beaver (3.026782) sport (3.024296) game (2.991800) pong (2.967781) 
burger (5.438903) tot (4.260349) lebowski (4.212894) fri (4.000448) beef (3.963346) potato (3.936751) rib (3.680067) waffl (3.621364) grit (3.538596) bbq (3.513268) 
alexand (4.046176) ward (3.950063) willi (3.904695) piano (3.883075) michael (3.875969) madison (3.821074) vine (3.766077) 4th (3.713066) bubbl (3.619932) ethiopian (3.573840) 
hookah (5.734156) lane (5.656997) airport (5.406506) wine (5.296131) bowl (5.057689) layov (4.769138) beaudevin (4.718642) alley (4.676268) vin (4.560682) dvine (4.450293) 
sushi (6.074083) enso (5.286405) taco (5.210917) soul (5.205067) tapa (5.079651) mexican (4.961324) lamb (4.896363) belli (4.745740) salsa (4.608300) korean (4.591748) 
Error (train/valid/test) = 0.065637/1.614782/1.738000 (0.076239)
..................................................
energy after gradient step = 15831463.384812

Top words for each topic:
pub (5.071160) pretzel (4.986323) beer (4.940582) irish (4.916708) growler (4.739683) revolut (4.642208) saucer (4.610313) pint (4.602722) vbgb (4.410515) ale (4.261478) 
movi (3.651317) theater (3.276338) waitress (3.118822) chip (2.997356) minut (2.964429) fish (2.963907) manag (2.789301) hooter (2.784909) wing (2.704694) took (2.651965) 
pizza (6.843792) ramen (5.337577) hawthorn (5.197899) crust (4.846620) knot (4.650317) mellow (4.610775) pepperoni (4.432009) dough (4.355911) yama (4.319827) peel (4.276513) 
cigar (5.593891) fleme (5.509694) dandelion (5.415225) steak (5.142848) osso (4.987754) kickstand (4.844496) brie (4.714779) blt (4.647373) filet (4.645579) ribey (4.629138) 
danc (4.841809) bull (3.842524) club (3.815092) countri (3.796373) stage (3.649712) dog (3.582339) song (3.509227) bouncer (3.485965) river (3.481292) vip (3.440154) 
tavern (3.578853) tvs (3.436678) dive (3.321090) burger (3.223889) jack (3.219481) sport (3.157271) watch (3.032354) game (3.024607) beaver (3.023882) thoma (3.014832) 
burger (5.496696) tot (4.364419) lebowski (4.202057) fri (4.007983) beef (3.963750) potato (3.895116) rib (3.769200) grit (3.596543) bun (3.593995) grill (3.563988) 
alexand (3.986531) willi (3.953265) ward (3.917795) michael (3.917340) 4th (3.853447) piano (3.781527) madison (3.688239) vine (3.685488) wet (3.655923) ethiopian (3.601077) 
hookah (5.812718) lane (5.736484) airport (5.503361) wine (5.328073) bowl (5.129413) layov (4.884647) beaudevin (4.766165) alley (4.764842) vin (4.607440) dvine (4.505587) 
sushi (6.189049) enso (5.374387) taco (5.254730) soul (5.250785) tapa (5.197492) mexican (5.160882) lamb (4.967029) belli (4.896189) korean (4.691332) skewer (4.666199) 
Error (train/valid/test) = 0.064974/1.633595/1.752149 (0.077189)
..................................................
energy after gradient step = 15785564.675591

Top words for each topic:
pub (5.097664) pretzel (5.063448) beer (5.029057) irish (5.007980) growler (4.829188) revolut (4.750052) saucer (4.730162) pint (4.678945) vbgb (4.460164) ri (4.387845) 
movi (3.636986) theater (3.145082) waitress (3.065764) chip (3.037459) minut (2.978321) fish (2.945725) hooter (2.814751) wing (2.802501) manag (2.744324) took (2.707569) 
pizza (6.876154) ramen (5.419643) hawthorn (5.251268) crust (4.926671) mellow (4.766929) knot (4.715053) pepperoni (4.485346) peel (4.409199) calzon (4.391476) dough (4.370190) 
cigar (5.660369) fleme (5.555376) dandelion (5.420263) steak (5.171842) osso (5.012073) blt (4.747446) kickstand (4.747275) filet (4.718962) brie (4.692774) blackfinn (4.603279) 
danc (4.886082) bull (3.938713) club (3.857222) countri (3.830621) stage (3.692761) song (3.685037) river (3.630553) dog (3.581892) vip (3.575678) bouncer (3.482352) 
tavern (3.613251) tvs (3.460779) dive (3.366641) burger (3.225617) jack (3.221593) sport (3.207121) watch (3.093221) game (3.092344) beaver (3.038315) pong (3.032022) 
burger (5.501311) tot (4.415532) lebowski (4.272281) fri (4.065697) beef (3.951800) potato (3.927781) rib (3.804687) waffl (3.781153) tater (3.702927) grill (3.613171) 
alexand (4.084506) ward (3.969611) willi (3.932598) piano (3.888325) michael (3.830815) vine (3.769335) madison (3.660955) ethiopian (3.616271) 4th (3.593562) bubbl (3.496187) 
hookah (5.883383) lane (5.772385) airport (5.534500) wine (5.400584) bowl (5.121245) layov (4.885855) beaudevin (4.816430) alley (4.725373) vin (4.654269) dvine (4.518734) 
sushi (6.231491) enso (5.484995) soul (5.316197) taco (5.301483) tapa (5.250216) mexican (5.156753) lamb (4.946432) belli (4.885738) korean (4.780872) salsa (4.753456) 
Error (train/valid/test) = 0.063849/1.649537/1.765634 (0.077935)
