corpus = bars_phoe.gz
latentReg = 0.000000
lambda = 3.000000
K = 5

nUsers = 30964, nItems = 1084, nRatings = 68726

Error w/ offset term only (train/valid/test) = 1.600023/1.610530/1.580179 (0.024125)
Error w/ offset and bias (train/valid/test) = 0.622962/1.415396/1.401425 (0.024761)

..................................................
energy after gradient step = 100447495.309040

Top words for each topic:
inexpens (0.444966) mug (0.391468) fuck (0.350712) doubt (0.349755) involv (0.341141) lil (0.340110) ventur (0.334537) blown (0.327981) freak (0.322914) specif (0.322793) 
confus (0.413861) shell (0.404223) pleasur (0.400091) replac (0.369305) spread (0.365930) mood (0.326807) travel (0.324031) ticket (0.319241) aok (0.316725) compliment (0.315325) 
due (0.384770) balanc (0.369539) goat (0.354208) futur (0.343859) sub (0.334303) poblano (0.325749) st (0.325015) potenti (0.318659) theyll (0.313045) skirt (0.310534) 
remark (0.471914) ave (0.432994) belli (0.386871) lifter (0.377619) blow (0.353391) man (0.351280) chris (0.339144) search (0.335011) promis (0.323645) polit (0.319603) 
coupon (0.451487) yell (0.433053) jalapeno (0.391389) draw (0.388940) scotch (0.362503) track (0.360741) ampl (0.352245) altern (0.347213) platter (0.345225) tobi (0.331054) 
Error (train/valid/test) = 1.281358/1.364803/1.356848 (0.022680)
..................................................
energy after gradient step = 100335516.649470

Top words for each topic:
associ (0.677146) worker (0.659045) inexpens (0.658772) yuppi (0.643861) 8th (0.641811) rabbit (0.639118) digress (0.625622) sticker (0.622778) pathet (0.619709) volleybal (0.586857) 
f (0.736904) rack (0.689029) news (0.684192) defiant (0.679064) drip (0.667537) sandbar (0.659562) captain (0.644802) grandma (0.629764) wet (0.622781) miso (0.615357) 
tilt (0.764638) engag (0.743261) besid (0.723358) pregam (0.713625) dust (0.679257) humbl (0.656632) frame (0.645526) polish (0.644384) lager (0.629487) blew (0.598737) 
greatest (0.752301) feta (0.718393) christoph (0.697247) courteous (0.667946) wit (0.665358) brad (0.660282) region (0.603421) faster (0.580867) upon (0.578251) sketchi (0.568163) 
chilaquil (0.824780) forgiv (0.819784) nope (0.651531) torta (0.646446) 17 (0.639532) kisra (0.638419) sum (0.638006) polic (0.631286) alot (0.610166) fortun (0.607989) 
Error (train/valid/test) = 1.129118/1.340423/1.338650 (0.023157)
..................................................
energy after gradient step = 100293236.309320

Top words for each topic:
inexpens (0.879231) pathet (0.781237) boss (0.780218) 24 (0.775903) narrow (0.744245) associ (0.741588) canteen (0.732932) sourc (0.726103) co (0.721949) metro (0.718331) 
55 (0.861144) mysteri (0.839551) f (0.828845) defiant (0.824908) surviv (0.790475) 200 (0.761435) capres (0.761306) connect (0.752051) moscow (0.742829) notabl (0.735991) 
engag (0.981738) maintain (0.936645) besid (0.882337) cap (0.858021) frame (0.846645) tower (0.793436) valid (0.786608) bias (0.782204) termin (0.763435) walnut (0.754396) 
wit (0.913234) region (0.852791) upon (0.811105) purpos (0.806600) outrag (0.773009) loos (0.770416) flip (0.759485) success (0.758108) definet (0.748305) epic (0.748165) 
chilaquil (0.853555) casa (0.813542) lamp (0.810926) starbuck (0.776514) forth (0.764362) partial (0.751328) alex (0.743388) blind (0.742973) yellowtail (0.739430) setup (0.727280) 
Error (train/valid/test) = 1.057219/1.336680/1.335341 (0.023556)
..................................................
energy after gradient step = 100261421.674399

Top words for each topic:
metro (1.008129) inexpens (0.944960) nightlif (0.915012) spill (0.898389) sticki (0.880845) ounc (0.872184) dislik (0.859715) suffici (0.833903) associ (0.832329) educ (0.822848) 
grandma (1.008049) mysteri (0.987950) rehab (0.946379) 200 (0.896061) defiant (0.894827) octob (0.870902) aok (0.868715) moscow (0.849660) capres (0.841357) curious (0.832088) 
walnut (1.028097) cap (1.007700) maintain (0.971533) squid (0.948012) dragon (0.912247) valid (0.911721) rub (0.903394) frame (0.870348) chandeli (0.860976) harsh (0.847106) 
chimichanga (1.048165) wit (1.024400) dr (0.956617) purpos (0.923190) gnocchi (0.914708) subtl (0.899155) gratuiti (0.886706) repres (0.882130) stun (0.880411) brad (0.854288) 
starbuck (0.996664) fortun (0.986403) blind (0.981430) lamp (0.970732) cancel (0.945976) fear (0.882592) forth (0.876878) necessari (0.855916) root (0.855375) nope (0.835638) 
Error (train/valid/test) = 0.999729/1.337933/1.336434 (0.023229)
..................................................
energy after gradient step = 100231906.023200

Top words for each topic:
sourc (1.101363) nightlif (1.087980) metro (1.050235) spill (1.011988) 1030 (1.007904) grey (0.952409) digress (0.934913) record (0.917454) renov (0.906796) fed (0.891364) 
mysteri (1.247345) grandma (1.166017) wake (1.124188) robbi (1.031504) 200 (1.030627) moscow (0.949339) caper (0.946680) escargot (0.943399) safe (0.939796) capres (0.936954) 
frame (1.066127) rub (1.059690) walnut (1.059649) besid (1.045387) 150 (0.996405) dragon (0.994131) yuck (0.965667) cap (0.953444) tower (0.943414) invent (0.942053) 
cheuvront (1.287530) repres (1.036097) chimichanga (1.017025) definet (1.007356) wit (1.000524) subtl (0.981611) fianc (0.970661) nake (0.946537) purpos (0.892241) sketchi (0.889485) 
fear (1.142414) blind (1.088034) fortun (1.019938) necessari (0.947693) ear (0.938691) lamp (0.936876) cancel (0.930576) oregon (0.898059) irrit (0.896316) fond (0.887824) 
Error (train/valid/test) = 0.939837/1.341860/1.339518 (0.023859)
..................................................
energy after gradient step = 100198393.977495

Top words for each topic:
nightlif (1.225419) spill (1.212261) steer (1.139678) sticki (1.126151) 1030 (1.125466) metro (1.111311) voic (1.108797) manner (1.068787) duh (1.057430) sourc (1.015470) 
grandma (1.271539) wake (1.188641) mysteri (1.185609) sparkl (1.165865) 200 (1.159824) hide (1.140917) waterfal (1.098403) capres (1.096266) cuz (1.095636) southern (1.090264) 
besid (1.219588) cap (1.207339) squid (1.144484) 150 (1.132353) rub (1.123427) walnut (1.070971) somebodi (1.052361) chines (1.025335) offens (1.023992) invent (0.998763) 
cheuvront (1.456488) chimichanga (1.389889) fianc (1.227447) aspect (1.117493) island (1.063339) brule (1.053995) calm (1.047944) sketchi (1.035296) popper (1.033681) self (1.024361) 
fear (1.322033) blind (1.149939) fortun (1.083000) necessari (1.019762) gluten (1.007570) oregon (0.997810) cancel (0.997137) shout (0.991826) tail (0.949782) lamp (0.933520) 
Error (train/valid/test) = 0.882234/1.346652/1.343014 (0.023635)
..................................................
energy after gradient step = 100166444.300811

Top words for each topic:
spill (1.360235) 1030 (1.247990) sticki (1.134658) voic (1.122247) metro (1.100989) duh (1.073509) genuin (1.062306) joe (1.028566) manner (1.025349) ballroom (1.024742) 
mysteri (1.254989) 200 (1.193847) wake (1.168139) runner (1.155481) durant (1.153223) rehab (1.120323) prove (1.116746) charact (1.107545) waterfal (1.106100) southern (1.095096) 
cap (1.270752) artist (1.196613) 150 (1.182200) bubbl (1.178599) squid (1.101439) rub (1.097502) sight (1.084810) besid (1.077390) dragon (1.073348) bliss (1.067562) 
cheuvront (1.512326) chimichanga (1.350630) island (1.279576) self (1.186332) 300 (1.182252) calm (1.159961) brule (1.126929) feta (1.114222) purpos (1.085709) fianc (1.083998) 
fear (1.285474) oregon (1.216511) scale (1.200714) gluten (1.196417) fortun (1.114864) necessari (1.074199) ear (1.045615) angel (1.032428) memor (1.018796) blind (1.015234) 
Error (train/valid/test) = 0.842972/1.349795/1.346776 (0.023648)
..................................................
energy after gradient step = 100137849.127998

Top words for each topic:
spill (1.376787) genuin (1.323180) manner (1.233405) metro (1.203826) across (1.199731) rabbit (1.189426) los (1.185760) 1030 (1.184448) steer (1.137949) bewar (1.090348) 
wake (1.280024) 200 (1.250306) safe (1.196015) runner (1.172708) waterfal (1.149050) tan (1.136569) charact (1.123878) caper (1.104523) fluffi (1.099108) sparkl (1.090940) 
rub (1.337685) cap (1.295934) chines (1.244154) 150 (1.242366) artist (1.198695) offens (1.180555) evo (1.142139) edg (1.120752) bubbl (1.106341) casey (1.089622) 
cheuvront (1.696252) island (1.438479) chimichanga (1.339175) fianc (1.333984) self (1.285094) 300 (1.185983) calm (1.174371) subtl (1.153226) discuss (1.098996) perform (1.098648) 
scale (1.318897) fear (1.295028) fortun (1.259995) tail (1.195270) oregon (1.189619) cancel (1.188534) angel (1.186523) hanni (1.168534) gluten (1.156328) memor (1.129008) 
Error (train/valid/test) = 0.799220/1.354754/1.350803 (0.023780)
..................................................
energy after gradient step = 100111928.940287

Top words for each topic:
spill (1.584256) 1030 (1.348937) metro (1.323002) nightlif (1.322037) rabbit (1.314885) sticki (1.254150) manner (1.218747) los (1.200236) genuin (1.199623) sourc (1.193515) 
wake (1.343923) charact (1.342897) rehab (1.310807) 200 (1.297335) safe (1.277714) runner (1.238076) 52 (1.221240) durant (1.208091) frisco (1.188352) corona (1.179333) 
artist (1.514210) rub (1.354340) casey (1.323379) 150 (1.313232) maintain (1.278424) moor (1.271964) chines (1.235879) eve (1.224960) bubbl (1.190544) sight (1.159947) 
cheuvront (1.553629) island (1.462893) chimichanga (1.420862) subtl (1.381651) self (1.316353) feta (1.273725) perform (1.232109) fianc (1.206109) 300 (1.203128) clam (1.181640) 
fortun (1.308836) hanni (1.300270) fear (1.272305) memor (1.267952) oregon (1.245712) scale (1.243412) progress (1.210997) tail (1.201885) blind (1.200318) shout (1.199161) 
Error (train/valid/test) = 0.761822/1.362097/1.357602 (0.023422)
..................................................
energy after gradient step = 100076763.920262

Top words for each topic:
spill (1.533262) frank (1.339759) 1030 (1.334321) drift (1.299783) sprinkl (1.280100) los (1.272109) metro (1.221842) manner (1.197152) ballroom (1.193662) dope (1.188791) 
charact (1.422028) corona (1.312567) 52 (1.293856) runner (1.288233) hookah (1.251113) rehab (1.242212) wake (1.241950) 200 (1.220926) slap (1.213394) safe (1.205328) 
rub (1.491588) artist (1.353320) eve (1.335755) chines (1.316599) golf (1.301056) moor (1.297174) bubbl (1.268916) non (1.268449) somebodi (1.226278) dragon (1.222668) 
chimichanga (1.632056) cheuvront (1.516524) subtl (1.477722) perform (1.443890) island (1.439371) fianc (1.334709) resembl (1.332544) 300 (1.324193) popper (1.323716) self (1.313554) 
fear (1.451950) scale (1.431277) fortun (1.353537) angel (1.304697) pate (1.286380) hanni (1.270376) tail (1.259437) oregon (1.249445) lamp (1.222272) necessari (1.212228) 
Error (train/valid/test) = 0.706466/1.367924/1.362333 (0.024148)
..................................................
energy after gradient step = 100041407.998473

Top words for each topic:
spill (1.502365) los (1.393838) 1030 (1.391405) sprinkl (1.309504) tostada (1.301855) manner (1.287810) sourc (1.267813) voic (1.262369) dope (1.252100) el (1.249957) 
charact (1.482765) rehab (1.442163) runner (1.391067) 52 (1.352933) 200 (1.343349) purchas (1.305974) corona (1.301227) hookah (1.293116) contact (1.281459) child (1.270514) 
rub (1.470839) casey (1.410782) golf (1.360286) artist (1.344819) recip (1.332819) chines (1.329371) lower (1.296516) 150 (1.238160) maintain (1.237703) applebe (1.232805) 
chimichanga (1.798024) cheuvront (1.649633) island (1.541678) subtl (1.495158) bitch (1.418953) perform (1.404643) arugula (1.387440) aspect (1.358015) self (1.353525) fianc (1.303252) 
hanni (1.431310) fear (1.392582) butt (1.379275) scale (1.373427) pate (1.372032) fortun (1.327348) gluten (1.322138) angel (1.303193) necessari (1.279241) vig (1.245195) 
Error (train/valid/test) = 0.670137/1.375657/1.369795 (0.024204)
..................................................
energy after gradient step = 100000340.144585

Top words for each topic:
spill (1.465706) 1030 (1.422861) manner (1.343652) sticki (1.314497) dope (1.302398) tostada (1.285043) el (1.265749) los (1.259440) sprinkl (1.255011) cooki (1.232591) 
rehab (1.499620) hookah (1.366025) corona (1.341323) charact (1.338266) contact (1.330016) runner (1.328189) 52 (1.307531) chorizo (1.290755) octob (1.267430) relleno (1.257095) 
casey (1.567929) rub (1.544699) golf (1.428324) bubbl (1.351304) chines (1.333273) moor (1.325843) district (1.296752) maintain (1.269843) lower (1.255430) applebe (1.254484) 
cheuvront (1.815528) chimichanga (1.785334) subtl (1.535876) bitch (1.508683) island (1.504597) perform (1.422192) 300 (1.415150) fianc (1.401938) arugula (1.350365) self (1.336636) 
hanni (1.621311) fear (1.521675) pate (1.424080) fortun (1.421809) vig (1.419166) scale (1.389323) cornish (1.357390) lux (1.321335) gluten (1.318143) oregon (1.312772) 
Error (train/valid/test) = 0.642200/1.380814/1.375926 (0.024210)
..................................................
energy after gradient step = 99965142.408370

Top words for each topic:
1030 (1.424025) manner (1.376577) spill (1.343995) sprinkl (1.318685) sticki (1.300312) los (1.296947) shadi (1.279022) el (1.275445) feet (1.257527) dope (1.253229) 
rehab (1.642439) charact (1.495447) 52 (1.409770) hookah (1.398591) purchas (1.368605) contact (1.330749) chorizo (1.311940) corona (1.286499) film (1.276175) frisco (1.272831) 
golf (1.600750) casey (1.565885) rub (1.489704) bubbl (1.446947) applebe (1.386733) moor (1.377326) chines (1.363696) maintain (1.308083) airport (1.267873) evo (1.264726) 
cheuvront (1.830293) chimichanga (1.809465) subtl (1.540096) island (1.530882) bitch (1.451803) perform (1.412075) 300 (1.405069) crudo (1.402885) enchilada (1.393046) self (1.369683) 
hanni (1.684049) fear (1.499799) cornish (1.459965) scale (1.445936) gluten (1.401793) pate (1.397493) angel (1.370161) vig (1.358050) lux (1.346655) lamp (1.343935) 
Error (train/valid/test) = 0.622899/1.385113/1.379854 (0.024471)
..................................................
energy after gradient step = 99920776.381786

Top words for each topic:
1030 (1.500651) manner (1.422638) bikini (1.411740) shadi (1.379300) el (1.368601) spill (1.367861) los (1.362561) ra (1.305088) dope (1.302626) ballroom (1.299891) 
rehab (1.683510) charact (1.489320) brat (1.481139) 52 (1.443172) delux (1.430024) hookah (1.418200) chorizo (1.407429) film (1.397935) pineappl (1.381805) durant (1.365736) 
casey (1.752022) rub (1.601231) golf (1.592364) applebe (1.538610) moor (1.486131) bubbl (1.388134) chines (1.387983) lower (1.370534) mission (1.327916) maintain (1.318231) 
cheuvront (1.828485) chimichanga (1.775719) subtl (1.564603) bitch (1.554841) perform (1.525003) enchilada (1.520580) island (1.506194) 300 (1.488778) crudo (1.447319) discuss (1.430277) 
hanni (1.729051) lux (1.623561) fear (1.561675) cornish (1.494907) vig (1.481402) scale (1.433266) pate (1.404660) gluten (1.348027) angel (1.342774) tail (1.317903) 
Error (train/valid/test) = 0.603350/1.389216/1.384603 (0.024415)
..................................................
energy after gradient step = 99875583.751679

Top words for each topic:
shadi (1.580485) 1030 (1.538762) bikini (1.478391) manner (1.437817) spill (1.434780) los (1.419166) ra (1.407898) crescent (1.404079) ballroom (1.391354) el (1.332766) 
rehab (1.799074) delux (1.600035) hookah (1.585645) 52 (1.521407) charact (1.471049) film (1.469829) durant (1.452621) brat (1.398706) chorizo (1.352660) child (1.324284) 
casey (1.705356) golf (1.632812) rub (1.551445) moor (1.523361) mission (1.461057) chines (1.434890) applebe (1.413836) bubbl (1.391633) lower (1.334946) maintain (1.331391) 
cheuvront (1.861952) chimichanga (1.801300) island (1.637806) bitch (1.571084) enchilada (1.536831) perform (1.511880) arugula (1.499783) subtl (1.491349) crudo (1.483226) adob (1.479604) 
hanni (1.780789) lux (1.682936) cornish (1.649061) fear (1.596751) pasti (1.520520) vig (1.473656) gluten (1.429782) pate (1.413469) scale (1.407650) fleme (1.393645) 
Error (train/valid/test) = 0.586120/1.394213/1.389383 (0.024319)
..................................................
energy after gradient step = 99823012.814637

Top words for each topic:
bikini (1.559496) shadi (1.557309) ballroom (1.477882) 1030 (1.476658) los (1.469782) manner (1.460283) ra (1.419009) spill (1.409637) crescent (1.389048) el (1.377814) 
rehab (1.877032) delux (1.830136) hookah (1.585693) 52 (1.553660) film (1.524075) brat (1.513952) chorizo (1.491621) durant (1.483700) charact (1.443847) hash (1.314094) 
casey (1.773139) golf (1.630624) rub (1.587570) moor (1.549092) applebe (1.524624) mission (1.484664) chines (1.460557) bubbl (1.396149) maintain (1.390464) lower (1.361512) 
cheuvront (1.899552) chimichanga (1.861141) enchilada (1.629104) bitch (1.596708) island (1.569327) adob (1.530673) subtl (1.530254) crudo (1.526250) arugula (1.523357) 300 (1.488556) 
lux (1.931537) hanni (1.876036) pasti (1.813073) cornish (1.679486) vig (1.594843) fear (1.579910) fleme (1.497360) gluten (1.448476) tail (1.414414) laptop (1.395496) 
Error (train/valid/test) = 0.574576/1.397494/1.392322 (0.024444)
..................................................
energy after gradient step = 99768035.740909

Top words for each topic:
shadi (1.635156) bikini (1.555769) ballroom (1.541040) spill (1.522625) sushi (1.506132) crescent (1.502296) 1030 (1.498031) los (1.489382) venu (1.446433) genuin (1.359829) 
delux (1.972628) rehab (1.876976) hookah (1.623804) film (1.623074) brat (1.600194) chorizo (1.556683) durant (1.555317) 52 (1.548514) fez (1.499905) charact (1.465983) 
casey (1.881198) golf (1.719946) rub (1.682835) applebe (1.651952) moor (1.618186) hooter (1.547112) mission (1.531468) zipp (1.505244) asu (1.439928) evo (1.429710) 
cheuvront (1.931504) chimichanga (1.839302) enchilada (1.808822) crudo (1.639772) adob (1.622493) island (1.601011) carlsbad (1.583927) subtl (1.583094) bitch (1.561183) perform (1.539802) 
pasti (2.104749) hanni (2.045540) lux (1.974967) cornish (1.880630) fear (1.536321) pocket (1.526915) gluten (1.514732) latt (1.512084) fleme (1.511476) vig (1.479266) 
Error (train/valid/test) = 0.557702/1.402088/1.398444 (0.024599)
..................................................
energy after gradient step = 99697482.138627

Top words for each topic:
shadi (1.660352) sushi (1.640591) crescent (1.596155) ballroom (1.579799) spill (1.575767) bikini (1.572894) venu (1.518153) 1030 (1.505975) los (1.467624) coach (1.359167) 
delux (2.028087) rehab (1.869934) hookah (1.718620) durant (1.694960) film (1.685963) fez (1.683323) chorizo (1.620726) brat (1.613993) 52 (1.580556) aioli (1.551306) 
casey (1.961810) golf (1.807316) applebe (1.680525) rub (1.658614) moor (1.654437) mission (1.584730) hooter (1.519785) evo (1.511077) zipp (1.504036) maintain (1.449987) 
cheuvront (1.948233) enchilada (1.890274) chimichanga (1.837460) crudo (1.671631) subtl (1.649487) adob (1.639802) carlsbad (1.617988) island (1.607725) bitch (1.602359) bocca (1.572554) 
pasti (2.340674) lux (2.233138) hanni (1.963758) cornish (1.911404) vig (1.622602) fleme (1.621824) latt (1.605442) pocket (1.586478) gluten (1.573074) fear (1.570177) 
Error (train/valid/test) = 0.554824/1.412623/1.409808 (0.025810)
..................................................
energy after gradient step = 99622146.933237

Top words for each topic:
sushi (1.856422) venu (1.682282) crescent (1.672018) shadi (1.666573) spill (1.647505) bikini (1.645295) ballroom (1.631702) 1030 (1.558656) los (1.502860) ra (1.440196) 
delux (2.173428) rehab (1.977824) fez (1.883399) brat (1.773750) durant (1.770196) film (1.718337) hookah (1.689672) chorizo (1.668429) 52 (1.594699) aioli (1.576695) 
casey (2.047539) golf (1.858103) applebe (1.749785) moor (1.714302) mission (1.698077) hooter (1.677701) rub (1.657855) zipp (1.649017) asu (1.568897) airport (1.527549) 
cheuvront (1.921353) enchilada (1.892054) chimichanga (1.872890) adob (1.781439) bocca (1.740359) carlsbad (1.669737) crudo (1.664992) island (1.656221) subtl (1.644766) bitch (1.586931) 
pasti (2.548487) lux (2.191750) hanni (2.077294) cornish (1.949362) coffe (1.782507) fleme (1.737147) latt (1.708664) vig (1.672647) pastri (1.632760) pocket (1.596088) 
Error (train/valid/test) = 0.539690/1.410430/1.406673 (0.024596)
..................................................
energy after gradient step = 99527268.686674

Top words for each topic:
sushi (1.977101) venu (1.812805) crescent (1.709117) bikini (1.699255) shadi (1.694398) ballroom (1.671561) ra (1.580220) 1030 (1.570620) spill (1.552165) los (1.528187) 
delux (2.178208) rehab (2.019766) fez (2.019412) durant (1.833327) brat (1.806130) hookah (1.753848) film (1.726139) aioli (1.688528) chorizo (1.673208) 52 (1.642105) 
casey (2.092707) golf (1.929407) applebe (1.777153) moor (1.759122) zipp (1.732354) mission (1.724431) hooter (1.714993) rub (1.613820) airport (1.584776) asu (1.580847) 
enchilada (2.105251) cheuvront (1.964418) chimichanga (1.942034) bocca (1.876132) adob (1.836843) carlsbad (1.719433) island (1.714414) crudo (1.709067) subtl (1.646784) arugula (1.628978) 
pasti (2.748601) lux (2.414022) hanni (2.156063) cornish (2.038445) coffe (1.990962) latt (1.824142) fleme (1.757490) pastri (1.738198) vig (1.727792) pocket (1.623326) 
Error (train/valid/test) = 0.531914/1.414898/1.410861 (0.024539)
..................................................
energy after gradient step = 99407446.011111

Top words for each topic:
sushi (2.119916) venu (1.981398) shadi (1.787943) crescent (1.747827) bikini (1.726093) ballroom (1.686550) ra (1.663673) postino (1.632448) coach (1.556467) spill (1.545117) 
delux (2.424859) fez (2.297186) rehab (2.068549) brat (1.958804) durant (1.899934) hookah (1.801946) aioli (1.712705) film (1.710070) bun (1.700206) 52 (1.682183) 
casey (2.172144) golf (2.003314) zipp (1.923953) mission (1.842303) moor (1.808903) hooter (1.806655) applebe (1.761242) buffet (1.699660) asu (1.651116) evo (1.629945) 
enchilada (2.163223) cheuvront (2.011994) chimichanga (1.979699) bocca (1.975595) adob (1.914776) crudo (1.831828) carlsbad (1.807823) salsa (1.712830) chile (1.704176) island (1.687860) 
pasti (2.926189) lux (2.382964) coffe (2.229523) cornish (2.189552) hanni (2.164367) fleme (1.923129) vig (1.900214) latt (1.860910) pastri (1.855129) pocket (1.765715) 
Error (train/valid/test) = 0.523479/1.421421/1.418160 (0.024504)
..................................................
energy after gradient step = 99272091.760621

Top words for each topic:
sushi (2.312678) venu (2.037940) shadi (1.823318) bikini (1.800266) crescent (1.776837) ra (1.735611) postino (1.723027) ballroom (1.715411) los (1.564675) roll (1.560455) 
fez (2.414120) delux (2.407872) rehab (2.079400) brat (2.022613) durant (1.918397) hookah (1.841408) aioli (1.777294) film (1.758707) chorizo (1.750654) 52 (1.738955) 
casey (2.245783) golf (2.033360) zipp (1.968720) mission (1.873923) moor (1.848315) hooter (1.839583) applebe (1.790737) buffet (1.731207) airport (1.662846) asu (1.659737) 
enchilada (2.235334) cheuvront (2.056547) bocca (2.038949) chimichanga (2.003096) adob (1.952932) crudo (1.868269) carlsbad (1.857635) salsa (1.800235) chile (1.758812) island (1.710555) 
pasti (3.043044) lux (2.552164) coffe (2.445163) hanni (2.239833) cornish (2.231281) vig (1.981017) pastri (1.932473) fleme (1.901126) latt (1.898435) pocket (1.813108) 
Error (train/valid/test) = 0.517407/1.420908/1.418257 (0.025116)
..................................................
energy after gradient step = 99115739.984224

Top words for each topic:
sushi (2.444734) venu (2.034316) postino (1.925528) crescent (1.847195) shadi (1.832201) bikini (1.777904) ra (1.769269) ballroom (1.747219) roll (1.667721) spill (1.630891) 
delux (2.520846) fez (2.454873) brat (2.133754) rehab (2.106302) durant (2.071020) burger (1.984079) hookah (1.858461) aioli (1.851012) film (1.819188) bun (1.790943) 
casey (2.207884) golf (2.062019) zipp (2.027057) hooter (1.888934) mission (1.857896) moor (1.845138) applebe (1.828698) buffet (1.746516) pub (1.704962) airport (1.698598) 
enchilada (2.313118) bocca (2.087921) cheuvront (2.072304) chimichanga (2.027653) salsa (1.977802) adob (1.952582) crudo (1.927151) carlsbad (1.888888) chile (1.762936) subtl (1.676019) 
pasti (3.136803) lux (2.612642) coffe (2.563236) cornish (2.298012) hanni (2.278935) pastri (2.070887) vig (1.988178) latt (1.985116) fleme (1.949993) pocket (1.839127) 
Error (train/valid/test) = 0.515139/1.423908/1.420726 (0.025150)
..................................................
energy after gradient step = 98923827.241597

Top words for each topic:
sushi (2.541702) venu (2.162965) postino (1.991831) crescent (1.870011) shadi (1.862230) ra (1.822385) roll (1.805636) bikini (1.798547) ballroom (1.769886) spill (1.620350) 
fez (2.521837) delux (2.503141) burger (2.254994) brat (2.191895) rehab (2.120183) durant (2.089589) bun (1.868618) aioli (1.854026) film (1.842254) switch (1.797373) 
casey (2.263497) zipp (2.103944) golf (2.091538) hooter (1.950962) mission (1.896556) moor (1.893160) applebe (1.871345) buffet (1.789381) pub (1.764035) airport (1.741241) 
enchilada (2.400039) bocca (2.180460) salsa (2.117787) cheuvront (2.076425) chimichanga (2.059512) adob (2.027520) crudo (2.002918) carlsbad (1.949341) chile (1.921231) mexican (1.885034) 
pasti (3.217636) coffe (2.713835) lux (2.667876) cornish (2.354000) hanni (2.326129) pastri (2.138835) latt (2.039199) vig (2.024768) fleme (1.964943) pocket (1.865454) 
Error (train/valid/test) = 0.514610/1.425107/1.422081 (0.025184)
..................................................
energy after gradient step = 98693507.361077

Top words for each topic:
sushi (2.632848) venu (2.229785) postino (2.166529) shadi (1.935529) roll (1.933921) crescent (1.900171) ra (1.862408) bikini (1.814294) ballroom (1.788213) band (1.736649) 
fez (2.611207) delux (2.576728) burger (2.543347) brat (2.222346) rehab (2.095223) durant (2.081000) bun (1.932540) aioli (1.912475) switch (1.846029) film (1.816189) 
casey (2.293638) zipp (2.154740) golf (2.121255) hooter (2.026650) applebe (1.946183) moor (1.923558) mission (1.916957) pub (1.852063) airport (1.835384) buffet (1.801884) 
enchilada (2.394068) bocca (2.247927) salsa (2.198848) cheuvront (2.125453) chimichanga (2.116669) adob (2.112046) mexican (2.085911) chile (2.064869) crudo (2.049532) carlsbad (2.025686) 
pasti (3.315078) coffe (2.849543) lux (2.783393) cornish (2.404256) hanni (2.379074) pastri (2.155911) vig (2.148362) latt (2.076448) fleme (1.971089) pocket (1.897656) 
Error (train/valid/test) = 0.514865/1.427186/1.424333 (0.025227)
..................................................
energy after gradient step = 98424190.289577

Top words for each topic:
sushi (2.758435) venu (2.327081) postino (2.319651) roll (2.012515) shadi (1.961895) crescent (1.945490) ra (1.931317) band (1.904115) bikini (1.900021) ballroom (1.833009) 
burger (2.800535) fez (2.675641) delux (2.592300) brat (2.258063) durant (2.166350) rehab (2.142103) bun (1.993095) aioli (1.959566) switch (1.879952) chorizo (1.825030) 
casey (2.330670) zipp (2.232101) golf (2.199734) hooter (2.111794) pub (1.983062) applebe (1.958542) moor (1.953039) irish (1.914603) mission (1.907900) airport (1.901756) 
enchilada (2.601822) salsa (2.392779) bocca (2.391802) mexican (2.291070) adob (2.216161) cheuvront (2.198857) chile (2.188183) crudo (2.158856) carlsbad (2.124191) chimichanga (2.103462) 
pasti (3.437981) coffe (2.941342) lux (2.845324) cornish (2.460452) hanni (2.431241) pastri (2.336367) vig (2.204542) latt (2.141206) fleme (2.070294) crust (2.032122) 
Error (train/valid/test) = 0.516275/1.431277/1.427071 (0.024926)
..................................................
energy after gradient step = 98107286.221129

Top words for each topic:
sushi (2.961556) postino (2.493018) venu (2.462923) shadi (2.096102) roll (2.095876) crescent (2.088065) ra (2.031365) band (2.007051) bikini (1.997070) dive (1.985267) 
burger (3.082354) fez (2.803081) delux (2.705244) brat (2.317631) durant (2.234907) rehab (2.141447) bun (2.114920) potato (1.994167) steak (1.983924) aioli (1.982624) 
zipp (2.395917) casey (2.387350) golf (2.196855) hooter (2.180098) irish (2.158857) pub (2.147271) applebe (2.046264) moor (2.025469) tvs (1.995670) buffet (1.993942) 
enchilada (2.661372) salsa (2.566151) bocca (2.556641) mexican (2.548126) chile (2.327758) crudo (2.296134) adob (2.258988) cheuvront (2.235652) carlsbad (2.220094) chimichanga (2.203880) 
pasti (3.615301) coffe (3.120618) lux (3.003027) cornish (2.617519) hanni (2.560839) pastri (2.481210) vig (2.330956) latt (2.307248) fleme (2.188126) crust (2.187831) 
Error (train/valid/test) = 0.512591/1.434859/1.429254 (0.025691)
..................................................
energy after gradient step = 97715062.341419

Top words for each topic:
sushi (3.081582) postino (2.631602) venu (2.618058) roll (2.155894) shadi (2.137933) band (2.135823) dive (2.115834) bikini (2.105210) ra (2.084797) crescent (2.084199) 
burger (3.246301) fez (2.855641) delux (2.729129) brat (2.420492) durant (2.301542) bun (2.200958) potato (2.183752) rehab (2.174825) steak (2.114599) aioli (2.091666) 
casey (2.480771) zipp (2.464535) hooter (2.372026) irish (2.345065) pub (2.244301) golf (2.226335) sport (2.208521) tvs (2.192845) applebe (2.156029) buffalo (2.094448) 
enchilada (2.870034) salsa (2.717032) mexican (2.697178) bocca (2.597095) chile (2.484736) crudo (2.394344) carn (2.369990) adob (2.328217) cheuvront (2.323843) carlsbad (2.271639) 
pasti (3.724991) coffe (3.231933) lux (3.096852) cornish (2.676529) hanni (2.605692) pastri (2.578508) vig (2.399647) latt (2.365520) crust (2.350878) fleme (2.201646) 
Error (train/valid/test) = 0.514397/1.436264/1.430098 (0.025656)
..................................................
energy after gradient step = 97284536.586462

Top words for each topic:
sushi (3.150854) postino (2.720136) venu (2.601563) band (2.289602) dive (2.262854) roll (2.251050) shadi (2.183320) bruschetta (2.147075) ra (2.144975) crescent (2.139624) 
burger (3.322679) fez (2.861999) delux (2.707926) brat (2.401230) durant (2.302022) potato (2.227963) bun (2.204315) steak (2.189647) rehab (2.168776) sweet (2.138812) 
zipp (2.480461) casey (2.468398) irish (2.444279) hooter (2.375192) sport (2.374810) pub (2.356231) tvs (2.340342) golf (2.278512) applebe (2.154199) buffalo (2.096372) 
enchilada (2.877345) salsa (2.860976) mexican (2.844448) bocca (2.712487) chile (2.573827) carn (2.483386) crudo (2.420640) adob (2.394703) carlsbad (2.349159) cheuvront (2.339516) 
pasti (3.823086) coffe (3.364564) lux (3.163646) cornish (2.750174) hanni (2.680343) pastri (2.574641) vig (2.466172) crust (2.430337) latt (2.414000) pie (2.221489) 
Error (train/valid/test) = 0.518502/1.436636/1.429319 (0.025508)
..................................................
energy after gradient step = 96860144.632123

Top words for each topic:
sushi (3.204259) postino (2.787630) venu (2.699458) band (2.417183) dive (2.381674) bruschetta (2.264358) roll (2.262187) shadi (2.212520) crescent (2.206202) ra (2.170834) 
burger (3.423509) fez (2.873421) delux (2.748600) brat (2.390361) potato (2.298044) steak (2.278721) durant (2.263752) bun (2.233219) sweet (2.212122) rehab (2.166902) 
zipp (2.560539) sport (2.517524) irish (2.514584) casey (2.499652) tvs (2.466815) hooter (2.412143) pub (2.366052) wing (2.351463) golf (2.291361) applebe (2.236754) 
salsa (2.999031) enchilada (2.983736) mexican (2.970631) bocca (2.799872) chile (2.634156) carn (2.611643) adob (2.475382) crudo (2.470358) carlsbad (2.408246) cheuvront (2.405539) 
pasti (3.892470) coffe (3.463555) lux (3.242519) cornish (2.823646) hanni (2.746442) pastri (2.682065) crust (2.515070) vig (2.511771) latt (2.484708) pie (2.300539) 
Error (train/valid/test) = 0.523358/1.436823/1.428208 (0.025412)
..................................................
energy after gradient step = 96388906.841400

Top words for each topic:
sushi (3.271650) postino (2.854728) venu (2.746630) band (2.539959) dive (2.464725) roll (2.314175) shadi (2.277368) bruschetta (2.264800) crescent (2.243540) ra (2.227566) 
burger (3.503909) fez (2.892844) delux (2.735346) brat (2.437207) potato (2.389316) steak (2.386218) durant (2.303012) sweet (2.271683) bun (2.230681) rehab (2.155266) 
sport (2.694008) wing (2.631613) zipp (2.598699) irish (2.567777) tvs (2.566440) casey (2.527142) pub (2.465451) hooter (2.452839) golf (2.301495) game (2.238633) 
mexican (3.137346) salsa (3.135041) enchilada (3.082331) bocca (2.878628) chile (2.739914) carn (2.720869) crudo (2.553176) adob (2.550516) cheuvront (2.491041) carlsbad (2.487009) 
pasti (3.976492) coffe (3.564265) lux (3.311557) cornish (2.889562) hanni (2.843674) pastri (2.742939) crust (2.616336) vig (2.567871) latt (2.551126) pie (2.404375) 
Error (train/valid/test) = 0.527741/1.437036/1.427843 (0.025461)
..................................................
energy after gradient step = 95893197.198095

Top words for each topic:
sushi (3.352779) postino (2.964455) venu (2.862571) band (2.701681) dive (2.625491) danc (2.450283) bruschetta (2.397054) shadi (2.322908) crescent (2.283697) bikini (2.278802) 
burger (3.568312) fez (2.930012) delux (2.794959) steak (2.511563) potato (2.462096) brat (2.421420) sweet (2.367401) durant (2.319123) bun (2.236883) rehab (2.133155) 
wing (2.973680) sport (2.892466) tvs (2.697653) zipp (2.653200) irish (2.646983) pub (2.563889) casey (2.527953) hooter (2.516712) game (2.475809) golf (2.312171) 
salsa (3.326634) mexican (3.289486) enchilada (3.165113) bocca (2.980734) chile (2.851886) carn (2.808124) adob (2.656545) crudo (2.617412) cheuvront (2.598573) carlsbad (2.576778) 
pasti (4.073124) coffe (3.686577) lux (3.422606) cornish (3.005813) pastri (2.906887) hanni (2.892835) crust (2.790177) vig (2.691491) latt (2.669480) brew (2.526421) 
Error (train/valid/test) = 0.531825/1.439514/1.429691 (0.025842)
..................................................
energy after gradient step = 95344402.613841

Top words for each topic:
sushi (3.384606) postino (3.031001) venu (2.896460) band (2.800055) dive (2.758912) danc (2.601610) bruschetta (2.366588) shadi (2.363155) stage (2.338451) crescent (2.331210) 
burger (3.514207) fez (2.957333) delux (2.785489) steak (2.591325) potato (2.546955) brat (2.456521) sweet (2.415470) durant (2.329509) bun (2.257023) filet (2.149919) 
wing (3.141294) sport (3.011597) tvs (2.805122) irish (2.718283) zipp (2.703157) game (2.620033) pub (2.612887) casey (2.547642) hooter (2.526675) golf (2.332868) 
salsa (3.477501) mexican (3.438327) enchilada (3.293529) bocca (3.092953) carn (3.015065) chile (2.928934) margarita (2.738425) adob (2.724115) crudo (2.695933) burrito (2.681363) 
pasti (4.175696) coffe (3.784968) lux (3.498982) cornish (3.069676) hanni (2.974524) pastri (2.932851) crust (2.846304) vig (2.780159) latt (2.738733) pie (2.646826) 
Error (train/valid/test) = 0.533263/1.438902/1.428923 (0.025618)
..................................................
energy after gradient step = 94821293.143250

Top words for each topic:
sushi (3.442465) postino (3.069912) venu (2.973562) band (2.954726) dive (2.890924) danc (2.845258) stage (2.459010) shadi (2.453371) bruschetta (2.449524) bikini (2.438643) 
burger (3.638146) fez (3.017897) delux (2.834992) steak (2.681450) potato (2.650417) brat (2.507306) sweet (2.480883) durant (2.378547) bun (2.292635) dessert (2.231030) 
wing (3.404322) sport (3.213013) game (2.957985) tvs (2.952346) irish (2.866341) zipp (2.730976) pub (2.664818) hooter (2.585041) casey (2.578617) footbal (2.380697) 
salsa (3.628261) mexican (3.593649) enchilada (3.438149) bocca (3.222966) carn (3.159221) chile (3.029254) burrito (2.920618) adob (2.917688) taco (2.900582) margarita (2.872511) 
pasti (4.267638) coffe (3.898163) lux (3.611476) cornish (3.230712) hanni (3.093780) pastri (3.035436) crust (2.953463) vig (2.918274) latt (2.867407) brew (2.751397) 
Error (train/valid/test) = 0.525769/1.442121/1.432174 (0.025650)
..................................................
energy after gradient step = 94302982.372274

Top words for each topic:
sushi (3.469096) postino (3.146883) band (3.053043) danc (3.042891) venu (3.038816) dive (2.986146) stage (2.594064) bruschetta (2.483693) shadi (2.474821) bikini (2.445744) 
burger (3.600629) fez (3.044209) delux (2.865627) steak (2.772062) potato (2.743294) brat (2.537376) sweet (2.504167) durant (2.388799) dessert (2.342775) bun (2.329796) 
wing (3.601285) sport (3.328688) game (3.130483) tvs (3.037834) irish (2.918356) zipp (2.826123) pub (2.693525) hooter (2.626862) casey (2.616424) footbal (2.492750) 
salsa (3.750854) mexican (3.725582) enchilada (3.530524) carn (3.396028) bocca (3.367198) chile (3.119123) burrito (3.089910) taco (3.076811) margarita (3.013427) adob (3.012496) 
pasti (4.366474) coffe (4.010008) lux (3.716657) cornish (3.283369) pastri (3.183816) hanni (3.175160) crust (3.085446) vig (3.073454) latt (2.944643) brew (2.866843) 
Error (train/valid/test) = 0.521580/1.444958/1.434563 (0.025888)
..................................................
energy after gradient step = 93840409.072557

Top words for each topic:
sushi (3.545892) postino (3.198063) danc (3.170725) band (3.139085) venu (3.100685) dive (3.065072) stage (2.644868) club (2.561789) shadi (2.535527) bikini (2.525983) 
burger (3.590011) fez (3.076330) delux (2.884111) potato (2.814932) steak (2.808064) brat (2.550152) sweet (2.508448) durant (2.425593) dessert (2.375517) filet (2.326912) 
wing (3.659197) sport (3.426280) game (3.255978) tvs (3.129938) irish (2.934324) zipp (2.803333) hooter (2.712751) pub (2.682973) casey (2.610113) footbal (2.550763) 
salsa (3.937973) mexican (3.921840) enchilada (3.663166) carn (3.517948) bocca (3.468327) taco (3.263097) chile (3.229960) burrito (3.227703) margarita (3.222114) adob (3.097660) 
pasti (4.490091) coffe (4.093596) lux (3.801519) cornish (3.373591) hanni (3.213751) pastri (3.201359) crust (3.164157) vig (3.131590) latt (3.044879) brew (3.009915) 
Error (train/valid/test) = 0.520881/1.445313/1.435594 (0.025836)
..................................................
energy after gradient step = 93443491.394957

Top words for each topic:
sushi (3.556419) danc (3.306333) postino (3.233455) band (3.231296) dive (3.162413) venu (3.144483) stage (2.704248) dj (2.668416) bikini (2.600115) club (2.594117) 
burger (3.580443) fez (3.104221) delux (2.919373) potato (2.892445) steak (2.840079) brat (2.582488) sweet (2.519366) durant (2.446880) dessert (2.436421) filet (2.366936) 
wing (3.768396) sport (3.488733) game (3.320603) tvs (3.185373) irish (2.978070) zipp (2.891627) hooter (2.690355) pub (2.681858) footbal (2.618812) casey (2.615934) 
mexican (4.050045) salsa (4.037094) enchilada (3.721070) carn (3.623134) bocca (3.565546) taco (3.410641) margarita (3.330311) burrito (3.313304) chile (3.285846) adob (3.196145) 
pasti (4.568590) coffe (4.197095) lux (3.876707) cornish (3.436390) pastri (3.300931) hanni (3.296867) crust (3.266587) vig (3.210857) breweri (3.173124) brew (3.162824) 
Error (train/valid/test) = 0.519325/1.447523/1.436775 (0.025903)
..................................................
energy after gradient step = 93049107.182083

Top words for each topic:
sushi (3.607750) danc (3.391650) band (3.269346) postino (3.266873) dive (3.254179) venu (3.198559) stage (2.802005) club (2.760100) dj (2.723337) shadi (2.634249) 
burger (3.562990) fez (3.131058) potato (2.950731) delux (2.934446) steak (2.890656) brat (2.605421) sweet (2.551911) dessert (2.449844) durant (2.443767) filet (2.397257) 
wing (3.807128) sport (3.541595) game (3.397280) tvs (3.223124) irish (2.997111) zipp (2.848068) pub (2.706888) hooter (2.701822) casey (2.628029) footbal (2.619278) 
mexican (4.162896) salsa (4.150892) enchilada (3.877539) carn (3.729200) bocca (3.673847) taco (3.596347) margarita (3.468802) burrito (3.464887) asada (3.394817) chile (3.392951) 
pasti (4.633459) coffe (4.274191) lux (3.938483) cornish (3.513397) hanni (3.372947) pastri (3.359781) crust (3.358739) breweri (3.333825) vig (3.275933) brew (3.226559) 
Error (train/valid/test) = 0.515769/1.450030/1.438515 (0.026020)
..................................................
energy after gradient step = 92724900.624679

Top words for each topic:
sushi (3.652098) danc (3.524608) band (3.359749) dive (3.316458) postino (3.305930) venu (3.213028) club (2.852369) dj (2.835379) stage (2.807921) shadi (2.687238) 
burger (3.528851) fez (3.136413) potato (3.004872) delux (2.963087) steak (2.954211) brat (2.606801) sweet (2.526640) durant (2.503867) dessert (2.472380) filet (2.430987) 
wing (3.896171) sport (3.592661) game (3.456931) tvs (3.250430) irish (3.009755) zipp (2.897498) hooter (2.747505) pub (2.700282) footbal (2.685749) casey (2.595872) 
salsa (4.283924) mexican (4.255743) enchilada (3.940600) carn (3.838049) taco (3.814539) bocca (3.765727) burrito (3.561784) margarita (3.546801) asada (3.438171) chile (3.398906) 
pasti (4.682990) coffe (4.339425) lux (3.991814) cornish (3.545460) hanni (3.422996) pastri (3.391079) crust (3.388058) breweri (3.387154) vig (3.320437) brew (3.319161) 
Error (train/valid/test) = 0.513522/1.452487/1.439372 (0.025920)
..................................................
energy after gradient step = 92410110.112503

Top words for each topic:
sushi (3.670135) danc (3.656769) band (3.395164) dive (3.393622) postino (3.356213) venu (3.268137) dj (2.923943) stage (2.917201) club (2.908101) shadi (2.716602) 
burger (3.466730) fez (3.181084) potato (3.048118) steak (3.033613) delux (3.002223) brat (2.690336) dessert (2.540925) sweet (2.516148) filet (2.509233) durant (2.477527) 
wing (3.987518) sport (3.680891) game (3.542628) tvs (3.317338) irish (3.075794) zipp (2.885591) footbal (2.761653) hooter (2.736913) pub (2.678041) casey (2.598274) 
mexican (4.365339) salsa (4.350822) taco (4.075074) enchilada (4.062125) carn (3.949891) bocca (3.852783) burrito (3.661751) margarita (3.633231) asada (3.630442) chile (3.533021) 
pasti (4.743552) coffe (4.392105) lux (4.032702) cornish (3.616787) breweri (3.519630) hanni (3.480318) crust (3.476934) pastri (3.451521) peak (3.375137) brew (3.367348) 
Error (train/valid/test) = 0.506687/1.455342/1.441914 (0.025910)
..................................................
energy after gradient step = 92119124.920113

Top words for each topic:
danc (3.733626) sushi (3.664737) dive (3.452279) band (3.444794) postino (3.379586) venu (3.298657) dj (3.024581) stage (2.955277) club (2.952845) bikini (2.781774) 
burger (3.416486) fez (3.227439) steak (3.065794) potato (3.065231) delux (3.021054) brat (2.658573) dessert (2.589080) durant (2.559701) filet (2.520089) dish (2.513488) 
wing (4.060165) sport (3.704913) game (3.581729) tvs (3.357980) irish (3.118876) zipp (2.944023) hooter (2.792679) footbal (2.774299) pub (2.664472) buffalo (2.645506) 
mexican (4.450766) salsa (4.417828) taco (4.225377) enchilada (4.119511) carn (4.073970) bocca (3.920788) burrito (3.787993) margarita (3.741167) asada (3.674347) crudo (3.545987) 
pasti (4.790025) coffe (4.446810) lux (4.077977) cornish (3.644294) breweri (3.606336) crust (3.520137) pastri (3.507949) hanni (3.504306) vig (3.455741) peak (3.454515) 
Error (train/valid/test) = 0.500767/1.458639/1.446514 (0.026452)
..................................................
energy after gradient step = 91862813.943208

Top words for each topic:
danc (3.901867) sushi (3.649754) dive (3.529561) band (3.506350) postino (3.349670) venu (3.337454) dj (3.133900) stage (3.024907) club (2.992218) bikini (2.888155) 
burger (3.463783) fez (3.271234) steak (3.150278) delux (3.086808) potato (3.061420) brat (2.714202) dessert (2.710452) filet (2.627636) rib (2.606846) durant (2.605218) 
wing (4.170825) sport (3.799426) game (3.686832) tvs (3.433845) irish (3.199836) zipp (2.961147) footbal (2.860065) hooter (2.809050) buffalo (2.688352) pub (2.652403) 
mexican (4.544919) salsa (4.504326) taco (4.426994) enchilada (4.234667) carn (4.171460) bocca (4.036138) burrito (3.914502) asada (3.882930) margarita (3.855275) adob (3.657564) 
pasti (4.869750) coffe (4.543220) lux (4.159834) cornish (3.748288) breweri (3.690179) hanni (3.608426) crust (3.591782) pastri (3.589460) peak (3.562307) vig (3.528640) 
Error (train/valid/test) = 0.484367/1.464212/1.451428 (0.026277)
..................................................
energy after gradient step = 91623492.069103

Top words for each topic:
danc (4.013060) sushi (3.615582) dive (3.591092) band (3.541143) venu (3.376194) postino (3.346404) dj (3.235351) stage (3.086128) club (3.008588) bikini (2.924857) 
burger (3.473746) fez (3.306149) steak (3.169177) delux (3.120165) potato (3.074161) dessert (2.755591) brat (2.705707) filet (2.664376) durant (2.649530) dish (2.639251) 
wing (4.233478) sport (3.829733) game (3.720210) tvs (3.500946) irish (3.232739) zipp (3.010174) footbal (2.910019) hooter (2.857482) buffalo (2.689376) pub (2.666645) 
taco (4.624964) mexican (4.622907) salsa (4.567858) carn (4.253819) enchilada (4.242652) bocca (4.087905) burrito (3.957927) asada (3.944767) margarita (3.897420) crudo (3.722942) 
pasti (4.923906) coffe (4.585527) lux (4.221019) breweri (3.768939) cornish (3.736976) crust (3.651985) pastri (3.638413) peak (3.637955) hanni (3.627511) vig (3.614923) 
Error (train/valid/test) = 0.476674/1.468076/1.455369 (0.026444)
..................................................
energy after gradient step = 91389273.872174

Top words for each topic:
danc (4.122055) dive (3.644262) sushi (3.581190) band (3.542153) venu (3.401542) postino (3.333899) dj (3.293632) stage (3.151541) gay (3.021734) club (3.013896) 
burger (3.511836) fez (3.342133) steak (3.208817) delux (3.166968) potato (3.076278) dessert (2.786362) filet (2.749939) brat (2.729126) rib (2.694492) durant (2.672781) 
wing (4.287421) sport (3.888048) game (3.757808) tvs (3.552461) irish (3.276843) zipp (3.019247) footbal (2.975660) hooter (2.866369) buffalo (2.733542) pub (2.679457) 
taco (4.745010) mexican (4.706028) salsa (4.643266) enchilada (4.315381) carn (4.313794) bocca (4.140411) asada (4.095562) burrito (4.046658) margarita (3.976725) adob (3.777741) 
pasti (4.983727) coffe (4.646114) lux (4.258637) cornish (3.832048) breweri (3.823603) hanni (3.731655) peak (3.692304) pastri (3.682659) crust (3.655684) vig (3.615682) 
Error (train/valid/test) = 0.465459/1.473062/1.460733 (0.026575)
..................................................
energy after gradient step = 91159831.246216

Top words for each topic:
danc (4.180426) dive (3.679914) band (3.589248) sushi (3.505713) venu (3.454010) dj (3.390750) postino (3.306167) stage (3.162573) gay (3.088477) bikini (3.030754) 
burger (3.511471) fez (3.378977) steak (3.247095) delux (3.189673) potato (3.115200) dessert (2.820820) filet (2.782681) brat (2.751847) durant (2.730138) dish (2.715899) 
wing (4.319920) sport (3.922270) game (3.777008) tvs (3.595584) irish (3.294327) zipp (3.042295) footbal (2.998732) hooter (2.902850) buffalo (2.747548) pub (2.680666) 
taco (4.814207) mexican (4.760316) salsa (4.670463) carn (4.355664) enchilada (4.334400) bocca (4.192599) asada (4.143503) burrito (4.104539) margarita (4.038660) adob (3.801686) 
pasti (5.027739) coffe (4.678121) lux (4.297553) breweri (3.917801) cornish (3.840390) peak (3.740385) pastri (3.717401) hanni (3.705578) crust (3.703617) vig (3.692207) 
Error (train/valid/test) = 0.458437/1.476770/1.464062 (0.026662)
..................................................
energy after gradient step = 90974596.595295

Top words for each topic:
danc (4.262688) dive (3.728703) band (3.584120) dj (3.453062) venu (3.450600) sushi (3.402946) stage (3.253622) postino (3.238902) gay (3.174099) bikini (3.085194) 
burger (3.515560) fez (3.395356) steak (3.253268) delux (3.225189) potato (3.093272) dessert (2.871137) filet (2.832279) durant (2.744536) rib (2.742677) dish (2.740888) 
wing (4.344496) sport (3.950326) game (3.806991) tvs (3.631303) irish (3.317995) zipp (3.050212) footbal (3.034897) hooter (2.892220) buffalo (2.754801) trivia (2.675625) 
taco (4.811897) mexican (4.790314) salsa (4.708645) enchilada (4.369470) carn (4.365289) bocca (4.226454) asada (4.196522) burrito (4.150637) margarita (4.045042) bruschetta (3.846601) 
pasti (5.061708) coffe (4.693084) lux (4.330175) breweri (3.931198) cornish (3.902760) peak (3.787312) pastri (3.756087) hanni (3.744154) brew (3.700617) vig (3.671291) 
Error (train/valid/test) = 0.451194/1.480387/1.467724 (0.026752)
..................................................
energy after gradient step = 90825044.735901

Top words for each topic:
danc (4.345325) dive (3.753228) band (3.631777) dj (3.524677) venu (3.464152) sushi (3.352002) stage (3.311855) gay (3.230261) postino (3.159909) bikini (3.137098) 
burger (3.518524) fez (3.441055) delux (3.268041) steak (3.262958) potato (3.065933) dessert (2.920737) filet (2.887340) durant (2.810191) brat (2.791156) scallop (2.784831) 
wing (4.407540) sport (3.981422) game (3.875066) tvs (3.668884) irish (3.351740) zipp (3.075857) footbal (3.070143) hooter (2.932912) buffalo (2.764042) pub (2.676464) 
mexican (4.799426) taco (4.793525) salsa (4.753221) carn (4.410215) enchilada (4.377799) asada (4.279610) bocca (4.273971) burrito (4.150640) bruschetta (4.043389) margarita (4.025888) 
pasti (5.101306) coffe (4.725247) lux (4.370215) breweri (3.996265) cornish (3.917824) peak (3.825007) hanni (3.796721) pastri (3.771573) vig (3.763792) brew (3.738984) 
Error (train/valid/test) = 0.441595/1.484333/1.472501 (0.026856)
..................................................
energy after gradient step = 90658601.213928

Top words for each topic:
danc (4.458065) dive (3.812085) band (3.592410) dj (3.572956) venu (3.451994) stage (3.333074) gay (3.333016) sushi (3.241836) bikini (3.179807) club (3.162809) 
burger (3.526211) fez (3.491827) steak (3.295782) delux (3.291186) potato (3.111788) dessert (2.971008) filet (2.932163) durant (2.845657) scallop (2.825377) rib (2.792793) 
wing (4.466689) sport (4.036677) game (3.912289) tvs (3.711584) irish (3.375682) footbal (3.113322) zipp (3.092252) hooter (2.942680) buffalo (2.754617) trivia (2.704920) 
mexican (4.841947) taco (4.811858) salsa (4.777846) carn (4.472766) enchilada (4.371549) bruschetta (4.367038) asada (4.332046) bocca (4.306597) burrito (4.152300) margarita (4.050632) 
pasti (5.157209) coffe (4.740244) lux (4.419689) breweri (4.047221) cornish (3.991863) peak (3.885089) pastri (3.847051) brew (3.831973) hanni (3.816623) vig (3.787156) 
Error (train/valid/test) = 0.430174/1.489498/1.478849 (0.027069)
..................................................
energy after gradient step = 90561230.930677

Top words for each topic:
danc (4.485241) dive (3.795623) dj (3.639490) band (3.592904) venu (3.471310) gay (3.410109) stage (3.367390) club (3.211304) bikini (3.207778) film (3.116709) 
fez (3.536852) burger (3.519253) delux (3.349583) steak (3.245226) potato (3.087204) dessert (3.070494) filet (2.977301) durant (2.905485) scallop (2.882010) fleme (2.870331) 
wing (4.520075) sport (4.072103) game (3.935813) tvs (3.759757) irish (3.394515) footbal (3.143835) zipp (3.141880) hooter (2.994738) buffalo (2.790920) trivia (2.732891) 
mexican (4.854171) taco (4.768881) salsa (4.740637) bruschetta (4.524457) carn (4.403194) enchilada (4.343598) bocca (4.330164) asada (4.328963) burrito (4.124515) margarita (4.083717) 
pasti (5.184948) coffe (4.751539) lux (4.440132) breweri (4.111319) cornish (4.002597) hanni (3.889742) peak (3.879377) beer (3.864256) vig (3.861224) brew (3.837767) 
Error (train/valid/test) = 0.421798/1.493857/1.483788 (0.027199)
..................................................
energy after gradient step = 90470440.440068

Top words for each topic:
danc (4.546042) dive (3.848044) dj (3.734374) band (3.585051) venu (3.474341) gay (3.464576) stage (3.414949) bikini (3.255069) club (3.253285) djs (3.217574) 
fez (3.572898) burger (3.541011) delux (3.376422) steak (3.233615) potato (3.114298) dessert (3.087363) filet (3.022125) durant (2.949368) scallop (2.947882) fleme (2.925040) 
wing (4.581438) sport (4.156910) game (4.018380) tvs (3.826189) irish (3.437402) footbal (3.205100) zipp (3.161456) hooter (3.014007) buffalo (2.841545) trivia (2.792125) 
mexican (4.839302) taco (4.765063) bruschetta (4.719906) salsa (4.681429) asada (4.405594) carn (4.404039) enchilada (4.349605) bocca (4.332952) burrito (4.116834) margarita (4.070336) 
pasti (5.241018) coffe (4.785709) lux (4.505336) breweri (4.190502) cornish (4.058836) beer (3.956717) peak (3.932383) pastri (3.924712) brew (3.905159) ale (3.896374) 
Error (train/valid/test) = 0.409660/1.500932/1.491541 (0.027435)
